{
	"__comment": "Designed by ClauseWitz with Cubik Studio - https://cubik.studio",
	"textures": {
		"Axe_1": "model3d/axe_1"
	},
	"elements": [ 	 
		{
			"__comment": "Voxels",
			"from": [ 2, 20, 5 ],
			"to": [ 7, 23, 6 ],
			"faces": {
				"down": { "uv": [ 13.5, 15.5, 16, 16 ], "texture": "#Axe_1" },
				"up": { "uv": [ 13.5, 15.5, 16, 15 ], "texture": "#Axe_1" },
				"north": { "uv": [ 4.5, 13.5, 2, 15 ], "texture": "#Axe_1" },
				"south": { "uv": [ 4.5, 13.5, 7, 15 ], "texture": "#Axe_1" },
				"west": { "uv": [ 3.5, 6, 4, 7.5 ], "texture": "#Axe_1" },
				"east": { "uv": [ 5.5, 3.5, 5, 5 ], "texture": "#Axe_1" }
			}
		},
		{
			"__comment": "Voxels",
			"from": [ 2, 20, 7 ],
			"to": [ 7, 23, 8 ],
			"faces": {
				"down": { "uv": [ 5, 11.5, 7.5, 12 ], "texture": "#Axe_1" },
				"up": { "uv": [ 7.5, 12, 10, 11.5 ], "texture": "#Axe_1" },
				"north": { "uv": [ 9.5, 13.5, 7, 15 ], "texture": "#Axe_1" },
				"south": { "uv": [ 9.5, 13.5, 12, 15 ], "texture": "#Axe_1" },
				"west": { "uv": [ 5.5, 6, 6, 7.5 ], "texture": "#Axe_1" },
				"east": { "uv": [ 6, 4.5, 5.5, 6 ], "texture": "#Axe_1" }
			}
		},
		{
			"__comment": "Voxels",
			"from": [ 3, 2, 6 ],
			"to": [ 6, 3, 7 ],
			"faces": {
				"down": { "uv": [ 0.5, 0.5, 2, 1 ], "texture": "#Axe_1" },
				"up": { "uv": [ 0.5, 0.5, 2, 0 ], "texture": "#Axe_1" },
				"north": { "uv": [ 13, 10.5, 11.5, 11 ], "texture": "#Axe_1" },
				"south": { "uv": [ 9.5, 11, 11, 11.5 ], "texture": "#Axe_1" },
				"west": { "uv": [ 11.5, 12.5, 12, 13 ], "texture": "#Axe_1" },
				"east": { "uv": [ 16, 13, 15.5, 13.5 ], "texture": "#Axe_1" }
			}
		},
		{
			"__comment": "Voxels",
			"from": [ 3, 8, 6 ],
			"to": [ 6, 9, 7 ],
			"faces": {
				"down": { "uv": [ 11, 11, 12.5, 11.5 ], "texture": "#Axe_1" },
				"up": { "uv": [ 12.5, 11.5, 14, 11 ], "texture": "#Axe_1" },
				"north": { "uv": [ 15.5, 11, 14, 11.5 ], "texture": "#Axe_1" },
				"south": { "uv": [ 4, 10.5, 5.5, 11 ], "texture": "#Axe_1" },
				"west": { "uv": [ 15.5, 11, 16, 11.5 ], "texture": "#Axe_1" },
				"east": { "uv": [ 6, 0, 5.5, 0.5 ], "texture": "#Axe_1" }
			}
		},
		{
			"__comment": "Voxels",
			"from": [ 3, 10, 6 ],
			"to": [ 6, 11, 7 ],
			"faces": {
				"down": { "uv": [ 5.5, 10.5, 7, 11 ], "texture": "#Axe_1" },
				"up": { "uv": [ 7, 11, 8.5, 10.5 ], "texture": "#Axe_1" },
				"north": { "uv": [ 10, 10.5, 8.5, 11 ], "texture": "#Axe_1" },
				"south": { "uv": [ 10, 10.5, 11.5, 11 ], "texture": "#Axe_1" },
				"west": { "uv": [ 6, 2, 6.5, 2.5 ], "texture": "#Axe_1" },
				"east": { "uv": [ 6.5, 1.5, 6, 2 ], "texture": "#Axe_1" }
			}
		},
		{
			"__comment": "Voxels",
			"from": [ 3, 12, 6 ],
			"to": [ 6, 13, 7 ],
			"faces": {
				"down": { "uv": [ 13, 10.5, 14.5, 11 ], "texture": "#Axe_1" },
				"up": { "uv": [ 9, 10, 10.5, 9.5 ], "texture": "#Axe_1" },
				"north": { "uv": [ 9, 9.5, 7.5, 10 ], "texture": "#Axe_1" },
				"south": { "uv": [ 6, 9.5, 7.5, 10 ], "texture": "#Axe_1" },
				"west": { "uv": [ 6, 1, 6.5, 1.5 ], "texture": "#Axe_1" },
				"east": { "uv": [ 6.5, 0.5, 6, 1 ], "texture": "#Axe_1" }
			}
		},
		{
			"__comment": "Voxels",
			"from": [ 3, 14, 6 ],
			"to": [ 6, 15, 7 ],
			"faces": {
				"down": { "uv": [ 10.5, 10, 12, 10.5 ], "texture": "#Axe_1" },
				"up": { "uv": [ 9, 10.5, 10.5, 10 ], "texture": "#Axe_1" },
				"north": { "uv": [ 9, 10, 7.5, 10.5 ], "texture": "#Axe_1" },
				"south": { "uv": [ 6, 10, 7.5, 10.5 ], "texture": "#Axe_1" },
				"west": { "uv": [ 6, 0, 6.5, 0.5 ], "texture": "#Axe_1" },
				"east": { "uv": [ 10, 9, 9.5, 9.5 ], "texture": "#Axe_1" }
			}
		},
		{
			"__comment": "Voxels",
			"from": [ 3, 19, 5 ],
			"to": [ 6, 20, 6 ],
			"faces": {
				"down": { "uv": [ 4, 1, 5.5, 1.5 ], "texture": "#Axe_1" },
				"up": { "uv": [ 4, 10.5, 5.5, 10 ], "texture": "#Axe_1" },
				"north": { "uv": [ 5.5, 1.5, 4, 2 ], "texture": "#Axe_1" },
				"south": { "uv": [ 4, 2, 5.5, 2.5 ], "texture": "#Axe_1" },
				"west": { "uv": [ 10, 9, 10.5, 9.5 ], "texture": "#Axe_1" },
				"east": { "uv": [ 11, 9, 10.5, 9.5 ], "texture": "#Axe_1" }
			}
		},
		{
			"__comment": "Voxels",
			"from": [ 3, 19, 7 ],
			"to": [ 6, 20, 8 ],
			"faces": {
				"down": { "uv": [ 4, 5, 5.5, 5.5 ], "texture": "#Axe_1" },
				"up": { "uv": [ 4, 6, 5.5, 5.5 ], "texture": "#Axe_1" },
				"north": { "uv": [ 5.5, 6, 4, 6.5 ], "texture": "#Axe_1" },
				"south": { "uv": [ 4, 7.5, 5.5, 8 ], "texture": "#Axe_1" },
				"west": { "uv": [ 11, 9, 11.5, 9.5 ], "texture": "#Axe_1" },
				"east": { "uv": [ 12, 9, 11.5, 9.5 ], "texture": "#Axe_1" }
			}
		},
		{
			"__comment": "Voxels",
			"from": [ 3, 20, 6 ],
			"to": [ 5, 23, 7 ],
			"faces": {
				"down": { "uv": [ 14, 9.5, 15, 10 ], "texture": "#Axe_1" },
				"up": { "uv": [ 15, 10, 16, 9.5 ], "texture": "#Axe_1" },
				"north": { "uv": [ 1, 4.5, 0, 6 ], "texture": "#Axe_1" },
				"south": { "uv": [ 1, 4.5, 2, 6 ], "texture": "#Axe_1" },
				"west": { "uv": [ 4, 3.5, 4.5, 5 ], "texture": "#Axe_1" },
				"east": { "uv": [ 5, 3.5, 4.5, 5 ], "texture": "#Axe_1" }
			}
		},
		{
			"__comment": "Voxels",
			"from": [ 3, 23, 5 ],
			"to": [ 6, 24, 6 ],
			"faces": {
				"down": { "uv": [ 4, 3, 5.5, 3.5 ], "texture": "#Axe_1" },
				"up": { "uv": [ 4, 3, 5.5, 2.5 ], "texture": "#Axe_1" },
				"north": { "uv": [ 5.5, 0.5, 4, 1 ], "texture": "#Axe_1" },
				"south": { "uv": [ 4, 0, 5.5, 0.5 ], "texture": "#Axe_1" },
				"west": { "uv": [ 12, 9, 12.5, 9.5 ], "texture": "#Axe_1" },
				"east": { "uv": [ 13, 9, 12.5, 9.5 ], "texture": "#Axe_1" }
			}
		},
		{
			"__comment": "Voxels",
			"from": [ 3, 23, 7 ],
			"to": [ 6, 24, 8 ],
			"faces": {
				"down": { "uv": [ 12, 10, 13.5, 10.5 ], "texture": "#Axe_1" },
				"up": { "uv": [ 13.5, 10.5, 15, 10 ], "texture": "#Axe_1" },
				"north": { "uv": [ 12, 9.5, 10.5, 10 ], "texture": "#Axe_1" },
				"south": { "uv": [ 14.5, 10.5, 16, 11 ], "texture": "#Axe_1" },
				"west": { "uv": [ 13, 9, 13.5, 9.5 ], "texture": "#Axe_1" },
				"east": { "uv": [ 14, 9, 13.5, 9.5 ], "texture": "#Axe_1" }
			}
		},
		{
			"__comment": "Voxels",
			"from": [ 3, 28, 6 ],
			"to": [ 6, 29, 7 ],
			"faces": {
				"down": { "uv": [ 4, 9.5, 5.5, 10 ], "texture": "#Axe_1" },
				"up": { "uv": [ 4, 9.5, 5.5, 9 ], "texture": "#Axe_1" },
				"north": { "uv": [ 5.5, 8.5, 4, 9 ], "texture": "#Axe_1" },
				"south": { "uv": [ 4, 8, 5.5, 8.5 ], "texture": "#Axe_1" },
				"west": { "uv": [ 14, 9, 14.5, 9.5 ], "texture": "#Axe_1" },
				"east": { "uv": [ 15, 9, 14.5, 9.5 ], "texture": "#Axe_1" }
			}
		},
		{
			"__comment": "Voxels",
			"from": [ 4, 1, 6 ],
			"to": [ 5, 2, 7 ],
			"faces": {
				"down": { "uv": [ 15, 9, 15.5, 9.5 ], "texture": "#Axe_1" },
				"up": { "uv": [ 15.5, 9.5, 16, 9 ], "texture": "#Axe_1" },
				"north": { "uv": [ 7, 8.5, 6.5, 9 ], "texture": "#Axe_1" },
				"south": { "uv": [ 6.5, 8, 7, 8.5 ], "texture": "#Axe_1" },
				"west": { "uv": [ 6.5, 7.5, 7, 8 ], "texture": "#Axe_1" },
				"east": { "uv": [ 7, 7, 6.5, 7.5 ], "texture": "#Axe_1" }
			}
		},
		{
			"__comment": "Voxels",
			"from": [ 4, 2, 5 ],
			"to": [ 5, 3, 6 ],
			"faces": {
				"down": { "uv": [ 6.5, 6.5, 7, 7 ], "texture": "#Axe_1" },
				"up": { "uv": [ 6.5, 6.5, 7, 6 ], "texture": "#Axe_1" },
				"north": { "uv": [ 7, 5.5, 6.5, 6 ], "texture": "#Axe_1" },
				"south": { "uv": [ 6.5, 5, 7, 5.5 ], "texture": "#Axe_1" },
				"west": { "uv": [ 6.5, 4.5, 7, 5 ], "texture": "#Axe_1" },
				"east": { "uv": [ 7, 4, 6.5, 4.5 ], "texture": "#Axe_1" }
			}
		},
		{
			"__comment": "Voxels",
			"from": [ 4, 2, 7 ],
			"to": [ 5, 3, 8 ],
			"faces": {
				"down": { "uv": [ 6.5, 3.5, 7, 4 ], "texture": "#Axe_1" },
				"up": { "uv": [ 6.5, 3.5, 7, 3 ], "texture": "#Axe_1" },
				"north": { "uv": [ 7, 2.5, 6.5, 3 ], "texture": "#Axe_1" },
				"south": { "uv": [ 6.5, 2, 7, 2.5 ], "texture": "#Axe_1" },
				"west": { "uv": [ 6.5, 1.5, 7, 2 ], "texture": "#Axe_1" },
				"east": { "uv": [ 7, 1, 6.5, 1.5 ], "texture": "#Axe_1" }
			}
		},
		{
			"__comment": "Voxels",
			"from": [ 4, 3, 6 ],
			"to": [ 5, 8, 7 ],
			"faces": {
				"down": { "uv": [ 6.5, 0.5, 7, 1 ], "texture": "#Axe_1" },
				"up": { "uv": [ 6.5, 0.5, 7, 0 ], "texture": "#Axe_1" },
				"north": { "uv": [ 2.5, 4, 2, 6.5 ], "texture": "#Axe_1" },
				"south": { "uv": [ 0.5, 1, 1, 3.5 ], "texture": "#Axe_1" },
				"west": { "uv": [ 2.5, 3.5, 3, 6 ], "texture": "#Axe_1" },
				"east": { "uv": [ 3, 1, 2.5, 3.5 ], "texture": "#Axe_1" }
			}
		},
		{
			"__comment": "Voxels",
			"from": [ 4, 8, 5 ],
			"to": [ 5, 9, 6 ],
			"faces": {
				"down": { "uv": [ 7, 8.5, 7.5, 9 ], "texture": "#Axe_1" },
				"up": { "uv": [ 7.5, 9, 8, 8.5 ], "texture": "#Axe_1" },
				"north": { "uv": [ 8.5, 8.5, 8, 9 ], "texture": "#Axe_1" },
				"south": { "uv": [ 8.5, 8.5, 9, 9 ], "texture": "#Axe_1" },
				"west": { "uv": [ 9, 8.5, 9.5, 9 ], "texture": "#Axe_1" },
				"east": { "uv": [ 10, 8.5, 9.5, 9 ], "texture": "#Axe_1" }
			}
		},
		{
			"__comment": "Voxels",
			"from": [ 4, 8, 7 ],
			"to": [ 5, 9, 8 ],
			"faces": {
				"down": { "uv": [ 10, 8.5, 10.5, 9 ], "texture": "#Axe_1" },
				"up": { "uv": [ 10.5, 9, 11, 8.5 ], "texture": "#Axe_1" },
				"north": { "uv": [ 11.5, 8.5, 11, 9 ], "texture": "#Axe_1" },
				"south": { "uv": [ 11.5, 8.5, 12, 9 ], "texture": "#Axe_1" },
				"west": { "uv": [ 12, 8.5, 12.5, 9 ], "texture": "#Axe_1" },
				"east": { "uv": [ 13, 8.5, 12.5, 9 ], "texture": "#Axe_1" }
			}
		},
		{
			"__comment": "Voxels",
			"from": [ 4, 9, 6 ],
			"to": [ 5, 10, 7 ],
			"faces": {
				"down": { "uv": [ 13, 8.5, 13.5, 9 ], "texture": "#Axe_1" },
				"up": { "uv": [ 13.5, 9, 14, 8.5 ], "texture": "#Axe_1" },
				"north": { "uv": [ 14.5, 8.5, 14, 9 ], "texture": "#Axe_1" },
				"south": { "uv": [ 14.5, 8.5, 15, 9 ], "texture": "#Axe_1" },
				"west": { "uv": [ 15, 8.5, 15.5, 9 ], "texture": "#Axe_1" },
				"east": { "uv": [ 16, 8.5, 15.5, 9 ], "texture": "#Axe_1" }
			}
		},
		{
			"__comment": "Voxels",
			"from": [ 4, 10, 5 ],
			"to": [ 5, 11, 6 ],
			"faces": {
				"down": { "uv": [ 7, 8, 7.5, 8.5 ], "texture": "#Axe_1" },
				"up": { "uv": [ 7, 8, 7.5, 7.5 ], "texture": "#Axe_1" },
				"north": { "uv": [ 7.5, 7, 7, 7.5 ], "texture": "#Axe_1" },
				"south": { "uv": [ 13.5, 6.5, 14, 7 ], "texture": "#Axe_1" },
				"west": { "uv": [ 13, 6.5, 13.5, 7 ], "texture": "#Axe_1" },
				"east": { "uv": [ 13, 6.5, 12.5, 7 ], "texture": "#Axe_1" }
			}
		},
		{
			"__comment": "Voxels",
			"from": [ 4, 10, 7 ],
			"to": [ 5, 11, 8 ],
			"faces": {
				"down": { "uv": [ 12, 6.5, 12.5, 7 ], "texture": "#Axe_1" },
				"up": { "uv": [ 10.5, 7, 11, 6.5 ], "texture": "#Axe_1" },
				"north": { "uv": [ 10.5, 6.5, 10, 7 ], "texture": "#Axe_1" },
				"south": { "uv": [ 9, 6.5, 9.5, 7 ], "texture": "#Axe_1" },
				"west": { "uv": [ 8.5, 1, 9, 1.5 ], "texture": "#Axe_1" },
				"east": { "uv": [ 9, 1.5, 8.5, 2 ], "texture": "#Axe_1" }
			}
		},
		{
			"__comment": "Voxels",
			"from": [ 4, 11, 6 ],
			"to": [ 5, 12, 7 ],
			"faces": {
				"down": { "uv": [ 8.5, 2, 9, 2.5 ], "texture": "#Axe_1" },
				"up": { "uv": [ 10.5, 8.5, 11, 8 ], "texture": "#Axe_1" },
				"north": { "uv": [ 9, 2.5, 8.5, 3 ], "texture": "#Axe_1" },
				"south": { "uv": [ 8, 6.5, 8.5, 7 ], "texture": "#Axe_1" },
				"west": { "uv": [ 14.5, 7.5, 15, 8 ], "texture": "#Axe_1" },
				"east": { "uv": [ 14.5, 7.5, 14, 8 ], "texture": "#Axe_1" }
			}
		},
		{
			"__comment": "Voxels",
			"from": [ 4, 12, 5 ],
			"to": [ 5, 13, 6 ],
			"faces": {
				"down": { "uv": [ 13.5, 7.5, 14, 8 ], "texture": "#Axe_1" },
				"up": { "uv": [ 13, 8, 13.5, 7.5 ], "texture": "#Axe_1" },
				"north": { "uv": [ 8, 2, 7.5, 2.5 ], "texture": "#Axe_1" },
				"south": { "uv": [ 7.5, 2.5, 8, 3 ], "texture": "#Axe_1" },
				"west": { "uv": [ 7.5, 3, 8, 3.5 ], "texture": "#Axe_1" },
				"east": { "uv": [ 8, 3.5, 7.5, 4 ], "texture": "#Axe_1" }
			}
		},
		{
			"__comment": "Voxels",
			"from": [ 4, 12, 7 ],
			"to": [ 5, 13, 8 ],
			"faces": {
				"down": { "uv": [ 7.5, 7, 8, 7.5 ], "texture": "#Axe_1" },
				"up": { "uv": [ 7.5, 8, 8, 7.5 ], "texture": "#Axe_1" },
				"north": { "uv": [ 16, 8, 15.5, 8.5 ], "texture": "#Axe_1" },
				"south": { "uv": [ 15, 8, 15.5, 8.5 ], "texture": "#Axe_1" },
				"west": { "uv": [ 12.5, 8, 13, 8.5 ], "texture": "#Axe_1" },
				"east": { "uv": [ 12.5, 8, 12, 8.5 ], "texture": "#Axe_1" }
			}
		},
		{
			"__comment": "Voxels",
			"from": [ 4, 13, 6 ],
			"to": [ 5, 14, 7 ],
			"faces": {
				"down": { "uv": [ 11.5, 8, 12, 8.5 ], "texture": "#Axe_1" },
				"up": { "uv": [ 11, 8.5, 11.5, 8 ], "texture": "#Axe_1" },
				"north": { "uv": [ 10, 8, 9.5, 8.5 ], "texture": "#Axe_1" },
				"south": { "uv": [ 9, 8, 9.5, 8.5 ], "texture": "#Axe_1" },
				"west": { "uv": [ 8.5, 8, 9, 8.5 ], "texture": "#Axe_1" },
				"east": { "uv": [ 8.5, 8, 8, 8.5 ], "texture": "#Axe_1" }
			}
		},
		{
			"__comment": "Voxels",
			"from": [ 4, 14, 5 ],
			"to": [ 5, 15, 6 ],
			"faces": {
				"down": { "uv": [ 7, 0.5, 7.5, 1 ], "texture": "#Axe_1" },
				"up": { "uv": [ 7, 1.5, 7.5, 1 ], "texture": "#Axe_1" },
				"north": { "uv": [ 7.5, 1.5, 7, 2 ], "texture": "#Axe_1" },
				"south": { "uv": [ 7, 2, 7.5, 2.5 ], "texture": "#Axe_1" },
				"west": { "uv": [ 7, 2.5, 7.5, 3 ], "texture": "#Axe_1" },
				"east": { "uv": [ 7.5, 3, 7, 3.5 ], "texture": "#Axe_1" }
			}
		},
		{
			"__comment": "Voxels",
			"from": [ 4, 14, 7 ],
			"to": [ 5, 15, 8 ],
			"faces": {
				"down": { "uv": [ 7, 3.5, 7.5, 4 ], "texture": "#Axe_1" },
				"up": { "uv": [ 7, 4.5, 7.5, 4 ], "texture": "#Axe_1" },
				"north": { "uv": [ 7.5, 4.5, 7, 5 ], "texture": "#Axe_1" },
				"south": { "uv": [ 7, 5, 7.5, 5.5 ], "texture": "#Axe_1" },
				"west": { "uv": [ 7, 6.5, 7.5, 7 ], "texture": "#Axe_1" },
				"east": { "uv": [ 9.5, 5.5, 9, 6 ], "texture": "#Axe_1" }
			}
		},
		{
			"__comment": "Voxels",
			"from": [ 4, 15, 6 ],
			"to": [ 5, 20, 7 ],
			"faces": {
				"down": { "uv": [ 9, 6, 9.5, 6.5 ], "texture": "#Axe_1" },
				"up": { "uv": [ 15.5, 7, 16, 6.5 ], "texture": "#Axe_1" },
				"north": { "uv": [ 2.5, 1.5, 2, 4 ], "texture": "#Axe_1" },
				"south": { "uv": [ 2.5, 8.5, 3, 11 ], "texture": "#Axe_1" },
				"west": { "uv": [ 2, 6.5, 2.5, 9 ], "texture": "#Axe_1" },
				"east": { "uv": [ 0.5, 1, 0, 3.5 ], "texture": "#Axe_1" }
			}
		},
		{
			"__comment": "Voxels",
			"from": [ 4, 23, 6 ],
			"to": [ 5, 28, 7 ],
			"faces": {
				"down": { "uv": [ 7, 5.5, 7.5, 6 ], "texture": "#Axe_1" },
				"up": { "uv": [ 7, 6.5, 7.5, 6 ], "texture": "#Axe_1" },
				"north": { "uv": [ 2.5, 9, 2, 11.5 ], "texture": "#Axe_1" },
				"south": { "uv": [ 2.5, 6, 3, 8.5 ], "texture": "#Axe_1" },
				"west": { "uv": [ 1.5, 1, 2, 3.5 ], "texture": "#Axe_1" },
				"east": { "uv": [ 1.5, 1, 1, 3.5 ], "texture": "#Axe_1" }
			}
		},
		{
			"__comment": "Voxels",
			"from": [ 4, 28, 5 ],
			"to": [ 5, 29, 6 ],
			"faces": {
				"down": { "uv": [ 7, 0, 7.5, 0.5 ], "texture": "#Axe_1" },
				"up": { "uv": [ 7.5, 8.5, 8, 8 ], "texture": "#Axe_1" },
				"north": { "uv": [ 10.5, 8, 10, 8.5 ], "texture": "#Axe_1" },
				"south": { "uv": [ 15, 7.5, 15.5, 8 ], "texture": "#Axe_1" },
				"west": { "uv": [ 15.5, 7.5, 16, 8 ], "texture": "#Axe_1" },
				"east": { "uv": [ 8.5, 7, 8, 7.5 ], "texture": "#Axe_1" }
			}
		},
		{
			"__comment": "Voxels",
			"from": [ 4, 28, 7 ],
			"to": [ 5, 29, 8 ],
			"faces": {
				"down": { "uv": [ 8, 6, 8.5, 6.5 ], "texture": "#Axe_1" },
				"up": { "uv": [ 8, 6, 8.5, 5.5 ], "texture": "#Axe_1" },
				"north": { "uv": [ 8.5, 0, 8, 0.5 ], "texture": "#Axe_1" },
				"south": { "uv": [ 8.5, 7, 9, 7.5 ], "texture": "#Axe_1" },
				"west": { "uv": [ 9, 7, 9.5, 7.5 ], "texture": "#Axe_1" },
				"east": { "uv": [ 10, 7, 9.5, 7.5 ], "texture": "#Axe_1" }
			}
		},
		{
			"__comment": "Voxels",
			"from": [ 4, 29, 6 ],
			"to": [ 5, 30, 7 ],
			"faces": {
				"down": { "uv": [ 8.5, 0.5, 9, 1 ], "texture": "#Axe_1" },
				"up": { "uv": [ 8.5, 0.5, 9, 0 ], "texture": "#Axe_1" },
				"north": { "uv": [ 10, 6.5, 9.5, 7 ], "texture": "#Axe_1" },
				"south": { "uv": [ 11, 6.5, 11.5, 7 ], "texture": "#Axe_1" },
				"west": { "uv": [ 11.5, 6.5, 12, 7 ], "texture": "#Axe_1" },
				"east": { "uv": [ 15.5, 6.5, 15, 7 ], "texture": "#Axe_1" }
			}
		},
		{
			"__comment": "Voxels",
			"from": [ 5, 21, 6 ],
			"to": [ 13, 23, 7 ],
			"faces": {
				"down": { "uv": [ 8, 13, 12, 13.5 ], "texture": "#Axe_1" },
				"up": { "uv": [ 12, 14, 16, 13.5 ], "texture": "#Axe_1" },
				"north": { "uv": [ 10, 15, 6, 16 ], "texture": "#Axe_1" },
				"south": { "uv": [ 2, 15, 6, 16 ], "texture": "#Axe_1" },
				"west": { "uv": [ 6, 8.5, 6.5, 9.5 ], "texture": "#Axe_1" },
				"east": { "uv": [ 6.5, 7.5, 6, 8.5 ], "texture": "#Axe_1" }
			}
		},
		{
			"__comment": "Voxels",
			"from": [ 6, 15, 6 ],
			"to": [ 10, 20, 7 ],
			"faces": {
				"down": { "uv": [ 7.5, 11, 9.5, 11.5 ], "texture": "#Axe_1" },
				"up": { "uv": [ 14, 12.5, 16, 12 ], "texture": "#Axe_1" },
				"north": { "uv": [ 2, 13.5, 0, 16 ], "texture": "#Axe_1" },
				"south": { "uv": [ 0, 11, 2, 13.5 ], "texture": "#Axe_1" },
				"west": { "uv": [ 3, 6, 3.5, 8.5 ], "texture": "#Axe_1" },
				"east": { "uv": [ 3.5, 8.5, 3, 11 ], "texture": "#Axe_1" }
			}
		},
		{
			"__comment": "Voxels",
			"from": [ 6, 23, 6 ],
			"to": [ 13, 25, 7 ],
			"faces": {
				"down": { "uv": [ 8, 12.5, 11.5, 13 ], "texture": "#Axe_1" },
				"up": { "uv": [ 12, 13.5, 15.5, 13 ], "texture": "#Axe_1" },
				"north": { "uv": [ 13.5, 15, 10, 16 ], "texture": "#Axe_1" },
				"south": { "uv": [ 12, 14, 15.5, 15 ], "texture": "#Axe_1" },
				"west": { "uv": [ 6, 6.5, 6.5, 7.5 ], "texture": "#Axe_1" },
				"east": { "uv": [ 6.5, 5.5, 6, 6.5 ], "texture": "#Axe_1" }
			}
		},
		{
			"__comment": "Voxels",
			"from": [ 6, 25, 6 ],
			"to": [ 12, 27, 7 ],
			"faces": {
				"down": { "uv": [ 2, 12, 5, 12.5 ], "texture": "#Axe_1" },
				"up": { "uv": [ 5, 12.5, 8, 12 ], "texture": "#Axe_1" },
				"north": { "uv": [ 5, 12.5, 2, 13.5 ], "texture": "#Axe_1" },
				"south": { "uv": [ 5, 12.5, 8, 13.5 ], "texture": "#Axe_1" },
				"west": { "uv": [ 6, 4.5, 6.5, 5.5 ], "texture": "#Axe_1" },
				"east": { "uv": [ 6, 0.5, 5.5, 1.5 ], "texture": "#Axe_1" }
			}
		},
		{
			"__comment": "Voxels",
			"from": [ 6, 27, 6 ],
			"to": [ 11, 28, 7 ],
			"faces": {
				"down": { "uv": [ 5, 11, 7.5, 11.5 ], "texture": "#Axe_1" },
				"up": { "uv": [ 2.5, 11.5, 5, 11 ], "texture": "#Axe_1" },
				"north": { "uv": [ 15, 11.5, 12.5, 12 ], "texture": "#Axe_1" },
				"south": { "uv": [ 10, 11.5, 12.5, 12 ], "texture": "#Axe_1" },
				"west": { "uv": [ 13, 8, 13.5, 8.5 ], "texture": "#Axe_1" },
				"east": { "uv": [ 14, 8, 13.5, 8.5 ], "texture": "#Axe_1" }
			}
		},
		{
			"__comment": "Voxels",
			"from": [ 7, 12, 6 ],
			"to": [ 8, 15, 7 ],
			"faces": {
				"down": { "uv": [ 14, 8, 14.5, 8.5 ], "texture": "#Axe_1" },
				"up": { "uv": [ 14.5, 8.5, 15, 8 ], "texture": "#Axe_1" },
				"north": { "uv": [ 4, 0, 3.5, 1.5 ], "texture": "#Axe_1" },
				"south": { "uv": [ 3.5, 1.5, 4, 3 ], "texture": "#Axe_1" },
				"west": { "uv": [ 3.5, 3, 4, 4.5 ], "texture": "#Axe_1" },
				"east": { "uv": [ 4, 4.5, 3.5, 6 ], "texture": "#Axe_1" }
			}
		},
		{
			"__comment": "Voxels",
			"from": [ 7, 17, 7 ],
			"to": [ 8, 18, 8 ],
			"faces": {
				"down": { "uv": [ 7.5, 6.5, 8, 7 ], "texture": "#Axe_1" },
				"up": { "uv": [ 7.5, 6.5, 8, 6 ], "texture": "#Axe_1" },
				"north": { "uv": [ 8, 5.5, 7.5, 6 ], "texture": "#Axe_1" },
				"south": { "uv": [ 7.5, 5, 8, 5.5 ], "texture": "#Axe_1" },
				"west": { "uv": [ 7.5, 4.5, 8, 5 ], "texture": "#Axe_1" },
				"east": { "uv": [ 8, 4, 7.5, 4.5 ], "texture": "#Axe_1" }
			}
		},
		{
			"__comment": "Voxels",
			"from": [ 7, 20, 6 ],
			"to": [ 13, 21, 7 ],
			"faces": {
				"down": { "uv": [ 12, 12.5, 15, 13 ], "texture": "#Axe_1" },
				"up": { "uv": [ 8, 12.5, 11, 12 ], "texture": "#Axe_1" },
				"north": { "uv": [ 14, 12, 11, 12.5 ], "texture": "#Axe_1" },
				"south": { "uv": [ 2, 11.5, 5, 12 ], "texture": "#Axe_1" },
				"west": { "uv": [ 7.5, 1.5, 8, 2 ], "texture": "#Axe_1" },
				"east": { "uv": [ 8, 1, 7.5, 1.5 ], "texture": "#Axe_1" }
			}
		},
		{
			"__comment": "Voxels",
			"from": [ 7, 26, 5 ],
			"to": [ 8, 27, 6 ],
			"faces": {
				"down": { "uv": [ 7.5, 0.5, 8, 1 ], "texture": "#Axe_1" },
				"up": { "uv": [ 7.5, 0.5, 8, 0 ], "texture": "#Axe_1" },
				"north": { "uv": [ 8.5, 7.5, 8, 8 ], "texture": "#Axe_1" },
				"south": { "uv": [ 8.5, 7.5, 9, 8 ], "texture": "#Axe_1" },
				"west": { "uv": [ 9, 7.5, 9.5, 8 ], "texture": "#Axe_1" },
				"east": { "uv": [ 10, 7.5, 9.5, 8 ], "texture": "#Axe_1" }
			}
		},
		{
			"__comment": "Voxels",
			"from": [ 7, 26, 7 ],
			"to": [ 8, 27, 8 ],
			"faces": {
				"down": { "uv": [ 10, 7.5, 10.5, 8 ], "texture": "#Axe_1" },
				"up": { "uv": [ 10.5, 8, 11, 7.5 ], "texture": "#Axe_1" },
				"north": { "uv": [ 11.5, 7.5, 11, 8 ], "texture": "#Axe_1" },
				"south": { "uv": [ 11.5, 7.5, 12, 8 ], "texture": "#Axe_1" },
				"west": { "uv": [ 12, 7.5, 12.5, 8 ], "texture": "#Axe_1" },
				"east": { "uv": [ 13, 7.5, 12.5, 8 ], "texture": "#Axe_1" }
			}
		},
		{
			"__comment": "Voxels",
			"from": [ 7, 28, 6 ],
			"to": [ 10, 30, 7 ],
			"faces": {
				"down": { "uv": [ 4, 6.5, 5.5, 7 ], "texture": "#Axe_1" },
				"up": { "uv": [ 4, 7.5, 5.5, 7 ], "texture": "#Axe_1" },
				"north": { "uv": [ 1.5, 3.5, 0, 4.5 ], "texture": "#Axe_1" },
				"south": { "uv": [ 0, 6, 1.5, 7 ], "texture": "#Axe_1" },
				"west": { "uv": [ 6, 3.5, 6.5, 4.5 ], "texture": "#Axe_1" },
				"east": { "uv": [ 6.5, 2.5, 6, 3.5 ], "texture": "#Axe_1" }
			}
		},
		{
			"__comment": "Voxels",
			"from": [ 7, 30, 6 ],
			"to": [ 9, 31, 7 ],
			"faces": {
				"down": { "uv": [ 6.5, 9, 7.5, 9.5 ], "texture": "#Axe_1" },
				"up": { "uv": [ 15, 10.5, 16, 10 ], "texture": "#Axe_1" },
				"north": { "uv": [ 8.5, 9, 7.5, 9.5 ], "texture": "#Axe_1" },
				"south": { "uv": [ 8.5, 9, 9.5, 9.5 ], "texture": "#Axe_1" },
				"west": { "uv": [ 8, 5, 8.5, 5.5 ], "texture": "#Axe_1" },
				"east": { "uv": [ 8.5, 4.5, 8, 5 ], "texture": "#Axe_1" }
			}
		},
		{
			"__comment": "Voxels",
			"from": [ 7, 31, 6 ],
			"to": [ 8, 32, 7 ],
			"faces": {
				"down": { "uv": [ 8, 4, 8.5, 4.5 ], "texture": "#Axe_1" },
				"up": { "uv": [ 8, 4, 8.5, 3.5 ], "texture": "#Axe_1" },
				"north": { "uv": [ 8.5, 3, 8, 3.5 ], "texture": "#Axe_1" },
				"south": { "uv": [ 8, 2.5, 8.5, 3 ], "texture": "#Axe_1" },
				"west": { "uv": [ 8, 2, 8.5, 2.5 ], "texture": "#Axe_1" },
				"east": { "uv": [ 8.5, 1.5, 8, 2 ], "texture": "#Axe_1" }
			}
		},
		{
			"__comment": "Voxels",
			"from": [ 8, 13, 6 ],
			"to": [ 9, 15, 7 ],
			"faces": {
				"down": { "uv": [ 8, 1, 8.5, 1.5 ], "texture": "#Axe_1" },
				"up": { "uv": [ 8, 1, 8.5, 0.5 ], "texture": "#Axe_1" },
				"north": { "uv": [ 2, 6, 1.5, 7 ], "texture": "#Axe_1" },
				"south": { "uv": [ 1.5, 3.5, 2, 4.5 ], "texture": "#Axe_1" },
				"west": { "uv": [ 0, 0, 0.5, 1 ], "texture": "#Axe_1" },
				"east": { "uv": [ 16, 14, 15.5, 15 ], "texture": "#Axe_1" }
			}
		},
		{
			"__comment": "Voxels",
			"from": [ 8, 19, 7 ],
			"to": [ 9, 20, 8 ],
			"faces": {
				"down": { "uv": [ 10, 7, 10.5, 7.5 ], "texture": "#Axe_1" },
				"up": { "uv": [ 10.5, 7.5, 11, 7 ], "texture": "#Axe_1" },
				"north": { "uv": [ 11.5, 7, 11, 7.5 ], "texture": "#Axe_1" },
				"south": { "uv": [ 11.5, 7, 12, 7.5 ], "texture": "#Axe_1" },
				"west": { "uv": [ 12, 7, 12.5, 7.5 ], "texture": "#Axe_1" },
				"east": { "uv": [ 13, 7, 12.5, 7.5 ], "texture": "#Axe_1" }
			}
		},
		{
			"__comment": "Voxels",
			"from": [ 8, 24, 5 ],
			"to": [ 9, 25, 6 ],
			"faces": {
				"down": { "uv": [ 13, 7, 13.5, 7.5 ], "texture": "#Axe_1" },
				"up": { "uv": [ 13.5, 7.5, 14, 7 ], "texture": "#Axe_1" },
				"north": { "uv": [ 14.5, 7, 14, 7.5 ], "texture": "#Axe_1" },
				"south": { "uv": [ 14.5, 7, 15, 7.5 ], "texture": "#Axe_1" },
				"west": { "uv": [ 15, 7, 15.5, 7.5 ], "texture": "#Axe_1" },
				"east": { "uv": [ 16, 7, 15.5, 7.5 ], "texture": "#Axe_1" }
			}
		},
		{
			"__comment": "Voxels",
			"from": [ 8, 24, 7 ],
			"to": [ 9, 25, 8 ],
			"faces": {
				"down": { "uv": [ 8.5, 6.5, 9, 7 ], "texture": "#Axe_1" },
				"up": { "uv": [ 8.5, 6.5, 9, 6 ], "texture": "#Axe_1" },
				"north": { "uv": [ 9, 5.5, 8.5, 6 ], "texture": "#Axe_1" },
				"south": { "uv": [ 8.5, 5, 9, 5.5 ], "texture": "#Axe_1" },
				"west": { "uv": [ 8.5, 4.5, 9, 5 ], "texture": "#Axe_1" },
				"east": { "uv": [ 9, 4, 8.5, 4.5 ], "texture": "#Axe_1" }
			}
		},
		{
			"__comment": "Voxels",
			"from": [ 10, 17, 6 ],
			"to": [ 11, 20, 7 ],
			"faces": {
				"down": { "uv": [ 8.5, 3.5, 9, 4 ], "texture": "#Axe_1" },
				"up": { "uv": [ 8.5, 3.5, 9, 3 ], "texture": "#Axe_1" },
				"north": { "uv": [ 4, 7.5, 3.5, 9 ], "texture": "#Axe_1" },
				"south": { "uv": [ 2, 0, 2.5, 1.5 ], "texture": "#Axe_1" },
				"west": { "uv": [ 5.5, 7.5, 6, 9 ], "texture": "#Axe_1" },
				"east": { "uv": [ 6, 9, 5.5, 10.5 ], "texture": "#Axe_1" }
			}
		},
		{
			"__comment": "Voxels",
			"from": [ 10, 20, 5 ],
			"to": [ 12, 24, 6 ],
			"faces": {
				"down": { "uv": [ 15, 12.5, 16, 13 ], "texture": "#Axe_1" },
				"up": { "uv": [ 15, 12, 16, 11.5 ], "texture": "#Axe_1" },
				"north": { "uv": [ 2, 9, 1, 11 ], "texture": "#Axe_1" },
				"south": { "uv": [ 0, 9, 1, 11 ], "texture": "#Axe_1" },
				"west": { "uv": [ 3, 2, 3.5, 4 ], "texture": "#Axe_1" },
				"east": { "uv": [ 3.5, 4, 3, 6 ], "texture": "#Axe_1" }
			}
		},
		{
			"__comment": "Voxels",
			"from": [ 10, 20, 7 ],
			"to": [ 12, 24, 8 ],
			"faces": {
				"down": { "uv": [ 12, 9.5, 13, 10 ], "texture": "#Axe_1" },
				"up": { "uv": [ 13, 10, 14, 9.5 ], "texture": "#Axe_1" },
				"north": { "uv": [ 2, 7, 1, 9 ], "texture": "#Axe_1" },
				"south": { "uv": [ 0, 7, 1, 9 ], "texture": "#Axe_1" },
				"west": { "uv": [ 3, 0, 3.5, 2 ], "texture": "#Axe_1" },
				"east": { "uv": [ 4, 9, 3.5, 11 ], "texture": "#Axe_1" }
			}
		},
		{
			"__comment": "Voxels",
			"from": [ 11, 18, 6 ],
			"to": [ 12, 20, 7 ],
			"faces": {
				"down": { "uv": [ 14, 6.5, 14.5, 7 ], "texture": "#Axe_1" },
				"up": { "uv": [ 14.5, 7, 15, 6.5 ], "texture": "#Axe_1" },
				"north": { "uv": [ 3, 0, 2.5, 1 ], "texture": "#Axe_1" },
				"south": { "uv": [ 5.5, 3.5, 6, 4.5 ], "texture": "#Axe_1" },
				"west": { "uv": [ 5.5, 2.5, 6, 3.5 ], "texture": "#Axe_1" },
				"east": { "uv": [ 6, 1.5, 5.5, 2.5 ], "texture": "#Axe_1" }
			}
		},
		{
			"__comment": "Voxels",
			"from": [ 11, 19, 5 ],
			"to": [ 12, 20, 6 ],
			"faces": {
				"down": { "uv": [ 9, 5, 9.5, 5.5 ], "texture": "#Axe_1" },
				"up": { "uv": [ 9, 5, 9.5, 4.5 ], "texture": "#Axe_1" },
				"north": { "uv": [ 9.5, 4, 9, 4.5 ], "texture": "#Axe_1" },
				"south": { "uv": [ 9, 3.5, 9.5, 4 ], "texture": "#Axe_1" },
				"west": { "uv": [ 9, 3, 9.5, 3.5 ], "texture": "#Axe_1" },
				"east": { "uv": [ 9.5, 2.5, 9, 3 ], "texture": "#Axe_1" }
			}
		},
		{
			"__comment": "Voxels",
			"from": [ 11, 19, 7 ],
			"to": [ 12, 20, 8 ],
			"faces": {
				"down": { "uv": [ 9, 2, 9.5, 2.5 ], "texture": "#Axe_1" },
				"up": { "uv": [ 9, 2, 9.5, 1.5 ], "texture": "#Axe_1" },
				"north": { "uv": [ 9.5, 1, 9, 1.5 ], "texture": "#Axe_1" },
				"south": { "uv": [ 9, 0.5, 9.5, 1 ], "texture": "#Axe_1" },
				"west": { "uv": [ 9, 0, 9.5, 0.5 ], "texture": "#Axe_1" },
				"east": { "uv": [ 10, 6, 9.5, 6.5 ], "texture": "#Axe_1" }
			}
		},
		{
			"__comment": "Voxels",
			"from": [ 11, 24, 5 ],
			"to": [ 12, 25, 6 ],
			"faces": {
				"down": { "uv": [ 10, 6, 10.5, 6.5 ], "texture": "#Axe_1" },
				"up": { "uv": [ 10.5, 6.5, 11, 6 ], "texture": "#Axe_1" },
				"north": { "uv": [ 11.5, 6, 11, 6.5 ], "texture": "#Axe_1" },
				"south": { "uv": [ 11.5, 6, 12, 6.5 ], "texture": "#Axe_1" },
				"west": { "uv": [ 12, 6, 12.5, 6.5 ], "texture": "#Axe_1" },
				"east": { "uv": [ 13, 6, 12.5, 6.5 ], "texture": "#Axe_1" }
			}
		},
		{
			"__comment": "Voxels",
			"from": [ 11, 24, 7 ],
			"to": [ 12, 25, 8 ],
			"faces": {
				"down": { "uv": [ 13, 6, 13.5, 6.5 ], "texture": "#Axe_1" },
				"up": { "uv": [ 13.5, 6.5, 14, 6 ], "texture": "#Axe_1" },
				"north": { "uv": [ 14.5, 6, 14, 6.5 ], "texture": "#Axe_1" },
				"south": { "uv": [ 14.5, 6, 15, 6.5 ], "texture": "#Axe_1" },
				"west": { "uv": [ 15, 6, 15.5, 6.5 ], "texture": "#Axe_1" },
				"east": { "uv": [ 16, 6, 15.5, 6.5 ], "texture": "#Axe_1" }
			}
		},
		{
			"__comment": "Voxels",
			"from": [ 12, 19, 6 ],
			"to": [ 13, 20, 7 ],
			"faces": {
				"down": { "uv": [ 9.5, 5.5, 10, 6 ], "texture": "#Axe_1" },
				"up": { "uv": [ 9.5, 5.5, 10, 5 ], "texture": "#Axe_1" },
				"north": { "uv": [ 10, 4.5, 9.5, 5 ], "texture": "#Axe_1" },
				"south": { "uv": [ 9.5, 4, 10, 4.5 ], "texture": "#Axe_1" },
				"west": { "uv": [ 9.5, 3.5, 10, 4 ], "texture": "#Axe_1" },
				"east": { "uv": [ 10, 3, 9.5, 3.5 ], "texture": "#Axe_1" }
			}
		}
	],
	"display": {
		"thirdperson_righthand": {
			"rotation":  [ 0, 90, 0 ],
			"translation":  [ 1.3913, 0.7972, -2.086 ]
		},
		"thirdperson_lefthand": {
			"rotation":  [ 0, -90, 0 ],
			"translation":  [ -1.391, 0.6956, -2.086 ]
		},
		"firstperson_righthand": {
			"rotation":  [ 0, 90, 0 ],
			"translation":  [ 0.0003, 2.7841, 0.6956 ],
			"scale":  [ 0.5216, 0.5216, 0.5826 ]
		},
		"firstperson_lefthand": {
			"rotation":  [ 0, -90, 0 ],
			"translation":  [ -1.391, 2.7841, 0.6956 ],
			"scale":  [ 0.5216, 0.5216, 0.5826 ]
		},
		"gui": {
			"rotation":  [ 0, 0, -40 ],
			"translation":  [ -2.779, -5.562, 0 ],
			"scale":  [ 0.6868, 0.6868, 1 ]
		},
		"head": {
			"rotation":  [ 0, 0, -135 ],
			"translation":  [ -6.955, -12.52, 6.2608 ]
		},
		"ground": {
			"rotation":  [ 180, 0, 0 ],
			"translation":  [ 0, 15.3, -1.391 ],
			"scale":  [ 0.7216, 0.7216, 1 ]
		},
		"fixed": {
			"rotation":  [ 0, 180, -40 ],
			"translation":  [ 3.4818, -6.953, -0.695 ],
			"scale":  [ 0.8606, 0.8606, 1 ]
		}
	}
}