{
	"__comment": "Designed by ClauseWitz with Cubik Studio - https://cubik.studio",
	"textures": {
		"Staff_2": "model3d/staff_2"
	},
	"elements": [ 	 
		{
			"__comment": "Voxels",
			"from": [ -2, 25, 4 ],
			"to": [ 0, 26, 5 ],
			"faces": {
				"down": { "uv": [ 15, 11, 16, 11.5 ], "texture": "#Staff_2" },
				"up": { "uv": [ 15, 15, 16, 14.5 ], "texture": "#Staff_2" },
				"north": { "uv": [ 16, 14, 15, 14.5 ], "texture": "#Staff_2" },
				"south": { "uv": [ 15, 12, 16, 12.5 ], "texture": "#Staff_2" },
				"west": { "uv": [ 14, 12.5, 14.5, 13 ], "texture": "#Staff_2" },
				"east": { "uv": [ 4.5, 0, 4, 0.5 ], "texture": "#Staff_2" }
			}
		},
		{
			"__comment": "Voxels",
			"from": [ -2, 26, 4 ],
			"to": [ -1, 29, 5 ],
			"faces": {
				"down": { "uv": [ 10, 9.5, 10.5, 10 ], "texture": "#Staff_2" },
				"up": { "uv": [ 10, 9.5, 10.5, 9 ], "texture": "#Staff_2" },
				"north": { "uv": [ 1.5, 0, 1, 1.5 ], "texture": "#Staff_2" },
				"south": { "uv": [ 1.5, 0, 2, 1.5 ], "texture": "#Staff_2" },
				"west": { "uv": [ 2, 3.5, 2.5, 5 ], "texture": "#Staff_2" },
				"east": { "uv": [ 3, 3.5, 2.5, 5 ], "texture": "#Staff_2" }
			}
		},
		{
			"__comment": "Voxels",
			"from": [ -2, 27, 3 ],
			"to": [ 5, 28, 4 ],
			"faces": {
				"down": { "uv": [ 4.5, 14, 8, 14.5 ], "texture": "#Staff_2" },
				"up": { "uv": [ 8, 15, 11.5, 14.5 ], "texture": "#Staff_2" },
				"north": { "uv": [ 8, 14.5, 4.5, 15 ], "texture": "#Staff_2" },
				"south": { "uv": [ 8, 14, 11.5, 14.5 ], "texture": "#Staff_2" },
				"west": { "uv": [ 10.5, 9.5, 11, 10 ], "texture": "#Staff_2" },
				"east": { "uv": [ 11, 9, 10.5, 9.5 ], "texture": "#Staff_2" }
			}
		},
		{
			"__comment": "Voxels",
			"from": [ -2, 27, 5 ],
			"to": [ 5, 28, 6 ],
			"faces": {
				"down": { "uv": [ 11.5, 14.5, 15, 15 ], "texture": "#Staff_2" },
				"up": { "uv": [ 11.5, 14.5, 15, 14 ], "texture": "#Staff_2" },
				"north": { "uv": [ 14.5, 13.5, 11, 14 ], "texture": "#Staff_2" },
				"south": { "uv": [ 11, 13, 14.5, 13.5 ], "texture": "#Staff_2" },
				"west": { "uv": [ 11, 9.5, 11.5, 10 ], "texture": "#Staff_2" },
				"east": { "uv": [ 11.5, 9, 11, 9.5 ], "texture": "#Staff_2" }
			}
		},
		{
			"__comment": "Voxels",
			"from": [ -1, 19, 4 ],
			"to": [ 0, 23, 5 ],
			"faces": {
				"down": { "uv": [ 11.5, 9.5, 12, 10 ], "texture": "#Staff_2" },
				"up": { "uv": [ 11.5, 9.5, 12, 9 ], "texture": "#Staff_2" },
				"north": { "uv": [ 0.5, 5.5, 0, 7.5 ], "texture": "#Staff_2" },
				"south": { "uv": [ 1.5, 1.5, 2, 3.5 ], "texture": "#Staff_2" },
				"west": { "uv": [ 1.5, 3.5, 2, 5.5 ], "texture": "#Staff_2" },
				"east": { "uv": [ 2, 5.5, 1.5, 7.5 ], "texture": "#Staff_2" }
			}
		},
		{
			"__comment": "Voxels",
			"from": [ -1, 24, 4 ],
			"to": [ 4, 25, 5 ],
			"faces": {
				"down": { "uv": [ 6, 11, 8.5, 11.5 ], "texture": "#Staff_2" },
				"up": { "uv": [ 8.5, 11.5, 11, 11 ], "texture": "#Staff_2" },
				"north": { "uv": [ 7.5, 12, 5, 12.5 ], "texture": "#Staff_2" },
				"south": { "uv": [ 7.5, 12, 10, 12.5 ], "texture": "#Staff_2" },
				"west": { "uv": [ 12, 9.5, 12.5, 10 ], "texture": "#Staff_2" },
				"east": { "uv": [ 12.5, 9, 12, 9.5 ], "texture": "#Staff_2" }
			}
		},
		{
			"__comment": "Voxels",
			"from": [ -1, 25, 3 ],
			"to": [ 0, 26, 4 ],
			"faces": {
				"down": { "uv": [ 15.5, 9.5, 16, 10 ], "texture": "#Staff_2" },
				"up": { "uv": [ 12.5, 10, 13, 9.5 ], "texture": "#Staff_2" },
				"north": { "uv": [ 13, 9, 12.5, 9.5 ], "texture": "#Staff_2" },
				"south": { "uv": [ 13, 9.5, 13.5, 10 ], "texture": "#Staff_2" },
				"west": { "uv": [ 13, 9, 13.5, 9.5 ], "texture": "#Staff_2" },
				"east": { "uv": [ 14, 9.5, 13.5, 10 ], "texture": "#Staff_2" }
			}
		},
		{
			"__comment": "Voxels",
			"from": [ -1, 25, 5 ],
			"to": [ 0, 26, 6 ],
			"faces": {
				"down": { "uv": [ 13.5, 9, 14, 9.5 ], "texture": "#Staff_2" },
				"up": { "uv": [ 14, 10, 14.5, 9.5 ], "texture": "#Staff_2" },
				"north": { "uv": [ 14.5, 9, 14, 9.5 ], "texture": "#Staff_2" },
				"south": { "uv": [ 14.5, 9.5, 15, 10 ], "texture": "#Staff_2" },
				"west": { "uv": [ 14.5, 9, 15, 9.5 ], "texture": "#Staff_2" },
				"east": { "uv": [ 15.5, 9.5, 15, 10 ], "texture": "#Staff_2" }
			}
		},
		{
			"__comment": "Voxels",
			"from": [ -1, 27, 4 ],
			"to": [ 5, 29, 5 ],
			"faces": {
				"down": { "uv": [ 2, 12, 5, 12.5 ], "texture": "#Staff_2" },
				"up": { "uv": [ 11, 13, 14, 12.5 ], "texture": "#Staff_2" },
				"north": { "uv": [ 5, 15, 2, 16 ], "texture": "#Staff_2" },
				"south": { "uv": [ 5, 15, 8, 16 ], "texture": "#Staff_2" },
				"west": { "uv": [ 6, 2, 6.5, 3 ], "texture": "#Staff_2" },
				"east": { "uv": [ 6.5, 1, 6, 2 ], "texture": "#Staff_2" }
			}
		},
		{
			"__comment": "Voxels",
			"from": [ -1, 28, 3 ],
			"to": [ 4, 30, 4 ],
			"faces": {
				"down": { "uv": [ 8.5, 11.5, 11, 12 ], "texture": "#Staff_2" },
				"up": { "uv": [ 11, 12, 13.5, 11.5 ], "texture": "#Staff_2" },
				"north": { "uv": [ 15.5, 15, 13, 16 ], "texture": "#Staff_2" },
				"south": { "uv": [ 2, 14, 4.5, 15 ], "texture": "#Staff_2" },
				"west": { "uv": [ 6, 0, 6.5, 1 ], "texture": "#Staff_2" },
				"east": { "uv": [ 5.5, 1, 5, 2 ], "texture": "#Staff_2" }
			}
		},
		{
			"__comment": "Voxels",
			"from": [ -1, 28, 5 ],
			"to": [ 4, 30, 6 ],
			"faces": {
				"down": { "uv": [ 3.5, 11.5, 6, 12 ], "texture": "#Staff_2" },
				"up": { "uv": [ 10, 12.5, 12.5, 12 ], "texture": "#Staff_2" },
				"north": { "uv": [ 10.5, 15, 8, 16 ], "texture": "#Staff_2" },
				"south": { "uv": [ 10.5, 15, 13, 16 ], "texture": "#Staff_2" },
				"west": { "uv": [ 6, 6, 6.5, 7 ], "texture": "#Staff_2" },
				"east": { "uv": [ 6.5, 7, 6, 8 ], "texture": "#Staff_2" }
			}
		},
		{
			"__comment": "Voxels",
			"from": [ -1, 29, 4 ],
			"to": [ 4, 30, 5 ],
			"faces": {
				"down": { "uv": [ 3.5, 11, 6, 11.5 ], "texture": "#Staff_2" },
				"up": { "uv": [ 12.5, 12.5, 15, 12 ], "texture": "#Staff_2" },
				"north": { "uv": [ 8.5, 11.5, 6, 12 ], "texture": "#Staff_2" },
				"south": { "uv": [ 13.5, 11.5, 16, 12 ], "texture": "#Staff_2" },
				"west": { "uv": [ 6.5, 2.5, 7, 3 ], "texture": "#Staff_2" },
				"east": { "uv": [ 7, 3, 6.5, 3.5 ], "texture": "#Staff_2" }
			}
		},
		{
			"__comment": "Voxels",
			"from": [ 0, 3, 4 ],
			"to": [ 3, 5, 5 ],
			"faces": {
				"down": { "uv": [ 13.5, 10.5, 15, 11 ], "texture": "#Staff_2" },
				"up": { "uv": [ 4.5, 10.5, 6, 10 ], "texture": "#Staff_2" },
				"north": { "uv": [ 3.5, 8, 2, 9 ], "texture": "#Staff_2" },
				"south": { "uv": [ 2, 7, 3.5, 8 ], "texture": "#Staff_2" },
				"west": { "uv": [ 4.5, 0, 5, 1 ], "texture": "#Staff_2" },
				"east": { "uv": [ 6, 1, 5.5, 2 ], "texture": "#Staff_2" }
			}
		},
		{
			"__comment": "Voxels",
			"from": [ 0, 22, 4 ],
			"to": [ 4, 23, 5 ],
			"faces": {
				"down": { "uv": [ 11, 11, 13, 11.5 ], "texture": "#Staff_2" },
				"up": { "uv": [ 13, 11.5, 15, 11 ], "texture": "#Staff_2" },
				"north": { "uv": [ 5.5, 10.5, 3.5, 11 ], "texture": "#Staff_2" },
				"south": { "uv": [ 5.5, 10.5, 7.5, 11 ], "texture": "#Staff_2" },
				"west": { "uv": [ 6.5, 4.5, 7, 5 ], "texture": "#Staff_2" },
				"east": { "uv": [ 7, 5, 6.5, 5.5 ], "texture": "#Staff_2" }
			}
		},
		{
			"__comment": "Voxels",
			"from": [ 0, 23, 4 ],
			"to": [ 3, 24, 5 ],
			"faces": {
				"down": { "uv": [ 6, 10, 7.5, 10.5 ], "texture": "#Staff_2" },
				"up": { "uv": [ 7.5, 10.5, 9, 10 ], "texture": "#Staff_2" },
				"north": { "uv": [ 10.5, 10, 9, 10.5 ], "texture": "#Staff_2" },
				"south": { "uv": [ 10.5, 10, 12, 10.5 ], "texture": "#Staff_2" },
				"west": { "uv": [ 6.5, 6, 7, 6.5 ], "texture": "#Staff_2" },
				"east": { "uv": [ 7, 6.5, 6.5, 7 ], "texture": "#Staff_2" }
			}
		},
		{
			"__comment": "Voxels",
			"from": [ 0, 25, 2 ],
			"to": [ 3, 26, 3 ],
			"faces": {
				"down": { "uv": [ 12, 10, 13.5, 10.5 ], "texture": "#Staff_2" },
				"up": { "uv": [ 13.5, 10.5, 15, 10 ], "texture": "#Staff_2" },
				"north": { "uv": [ 6, 9.5, 4.5, 10 ], "texture": "#Staff_2" },
				"south": { "uv": [ 4.5, 9, 6, 9.5 ], "texture": "#Staff_2" },
				"west": { "uv": [ 6.5, 7, 7, 7.5 ], "texture": "#Staff_2" },
				"east": { "uv": [ 7, 7.5, 6.5, 8 ], "texture": "#Staff_2" }
			}
		},
		{
			"__comment": "Voxels",
			"from": [ 0, 25, 6 ],
			"to": [ 3, 26, 7 ],
			"faces": {
				"down": { "uv": [ 4.5, 8.5, 6, 9 ], "texture": "#Staff_2" },
				"up": { "uv": [ 4.5, 8.5, 6, 8 ], "texture": "#Staff_2" },
				"north": { "uv": [ 6, 7.5, 4.5, 8 ], "texture": "#Staff_2" },
				"south": { "uv": [ 4.5, 7, 6, 7.5 ], "texture": "#Staff_2" },
				"west": { "uv": [ 11.5, 8.5, 12, 9 ], "texture": "#Staff_2" },
				"east": { "uv": [ 11.5, 8.5, 11, 9 ], "texture": "#Staff_2" }
			}
		},
		{
			"__comment": "Voxels",
			"from": [ 0, 26, 3 ],
			"to": [ 3, 27, 6 ],
			"faces": {
				"down": { "uv": [ 5, 12.5, 6.5, 14 ], "texture": "#Staff_2" },
				"up": { "uv": [ 9.5, 14, 11, 12.5 ], "texture": "#Staff_2" },
				"north": { "uv": [ 6, 6.5, 4.5, 7 ], "texture": "#Staff_2" },
				"south": { "uv": [ 4.5, 6, 6, 6.5 ], "texture": "#Staff_2" },
				"west": { "uv": [ 4.5, 5.5, 6, 6 ], "texture": "#Staff_2" },
				"east": { "uv": [ 6, 5, 4.5, 5.5 ], "texture": "#Staff_2" }
			}
		},
		{
			"__comment": "Voxels",
			"from": [ 0, 27, 1 ],
			"to": [ 3, 28, 3 ],
			"faces": {
				"down": { "uv": [ 2, 11, 3.5, 12 ], "texture": "#Staff_2" },
				"up": { "uv": [ 14.5, 14, 16, 13 ], "texture": "#Staff_2" },
				"north": { "uv": [ 16, 12.5, 14.5, 13 ], "texture": "#Staff_2" },
				"south": { "uv": [ 2, 6.5, 3.5, 7 ], "texture": "#Staff_2" },
				"west": { "uv": [ 15, 10, 16, 10.5 ], "texture": "#Staff_2" },
				"east": { "uv": [ 16, 10.5, 15, 11 ], "texture": "#Staff_2" }
			}
		},
		{
			"__comment": "Voxels",
			"from": [ 0, 27, 6 ],
			"to": [ 3, 30, 7 ],
			"faces": {
				"down": { "uv": [ 2, 6, 3.5, 6.5 ], "texture": "#Staff_2" },
				"up": { "uv": [ 2, 6, 3.5, 5.5 ], "texture": "#Staff_2" },
				"north": { "uv": [ 8, 12.5, 6.5, 14 ], "texture": "#Staff_2" },
				"south": { "uv": [ 8, 12.5, 9.5, 14 ], "texture": "#Staff_2" },
				"west": { "uv": [ 0, 0, 0.5, 1.5 ], "texture": "#Staff_2" },
				"east": { "uv": [ 1, 0, 0.5, 1.5 ], "texture": "#Staff_2" }
			}
		},
		{
			"__comment": "Voxels",
			"from": [ 0, 27, 7 ],
			"to": [ 3, 28, 8 ],
			"faces": {
				"down": { "uv": [ 2, 5, 3.5, 5.5 ], "texture": "#Staff_2" },
				"up": { "uv": [ 2, 3.5, 3.5, 3 ], "texture": "#Staff_2" },
				"north": { "uv": [ 3.5, 2.5, 2, 3 ], "texture": "#Staff_2" },
				"south": { "uv": [ 2, 2, 3.5, 2.5 ], "texture": "#Staff_2" },
				"west": { "uv": [ 9, 8.5, 9.5, 9 ], "texture": "#Staff_2" },
				"east": { "uv": [ 10, 8.5, 9.5, 9 ], "texture": "#Staff_2" }
			}
		},
		{
			"__comment": "Voxels",
			"from": [ 0, 28, 2 ],
			"to": [ 3, 30, 3 ],
			"faces": {
				"down": { "uv": [ 2, 1.5, 3.5, 2 ], "texture": "#Staff_2" },
				"up": { "uv": [ 2, 1.5, 3.5, 1 ], "texture": "#Staff_2" },
				"north": { "uv": [ 3.5, 9, 2, 10 ], "texture": "#Staff_2" },
				"south": { "uv": [ 2, 10, 3.5, 11 ], "texture": "#Staff_2" },
				"west": { "uv": [ 6, 3, 6.5, 4 ], "texture": "#Staff_2" },
				"east": { "uv": [ 5, 2, 4.5, 3 ], "texture": "#Staff_2" }
			}
		},
		{
			"__comment": "Voxels",
			"from": [ 0, 30, 3 ],
			"to": [ 3, 31, 6 ],
			"faces": {
				"down": { "uv": [ 2, 12.5, 3.5, 14 ], "texture": "#Staff_2" },
				"up": { "uv": [ 3.5, 14, 5, 12.5 ], "texture": "#Staff_2" },
				"north": { "uv": [ 3.5, 0.5, 2, 1 ], "texture": "#Staff_2" },
				"south": { "uv": [ 2, 0, 3.5, 0.5 ], "texture": "#Staff_2" },
				"west": { "uv": [ 7.5, 10.5, 9, 11 ], "texture": "#Staff_2" },
				"east": { "uv": [ 10.5, 10.5, 9, 11 ], "texture": "#Staff_2" }
			}
		},
		{
			"__comment": "Voxels",
			"from": [ 1, 1, 4 ],
			"to": [ 2, 3, 5 ],
			"faces": {
				"down": { "uv": [ 10.5, 8, 11, 8.5 ], "texture": "#Staff_2" },
				"up": { "uv": [ 7, 4, 7.5, 3.5 ], "texture": "#Staff_2" },
				"north": { "uv": [ 5, 1, 4.5, 2 ], "texture": "#Staff_2" },
				"south": { "uv": [ 5, 0, 5.5, 1 ], "texture": "#Staff_2" },
				"west": { "uv": [ 5.5, 0, 6, 1 ], "texture": "#Staff_2" },
				"east": { "uv": [ 6.5, 9, 6, 10 ], "texture": "#Staff_2" }
			}
		},
		{
			"__comment": "Voxels",
			"from": [ 1, 4, 3 ],
			"to": [ 2, 6, 4 ],
			"faces": {
				"down": { "uv": [ 7, 0, 7.5, 0.5 ], "texture": "#Staff_2" },
				"up": { "uv": [ 7.5, 8.5, 8, 8 ], "texture": "#Staff_2" },
				"north": { "uv": [ 7.5, 9, 7, 10 ], "texture": "#Staff_2" },
				"south": { "uv": [ 7.5, 9, 8, 10 ], "texture": "#Staff_2" },
				"west": { "uv": [ 8, 9, 8.5, 10 ], "texture": "#Staff_2" },
				"east": { "uv": [ 9, 9, 8.5, 10 ], "texture": "#Staff_2" }
			}
		},
		{
			"__comment": "Voxels",
			"from": [ 1, 4, 5 ],
			"to": [ 2, 6, 6 ],
			"faces": {
				"down": { "uv": [ 15, 9, 15.5, 9.5 ], "texture": "#Staff_2" },
				"up": { "uv": [ 15.5, 9.5, 16, 9 ], "texture": "#Staff_2" },
				"north": { "uv": [ 9.5, 9, 9, 10 ], "texture": "#Staff_2" },
				"south": { "uv": [ 9.5, 9, 10, 10 ], "texture": "#Staff_2" },
				"west": { "uv": [ 15.5, 15, 16, 16 ], "texture": "#Staff_2" },
				"east": { "uv": [ 4.5, 0.5, 4, 1.5 ], "texture": "#Staff_2" }
			}
		},
		{
			"__comment": "Voxels",
			"from": [ 1, 5, 4 ],
			"to": [ 2, 22, 5 ],
			"faces": {
				"down": { "uv": [ 6.5, 8.5, 7, 9 ], "texture": "#Staff_2" },
				"up": { "uv": [ 6.5, 8.5, 7, 8 ], "texture": "#Staff_2" },
				"north": { "uv": [ 0.5, 7.5, 0, 16 ], "texture": "#Staff_2" },
				"south": { "uv": [ 1, 7.5, 1.5, 16 ], "texture": "#Staff_2" },
				"west": { "uv": [ 1.5, 7.5, 2, 16 ], "texture": "#Staff_2" },
				"east": { "uv": [ 1, 7.5, 0.5, 16 ], "texture": "#Staff_2" }
			}
		},
		{
			"__comment": "Voxels",
			"from": [ 1, 19, 2 ],
			"to": [ 2, 23, 3 ],
			"faces": {
				"down": { "uv": [ 7, 4, 7.5, 4.5 ], "texture": "#Staff_2" },
				"up": { "uv": [ 6.5, 6, 7, 5.5 ], "texture": "#Staff_2" },
				"north": { "uv": [ 1.5, 1.5, 1, 3.5 ], "texture": "#Staff_2" },
				"south": { "uv": [ 1, 3.5, 1.5, 5.5 ], "texture": "#Staff_2" },
				"west": { "uv": [ 1, 5.5, 1.5, 7.5 ], "texture": "#Staff_2" },
				"east": { "uv": [ 0.5, 3.5, 0, 5.5 ], "texture": "#Staff_2" }
			}
		},
		{
			"__comment": "Voxels",
			"from": [ 1, 19, 6 ],
			"to": [ 2, 23, 7 ],
			"faces": {
				"down": { "uv": [ 6.5, 4, 7, 4.5 ], "texture": "#Staff_2" },
				"up": { "uv": [ 6.5, 4, 7, 3.5 ], "texture": "#Staff_2" },
				"north": { "uv": [ 0.5, 1.5, 0, 3.5 ], "texture": "#Staff_2" },
				"south": { "uv": [ 0.5, 5.5, 1, 7.5 ], "texture": "#Staff_2" },
				"west": { "uv": [ 0.5, 3.5, 1, 5.5 ], "texture": "#Staff_2" },
				"east": { "uv": [ 1, 1.5, 0.5, 3.5 ], "texture": "#Staff_2" }
			}
		},
		{
			"__comment": "Voxels",
			"from": [ 1, 22, 3 ],
			"to": [ 2, 25, 4 ],
			"faces": {
				"down": { "uv": [ 6.5, 2, 7, 2.5 ], "texture": "#Staff_2" },
				"up": { "uv": [ 6.5, 2, 7, 1.5 ], "texture": "#Staff_2" },
				"north": { "uv": [ 3.5, 3.5, 3, 5 ], "texture": "#Staff_2" },
				"south": { "uv": [ 3.5, 9, 4, 10.5 ], "texture": "#Staff_2" },
				"west": { "uv": [ 3.5, 7.5, 4, 9 ], "texture": "#Staff_2" },
				"east": { "uv": [ 4, 6, 3.5, 7.5 ], "texture": "#Staff_2" }
			}
		},
		{
			"__comment": "Voxels",
			"from": [ 1, 22, 5 ],
			"to": [ 2, 25, 6 ],
			"faces": {
				"down": { "uv": [ 8, 8.5, 8.5, 9 ], "texture": "#Staff_2" },
				"up": { "uv": [ 8.5, 9, 9, 8.5 ], "texture": "#Staff_2" },
				"north": { "uv": [ 4, 4.5, 3.5, 6 ], "texture": "#Staff_2" },
				"south": { "uv": [ 3.5, 3, 4, 4.5 ], "texture": "#Staff_2" },
				"west": { "uv": [ 3.5, 1.5, 4, 3 ], "texture": "#Staff_2" },
				"east": { "uv": [ 4, 0, 3.5, 1.5 ], "texture": "#Staff_2" }
			}
		},
		{
			"__comment": "Voxels",
			"from": [ 1, 24, 2 ],
			"to": [ 2, 25, 3 ],
			"faces": {
				"down": { "uv": [ 12, 8.5, 12.5, 9 ], "texture": "#Staff_2" },
				"up": { "uv": [ 12.5, 9, 13, 8.5 ], "texture": "#Staff_2" },
				"north": { "uv": [ 7.5, 3, 7, 3.5 ], "texture": "#Staff_2" },
				"south": { "uv": [ 7, 2.5, 7.5, 3 ], "texture": "#Staff_2" },
				"west": { "uv": [ 7, 2, 7.5, 2.5 ], "texture": "#Staff_2" },
				"east": { "uv": [ 7.5, 1.5, 7, 2 ], "texture": "#Staff_2" }
			}
		},
		{
			"__comment": "Voxels",
			"from": [ 1, 24, 6 ],
			"to": [ 2, 25, 7 ],
			"faces": {
				"down": { "uv": [ 9, 8, 9.5, 8.5 ], "texture": "#Staff_2" },
				"up": { "uv": [ 9.5, 8.5, 10, 8 ], "texture": "#Staff_2" },
				"north": { "uv": [ 10.5, 8, 10, 8.5 ], "texture": "#Staff_2" },
				"south": { "uv": [ 6.5, 1, 7, 1.5 ], "texture": "#Staff_2" },
				"west": { "uv": [ 6.5, 0.5, 7, 1 ], "texture": "#Staff_2" },
				"east": { "uv": [ 7, 0, 6.5, 0.5 ], "texture": "#Staff_2" }
			}
		},
		{
			"__comment": "Voxels",
			"from": [ 1, 25, 1 ],
			"to": [ 2, 27, 2 ],
			"faces": {
				"down": { "uv": [ 7, 8.5, 7.5, 9 ], "texture": "#Staff_2" },
				"up": { "uv": [ 7.5, 9, 8, 8.5 ], "texture": "#Staff_2" },
				"north": { "uv": [ 5, 4, 4.5, 5 ], "texture": "#Staff_2" },
				"south": { "uv": [ 5, 4, 5.5, 5 ], "texture": "#Staff_2" },
				"west": { "uv": [ 5.5, 4, 6, 5 ], "texture": "#Staff_2" },
				"east": { "uv": [ 5, 3, 4.5, 4 ], "texture": "#Staff_2" }
			}
		},
		{
			"__comment": "Voxels",
			"from": [ 1, 25, 7 ],
			"to": [ 2, 27, 8 ],
			"faces": {
				"down": { "uv": [ 10, 8.5, 10.5, 9 ], "texture": "#Staff_2" },
				"up": { "uv": [ 10.5, 9, 11, 8.5 ], "texture": "#Staff_2" },
				"north": { "uv": [ 5.5, 3, 5, 4 ], "texture": "#Staff_2" },
				"south": { "uv": [ 5.5, 3, 6, 4 ], "texture": "#Staff_2" },
				"west": { "uv": [ 5, 2, 5.5, 3 ], "texture": "#Staff_2" },
				"east": { "uv": [ 6, 2, 5.5, 3 ], "texture": "#Staff_2" }
			}
		},
		{
			"__comment": "Voxels",
			"from": [ 1, 28, 1 ],
			"to": [ 2, 29, 2 ],
			"faces": {
				"down": { "uv": [ 13, 8.5, 13.5, 9 ], "texture": "#Staff_2" },
				"up": { "uv": [ 13.5, 9, 14, 8.5 ], "texture": "#Staff_2" },
				"north": { "uv": [ 14.5, 8.5, 14, 9 ], "texture": "#Staff_2" },
				"south": { "uv": [ 14.5, 8.5, 15, 9 ], "texture": "#Staff_2" },
				"west": { "uv": [ 15, 8.5, 15.5, 9 ], "texture": "#Staff_2" },
				"east": { "uv": [ 16, 8.5, 15.5, 9 ], "texture": "#Staff_2" }
			}
		},
		{
			"__comment": "Voxels",
			"from": [ 1, 28, 7 ],
			"to": [ 2, 29, 8 ],
			"faces": {
				"down": { "uv": [ 7, 8, 7.5, 8.5 ], "texture": "#Staff_2" },
				"up": { "uv": [ 7, 8, 7.5, 7.5 ], "texture": "#Staff_2" },
				"north": { "uv": [ 7.5, 7, 7, 7.5 ], "texture": "#Staff_2" },
				"south": { "uv": [ 7, 6.5, 7.5, 7 ], "texture": "#Staff_2" },
				"west": { "uv": [ 7, 6, 7.5, 6.5 ], "texture": "#Staff_2" },
				"east": { "uv": [ 7.5, 5.5, 7, 6 ], "texture": "#Staff_2" }
			}
		},
		{
			"__comment": "Voxels",
			"from": [ 3, 19, 4 ],
			"to": [ 4, 22, 5 ],
			"faces": {
				"down": { "uv": [ 7, 5, 7.5, 5.5 ], "texture": "#Staff_2" },
				"up": { "uv": [ 7, 5, 7.5, 4.5 ], "texture": "#Staff_2" },
				"north": { "uv": [ 4.5, 9, 4, 10.5 ], "texture": "#Staff_2" },
				"south": { "uv": [ 4, 7.5, 4.5, 9 ], "texture": "#Staff_2" },
				"west": { "uv": [ 4, 6, 4.5, 7.5 ], "texture": "#Staff_2" },
				"east": { "uv": [ 4.5, 4.5, 4, 6 ], "texture": "#Staff_2" }
			}
		},
		{
			"__comment": "Voxels",
			"from": [ 3, 25, 3 ],
			"to": [ 4, 26, 6 ],
			"faces": {
				"down": { "uv": [ 4, 3, 4.5, 4.5 ], "texture": "#Staff_2" },
				"up": { "uv": [ 4, 3, 4.5, 1.5 ], "texture": "#Staff_2" },
				"north": { "uv": [ 7.5, 1, 7, 1.5 ], "texture": "#Staff_2" },
				"south": { "uv": [ 7, 0.5, 7.5, 1 ], "texture": "#Staff_2" },
				"west": { "uv": [ 10.5, 10.5, 12, 11 ], "texture": "#Staff_2" },
				"east": { "uv": [ 13.5, 10.5, 12, 11 ], "texture": "#Staff_2" }
			}
		},
		{
			"__comment": "Voxels",
			"from": [ 4, 25, 4 ],
			"to": [ 5, 27, 5 ],
			"faces": {
				"down": { "uv": [ 8, 8, 8.5, 8.5 ], "texture": "#Staff_2" },
				"up": { "uv": [ 8.5, 8.5, 9, 8 ], "texture": "#Staff_2" },
				"north": { "uv": [ 6.5, 8, 6, 9 ], "texture": "#Staff_2" },
				"south": { "uv": [ 6, 5, 6.5, 6 ], "texture": "#Staff_2" },
				"west": { "uv": [ 6, 4, 6.5, 5 ], "texture": "#Staff_2" },
				"east": { "uv": [ 7, 9, 6.5, 10 ], "texture": "#Staff_2" }
			}
		}
	],
	"display": {
		"thirdperson_righthand": {
			"translation":  [ 6.26, -9.042, 4.8695 ]
		},
		"thirdperson_lefthand": {
			"translation":  [ -6.26, -9.042, 4.8695 ]
		},
		"firstperson_righthand": {
			"translation":  [ 10.433, -7.651, 0.695 ]
		},
		"firstperson_lefthand": {
			"translation":  [ -1.388, -6.955, -0.695 ]
		},
		"gui": {
			"rotation":  [ 0, 0, -45 ],
			"translation":  [ -0.695, -6.95, 0.5 ],
			"scale":  [ 0.652, 0.652, 0.0955 ]
		},
		"head": {
			"rotation":  [ 180, 0, -36 ],
			"translation":  [ 0, -4.868, 0 ],
			"scale":  [ 1.3391, 1.3391, 1.3391 ]
		},
		"ground": {
			"rotation":  [ 0, 0, 90 ],
			"translation":  [ 4.8695, 3.4782, 3.4775 ],
			"scale":  [ 0.5476, 0.5476, 0.5476 ]
		},
		"fixed": {
			"rotation":  [ 0, 0, 45 ],
			"translation":  [ 9.0441, -1.396, 1.1956 ],
			"scale":  [ 0.8608, 0.8608, 0.0608 ]
		}
	}
}