{
	"__comment": "Designed by ClauseWitz with Cubik Studio - https://cubik.studio",
	"textures": {
		"Wand_1": "model3d/wand_1"
	},
	"elements": [ 	 
		{
			"__comment": "Voxels",
			"from": [ 3, 21, 5 ],
			"to": [ 8, 23, 6 ],
			"faces": {
				"down": { "uv": [ 8, 15.5, 10.5, 16 ], "texture": "#Wand_1" },
				"up": { "uv": [ 10.5, 16, 13, 15.5 ], "texture": "#Wand_1" },
				"north": { "uv": [ 4.5, 15, 2, 16 ], "texture": "#Wand_1" },
				"south": { "uv": [ 2, 14, 4.5, 15 ], "texture": "#Wand_1" },
				"west": { "uv": [ 8.5, 11.5, 9, 12.5 ], "texture": "#Wand_1" },
				"east": { "uv": [ 9, 10.5, 8.5, 11.5 ], "texture": "#Wand_1" }
			}
		},
		{
			"__comment": "Voxels",
			"from": [ 4, 13, 4 ],
			"to": [ 5, 16, 5 ],
			"faces": {
				"down": { "uv": [ 4.5, 8, 5, 8.5 ], "texture": "#Wand_1" },
				"up": { "uv": [ 5, 8.5, 5.5, 8 ], "texture": "#Wand_1" },
				"north": { "uv": [ 6.5, 10, 6, 11.5 ], "texture": "#Wand_1" },
				"south": { "uv": [ 6, 8.5, 6.5, 10 ], "texture": "#Wand_1" },
				"west": { "uv": [ 6.5, 12.5, 7, 14 ], "texture": "#Wand_1" },
				"east": { "uv": [ 8.5, 11, 8, 12.5 ], "texture": "#Wand_1" }
			}
		},
		{
			"__comment": "Voxels",
			"from": [ 4, 13, 6 ],
			"to": [ 5, 16, 7 ],
			"faces": {
				"down": { "uv": [ 5.5, 8, 6, 8.5 ], "texture": "#Wand_1" },
				"up": { "uv": [ 6, 8.5, 6.5, 8 ], "texture": "#Wand_1" },
				"north": { "uv": [ 7, 11, 6.5, 12.5 ], "texture": "#Wand_1" },
				"south": { "uv": [ 7, 11, 7.5, 12.5 ], "texture": "#Wand_1" },
				"west": { "uv": [ 7.5, 11, 8, 12.5 ], "texture": "#Wand_1" },
				"east": { "uv": [ 7, 9.5, 6.5, 11 ], "texture": "#Wand_1" }
			}
		},
		{
			"__comment": "Voxels",
			"from": [ 4, 19, 5 ],
			"to": [ 7, 21, 6 ],
			"faces": {
				"down": { "uv": [ 6.5, 9, 8, 9.5 ], "texture": "#Wand_1" },
				"up": { "uv": [ 6.5, 9, 8, 8.5 ], "texture": "#Wand_1" },
				"north": { "uv": [ 8, 15, 6.5, 16 ], "texture": "#Wand_1" },
				"south": { "uv": [ 6.5, 14, 8, 15 ], "texture": "#Wand_1" },
				"west": { "uv": [ 10, 14.5, 10.5, 15.5 ], "texture": "#Wand_1" },
				"east": { "uv": [ 12, 14.5, 11.5, 15.5 ], "texture": "#Wand_1" }
			}
		},
		{
			"__comment": "Voxels",
			"from": [ 4, 23, 5 ],
			"to": [ 7, 26, 6 ],
			"faces": {
				"down": { "uv": [ 6.5, 8, 8, 8.5 ], "texture": "#Wand_1" },
				"up": { "uv": [ 13, 16, 14.5, 15.5 ], "texture": "#Wand_1" },
				"north": { "uv": [ 3.5, 12.5, 2, 14 ], "texture": "#Wand_1" },
				"south": { "uv": [ 2, 11, 3.5, 12.5 ], "texture": "#Wand_1" },
				"west": { "uv": [ 7.5, 9.5, 8, 11 ], "texture": "#Wand_1" },
				"east": { "uv": [ 8.5, 14, 8, 15.5 ], "texture": "#Wand_1" }
			}
		},
		{
			"__comment": "Voxels",
			"from": [ 5, 0, 6 ],
			"to": [ 6, 6, 7 ],
			"faces": {
				"down": { "uv": [ 15, 15.5, 15.5, 16 ], "texture": "#Wand_1" },
				"up": { "uv": [ 14.5, 16, 15, 15.5 ], "texture": "#Wand_1" },
				"north": { "uv": [ 4, 8, 3.5, 11 ], "texture": "#Wand_1" },
				"south": { "uv": [ 4, 8, 4.5, 11 ], "texture": "#Wand_1" },
				"west": { "uv": [ 4.5, 8.5, 5, 11.5 ], "texture": "#Wand_1" },
				"east": { "uv": [ 5.5, 8.5, 5, 11.5 ], "texture": "#Wand_1" }
			}
		},
		{
			"__comment": "Voxels",
			"from": [ 5, 3, 5 ],
			"to": [ 6, 19, 6 ],
			"faces": {
				"down": { "uv": [ 9, 13.5, 9.5, 14 ], "texture": "#Wand_1" },
				"up": { "uv": [ 9, 14.5, 9.5, 14 ], "texture": "#Wand_1" },
				"north": { "uv": [ 1.5, 8, 1, 16 ], "texture": "#Wand_1" },
				"south": { "uv": [ 1.5, 8, 2, 16 ], "texture": "#Wand_1" },
				"west": { "uv": [ 0, 8, 0.5, 16 ], "texture": "#Wand_1" },
				"east": { "uv": [ 1, 8, 0.5, 16 ], "texture": "#Wand_1" }
			}
		},
		{
			"__comment": "Voxels",
			"from": [ 5, 6, 4 ],
			"to": [ 6, 9, 5 ],
			"faces": {
				"down": { "uv": [ 15.5, 14.5, 16, 15 ], "texture": "#Wand_1" },
				"up": { "uv": [ 15, 15, 15.5, 14.5 ], "texture": "#Wand_1" },
				"north": { "uv": [ 8.5, 12.5, 8, 14 ], "texture": "#Wand_1" },
				"south": { "uv": [ 8.5, 14, 9, 15.5 ], "texture": "#Wand_1" },
				"west": { "uv": [ 8, 9.5, 8.5, 11 ], "texture": "#Wand_1" },
				"east": { "uv": [ 8.5, 8, 8, 9.5 ], "texture": "#Wand_1" }
			}
		},
		{
			"__comment": "Voxels",
			"from": [ 5, 19, 4 ],
			"to": [ 6, 28, 5 ],
			"faces": {
				"down": { "uv": [ 9, 11, 9.5, 11.5 ], "texture": "#Wand_1" },
				"up": { "uv": [ 13, 15, 13.5, 14.5 ], "texture": "#Wand_1" },
				"north": { "uv": [ 5.5, 11.5, 5, 16 ], "texture": "#Wand_1" },
				"south": { "uv": [ 4.5, 11.5, 5, 16 ], "texture": "#Wand_1" },
				"west": { "uv": [ 6, 11.5, 6.5, 16 ], "texture": "#Wand_1" },
				"east": { "uv": [ 6, 11.5, 5.5, 16 ], "texture": "#Wand_1" }
			}
		},
		{
			"__comment": "Voxels",
			"from": [ 5, 19, 6 ],
			"to": [ 6, 25, 7 ],
			"faces": {
				"down": { "uv": [ 9, 12, 9.5, 12.5 ], "texture": "#Wand_1" },
				"up": { "uv": [ 9, 12, 9.5, 11.5 ], "texture": "#Wand_1" },
				"north": { "uv": [ 3, 8, 2.5, 11 ], "texture": "#Wand_1" },
				"south": { "uv": [ 3, 8, 3.5, 11 ], "texture": "#Wand_1" },
				"west": { "uv": [ 2, 8, 2.5, 11 ], "texture": "#Wand_1" },
				"east": { "uv": [ 6, 8.5, 5.5, 11.5 ], "texture": "#Wand_1" }
			}
		},
		{
			"__comment": "Voxels",
			"from": [ 5, 21, 3 ],
			"to": [ 6, 23, 4 ],
			"faces": {
				"down": { "uv": [ 15.5, 15.5, 16, 16 ], "texture": "#Wand_1" },
				"up": { "uv": [ 8.5, 8.5, 9, 8 ], "texture": "#Wand_1" },
				"north": { "uv": [ 9, 9.5, 8.5, 10.5 ], "texture": "#Wand_1" },
				"south": { "uv": [ 8.5, 8.5, 9, 9.5 ], "texture": "#Wand_1" },
				"west": { "uv": [ 9, 14.5, 9.5, 15.5 ], "texture": "#Wand_1" },
				"east": { "uv": [ 10, 14.5, 9.5, 15.5 ], "texture": "#Wand_1" }
			}
		},
		{
			"__comment": "Voxels",
			"from": [ 5, 21, 7 ],
			"to": [ 6, 23, 8 ],
			"faces": {
				"down": { "uv": [ 13, 15, 13.5, 15.5 ], "texture": "#Wand_1" },
				"up": { "uv": [ 15, 15.5, 15.5, 15 ], "texture": "#Wand_1" },
				"north": { "uv": [ 12.5, 14.5, 12, 15.5 ], "texture": "#Wand_1" },
				"south": { "uv": [ 12.5, 14.5, 13, 15.5 ], "texture": "#Wand_1" },
				"west": { "uv": [ 10.5, 14.5, 11, 15.5 ], "texture": "#Wand_1" },
				"east": { "uv": [ 11.5, 14.5, 11, 15.5 ], "texture": "#Wand_1" }
			}
		},
		{
			"__comment": "Voxels",
			"from": [ 5, 26, 5 ],
			"to": [ 6, 27, 6 ],
			"faces": {
				"down": { "uv": [ 13.5, 15, 14, 15.5 ], "texture": "#Wand_1" },
				"up": { "uv": [ 13.5, 15, 14, 14.5 ], "texture": "#Wand_1" },
				"north": { "uv": [ 14.5, 15, 14, 15.5 ], "texture": "#Wand_1" },
				"south": { "uv": [ 14, 14.5, 14.5, 15 ], "texture": "#Wand_1" },
				"west": { "uv": [ 14.5, 15, 15, 15.5 ], "texture": "#Wand_1" },
				"east": { "uv": [ 15, 14.5, 14.5, 15 ], "texture": "#Wand_1" }
			}
		},
		{
			"__comment": "Voxels",
			"from": [ 6, 13, 4 ],
			"to": [ 7, 16, 5 ],
			"faces": {
				"down": { "uv": [ 9, 10.5, 9.5, 11 ], "texture": "#Wand_1" },
				"up": { "uv": [ 15.5, 15.5, 16, 15 ], "texture": "#Wand_1" },
				"north": { "uv": [ 4, 12.5, 3.5, 14 ], "texture": "#Wand_1" },
				"south": { "uv": [ 4, 12.5, 4.5, 14 ], "texture": "#Wand_1" },
				"west": { "uv": [ 3.5, 11, 4, 12.5 ], "texture": "#Wand_1" },
				"east": { "uv": [ 4.5, 11, 4, 12.5 ], "texture": "#Wand_1" }
			}
		},
		{
			"__comment": "Voxels",
			"from": [ 6, 13, 6 ],
			"to": [ 7, 16, 7 ],
			"faces": {
				"down": { "uv": [ 9, 13, 9.5, 13.5 ], "texture": "#Wand_1" },
				"up": { "uv": [ 9, 13, 9.5, 12.5 ], "texture": "#Wand_1" },
				"north": { "uv": [ 7.5, 12.5, 7, 14 ], "texture": "#Wand_1" },
				"south": { "uv": [ 7.5, 12.5, 8, 14 ], "texture": "#Wand_1" },
				"west": { "uv": [ 7, 9.5, 7.5, 11 ], "texture": "#Wand_1" },
				"east": { "uv": [ 9, 12.5, 8.5, 14 ], "texture": "#Wand_1" }
			}
		}
	],
	"display": {
		"thirdperson_righthand": {
			"rotation":  [ 0, 90, 0 ],
			"translation":  [ 2.7826, -4.868, -0.695 ]
		},
		"thirdperson_lefthand": {
			"rotation":  [ 0, 90, 0 ],
			"translation":  [ 2.7826, -4.868, 4.1732 ]
		},
		"firstperson_righthand": {
			"translation":  [ 4.8695, -3.478, 0 ]
		},
		"firstperson_lefthand": {
			"translation":  [ 0, -3.478, 0 ]
		},
		"gui": {
			"rotation":  [ 0, 0, -46 ],
			"translation":  [ -2.086, -4.171, 0 ],
			"scale":  [ 0.7216, 0.7216, 1 ]
		},
		"head": {
			"rotation":  [ 0, 0, 90 ],
			"translation":  [ 9.0434, 3.4782, 4.1739 ],
			"scale":  [ 1.5913, 1.5913, 1.5913 ]
		},
		"ground": {
			"rotation":  [ 0, 0, 90 ],
			"translation":  [ 3.4782, 0.6958, 2.0869 ],
			"scale":  [ 0.7912, 0.7912, 0.7912 ]
		},
		"fixed": {
			"rotation":  [ 0, 0, 44 ],
			"translation":  [ 4.8695, -2.086, 0 ],
			"scale":  [ 0.7912, 0.7912, 0.0001 ]
		}
	}
}