{
	"credit": "made with Blockbench, pack by duanti",
	"texture_size": [256, 256],
	"textures": {
		"0": "items/dragon"
	},
	"elements": [
		{
			"name": "head",
			"from": [3, 7, -14],
			"to": [13, 11, -2],
			"rotation": {"angle": 0, "axis": "y", "origin": [8, 3, 0]},
			"faces": {
				"north": {"uv": [12, 3.75, 12.75, 4.0625], "texture": "#0"},
				"east": {"uv": [11, 3.75, 12, 4.0625], "texture": "#0"},
				"south": {"uv": [13.75, 3.75, 14.5, 4.0625], "texture": "#0"},
				"west": {"uv": [12.75, 3.75, 13.75, 4.0625], "texture": "#0"},
				"up": {"uv": [12.75, 3.75, 12, 2.75], "texture": "#0"},
				"down": {"uv": [13.5, 2.75, 12.75, 3.75], "texture": "#0"}
			}
		},
		{
			"name": "head",
			"from": [2, 4, -7],
			"to": [14, 17, 4],
			"rotation": {"angle": 0, "axis": "x", "origin": [8, 3, -2]},
			"faces": {
				"north": {"uv": [8, 2.875, 9, 3.875], "texture": "#0"},
				"east": {"uv": [7, 2.875, 8, 3.875], "texture": "#0"},
				"south": {"uv": [10, 2.875, 11, 3.875], "texture": "#0"},
				"west": {"uv": [9, 2.875, 10, 3.875], "texture": "#0"},
				"up": {"uv": [9, 2.875, 8, 1.875], "texture": "#0"},
				"down": {"uv": [10, 1.875, 9, 2.875], "texture": "#0"}
			}
		},
		{
			"name": "head",
			"from": [11, 17, -4],
			"to": [13, 20, 2],
			"shade": false,
			"rotation": {"angle": 0, "axis": "y", "origin": [8, 2, -2]},
			"faces": {
				"north": {"uv": [0.5, 0.375, 0.375, 0.625], "texture": "#0"},
				"east": {"uv": [0.875, 0.375, 0.5, 0.625], "texture": "#0"},
				"south": {"uv": [1, 0.375, 0.875, 0.625], "texture": "#0"},
				"west": {"uv": [0.375, 0.375, 0, 0.625], "texture": "#0"},
				"up": {"uv": [0.375, 0.375, 0.5, 0], "texture": "#0"},
				"down": {"uv": [0.5, 0, 0.625, 0.375], "texture": "#0"}
			}
		},
		{
			"name": "head",
			"from": [10, 11, -13],
			"to": [11, 12, -10],
			"shade": false,
			"rotation": {"angle": 0, "axis": "y", "origin": [8, 3, 2]},
			"faces": {
				"north": {"uv": [7.375, 0.25, 7.25, 0.375], "texture": "#0"},
				"east": {"uv": [7.625, 0.25, 7.375, 0.375], "texture": "#0"},
				"south": {"uv": [7.75, 0.25, 7.625, 0.375], "texture": "#0"},
				"west": {"uv": [7.25, 0.25, 7, 0.375], "texture": "#0"},
				"up": {"uv": [7.25, 0.25, 7.375, 0], "texture": "#0"},
				"down": {"uv": [7.375, 0, 7.5, 0.25], "texture": "#0"}
			}
		},
		{
			"name": "head",
			"from": [3, 17, -4],
			"to": [5, 20, 2],
			"rotation": {"angle": 0, "axis": "y", "origin": [8, 2, -2]},
			"faces": {
				"north": {"uv": [0.375, 0.375, 0.5, 0.625], "texture": "#0"},
				"east": {"uv": [0, 0.375, 0.375, 0.625], "texture": "#0"},
				"south": {"uv": [0.875, 0.375, 1, 0.625], "texture": "#0"},
				"west": {"uv": [0.5, 0.375, 0.875, 0.625], "texture": "#0"},
				"up": {"uv": [0.5, 0.375, 0.375, 0], "texture": "#0"},
				"down": {"uv": [0.625, 0, 0.5, 0.375], "texture": "#0"}
			}
		},
		{
			"name": "head",
			"from": [5, 11, -13],
			"to": [6, 12, -10],
			"rotation": {"angle": 0, "axis": "y", "origin": [8, 3, 2]},
			"faces": {
				"north": {"uv": [7.25, 0.25, 7.375, 0.375], "texture": "#0"},
				"east": {"uv": [7, 0.25, 7.25, 0.375], "texture": "#0"},
				"south": {"uv": [7.625, 0.25, 7.75, 0.375], "texture": "#0"},
				"west": {"uv": [7.375, 0.25, 7.625, 0.375], "texture": "#0"},
				"up": {"uv": [7.375, 0.25, 7.25, 0], "texture": "#0"},
				"down": {"uv": [7.5, 0, 7.375, 0.25], "texture": "#0"}
			}
		},
		{
			"name": "jaw",
			"from": [3, 4, -14],
			"to": [13, 7, -2],
			"rotation": {"angle": 0, "axis": "x", "origin": [8, 4, 0]},
			"faces": {
				"north": {"uv": [12, 5.0625, 12.75, 5.3125], "texture": "#0"},
				"east": {"uv": [11, 5.0625, 12, 5.3125], "texture": "#0"},
				"south": {"uv": [13.75, 5.0625, 14.5, 5.3125], "texture": "#0"},
				"west": {"uv": [12.75, 5.0625, 13.75, 5.3125], "texture": "#0"},
				"up": {"uv": [12.75, 5.0625, 12, 4.0625], "texture": "#0"},
				"down": {"uv": [13.5, 4.0625, 12.75, 5.0625], "texture": "#0"}
			}
		},
		{
			"name": "neck",
			"from": [3, 5, 2],
			"to": [11, 13, 10],
			"rotation": {"angle": 0, "axis": "y", "origin": [7, 3, 7]},
			"faces": {
				"north": {"uv": [12.625, 7.125, 13.25, 7.75], "texture": "#0"},
				"east": {"uv": [12, 7.125, 12.625, 7.75], "texture": "#0"},
				"south": {"uv": [13.875, 7.125, 14.5, 7.75], "texture": "#0"},
				"west": {"uv": [13.25, 7.125, 13.875, 7.75], "texture": "#0"},
				"up": {"uv": [13.25, 7.125, 12.625, 6.5], "texture": "#0"},
				"down": {"uv": [13.875, 6.5, 13.25, 7.125], "texture": "#0"}
			}
		},
		{
			"name": "neck",
			"from": [7, 13, 4],
			"to": [8, 15, 7],
			"rotation": {"angle": 0, "axis": "y", "origin": [7, 3, 7]},
			"faces": {
				"north": {"uv": [3.375, 0.375, 3.5, 0.625], "texture": "#0"},
				"east": {"uv": [3, 0.375, 3.375, 0.625], "texture": "#0"},
				"south": {"uv": [3.875, 0.375, 4, 0.625], "texture": "#0"},
				"west": {"uv": [3.5, 0.375, 3.875, 0.625], "texture": "#0"},
				"up": {"uv": [3.5, 0.375, 3.375, 0], "texture": "#0"},
				"down": {"uv": [3.625, 0, 3.5, 0.375], "texture": "#0"}
			}
		},
		{
			"name": "body",
			"from": [1, 2, 7],
			"to": [15, 14, 19],
			"rotation": {"angle": 0, "axis": "y", "origin": [8, 4, 13]},
			"faces": {
				"north": {"uv": [1, 4, 2.125, 5], "texture": "#0"},
				"east": {"uv": [0, 4, 1, 5], "texture": "#0"},
				"south": {"uv": [3.125, 4, 4.25, 5], "texture": "#0"},
				"west": {"uv": [2.125, 4, 3.125, 5], "texture": "#0"},
				"up": {"uv": [2.125, 4, 1, 3], "texture": "#0"},
				"down": {"uv": [3.25, 3, 2.125, 4], "texture": "#0"}
			}
		},
		{
			"name": "body",
			"from": [7, 14, 9],
			"to": [9, 18, 17],
			"rotation": {"angle": 0, "axis": "y", "origin": [8, 4, 13]},
			"faces": {
				"north": {"uv": [14.5, 4.0625, 14.625, 4.4375], "texture": "#0"},
				"east": {"uv": [13.75, 4.0625, 14.5, 4.4375], "texture": "#0"},
				"south": {"uv": [15.375, 4.0625, 15.5, 4.4375], "texture": "#0"},
				"west": {"uv": [14.625, 4.0625, 15.375, 4.4375], "texture": "#0"},
				"up": {"uv": [14.625, 4.0625, 14.5, 3.3125], "texture": "#0"},
				"down": {"uv": [14.75, 3.3125, 14.625, 4.0625], "texture": "#0"}
			}
		},
		{
			"name": "wingtip1",
			"from": [-16, 13.5, 6.7],
			"to": [2, 14.5, 7.7],
			"shade": false,
			"rotation": {"angle": -22.5, "axis": "z", "origin": [1, 14, 6.7]},
			"faces": {
				"north": {"uv": [10.25, 8.75, 7.25, 9], "texture": "#0"},
				"east": {"uv": [10.5, 8.75, 10.25, 9], "texture": "#0"},
				"south": {"uv": [13.5, 8.75, 10.5, 9], "texture": "#0"},
				"west": {"uv": [7.25, 8.75, 7, 9], "texture": "#0"},
				"up": {"uv": [7.25, 8.75, 10.25, 8.5], "texture": "#0"},
				"down": {"uv": [10.25, 8.5, 13.25, 8.75], "texture": "#0"}
			}
		},
		{
			"name": "wingtip1",
			"from": [-16, 14, 7.7],
			"to": [2, 14, 21.7],
			"shade": false,
			"rotation": {"angle": -22.5, "axis": "z", "origin": [1, 14, 6.7]},
			"faces": {
				"up": {"uv": [0.4375, 8.625, 3.4375, 5.875], "texture": "#0"},
				"down": {"uv": [0.4375, 5.875, 3.4375, 8.625], "texture": "#0"}
			}
		},
		{
			"name": "wingtip2",
			"from": [-16, 13.5, 6.7],
			"to": [2, 14.5, 7.7],
			"shade": false,
			"rotation": {"angle": 0, "axis": "z", "origin": [1, 14, 6.7]},
			"faces": {
				"north": {"uv": [10.25, 9.25, 7.25, 9.5], "texture": "#0"},
				"east": {"uv": [10.5, 9.25, 10.25, 9.5], "texture": "#0"},
				"south": {"uv": [13.5, 9.25, 10.5, 9.5], "texture": "#0"},
				"west": {"uv": [7.25, 9.25, 7, 9.5], "texture": "#0"},
				"up": {"uv": [7.25, 9.25, 10.25, 9], "texture": "#0"},
				"down": {"uv": [10.25, 9, 13.25, 9.25], "texture": "#0"}
			}
		},
		{
			"name": "wingtip2",
			"from": [-16, 14, 7.7],
			"to": [2, 14, 21.7],
			"shade": false,
			"rotation": {"angle": 0, "axis": "z", "origin": [1, 14, 6.7]},
			"faces": {
				"up": {"uv": [3.9375, 8.625, 6.9375, 5.875], "texture": "#0"},
				"down": {"uv": [3.9375, 5.875, 6.9375, 8.625], "texture": "#0"}
			}
		},
		{
			"name": "wingtip3",
			"from": [-16, 13.5, 6.7],
			"to": [2, 14.5, 7.7],
			"shade": false,
			"rotation": {"angle": 22.5, "axis": "z", "origin": [1, 14, 6.7]},
			"faces": {
				"north": {"uv": [10.25, 9.75, 7.25, 10], "texture": "#0"},
				"east": {"uv": [10.5, 9.75, 10.25, 10], "texture": "#0"},
				"south": {"uv": [13.5, 9.75, 10.5, 10], "texture": "#0"},
				"west": {"uv": [7.25, 9.75, 7, 10], "texture": "#0"},
				"up": {"uv": [7.25, 9.75, 10.25, 9.5], "texture": "#0"},
				"down": {"uv": [10.25, 9.5, 13.25, 9.75], "texture": "#0"}
			}
		},
		{
			"name": "wingtip3",
			"from": [-16, 14, 7.7],
			"to": [2, 14, 21.7],
			"shade": false,
			"rotation": {"angle": 22.5, "axis": "z", "origin": [1, 14, 6.7]},
			"faces": {
				"up": {"uv": [0.4375, 12.125, 3.4375, 9.375], "texture": "#0"},
				"down": {"uv": [0.4375, 9.375, 3.4375, 12.125], "texture": "#0"}
			}
		},
		{
			"name": "wingtip4",
			"from": [0.5, -3, 6.7],
			"to": [1.5, 15, 7.7],
			"shade": false,
			"rotation": {"angle": -45, "axis": "z", "origin": [1, 14, 6.7]},
			"faces": {
				"north": {"uv": [10.25, 10.25, 7.25, 10.5], "rotation": 90, "texture": "#0"},
				"east": {"uv": [10.25, 10, 13.25, 10.25], "rotation": 270, "texture": "#0"},
				"south": {"uv": [13.5, 10.25, 10.5, 10.5], "rotation": 270, "texture": "#0"},
				"west": {"uv": [7.25, 10.25, 10.25, 10], "rotation": 270, "texture": "#0"},
				"up": {"uv": [10.5, 10.25, 10.25, 10.5], "rotation": 270, "texture": "#0"},
				"down": {"uv": [7.25, 10.25, 7, 10.5], "rotation": 270, "texture": "#0"}
			}
		},
		{
			"name": "wingtip4",
			"from": [1, -3, 7.7],
			"to": [1, 15, 21.7],
			"shade": false,
			"rotation": {"angle": -45, "axis": "z", "origin": [1, 14, 6.7]},
			"faces": {
				"east": {"uv": [3.9375, 9.375, 6.9375, 12.125], "rotation": 270, "texture": "#0"},
				"west": {"uv": [3.9375, 12.125, 6.9375, 9.375], "rotation": 270, "texture": "#0"}
			}
		},
		{
			"name": "rearfoot",
			"from": [10, -6, 13],
			"to": [18, 6, 16],
			"rotation": {"angle": 22.5, "axis": "x", "origin": [11, -7, 9]},
			"faces": {
				"north": {"uv": [9.625, 1.5, 8.5, 0], "rotation": 180, "texture": "#0"},
				"east": {"uv": [7, 1.5, 8.5, 1.875], "rotation": 90, "texture": "#0"},
				"south": {"uv": [10.75, 0, 9.625, 1.5], "texture": "#0"},
				"west": {"uv": [9.625, 1.5, 11.125, 1.875], "rotation": 270, "texture": "#0"},
				"up": {"uv": [11.125, 1.5, 12.25, 1.875], "texture": "#0"},
				"down": {"uv": [8.5, 1.5, 9.625, 1.875], "rotation": 180, "texture": "#0"}
			}
		},
		{
			"name": "rearfoot",
			"from": [-2, -6, 13],
			"to": [6, 6, 16],
			"rotation": {"angle": 22.5, "axis": "x", "origin": [11, -7, 9]},
			"faces": {
				"north": {"uv": [9.625, 1.5, 8.5, 0], "rotation": 180, "texture": "#0"},
				"east": {"uv": [7, 1.5, 8.5, 1.875], "rotation": 90, "texture": "#0"},
				"south": {"uv": [10.75, 0, 9.625, 1.5], "texture": "#0"},
				"west": {"uv": [9.625, 1.5, 11.125, 1.875], "rotation": 270, "texture": "#0"},
				"up": {"uv": [11.125, 1.5, 12.25, 1.875], "texture": "#0"},
				"down": {"uv": [8.5, 1.5, 9.625, 1.875], "rotation": 180, "texture": "#0"}
			}
		},
		{
			"name": "frontfoot",
			"from": [11, -1, 1],
			"to": [16, 1, 11],
			"rotation": {"angle": -22.5, "axis": "x", "origin": [12, -4, 6]},
			"faces": {
				"north": {"uv": [10, 7.5, 10.5, 7.75], "texture": "#0"},
				"east": {"uv": [9, 7.5, 10, 7.75], "texture": "#0"},
				"south": {"uv": [11.5, 7.5, 12, 7.75], "texture": "#0"},
				"west": {"uv": [10.5, 7.5, 11.5, 7.75], "texture": "#0"},
				"up": {"uv": [10.5, 7.5, 10, 6.5], "texture": "#0"},
				"down": {"uv": [11, 6.5, 10.5, 7.5], "texture": "#0"}
			}
		},
		{
			"name": "frontfoot",
			"from": [0, -1, 1],
			"to": [5, 1, 11],
			"rotation": {"angle": -22.5, "axis": "x", "origin": [12, -4, 6]},
			"faces": {
				"north": {"uv": [10, 7.5, 10.5, 7.75], "texture": "#0"},
				"east": {"uv": [9, 7.5, 10, 7.75], "texture": "#0"},
				"south": {"uv": [11.5, 7.5, 12, 7.75], "texture": "#0"},
				"west": {"uv": [10.5, 7.5, 11.5, 7.75], "texture": "#0"},
				"up": {"uv": [10.5, 7.5, 10, 6.5], "texture": "#0"},
				"down": {"uv": [11, 6.5, 10.5, 7.5], "texture": "#0"}
			}
		},
		{
			"name": "tail",
			"from": [5, 8, 19],
			"to": [11, 14, 25],
			"rotation": {"angle": 0, "axis": "y", "origin": [8, 8, 18]},
			"faces": {
				"north": {"uv": [12.625, 7.125, 13.25, 7.75], "texture": "#0"},
				"east": {"uv": [12, 7.125, 12.625, 7.75], "texture": "#0"},
				"south": {"uv": [13.875, 7.125, 14.5, 7.75], "texture": "#0"},
				"west": {"uv": [13.25, 7.125, 13.875, 7.75], "texture": "#0"},
				"up": {"uv": [13.25, 7.125, 12.625, 6.5], "texture": "#0"},
				"down": {"uv": [13.875, 6.5, 13.25, 7.125], "texture": "#0"}
			}
		},
		{
			"name": "tail",
			"from": [7, 14, 20],
			"to": [9, 16, 24],
			"rotation": {"angle": 0, "axis": "y", "origin": [8, 0, 11]},
			"faces": {
				"north": {"uv": [3.375, 0.375, 3.5, 0.625], "texture": "#0"},
				"east": {"uv": [3, 0.375, 3.375, 0.625], "texture": "#0"},
				"south": {"uv": [3.875, 0.375, 4, 0.625], "texture": "#0"},
				"west": {"uv": [3.5, 0.375, 3.875, 0.625], "texture": "#0"},
				"up": {"uv": [3.5, 0.375, 3.375, 0], "texture": "#0"},
				"down": {"uv": [3.625, 0, 3.5, 0.375], "texture": "#0"}
			}
		},
		{
			"name": "tail",
			"from": [5, 7.8, 22.6],
			"to": [11, 13.8, 28.6],
			"rotation": {"angle": 22.5, "axis": "x", "origin": [8, 8, 24]},
			"faces": {
				"north": {"uv": [12.625, 7.125, 13.25, 7.75], "texture": "#0"},
				"east": {"uv": [12, 7.125, 12.625, 7.75], "texture": "#0"},
				"south": {"uv": [13.875, 7.125, 14.5, 7.75], "texture": "#0"},
				"west": {"uv": [13.25, 7.125, 13.875, 7.75], "texture": "#0"},
				"up": {"uv": [13.25, 7.125, 12.625, 6.5], "texture": "#0"},
				"down": {"uv": [13.875, 6.5, 13.25, 7.125], "texture": "#0"}
			}
		},
		{
			"name": "tail",
			"from": [7, 13.7, 23.2],
			"to": [9, 15.7, 27.2],
			"rotation": {"angle": 22.5, "axis": "x", "origin": [8, 8, 24]},
			"faces": {
				"north": {"uv": [3.375, 0.375, 3.5, 0.625], "texture": "#0"},
				"east": {"uv": [3, 0.375, 3.375, 0.625], "texture": "#0"},
				"south": {"uv": [3.875, 0.375, 4, 0.625], "texture": "#0"},
				"west": {"uv": [3.5, 0.375, 3.875, 0.625], "texture": "#0"},
				"up": {"uv": [3.5, 0.375, 3.375, 0], "texture": "#0"},
				"down": {"uv": [3.625, 0, 3.5, 0.375], "texture": "#0"}
			}
		},
		{
			"name": "wingtip2",
			"from": [14, 13.5, 6.7],
			"to": [32, 14.5, 7.7],
			"shade": false,
			"rotation": {"angle": 22.5, "axis": "z", "origin": [15, 14, 6.7]},
			"faces": {
				"north": {"uv": [10.25, 8.75, 7.25, 9], "texture": "#0"},
				"east": {"uv": [10.5, 8.75, 10.25, 9], "texture": "#0"},
				"south": {"uv": [13.5, 8.75, 10.5, 9], "texture": "#0"},
				"west": {"uv": [7.25, 8.75, 7, 9], "texture": "#0"},
				"up": {"uv": [7.25, 8.75, 10.25, 8.5], "texture": "#0"},
				"down": {"uv": [10.25, 8.5, 13.25, 8.75], "texture": "#0"}
			}
		},
		{
			"name": "wingtip2",
			"from": [14, 14, 7.7],
			"to": [32, 14, 21.7],
			"shade": false,
			"rotation": {"angle": 22.5, "axis": "z", "origin": [15, 14, 6.7]},
			"faces": {
				"up": {"uv": [3.4375, 8.625, 0.4375, 5.875], "texture": "#0"},
				"down": {"uv": [3.4375, 5.875, 0.4375, 8.625], "texture": "#0"}
			}
		},
		{
			"name": "wingtip3",
			"from": [14, 13.5, 6.7],
			"to": [32, 14.5, 7.7],
			"shade": false,
			"rotation": {"angle": 0, "axis": "z", "origin": [31, 14, 6.7]},
			"faces": {
				"north": {"uv": [10.25, 9.25, 7.25, 9.5], "texture": "#0"},
				"east": {"uv": [10.5, 9.25, 10.25, 9.5], "texture": "#0"},
				"south": {"uv": [13.5, 9.25, 10.5, 9.5], "texture": "#0"},
				"west": {"uv": [7.25, 9.25, 7, 9.5], "texture": "#0"},
				"up": {"uv": [7.25, 9.25, 10.25, 9], "texture": "#0"},
				"down": {"uv": [10.25, 9, 13.25, 9.25], "texture": "#0"}
			}
		},
		{
			"name": "wingtip3",
			"from": [14, 14, 7.7],
			"to": [32, 14, 21.7],
			"shade": false,
			"rotation": {"angle": 0, "axis": "z", "origin": [31, 14, 6.7]},
			"faces": {
				"up": {"uv": [6.9375, 8.625, 3.9375, 5.875], "texture": "#0"},
				"down": {"uv": [6.9375, 5.875, 3.9375, 8.625], "texture": "#0"}
			}
		},
		{
			"name": "wingtip4",
			"from": [14, 13.5, 6.7],
			"to": [32, 14.5, 7.7],
			"shade": false,
			"rotation": {"angle": -22.5, "axis": "z", "origin": [15, 14, 6.7]},
			"faces": {
				"north": {"uv": [10.25, 9.75, 7.25, 10], "texture": "#0"},
				"east": {"uv": [10.5, 9.75, 10.25, 10], "texture": "#0"},
				"south": {"uv": [13.5, 9.75, 10.5, 10], "texture": "#0"},
				"west": {"uv": [7.25, 9.75, 7, 10], "texture": "#0"},
				"up": {"uv": [7.25, 9.75, 10.25, 9.5], "texture": "#0"},
				"down": {"uv": [10.25, 9.5, 13.25, 9.75], "texture": "#0"}
			}
		},
		{
			"name": "wingtip4",
			"from": [14, 14, 7.7],
			"to": [32, 14, 21.7],
			"shade": false,
			"rotation": {"angle": -22.5, "axis": "z", "origin": [15, 14, 6.7]},
			"faces": {
				"up": {"uv": [3.4375, 12.125, 0.4375, 9.375], "texture": "#0"},
				"down": {"uv": [3.4375, 9.375, 0.4375, 12.125], "texture": "#0"}
			}
		},
		{
			"name": "wingtip5",
			"from": [14.5, -3, 6.7],
			"to": [15.5, 15, 7.7],
			"shade": false,
			"rotation": {"angle": 45, "axis": "z", "origin": [15, 14, 6.7]},
			"faces": {
				"north": {"uv": [10.25, 10.25, 7.25, 10.5], "rotation": 270, "texture": "#0"},
				"east": {"uv": [7.25, 10.25, 10.25, 10], "rotation": 90, "texture": "#0"},
				"south": {"uv": [13.5, 10.25, 10.5, 10.5], "rotation": 90, "texture": "#0"},
				"west": {"uv": [10.25, 10, 13.25, 10.25], "rotation": 90, "texture": "#0"},
				"up": {"uv": [7.25, 10.25, 7, 10.5], "rotation": 90, "texture": "#0"},
				"down": {"uv": [10.5, 10.25, 10.25, 10.5], "rotation": 90, "texture": "#0"}
			}
		},
		{
			"name": "wingtip5",
			"from": [15, -3, 7.7],
			"to": [15, 15, 21.7],
			"shade": false,
			"rotation": {"angle": 45, "axis": "z", "origin": [15, 14, 6.7]},
			"faces": {
				"east": {"uv": [6.9375, 12.125, 3.9375, 9.375], "rotation": 90, "texture": "#0"},
				"west": {"uv": [6.9375, 9.375, 3.9375, 12.125], "rotation": 90, "texture": "#0"}
			}
		}
	],
	"display": {
		"thirdperson": {
			"rotation": [-180, 135, 0],
			"translation": [0.2, 2, -2.5],
			"scale": [0.325, 0.325, 0.325]
		},
		"firstperson": {
			"rotation":[0, 67.5, 0],
			"translation": [0, 4, 0],
			"scale": [0.75, 0.75, 0.75]
		},
		"ground": {
			"scale": [1, 1, 1]
		},
		"gui": {
			"translation": [0, -0.5, -0.7],
			"scale": [0.6, 0.6, 0.6]
		},
		"fixed": {
			"rotation": [0, -180, 0],
			"translation": [0, -0.75, 0],
			"scale": [1, 1, 0.25]
		}
	},
	"groups": [
		{
			"name": "head",
			"origin": [0, 7, -58],
			"children": [0, 1, 2, 3, 4, 5,
				{
					"name": "jaw",
					"origin": [0, 3, -71],
					"children": [6]
				}
			]
		},
		{
			"name": "neck",
			"origin": [0, 7, -8],
			"children": [7, 8]
		},
		{
			"name": "body",
			"origin": [0, 20, 8],
			"children": [9, 10]
		},
		{
			"name": "left_wing",
			"origin": [-68, 19, 0],
			"children": [
				{
					"name": "wing0",
					"shade": false,
					"origin": [-68, 19, 0],
					"children": [11, 12]
				},
				{
					"name": "wing1",
					"shade": false,
					"origin": [-68, 19, 0],
					"children": [13, 14]
				},
				{
					"name": "wing2",
					"shade": false,
					"origin": [-68, 19, 0],
					"children": [15, 16]
				},
				{
					"name": "wing4",
					"shade": false,
					"origin": [-68, 19, 0],
					"children": [17, 18]
				}
			]
		},
		{
			"name": "rearfoot",
			"origin": [16, -52, 41],
			"children": [19, 20]
		},
		{
			"name": "frontfoot",
			"origin": [12, -5, -10],
			"children": [21, 22]
		},
		{
			"name": "tail",
			"origin": [0, 14, 56],
			"children": [23, 24]
		},
		{
			"name": "tail",
			"origin": [0, 14, 56],
			"children": [25, 26]
		},
		{
			"name": "right_wing",
			"origin": [-68, 19, 0],
			"children": [
				{
					"name": "wing0",
					"shade": false,
					"origin": [-68, 19, 0],
					"children": [27, 28]
				},
				{
					"name": "wing1",
					"shade": false,
					"origin": [-68, 19, 0],
					"children": [29, 30]
				},
				{
					"name": "wing2",
					"shade": false,
					"origin": [-68, 19, 0],
					"children": [31, 32]
				},
				{
					"name": "wing4",
					"shade": false,
					"origin": [-68, 19, 0],
					"children": [33, 34]
				}
			]
		}
	]
}