{
	"__comment": "Designed by Maiiwakizashi with Cubik Studio - https://cubik.studio",
	"textures": {
		"particle": "block/spruce_leaves",
		"texture": "block/spruce_log"
	},
	"elements": [ 	 
		{
			"__comment": "Box1",
			"from": [ 6, 0, 6 ],
			"to": [ 10, 9, 10 ],
			"faces": {
				"down": { "uv": [ 0, 0, 5, 4.5 ], "texture": "#texture" },
				"up": { "uv": [ 0, 0, 4, 4 ], "texture": "#texture" },
				"north": { "uv": [ 0, 0, 16, 16 ], "texture": "#texture" },
				"south": { "uv": [ 0, 0, 16, 16 ], "texture": "#texture" },
				"west": { "uv": [ 0, 0, 16, 16 ], "texture": "#texture" },
				"east": { "uv": [ 0, 0, 16, 16 ], "texture": "#texture" }
			}
		},
		{
			"__comment": "Box2",
			"from": [ 4, 0, 7 ],
			"to": [ 6, 2, 9 ],
			"faces": {
				"down": { "uv": [ 7.5, 6.5, 16, 14.5 ], "texture": "#texture" },
				"up": { "uv": [ 0.5, 2, 8.5, 10 ], "texture": "#texture" },
				"north": { "uv": [ 0, 16, 7.5, 8 ], "texture": "#texture" },
				"south": { "uv": [ 4, 14, 12, 6 ], "texture": "#texture" },
				"west": { "uv": [ 5, 0, 12.5, 7.5 ], "texture": "#texture" },
				"east": { "uv": [ 0, 0, 7, 6 ], "texture": "#texture" }
			}
		},
		{
			"__comment": "Box3",
			"from": [ 1, 9, 1 ],
			"to": [ 15, 16, 15 ],
			"faces": {
				"down": { "uv": [ 0, 15, 2, 16 ], "texture": "#particle" },
				"up": { "uv": [ 10, 6, 15, 1 ], "texture": "#particle" },
				"north": { "uv": [ 0, 9, 16, 16 ], "texture": "#particle" },
				"south": { "uv": [ 0, 9, 16, 16 ], "texture": "#particle" },
				"west": { "uv": [ 0, 9, 16, 16 ], "texture": "#particle" },
				"east": { "uv": [ 0, 9, 16, 16 ], "texture": "#particle" }
			}
		},
		{
			"__comment": "Box2",
			"from": [ 10, 0, 7 ],
			"to": [ 12, 2, 9 ],
			"faces": {
				"down": { "uv": [ 7.5, 6.5, 16, 14.5 ], "texture": "#texture" },
				"up": { "uv": [ 0.5, 2, 8.5, 10 ], "texture": "#texture" },
				"north": { "uv": [ 0, 16, 7.5, 8 ], "texture": "#texture" },
				"south": { "uv": [ 4, 14, 12, 6 ], "texture": "#texture" },
				"west": { "uv": [ 5, 0, 12.5, 7.5 ], "texture": "#texture" },
				"east": { "uv": [ 0, 0, 7, 6 ], "texture": "#texture" }
			}
		},
		{
			"__comment": "Box2",
			"from": [ 7, 0, 4 ],
			"to": [ 9, 2, 6 ],
			"faces": {
				"down": { "uv": [ 7.5, 6.5, 16, 14.5 ], "texture": "#texture" },
				"up": { "uv": [ 0.5, 2, 8.5, 10 ], "texture": "#texture" },
				"north": { "uv": [ 0, 16, 7.5, 8 ], "texture": "#texture" },
				"south": { "uv": [ 4, 14, 12, 6 ], "texture": "#texture" },
				"west": { "uv": [ 5, 0, 12.5, 7.5 ], "texture": "#texture" },
				"east": { "uv": [ 0, 0, 7, 6 ], "texture": "#texture" }
			}
		},
		{
			"__comment": "Box2",
			"from": [ 7, 0, 10 ],
			"to": [ 9, 2, 12 ],
			"faces": {
				"down": { "uv": [ 7.5, 6.5, 16, 14.5 ], "texture": "#texture" },
				"up": { "uv": [ 0.5, 2, 8.5, 10 ], "texture": "#texture" },
				"north": { "uv": [ 0, 16, 7.5, 8 ], "texture": "#texture" },
				"south": { "uv": [ 4, 14, 12, 6 ], "texture": "#texture" },
				"west": { "uv": [ 5, 0, 12.5, 7.5 ], "texture": "#texture" },
				"east": { "uv": [ 0, 0, 7, 6 ], "texture": "#texture" }
			}
		},
		{
			"__comment": "Box3",
			"from": [ 3, 16, 3 ],
			"to": [ 13, 23, 13 ],
			"faces": {
				"down": { "uv": [ 0, 15, 2, 16 ], "texture": "#particle" },
				"up": { "uv": [ 10, 6, 15, 1 ], "texture": "#particle" },
				"north": { "uv": [ 16, 9, 0, 16 ], "texture": "#particle" },
				"south": { "uv": [ 16, 9, 0, 16 ], "texture": "#particle" },
				"west": { "uv": [ 16, 9, 0, 16 ], "texture": "#particle" },
				"east": { "uv": [ 16, 9, 0, 16 ], "texture": "#particle" }
			}
		},
		{
			"__comment": "Box3",
			"from": [ 5, 23, 5 ],
			"to": [ 11, 28, 11 ],
			"faces": {
				"down": { "uv": [ 0, 15, 2, 16 ], "texture": "#particle" },
				"up": { "uv": [ 10, 6, 15, 1 ], "texture": "#particle" },
				"north": { "uv": [ 0, 9, 16, 16 ], "texture": "#particle" },
				"south": { "uv": [ 0, 9, 16, 16 ], "texture": "#particle" },
				"west": { "uv": [ 0, 9, 16, 16 ], "texture": "#particle" },
				"east": { "uv": [ 0, 9, 16, 16 ], "texture": "#particle" }
			}
		},
		{
			"__comment": "Box3",
			"from": [ 7, 28, 7 ],
			"to": [ 9, 31.5, 9 ],
			"faces": {
				"down": { "uv": [ 0, 15, 2, 16 ], "texture": "#particle" },
				"up": { "uv": [ 10, 6, 15, 1 ], "texture": "#particle" },
				"north": { "uv": [ 0, 9, 16, 16 ], "texture": "#particle" },
				"south": { "uv": [ 0, 9, 16, 16 ], "texture": "#particle" },
				"west": { "uv": [ 0, 9, 16, 16 ], "texture": "#particle" },
				"east": { "uv": [ 0, 9, 16, 16 ], "texture": "#particle" }
			}
		}
	],
	"display": {
		"thirdperson_righthand": {
			"rotation": [75, 45, 0],
			"translation": [0, 2.5, 0],
			"scale": [0.375, 0.375, 0.375]
		},
		"thirdperson_lefthand": {
			"rotation": [75, 45, 0],
			"translation": [0, 2.5, 0],
			"scale": [0.375, 0.375, 0.375]
		},
		"firstperson_righthand": {
			"rotation": [0, 98, 0],
			"scale": [0.4, 0.4, 0.4]
		},
		"firstperson_lefthand": {
			"rotation": [0, 99, 0],
			"scale": [0.4, 0.4, 0.4]
		},
		"ground": {
			"translation": [0, -2.75, 0],
			"scale": [0.5, 0.5, 0.5]
		},
		"gui": {
			"rotation": [30, 225, 0],
			"scale": [0.625, 0.625, 0.625]
		},
		"head": {
			"translation":  [ 0, -29, 0 ],
			"scale":  [ 1.8, 1.8, 1.8 ]
		},
		"fixed": {
			"rotation":  [ -90, 0, 0 ],
			"translation":  [ 0, 0, -14 ],
			"scale":  [ 2, 2, 2 ]
		}
	}
}