{
	"__comment": "Designed by Maiiwakizashi with Cubik Studio - https://cubik.studio",
	"textures": {
		"particle": "block/white_wool",
		"texture": "block/green_terracotta"
	},
	"elements": [ 	 
		{
			"__comment": "Box2",
			"from": [ 1, 23, 1.0001 ],
			"to": [ 15, 27.5, 15.0001 ],
			"faces": {
				"down": { "uv": [ 1, 1, 15, 15 ], "texture": "#texture" },
				"up": { "uv": [ 1, 1, 15, 15 ], "texture": "#texture" },
				"north": { "uv": [ 1, 4.5, 15, 9 ], "texture": "#texture" },
				"south": { "uv": [ 1, 4.5, 15, 9 ], "texture": "#texture" },
				"west": { "uv": [ 1, 4.5, 15, 9 ], "texture": "#texture" },
				"east": { "uv": [ 1, 4.5, 15, 9 ], "texture": "#texture" }
			}
		},
		{
			"__comment": "Box3",
			"from": [ -2, 16, -2 ],
			"to": [ 18, 23, 18 ],
			"faces": {
				"down": { "uv": [ 0, 0, 16, 16 ], "texture": "#particle" },
				"up": { "uv": [ 0, 0, 16, 16 ], "texture": "#texture" },
				"north": { "uv": [ 0, 9, 16, 16 ], "texture": "#texture" },
				"south": { "uv": [ 0, 9, 16, 16 ], "texture": "#texture" },
				"west": { "uv": [ 0, 9, 16, 16 ], "texture": "#texture" },
				"east": { "uv": [ 0, 9, 16, 16 ], "texture": "#texture" }
			}
		},
		{
			"__comment": "Box4",
			"from": [ 5, 27.5, 5.0001 ],
			"to": [ 11, 31, 11.0001 ],
			"faces": {
				"down": { "uv": [ 5, 5, 11, 11 ], "texture": "#texture" },
				"up": { "uv": [ 5, 5, 11, 11 ], "texture": "#texture" },
				"north": { "uv": [ 5, 1, 11, 4.5 ], "texture": "#texture" },
				"south": { "uv": [ 5, 1, 11, 4.5 ], "texture": "#texture" },
				"west": { "uv": [ 5, 1, 11, 4.5 ], "texture": "#texture" },
				"east": { "uv": [ 5, 1, 11, 4.5 ], "texture": "#texture" }
			}
		},
		{
			"__comment": "Box5",
			"from": [ 5.5, 0, 5.5 ],
			"to": [ 10.5, 16, 10.5 ],
			"faces": {
				"down": { "uv": [ 5.5, 5.5, 10.5, 10.5 ], "texture": "#particle" },
				"up": { "uv": [ 5.5, 5.5, 10.5, 10.5 ], "texture": "#particle" },
				"north": { "uv": [ 5.5, 0, 10.5, 16 ], "texture": "#particle" },
				"south": { "uv": [ 5.5, 0, 10.5, 16 ], "texture": "#particle" },
				"west": { "uv": [ 5.5, 0, 10.5, 16 ], "texture": "#particle" },
				"east": { "uv": [ 5.5, 0, 10.5, 16 ], "texture": "#particle" }
			}
		}
	],
	"display": {
		"thirdperson_righthand": {
			"rotation": [75, 45, 0],
			"translation": [0, 2.5, 0],
			"scale": [0.375, 0.375, 0.375]
		},
		"thirdperson_lefthand": {
			"rotation": [75, 45, 0],
			"translation": [0, 2.5, 0],
			"scale": [0.375, 0.375, 0.375]
		},
		"firstperson_righthand": {
			"rotation": [0, 98, 0],
			"scale": [0.4, 0.4, 0.4]
		},
		"firstperson_lefthand": {
			"rotation": [0, 99, 0],
			"scale": [0.4, 0.4, 0.4]
		},
		"ground": {
			"translation": [0, -2.75, 0],
			"scale": [0.5, 0.5, 0.5]
		},
		"gui": {
			"rotation": [30, 225, 0],
			"scale": [0.625, 0.625, 0.625]
		},
		"head": {
			"translation":  [ 0, -29, 0 ],
			"scale":  [ 1.8, 1.8, 1.8 ]
		},
		"fixed": {
			"rotation":  [ -90, 0, 0 ],
			"translation":  [ 0, 0, -14 ],
			"scale":  [ 2, 2, 2 ]
		}
	}
}