{
	"credit": "Made with Blockbench",
	"texture_size": [64, 64],
	"textures": {
		"0": "vishsirisc:bow/12/texture_pulling_0",
		"particle": "vishsirisc:bow/12/texture_pulling_0"
	},
	"elements": [
		{
			"from": [5, 0, 0],
			"to": [11, 2, 2],
			"faces": {
				"north": {"uv": [9.5, 0, 11, 0.5], "texture": "#0"},
				"east": {"uv": [11.75, 10.5, 12.25, 11], "texture": "#0"},
				"south": {"uv": [9.5, 0.5, 11, 1], "texture": "#0"},
				"west": {"uv": [11.75, 11, 12.25, 11.5], "texture": "#0"},
				"up": {"uv": [11, 1.5, 9.5, 1], "texture": "#0"},
				"down": {"uv": [11, 1.5, 9.5, 2], "texture": "#0"}
			}
		},
		{
			"from": [-7, 1, -7],
			"to": [23, 1, 19],
			"faces": {
				"north": {"uv": [0, 0, 7.5, 0], "texture": "#0"},
				"east": {"uv": [0, 0, 6.5, 0], "texture": "#0"},
				"south": {"uv": [0, 0, 7.5, 0], "texture": "#0"},
				"west": {"uv": [0, 0, 6.5, 0], "texture": "#0"},
				"up": {"uv": [7.5, 6.5, 0, 0], "texture": "#0"},
				"down": {"uv": [7.5, 0, 0, 6.5], "texture": "#0"}
			}
		},
		{
			"from": [4, 1, -7],
			"to": [12, 1, 19],
			"rotation": {"angle": 22.5, "axis": "z", "origin": [8, 1, 6]},
			"faces": {
				"north": {"uv": [0, 0, 2, 0], "texture": "#0"},
				"east": {"uv": [0, 0, 6.5, 0], "texture": "#0"},
				"south": {"uv": [0, 0, 2, 0], "texture": "#0"},
				"west": {"uv": [0, 0, 6.5, 0], "texture": "#0"},
				"up": {"uv": [9.5, 6.5, 7.5, 0], "texture": "#0"},
				"down": {"uv": [9.5, 6.5, 7.5, 13], "texture": "#0"}
			}
		},
		{
			"from": [0, 0.1, 1],
			"to": [5.8, 1.9, 2.75],
			"rotation": {"angle": 22.5, "axis": "y", "origin": [3, 1, 2.25]},
			"faces": {
				"north": {"uv": [9.5, 2, 11, 2.5], "texture": "#0"},
				"east": {"uv": [11.75, 11.5, 12.25, 12], "texture": "#0"},
				"south": {"uv": [9.5, 2.5, 11, 3], "texture": "#0"},
				"west": {"uv": [12, 1.5, 12.5, 2], "texture": "#0"},
				"up": {"uv": [11, 3.5, 9.5, 3], "texture": "#0"},
				"down": {"uv": [11, 3.5, 9.5, 4], "texture": "#0"}
			}
		},
		{
			"from": [1.86411, 0.35, -0.78319],
			"to": [5.86411, 1.65, 0.31681],
			"rotation": {"angle": -22.5, "axis": "y", "origin": [2.76411, 1, -0.05819]},
			"faces": {
				"north": {"uv": [11, 1.5, 12, 1.875], "texture": "#0"},
				"east": {"uv": [10.5, 9.5, 10.75, 9.875], "texture": "#0"},
				"south": {"uv": [11, 2, 12, 2.375], "texture": "#0"},
				"west": {"uv": [10.5, 12.5, 10.75, 12.875], "texture": "#0"},
				"up": {"uv": [13, 2.25, 12, 2], "texture": "#0"},
				"down": {"uv": [13, 2.25, 12, 2.5], "texture": "#0"}
			}
		},
		{
			"from": [1.35201, 0.25, -1.1751],
			"to": [2.60201, 1.75, 0.4249],
			"rotation": {"angle": 0, "axis": "y", "origin": [1.97701, 1, -0.5251]},
			"faces": {
				"north": {"uv": [12, 9.5, 12.375, 9.875], "texture": "#0"},
				"east": {"uv": [10.25, 12, 10.625, 12.375], "texture": "#0"},
				"south": {"uv": [11.25, 12, 11.625, 12.375], "texture": "#0"},
				"west": {"uv": [11.75, 12, 12.125, 12.375], "texture": "#0"},
				"up": {"uv": [12.625, 0.375, 12.25, 0], "texture": "#0"},
				"down": {"uv": [12.625, 0.5, 12.25, 0.875], "texture": "#0"}
			}
		},
		{
			"from": [13.39799, 0.25, -1.1751],
			"to": [14.64799, 1.75, 0.4249],
			"rotation": {"angle": 0, "axis": "y", "origin": [14.02299, 1, -0.5251]},
			"faces": {
				"north": {"uv": [12.25, 1, 12.625, 1.375], "texture": "#0"},
				"east": {"uv": [9.5, 12.25, 9.875, 12.625], "texture": "#0"},
				"south": {"uv": [12.25, 10.5, 12.625, 10.875], "texture": "#0"},
				"west": {"uv": [10.75, 12.25, 11.125, 12.625], "texture": "#0"},
				"up": {"uv": [12.625, 11.375, 12.25, 11], "texture": "#0"},
				"down": {"uv": [12.625, 11.5, 12.25, 11.875], "texture": "#0"}
			}
		},
		{
			"from": [10.13589, 0.35, -0.78319],
			"to": [14.13589, 1.65, 0.31681],
			"rotation": {"angle": 22.5, "axis": "y", "origin": [13.23589, 1, -0.05819]},
			"faces": {
				"north": {"uv": [11, 2.5, 12, 2.875], "texture": "#0"},
				"east": {"uv": [9.5, 12.75, 9.75, 13.125], "texture": "#0"},
				"south": {"uv": [11, 3, 12, 3.375], "texture": "#0"},
				"west": {"uv": [9.75, 12.75, 10, 13.125], "texture": "#0"},
				"up": {"uv": [13, 2.75, 12, 2.5], "texture": "#0"},
				"down": {"uv": [13, 2.75, 12, 3], "texture": "#0"}
			}
		},
		{
			"from": [-0.05266, 0.45, -1.04891],
			"to": [2.24734, 1.55, -0.04891],
			"rotation": {"angle": 0, "axis": "y", "origin": [0.34734, 1, -0.39891]},
			"faces": {
				"north": {"uv": [12, 6.5, 12.625, 6.75], "texture": "#0"},
				"east": {"uv": [10.5, 10, 10.75, 10.25], "texture": "#0"},
				"south": {"uv": [12, 6.75, 12.625, 7], "texture": "#0"},
				"west": {"uv": [10.75, 12, 11, 12.25], "texture": "#0"},
				"up": {"uv": [12.625, 7.25, 12, 7], "texture": "#0"},
				"down": {"uv": [12.625, 8.5, 12, 8.75], "texture": "#0"}
			}
		},
		{
			"from": [13.75266, 0.45, -1.04891],
			"to": [16.05266, 1.55, -0.04891],
			"rotation": {"angle": 0, "axis": "y", "origin": [15.65266, 1, -0.39891]},
			"faces": {
				"north": {"uv": [12, 8.75, 12.625, 9], "texture": "#0"},
				"east": {"uv": [10, 12.25, 10.25, 12.5], "texture": "#0"},
				"south": {"uv": [12, 9, 12.625, 9.25], "texture": "#0"},
				"west": {"uv": [0.75, 13, 1, 13.25], "texture": "#0"},
				"up": {"uv": [12.625, 9.5, 12, 9.25], "texture": "#0"},
				"down": {"uv": [10.125, 12, 9.5, 12.25], "texture": "#0"}
			}
		},
		{
			"from": [-1.10266, 0.2, -1.54891],
			"to": [0.34734, 1.8, -0.24891],
			"rotation": {"angle": 22.5, "axis": "y", "origin": [1.09734, 1, -0.54891]},
			"faces": {
				"north": {"uv": [12.25, 12, 12.625, 12.375], "texture": "#0"},
				"east": {"uv": [12.5, 1.5, 12.875, 1.875], "texture": "#0"},
				"south": {"uv": [12.5, 3, 12.875, 3.375], "texture": "#0"},
				"west": {"uv": [12.5, 3.5, 12.875, 3.875], "texture": "#0"},
				"up": {"uv": [12.875, 5.875, 12.5, 5.5], "texture": "#0"},
				"down": {"uv": [12.875, 6, 12.5, 6.375], "texture": "#0"}
			}
		},
		{
			"from": [15.65266, 0.2, -1.54891],
			"to": [17.10266, 1.8, -0.24891],
			"rotation": {"angle": -22.5, "axis": "y", "origin": [14.90266, 1, -0.54891]},
			"faces": {
				"north": {"uv": [12.5, 7.5, 12.875, 7.875], "texture": "#0"},
				"east": {"uv": [12.5, 8, 12.875, 8.375], "texture": "#0"},
				"south": {"uv": [12.5, 9.5, 12.875, 9.875], "texture": "#0"},
				"west": {"uv": [10, 12.5, 10.375, 12.875], "texture": "#0"},
				"up": {"uv": [11.625, 12.875, 11.25, 12.5], "texture": "#0"},
				"down": {"uv": [12.125, 12.5, 11.75, 12.875], "texture": "#0"}
			}
		},
		{
			"from": [-1.34932, 1.05, -0.23281],
			"to": [-0.44932, 1.7, 0.91719],
			"rotation": {"angle": -22.5, "axis": "y", "origin": [-0.39932, 1, -0.30781]},
			"faces": {
				"north": {"uv": [3.75, 13, 4, 13.125], "texture": "#0"},
				"east": {"uv": [13, 3.75, 13.25, 3.875], "texture": "#0"},
				"south": {"uv": [4, 13, 4.25, 13.125], "texture": "#0"},
				"west": {"uv": [13, 4, 13.25, 4.125], "texture": "#0"},
				"up": {"uv": [1.25, 13.25, 1, 13], "texture": "#0"},
				"down": {"uv": [1.5, 13, 1.25, 13.25], "texture": "#0"}
			}
		},
		{
			"from": [16.44932, 1.05, -0.23281],
			"to": [17.34932, 1.7, 0.91719],
			"rotation": {"angle": 22.5, "axis": "y", "origin": [16.39932, 1, -0.30781]},
			"faces": {
				"north": {"uv": [4.25, 13, 4.5, 13.125], "texture": "#0"},
				"east": {"uv": [13, 4.25, 13.25, 4.375], "texture": "#0"},
				"south": {"uv": [4.5, 13, 4.75, 13.125], "texture": "#0"},
				"west": {"uv": [13, 4.5, 13.25, 4.625], "texture": "#0"},
				"up": {"uv": [1.75, 13.25, 1.5, 13], "texture": "#0"},
				"down": {"uv": [13.25, 1.5, 13, 1.75], "texture": "#0"}
			}
		},
		{
			"from": [-1.66, 1.15, 0.42637],
			"to": [-0.96, 1.6, 1.27637],
			"rotation": {"angle": 0, "axis": "y", "origin": [-1.31, 1.375, 0.90137]},
			"faces": {
				"north": {"uv": [13, 8.25, 13.125, 8.375], "texture": "#0"},
				"east": {"uv": [4.75, 13, 5, 13.125], "texture": "#0"},
				"south": {"uv": [8.5, 13, 8.625, 13.125], "texture": "#0"},
				"west": {"uv": [13, 4.75, 13.25, 4.875], "texture": "#0"},
				"up": {"uv": [5.125, 13.25, 5, 13], "texture": "#0"},
				"down": {"uv": [13.125, 5, 13, 5.25], "texture": "#0"}
			}
		},
		{
			"from": [16.96, 1.15, 0.42637],
			"to": [17.66, 1.6, 1.27637],
			"rotation": {"angle": 0, "axis": "y", "origin": [17.31, 1.375, 0.90137]},
			"faces": {
				"north": {"uv": [8.75, 13, 8.875, 13.125], "texture": "#0"},
				"east": {"uv": [5.25, 13, 5.5, 13.125], "texture": "#0"},
				"south": {"uv": [9, 13, 9.125, 13.125], "texture": "#0"},
				"west": {"uv": [5.5, 13, 5.75, 13.125], "texture": "#0"},
				"up": {"uv": [13.125, 5.75, 13, 5.5], "texture": "#0"},
				"down": {"uv": [5.875, 13, 5.75, 13.25], "texture": "#0"}
			}
		},
		{
			"from": [-1.46, 1.35, 1.02637],
			"to": [-0.51, 1.35, 2.47637],
			"rotation": {"angle": 22.5, "axis": "y", "origin": [-1.11, 1.375, 1.55137]},
			"faces": {
				"north": {"uv": [0, 0, 0.25, 0], "texture": "#0"},
				"east": {"uv": [0, 0, 0.375, 0], "texture": "#0"},
				"south": {"uv": [0, 0, 0.25, 0], "texture": "#0"},
				"west": {"uv": [0, 0, 0.375, 0], "texture": "#0"},
				"up": {"uv": [13, 10.875, 12.75, 10.5], "texture": "#0"},
				"down": {"uv": [11, 12.75, 10.75, 13.125], "texture": "#0"}
			}
		},
		{
			"from": [16.51, 1.35, 1.02637],
			"to": [17.46, 1.35, 2.47637],
			"rotation": {"angle": -22.5, "axis": "y", "origin": [17.11, 1.375, 1.55137]},
			"faces": {
				"north": {"uv": [0, 0, 0.25, 0], "texture": "#0"},
				"east": {"uv": [0, 0, 0.375, 0], "texture": "#0"},
				"south": {"uv": [0, 0, 0.25, 0], "texture": "#0"},
				"west": {"uv": [0, 0, 0.375, 0], "texture": "#0"},
				"up": {"uv": [11.25, 13.125, 11, 12.75], "texture": "#0"},
				"down": {"uv": [13, 11, 12.75, 11.375], "texture": "#0"}
			}
		},
		{
			"from": [-1.46, 0.6, 1.02637],
			"to": [-0.51, 0.6, 2.47637],
			"rotation": {"angle": 22.5, "axis": "y", "origin": [-1.11, 0.625, 1.55137]},
			"faces": {
				"north": {"uv": [0, 0, 0.25, 0], "texture": "#0"},
				"east": {"uv": [0, 0, 0.375, 0], "texture": "#0"},
				"south": {"uv": [0, 0, 0.25, 0], "texture": "#0"},
				"west": {"uv": [0, 0, 0.375, 0], "texture": "#0"},
				"up": {"uv": [13, 11.875, 12.75, 11.5], "texture": "#0"},
				"down": {"uv": [13, 12, 12.75, 12.375], "texture": "#0"}
			}
		},
		{
			"from": [16.51, 0.6, 1.02637],
			"to": [17.46, 0.6, 2.47637],
			"rotation": {"angle": -22.5, "axis": "y", "origin": [17.11, 0.625, 1.55137]},
			"faces": {
				"north": {"uv": [0, 0, 0.25, 0], "texture": "#0"},
				"east": {"uv": [0, 0, 0.375, 0], "texture": "#0"},
				"south": {"uv": [0, 0, 0.25, 0], "texture": "#0"},
				"west": {"uv": [0, 0, 0.375, 0], "texture": "#0"},
				"up": {"uv": [13, 12.875, 12.75, 12.5], "texture": "#0"},
				"down": {"uv": [0.25, 13, 0, 13.375], "texture": "#0"}
			}
		},
		{
			"from": [-1.66, 0.4, 0.42637],
			"to": [-0.96, 0.85, 1.27637],
			"rotation": {"angle": 0, "axis": "y", "origin": [-1.31, 0.625, 0.90137]},
			"faces": {
				"north": {"uv": [9.25, 13, 9.375, 13.125], "texture": "#0"},
				"east": {"uv": [13, 5.75, 13.25, 5.875], "texture": "#0"},
				"south": {"uv": [13, 9.5, 13.125, 9.625], "texture": "#0"},
				"west": {"uv": [6, 13, 6.25, 13.125], "texture": "#0"},
				"up": {"uv": [13.125, 6.25, 13, 6], "texture": "#0"},
				"down": {"uv": [6.375, 13, 6.25, 13.25], "texture": "#0"}
			}
		},
		{
			"from": [16.96, 0.4, 0.42637],
			"to": [17.66, 0.85, 1.27637],
			"rotation": {"angle": 0, "axis": "y", "origin": [17.31, 0.625, 0.90137]},
			"faces": {
				"north": {"uv": [13, 9.75, 13.125, 9.875], "texture": "#0"},
				"east": {"uv": [13, 6.25, 13.25, 6.375], "texture": "#0"},
				"south": {"uv": [10, 13, 10.125, 13.125], "texture": "#0"},
				"west": {"uv": [6.5, 13, 6.75, 13.125], "texture": "#0"},
				"up": {"uv": [6.875, 13.25, 6.75, 13], "texture": "#0"},
				"down": {"uv": [7.125, 13, 7, 13.25], "texture": "#0"}
			}
		},
		{
			"from": [-1.34932, 0.3, -0.23281],
			"to": [-0.44932, 0.95, 0.91719],
			"rotation": {"angle": -22.5, "axis": "y", "origin": [-0.39932, 0.25, -0.30781]},
			"faces": {
				"north": {"uv": [7.25, 13, 7.5, 13.125], "texture": "#0"},
				"east": {"uv": [7.5, 13, 7.75, 13.125], "texture": "#0"},
				"south": {"uv": [13, 7.5, 13.25, 7.625], "texture": "#0"},
				"west": {"uv": [7.75, 13, 8, 13.125], "texture": "#0"},
				"up": {"uv": [2, 13.25, 1.75, 13], "texture": "#0"},
				"down": {"uv": [13.25, 1.75, 13, 2], "texture": "#0"}
			}
		},
		{
			"from": [16.44932, 0.3, -0.23281],
			"to": [17.34932, 0.95, 0.91719],
			"rotation": {"angle": 22.5, "axis": "y", "origin": [16.39932, 0.25, -0.30781]},
			"faces": {
				"north": {"uv": [13, 7.75, 13.25, 7.875], "texture": "#0"},
				"east": {"uv": [8, 13, 8.25, 13.125], "texture": "#0"},
				"south": {"uv": [13, 8, 13.25, 8.125], "texture": "#0"},
				"west": {"uv": [8.25, 13, 8.5, 13.125], "texture": "#0"},
				"up": {"uv": [2.25, 13.25, 2, 13], "texture": "#0"},
				"down": {"uv": [13.25, 2, 13, 2.25], "texture": "#0"}
			}
		},
		{
			"from": [-3.53589, 0.2, 4.31681],
			"to": [1.26411, 1.8, 5.61681],
			"rotation": {"angle": 45, "axis": "y", "origin": [-1.63589, 1, 4.94181]},
			"faces": {
				"north": {"uv": [9.5, 6, 10.75, 6.375], "texture": "#0"},
				"east": {"uv": [12.25, 12.5, 12.625, 12.875], "texture": "#0"},
				"south": {"uv": [9.5, 6.5, 10.75, 6.875], "texture": "#0"},
				"west": {"uv": [12.75, 0, 13.125, 0.375], "texture": "#0"},
				"up": {"uv": [10.75, 7.375, 9.5, 7], "texture": "#0"},
				"down": {"uv": [10.75, 7.5, 9.5, 7.875], "texture": "#0"}
			}
		},
		{
			"from": [-4.21466, 0.4, 6.00594],
			"to": [-3.41466, 1.6, 10.80594],
			"rotation": {"angle": -22.5, "axis": "y", "origin": [-3.56466, 1, 8.40594]},
			"faces": {
				"north": {"uv": [2.25, 13, 2.5, 13.25], "texture": "#0"},
				"east": {"uv": [11.25, 7.5, 12.5, 7.75], "texture": "#0"},
				"south": {"uv": [13, 2.25, 13.25, 2.5], "texture": "#0"},
				"west": {"uv": [11.25, 7.75, 12.5, 8], "texture": "#0"},
				"up": {"uv": [11.5, 10.75, 11.25, 9.5], "texture": "#0"},
				"down": {"uv": [11.5, 10.75, 11.25, 12], "texture": "#0"}
			}
		},
		{
			"from": [19.41466, 0.4, 6.00594],
			"to": [20.21466, 1.6, 10.80594],
			"rotation": {"angle": 22.5, "axis": "y", "origin": [19.56466, 1, 8.40594]},
			"faces": {
				"north": {"uv": [2.5, 13, 2.75, 13.25], "texture": "#0"},
				"east": {"uv": [11.25, 8, 12.5, 8.25], "texture": "#0"},
				"south": {"uv": [13, 2.5, 13.25, 2.75], "texture": "#0"},
				"west": {"uv": [11.25, 8.25, 12.5, 8.5], "texture": "#0"},
				"up": {"uv": [11.75, 5.25, 11.5, 4], "texture": "#0"},
				"down": {"uv": [11.75, 6, 11.5, 7.25], "texture": "#0"}
			}
		},
		{
			"from": [-2.21466, 0.4, 6.60594],
			"to": [-1.41466, 1.6, 11.60594],
			"rotation": {"angle": -22.5, "axis": "y", "origin": [-1.56466, 1, 9.00594]},
			"faces": {
				"north": {"uv": [2.75, 13, 3, 13.25], "texture": "#0"},
				"east": {"uv": [11.5, 5.25, 12.75, 5.5], "texture": "#0"},
				"south": {"uv": [13, 2.75, 13.25, 3], "texture": "#0"},
				"west": {"uv": [11.5, 7.25, 12.75, 7.5], "texture": "#0"},
				"up": {"uv": [11.75, 10.75, 11.5, 9.5], "texture": "#0"},
				"down": {"uv": [11.75, 10.75, 11.5, 12], "texture": "#0"}
			}
		},
		{
			"from": [17.41466, 0.4, 6.60594],
			"to": [18.21466, 1.6, 11.60594],
			"rotation": {"angle": 22.5, "axis": "y", "origin": [17.56466, 1, 9.00594]},
			"faces": {
				"north": {"uv": [3, 13, 3.25, 13.25], "texture": "#0"},
				"east": {"uv": [11.75, 4, 13, 4.25], "texture": "#0"},
				"south": {"uv": [13, 3, 13.25, 3.25], "texture": "#0"},
				"west": {"uv": [11.75, 4.25, 13, 4.5], "texture": "#0"},
				"up": {"uv": [12, 7.25, 11.75, 6], "texture": "#0"},
				"down": {"uv": [12, 9, 11.75, 10.25], "texture": "#0"}
			}
		},
		{
			"from": [0.18534, 0.5, 7.00594],
			"to": [0.98534, 1.5, 12.50594],
			"rotation": {"angle": -22.5, "axis": "y", "origin": [0.73534, 1, 9.00594]},
			"faces": {
				"north": {"uv": [3.25, 13, 3.5, 13.25], "texture": "#0"},
				"east": {"uv": [11, 3.5, 12.375, 3.75], "texture": "#0"},
				"south": {"uv": [13, 3.25, 13.25, 3.5], "texture": "#0"},
				"west": {"uv": [11, 3.75, 12.375, 4], "texture": "#0"},
				"up": {"uv": [11.25, 5.375, 11, 4], "texture": "#0"},
				"down": {"uv": [11.25, 10.75, 11, 12.125], "texture": "#0"}
			}
		},
		{
			"from": [15.01466, 0.5, 7.00594],
			"to": [15.81466, 1.5, 12.50594],
			"rotation": {"angle": 22.5, "axis": "y", "origin": [15.26466, 1, 9.00594]},
			"faces": {
				"north": {"uv": [3.5, 13, 3.75, 13.25], "texture": "#0"},
				"east": {"uv": [11, 5.5, 12.375, 5.75], "texture": "#0"},
				"south": {"uv": [13, 3.5, 13.25, 3.75], "texture": "#0"},
				"west": {"uv": [11, 5.75, 12.375, 6], "texture": "#0"},
				"up": {"uv": [11.5, 5.375, 11.25, 4], "texture": "#0"},
				"down": {"uv": [11.5, 6, 11.25, 7.375], "texture": "#0"}
			}
		},
		{
			"from": [-1.16466, 0.3, 2.70594],
			"to": [0.13534, 1.7, 7.55594],
			"rotation": {"angle": -22.5, "axis": "y", "origin": [-0.51466, 1, 5.85594]},
			"faces": {
				"north": {"uv": [12.75, 0.5, 13.125, 0.875], "texture": "#0"},
				"east": {"uv": [9.5, 8, 10.75, 8.375], "texture": "#0"},
				"south": {"uv": [12.75, 1, 13.125, 1.375], "texture": "#0"},
				"west": {"uv": [9.5, 8.5, 10.75, 8.875], "texture": "#0"},
				"up": {"uv": [9.875, 10.25, 9.5, 9], "texture": "#0"},
				"down": {"uv": [10.375, 9, 10, 10.25], "texture": "#0"}
			}
		},
		{
			"from": [15.86466, 0.3, 2.70594],
			"to": [17.16466, 1.7, 7.55594],
			"rotation": {"angle": 22.5, "axis": "y", "origin": [16.51466, 1, 5.85594]},
			"faces": {
				"north": {"uv": [12.75, 6.5, 13.125, 6.875], "texture": "#0"},
				"east": {"uv": [9.5, 10.25, 10.75, 10.625], "texture": "#0"},
				"south": {"uv": [12.75, 7, 13.125, 7.375], "texture": "#0"},
				"west": {"uv": [10.5, 9, 11.75, 9.375], "texture": "#0"},
				"up": {"uv": [11.125, 7.25, 10.75, 6], "texture": "#0"},
				"down": {"uv": [11.125, 7.25, 10.75, 8.5], "texture": "#0"}
			}
		},
		{
			"from": [0.51278, 0.4, 2.76113],
			"to": [1.81278, 1.6, 7.61113],
			"rotation": {"angle": 0, "axis": "y", "origin": [0.96278, 1, 5.18613]},
			"faces": {
				"north": {"uv": [12, 10, 12.375, 10.25], "texture": "#0"},
				"east": {"uv": [11.75, 4.5, 13, 4.75], "texture": "#0"},
				"south": {"uv": [12.5, 10, 12.875, 10.25], "texture": "#0"},
				"west": {"uv": [11.75, 4.75, 13, 5], "texture": "#0"},
				"up": {"uv": [9.875, 12, 9.5, 10.75], "texture": "#0"},
				"down": {"uv": [11.125, 9.5, 10.75, 10.75], "texture": "#0"}
			}
		},
		{
			"from": [14.18722, 0.4, 2.76113],
			"to": [15.48722, 1.6, 7.61113],
			"rotation": {"angle": 0, "axis": "y", "origin": [15.03722, 1, 5.18613]},
			"faces": {
				"north": {"uv": [12.75, 5.25, 13.125, 5.5], "texture": "#0"},
				"east": {"uv": [11.75, 5, 13, 5.25], "texture": "#0"},
				"south": {"uv": [0.25, 13, 0.625, 13.25], "texture": "#0"},
				"west": {"uv": [11.75, 10.25, 13, 10.5], "texture": "#0"},
				"up": {"uv": [10.375, 12, 10, 10.75], "texture": "#0"},
				"down": {"uv": [10.875, 10.75, 10.5, 12], "texture": "#0"}
			}
		},
		{
			"from": [14.73589, 0.2, 4.31681],
			"to": [19.53589, 1.8, 5.61681],
			"rotation": {"angle": -45, "axis": "y", "origin": [17.63589, 1, 4.94181]},
			"faces": {
				"north": {"uv": [10.75, 8.5, 12, 8.875], "texture": "#0"},
				"east": {"uv": [12.75, 8.5, 13.125, 8.875], "texture": "#0"},
				"south": {"uv": [11, 0, 12.25, 0.375], "texture": "#0"},
				"west": {"uv": [12.75, 9, 13.125, 9.375], "texture": "#0"},
				"up": {"uv": [12.25, 0.875, 11, 0.5], "texture": "#0"},
				"down": {"uv": [12.25, 1, 11, 1.375], "texture": "#0"}
			}
		},
		{
			"from": [10.2, 0.1, 1],
			"to": [16, 1.9, 2.75],
			"rotation": {"angle": -22.5, "axis": "y", "origin": [13, 1, 2.25]},
			"faces": {
				"north": {"uv": [9.5, 4, 11, 4.5], "texture": "#0"},
				"east": {"uv": [12, 3, 12.5, 3.5], "texture": "#0"},
				"south": {"uv": [9.5, 4.5, 11, 5], "texture": "#0"},
				"west": {"uv": [12, 6, 12.5, 6.5], "texture": "#0"},
				"up": {"uv": [11, 5.5, 9.5, 5], "texture": "#0"},
				"down": {"uv": [11, 5.5, 9.5, 6], "texture": "#0"}
			}
		}
	],
	"display": {
		"thirdperson_righthand": {
			"rotation": [0, -7.25, 87.75],
			"translation": [-6.25, -1.75, 3.25],
			"scale": [0.6875, 0.68, 0.5782]
		},
		"thirdperson_lefthand": {
			"rotation": [0, -7.25, 87.75],
			"translation": [-6.25, -1.75, 3.25],
			"scale": [0.6875, 0.68, 0.5782]
		},
		"firstperson_righthand": {
			"rotation": [4, 7.25, 90.25],
			"translation": [2.25, 4.25, -6.25],
			"scale": [1, 1, 0.61]
		},
		"firstperson_lefthand": {
			"rotation": [4, 7.25, 90.25],
			"translation": [2.25, 4.25, -6.25],
			"scale": [1, 1, 0.61]
		},
		"ground": {
			"translation": [0, 4, 0],
			"scale": [0.66, 0.64, 0.65]
		},
		"gui": {
			"rotation": [87, 51.75, 0],
			"translation": [-0.25, 0.75, 0],
			"scale": [0.52344, 1, 0.39258]
		},
		"fixed": {
			"rotation": [90.75, 0, 0],
			"translation": [0, -0.75, 6.5],
			"scale": [0.63477, 1, 0.52734]
		}
	},
	"groups": [
		{
			"name": "group",
			"origin": [8, 8, 8],
			"color": 0,
			"children": [0, 1, 2, 3, 4, 5, 6, 7, 8, 9, 10, 11, 12, 13, 14, 15, 16, 17, 18, 19, 20, 21, 22, 23, 24, 25, 26, 27, 28, 29, 30, 31, 32, 33, 34, 35, 36]
		}
	]
}