{
	"__comment": "https://www.facebook.com/Model2D3D",
	"textures": {
		"voxels_atlas": "vishsirisc:cosmetic/123"
	},
	"elements": [ 	 
		{
			"__comment": "Voxels",
			"from": [ -5.0732, 9.7561, 6.2439 ],
			"to": [ 21.07314, 12.87805, 10.14634 ],
			"faces": {
				"down": { "uv": [ 2.875, 13.0625, 7.0625, 13.6875 ], "texture": "#voxels_atlas" },
				"up": { "uv": [ 7.0625, 13.6875, 11.25, 13.0625 ], "texture": "#voxels_atlas" },
				"north": { "uv": [ 15.4375, 13.1875, 11.25, 13.6875 ], "texture": "#voxels_atlas" },
				"south": { "uv": [ 9.5, 12.5625, 13.6875, 13.0625 ], "texture": "#voxels_atlas" },
				"west": { "uv": [ 5.0625, 8.0625, 5.6875, 8.5625 ], "texture": "#voxels_atlas" },
				"east": { "uv": [ 5.125, 7.5, 4.5, 8 ], "texture": "#voxels_atlas" }
			}
		},
		{
			"__comment": "Voxels",
			"from": [ -5.0732, 12.878, 6.2439 ],
			"to": [ -0.7805171, 18.73166, 10.14634 ],
			"faces": {
				"up": { "uv": [ 3.6875, 2.5625, 4.375, 1.9375 ], "texture": "#voxels_atlas" },
				"north": { "uv": [ 0.6875, 0.3125, 0, 1.25 ], "texture": "#voxels_atlas" },
				"south": { "uv": [ 0.6875, 0.3125, 1.375, 1.25 ], "texture": "#voxels_atlas" },
				"west": { "uv": [ 2.25, 4.625, 2.875, 5.5625 ], "texture": "#voxels_atlas" },
				"east": { "uv": [ 2.875, 5.5625, 2.25, 6.5 ], "texture": "#voxels_atlas" }
			}
		},
		{
			"__comment": "Voxels",
			"from": [ -3.9024, 7.0244, 5.4634 ],
			"to": [ -0.7804489, 12.87806, 6.243888 ],
			"faces": {
				"down": { "uv": [ 14.4375, 11.6875, 14.9375, 11.8125 ], "texture": "#voxels_atlas" },
				"up": { "uv": [ 12.8125, 12.4375, 13.3125, 12.3125 ], "texture": "#voxels_atlas" },
				"north": { "uv": [ 16, 13.875, 15.5, 14.8125 ], "texture": "#voxels_atlas" },
				"south": { "uv": [ 2.25, 2.9375, 2.75, 3.875 ], "texture": "#voxels_atlas" },
				"west": { "uv": [ 2.75, 2.9375, 2.875, 3.875 ], "texture": "#voxels_atlas" },
				"east": { "uv": [ 5.125, 2, 5, 2.9375 ], "texture": "#voxels_atlas" }
			}
		},
		{
			"__comment": "Voxels",
			"from": [ -3.9024, 7.0244, 6.2439 ],
			"to": [ -0.7804489, 9.756107, 10.92683 ],
			"faces": {
				"down": { "uv": [ 2.25, 1.3125, 2.75, 2.0625 ], "texture": "#voxels_atlas" },
				"up": { "uv": [ 2.25, 4.625, 2.75, 3.875 ], "texture": "#voxels_atlas" },
				"south": { "uv": [ 4.5, 5, 5, 5.4375 ], "texture": "#voxels_atlas" },
				"west": { "uv": [ 2.875, 0, 3.625, 0.4375 ], "texture": "#voxels_atlas" },
				"east": { "uv": [ 6.125, 9.1875, 5.375, 9.625 ], "texture": "#voxels_atlas" }
			}
		},
		{
			"__comment": "Voxels",
			"from": [ -3.9024, 9.7561, 10.1463 ],
			"to": [ 19.90248, 12.87805, 10.92679 ],
			"faces": {
				"down": { "uv": [ 11.25, 13.0625, 15.0625, 13.1875 ], "texture": "#voxels_atlas" },
				"up": { "uv": [ 9.5, 12.5625, 13.3125, 12.4375 ], "texture": "#voxels_atlas" },
				"south": { "uv": [ 11.125, 11.8125, 14.9375, 12.3125 ], "texture": "#voxels_atlas" },
				"west": { "uv": [ 2.75, 1.5625, 2.875, 2.0625 ], "texture": "#voxels_atlas" },
				"east": { "uv": [ 3.6875, 0.5625, 3.5625, 1.0625 ], "texture": "#voxels_atlas" }
			}
		},
		{
			"__comment": "Voxels",
			"from": [ -3.122, 5.8537, 6.6341 ],
			"to": [ -1.170781, 7.024431, 9.365807 ],
			"faces": {
				"down": { "uv": [ 3.375, 1.5, 3.6875, 1.9375 ], "texture": "#voxels_atlas" },
				"north": { "uv": [ 6.1875, 2, 5.875, 2.1875 ], "texture": "#voxels_atlas" },
				"south": { "uv": [ 5.875, 1.8125, 6.1875, 2 ], "texture": "#voxels_atlas" },
				"west": { "uv": [ 5.4375, 1.625, 5.875, 1.8125 ], "texture": "#voxels_atlas" },
				"east": { "uv": [ 5.4375, 1.8125, 5, 2 ], "texture": "#voxels_atlas" }
			}
		},
		{
			"__comment": "Voxels",
			"from": [ -3.122, 18.7317, 6.6341 ],
			"to": [ -0.000048876, 21.46341, 9.756051 ],
			"faces": {
				"down": { "uv": [ 4.5, 5.4375, 5, 5.9375 ], "texture": "#voxels_atlas" },
				"up": { "uv": [ 5.6875, 8.5625, 6.1875, 8.0625 ], "texture": "#voxels_atlas" },
				"north": { "uv": [ 6, 4.5625, 5.5, 5 ], "texture": "#voxels_atlas" },
				"south": { "uv": [ 4.5, 4.125, 5, 4.5625 ], "texture": "#voxels_atlas" },
				"west": { "uv": [ 5, 4.125, 5.5, 4.5625 ], "texture": "#voxels_atlas" },
				"east": { "uv": [ 6, 4.125, 5.5, 4.5625 ], "texture": "#voxels_atlas" }
			}
		},
		{
			"__comment": "Voxels",
			"from": [ -2.3415, 5.0732, 7.4146 ],
			"to": [ -1.561012, 5.853687, 8.585332 ],
			"faces": {
				"down": { "uv": [ 5, 0.0625, 5.125, 0.25 ], "texture": "#voxels_atlas" },
				"north": { "uv": [ 6.9375, 13.6875, 6.8125, 13.8125 ], "texture": "#voxels_atlas" },
				"south": { "uv": [ 9.125, 13.6875, 9.25, 13.8125 ], "texture": "#voxels_atlas" },
				"west": { "uv": [ 15.75, 10.8125, 15.9375, 10.9375 ], "texture": "#voxels_atlas" },
				"east": { "uv": [ 6.0625, 8.5625, 5.875, 8.6875 ], "texture": "#voxels_atlas" }
			}
		},
		{
			"__comment": "Voxels",
			"from": [ -1.9512, 21.4634, 7.0244 ],
			"to": [ 0.7805071, 23.02438, 9.365863 ],
			"faces": {
				"down": { "uv": [ 4.625, 3.375, 5.0625, 3.75 ], "texture": "#voxels_atlas" },
				"up": { "uv": [ 5.0625, 3.75, 5.5, 3.375 ], "texture": "#voxels_atlas" },
				"north": { "uv": [ 5.8125, 6.8125, 5.375, 7.0625 ], "texture": "#voxels_atlas" },
				"south": { "uv": [ 5.625, 3.125, 6.0625, 3.375 ], "texture": "#voxels_atlas" },
				"west": { "uv": [ 5.4375, 2.4375, 5.8125, 2.6875 ], "texture": "#voxels_atlas" },
				"east": { "uv": [ 13.6875, 12.3125, 13.3125, 12.5625 ], "texture": "#voxels_atlas" }
			}
		},
		{
			"__comment": "Voxels",
			"from": [ -0.7805, 8.9756, 5.4634 ],
			"to": [ 19.90243, 12.87804, 6.243888 ],
			"faces": {
				"down": { "uv": [ 11.125, 11.6875, 14.4375, 11.8125 ], "texture": "#voxels_atlas" },
				"up": { "uv": [ 9.125, 11.1875, 12.4375, 11.0625 ], "texture": "#voxels_atlas" },
				"north": { "uv": [ 11.125, 11.6875, 7.8125, 12.3125 ], "texture": "#voxels_atlas" },
				"south": { "uv": [ 4.5, 11.6875, 7.8125, 12.3125 ], "texture": "#voxels_atlas" },
				"east": { "uv": [ 2.875, 4, 2.75, 4.625 ], "texture": "#voxels_atlas" }
			}
		},
		{
			"__comment": "Voxels",
			"from": [ -0.7805, 8.9756, 6.2439 ],
			"to": [ 19.90243, 9.756088, 10.92683 ],
			"faces": {
				"down": { "uv": [ 6.1875, 12.3125, 9.5, 13.0625 ], "texture": "#voxels_atlas" },
				"up": { "uv": [ 2.875, 13.0625, 6.1875, 12.3125 ], "texture": "#voxels_atlas" },
				"south": { "uv": [ 9.125, 10.9375, 12.4375, 11.0625 ], "texture": "#voxels_atlas" },
				"east": { "uv": [ 6.8125, 13.6875, 6.0625, 13.8125 ], "texture": "#voxels_atlas" }
			}
		},
		{
			"__comment": "Voxels",
			"from": [ -0.7805, 16.3902, 6.6341 ],
			"to": [ -0.000012219, 18.73166, 9.756051 ],
			"faces": {
				"down": { "uv": [ 4.375, 0.4375, 4.5, 0.9375 ], "texture": "#voxels_atlas" },
				"north": { "uv": [ 5.125, 0.875, 5, 1.25 ], "texture": "#voxels_atlas" },
				"south": { "uv": [ 6, 3.75, 6.125, 4.125 ], "texture": "#voxels_atlas" },
				"east": { "uv": [ 5, 3.75, 4.5, 4.125 ], "texture": "#voxels_atlas" }
			}
		},
		{
			"__comment": "Voxels",
			"from": [ -0.7805, 23.0244, 7.4146 ],
			"to": [ 1.170719, 25.36586, 8.975575 ],
			"faces": {
				"down": { "uv": [ 5.8125, 2.4375, 6.125, 2.6875 ], "texture": "#voxels_atlas" },
				"up": { "uv": [ 5.875, 2.4375, 6.1875, 2.1875 ], "texture": "#voxels_atlas" },
				"north": { "uv": [ 5.8125, 3.375, 5.5, 3.75 ], "texture": "#voxels_atlas" },
				"south": { "uv": [ 5.3125, 3, 5.625, 3.375 ], "texture": "#voxels_atlas" },
				"west": { "uv": [ 5.125, 2, 5.375, 2.375 ], "texture": "#voxels_atlas" },
				"east": { "uv": [ 6.1875, 7.625, 5.9375, 8 ], "texture": "#voxels_atlas" }
			}
		},
		{
			"__comment": "Voxels",
			"from": [ 0, 18.7317, 7.0244 ],
			"to": [ 0.7804878, 21.46341, 9.365863 ],
			"faces": {
				"down": { "uv": [ 6, 4.1875, 6.125, 4.5625 ], "texture": "#voxels_atlas" },
				"north": { "uv": [ 6.125, 5, 6, 5.4375 ], "texture": "#voxels_atlas" },
				"south": { "uv": [ 6, 7.0625, 6.125, 7.5 ], "texture": "#voxels_atlas" },
				"east": { "uv": [ 15.9375, 15.5625, 15.5625, 16 ], "texture": "#voxels_atlas" }
			}
		},
		{
			"__comment": "Voxels",
			"from": [ 0.3902, 25.3659, 7.8049 ],
			"to": [ 1.560932, 27.31712, 8.585387 ],
			"faces": {
				"down": { "uv": [ 5.4375, 1.125, 5.625, 1.25 ], "texture": "#voxels_atlas" },
				"up": { "uv": [ 5.25, 1.125, 5.4375, 1 ], "texture": "#voxels_atlas" },
				"north": { "uv": [ 16, 11.6875, 15.8125, 12 ], "texture": "#voxels_atlas" },
				"south": { "uv": [ 0.5, 0, 0.6875, 0.3125 ], "texture": "#voxels_atlas" },
				"west": { "uv": [ 5, 0.25, 5.125, 0.5625 ], "texture": "#voxels_atlas" },
				"east": { "uv": [ 5.25, 0.9375, 5.125, 1.25 ], "texture": "#voxels_atlas" }
			}
		},
		{
			"__comment": "Voxels",
			"from": [ 0.7805, 1.561, 0.7805 ],
			"to": [ 15.21952, 16.00002, 5.463427 ],
			"faces": {
				"down": { "uv": [ 8.5, 10.0625, 10.8125, 10.8125 ], "texture": "#voxels_atlas" },
				"up": { "uv": [ 13.6875, 13.0625, 16, 12.3125 ], "texture": "#voxels_atlas" },
				"north": { "uv": [ 2.3125, 13.6875, 0, 16 ], "texture": "#voxels_atlas" },
				"south": { "uv": [ 2.3125, 13.6875, 4.625, 16 ], "texture": "#voxels_atlas" },
				"west": { "uv": [ 3.6875, 4.875, 4.4375, 7.1875 ], "texture": "#voxels_atlas" },
				"east": { "uv": [ 4.4375, 2.5625, 3.6875, 4.875 ], "texture": "#voxels_atlas" }
			}
		},
		{
			"__comment": "Voxels",
			"from": [ 0.7805, 1.561, 5.4634 ],
			"to": [ 15.21952, 8.975634, 15.99998 ],
			"faces": {
				"down": { "uv": [ 4.625, 14.3125, 6.9375, 16 ], "texture": "#voxels_atlas" },
				"up": { "uv": [ 6.9375, 16, 9.25, 14.3125 ], "texture": "#voxels_atlas" },
				"south": { "uv": [ 11.5625, 14.8125, 13.875, 16 ], "texture": "#voxels_atlas" },
				"west": { "uv": [ 13.875, 14.8125, 15.5625, 16 ], "texture": "#voxels_atlas" },
				"east": { "uv": [ 6.1875, 9.625, 4.5, 10.8125 ], "texture": "#voxels_atlas" }
			}
		},
		{
			"__comment": "Voxels",
			"from": [ 0.7805, 8.9756, 10.9268 ],
			"to": [ 15.21952, 15.99999, 15.99997 ],
			"faces": {
				"up": { "uv": [ 6.1875, 10.8125, 8.5, 10 ], "texture": "#voxels_atlas" },
				"north": { "uv": [ 11.5625, 13.6875, 9.25, 14.8125 ], "texture": "#voxels_atlas" },
				"south": { "uv": [ 11.5625, 13.6875, 13.875, 14.8125 ], "texture": "#voxels_atlas" },
				"west": { "uv": [ 13.875, 13.6875, 14.6875, 14.8125 ], "texture": "#voxels_atlas" },
				"east": { "uv": [ 15.5, 13.6875, 14.6875, 14.8125 ], "texture": "#voxels_atlas" }
			}
		},
		{
			"__comment": "Voxels",
			"from": [ 0.7805, 12.878, 5.4634 ],
			"to": [ 15.21952, 15.99995, 10.92681 ],
			"faces": {
				"down": { "uv": [ 4.5, 10.8125, 6.8125, 11.6875 ], "texture": "#voxels_atlas" },
				"up": { "uv": [ 6.8125, 11.6875, 9.125, 10.8125 ], "texture": "#voxels_atlas" },
				"west": { "uv": [ 4.5, 9.125, 5.375, 9.625 ], "texture": "#voxels_atlas" },
				"east": { "uv": [ 15.8125, 11.8125, 14.9375, 12.3125 ], "texture": "#voxels_atlas" }
			}
		},
		{
			"__comment": "Voxels",
			"from": [ 0.7805, 21.8537, 7.4146 ],
			"to": [ 1.170744, 23.02443, 8.975575 ],
			"faces": {
				"down": { "uv": [ 1.375, 0.0625, 1.4375, 0.3125 ], "texture": "#voxels_atlas" },
				"north": { "uv": [ 4.5, 4.125, 4.4375, 4.3125 ], "texture": "#voxels_atlas" },
				"south": { "uv": [ 4.4375, 4.6875, 4.5, 4.875 ], "texture": "#voxels_atlas" },
				"east": { "uv": [ 16, 10.9375, 15.75, 11.125 ], "texture": "#voxels_atlas" }
			}
		},
		{
			"__comment": "Voxels",
			"from": [ 1.1707, 24.9756, 7.8049 ],
			"to": [ 1.560944, 25.36584, 8.585387 ],
			"faces": {
				"down": { "uv": [ 4.4375, 4.875, 4.5, 5 ], "texture": "#voxels_atlas" },
				"north": { "uv": [ 16, 13.0625, 15.9375, 13.125 ], "texture": "#voxels_atlas" },
				"south": { "uv": [ 2.8125, 0, 2.875, 0.0625 ], "texture": "#voxels_atlas" },
				"east": { "uv": [ 4.5, 1.9375, 4.375, 2 ], "texture": "#voxels_atlas" }
			}
		},
		{
			"__comment": "Voxels",
			"from": [ 3.5122, 0.7805, 0.3902 ],
			"to": [ 12.48781, 16.39025, 0.7804439 ],
			"faces": {
				"down": { "uv": [ 10.8125, 10.3125, 12.25, 10.375 ], "texture": "#voxels_atlas" },
				"up": { "uv": [ 10.8125, 10.4375, 12.25, 10.375 ], "texture": "#voxels_atlas" },
				"north": { "uv": [ 1.4375, 3.6875, 0, 6.1875 ], "texture": "#voxels_atlas" },
				"south": { "uv": [ 0, 6.1875, 1.4375, 8.6875 ], "texture": "#voxels_atlas" },
				"west": { "uv": [ 4.75, 0.4375, 4.8125, 2.9375 ], "texture": "#voxels_atlas" },
				"east": { "uv": [ 4.875, 0.4375, 4.8125, 2.9375 ], "texture": "#voxels_atlas" }
			}
		},
		{
			"__comment": "Voxels",
			"from": [ 3.5122, 0.7805, 0.7805 ],
			"to": [ 12.48781, 1.560988, 16.39025 ],
			"faces": {
				"down": { "uv": [ 0, 8.6875, 1.4375, 11.1875 ], "texture": "#voxels_atlas" },
				"up": { "uv": [ 0, 13.6875, 1.4375, 11.1875 ], "texture": "#voxels_atlas" },
				"south": { "uv": [ 4.625, 13.6875, 6.0625, 13.8125 ], "texture": "#voxels_atlas" },
				"west": { "uv": [ 9.125, 10.8125, 11.625, 10.9375 ], "texture": "#voxels_atlas" },
				"east": { "uv": [ 13.3125, 10.6875, 10.8125, 10.8125 ], "texture": "#voxels_atlas" }
			}
		},
		{
			"__comment": "Voxels",
			"from": [ 3.5122, 1.561, 16 ],
			"to": [ 12.48781, 16.39027, 16.39024 ],
			"faces": {
				"up": { "uv": [ 8.5, 10.0625, 9.9375, 10 ], "texture": "#voxels_atlas" },
				"north": { "uv": [ 2.875, 6.5, 1.4375, 8.875 ], "texture": "#voxels_atlas" },
				"south": { "uv": [ 1.4375, 8.875, 2.875, 11.25 ], "texture": "#voxels_atlas" },
				"west": { "uv": [ 4.9375, 0.5625, 5, 2.9375 ], "texture": "#voxels_atlas" },
				"east": { "uv": [ 4.9375, 0.5625, 4.875, 2.9375 ], "texture": "#voxels_atlas" }
			}
		},
		{
			"__comment": "Voxels",
			"from": [ 3.5122, 16, 0.7805 ],
			"to": [ 12.48781, 16.39024, 16.00001 ],
			"faces": {
				"down": { "uv": [ 0, 1.25, 1.4375, 3.6875 ], "texture": "#voxels_atlas" },
				"up": { "uv": [ 1.4375, 13.6875, 2.875, 11.25 ], "texture": "#voxels_atlas" },
				"west": { "uv": [ 10.8125, 10.625, 13.25, 10.6875 ], "texture": "#voxels_atlas" },
				"east": { "uv": [ 13.25, 10.5625, 10.8125, 10.625 ], "texture": "#voxels_atlas" }
			}
		},
		{
			"__comment": "Voxels",
			"from": [ 5.4634, 0.3902, 0 ],
			"to": [ 10.53657, 16.78044, 0.3902439 ],
			"faces": {
				"down": { "uv": [ 14.9375, 11.75, 15.75, 11.8125 ], "texture": "#voxels_atlas" },
				"up": { "uv": [ 5.125, 7.5625, 5.9375, 7.5 ], "texture": "#voxels_atlas" },
				"north": { "uv": [ 3.6875, 7.0625, 2.875, 9.6875 ], "texture": "#voxels_atlas" },
				"south": { "uv": [ 1.4375, 3.875, 2.25, 6.5 ], "texture": "#voxels_atlas" },
				"west": { "uv": [ 4.5, 1.125, 4.5625, 3.75 ], "texture": "#voxels_atlas" },
				"east": { "uv": [ 4.625, 1.125, 4.5625, 3.75 ], "texture": "#voxels_atlas" }
			}
		},
		{
			"__comment": "Voxels",
			"from": [ 5.4634, 0.3902, 0.3902 ],
			"to": [ 10.53657, 0.7804439, 16.78044 ],
			"faces": {
				"down": { "uv": [ 1.4375, 1.25, 2.25, 3.875 ], "texture": "#voxels_atlas" },
				"up": { "uv": [ 2.875, 12.3125, 3.6875, 9.6875 ], "texture": "#voxels_atlas" },
				"south": { "uv": [ 14.375, 10.8125, 15.1875, 10.875 ], "texture": "#voxels_atlas" },
				"west": { "uv": [ 13.3125, 10.75, 15.9375, 10.8125 ], "texture": "#voxels_atlas" },
				"east": { "uv": [ 15.9375, 10.6875, 13.3125, 10.75 ], "texture": "#voxels_atlas" }
			}
		},
		{
			"__comment": "Voxels",
			"from": [ 5.4634, 0.7805, 16.3902 ],
			"to": [ 10.53657, 16.7805, 16.78044 ],
			"faces": {
				"up": { "uv": [ 5.125, 7.625, 5.9375, 7.5625 ], "texture": "#voxels_atlas" },
				"north": { "uv": [ 3.6875, 4.5, 2.875, 7.0625 ], "texture": "#voxels_atlas" },
				"south": { "uv": [ 3.6875, 9.75, 4.5, 12.3125 ], "texture": "#voxels_atlas" },
				"west": { "uv": [ 4.6875, 0.375, 4.75, 2.9375 ], "texture": "#voxels_atlas" },
				"east": { "uv": [ 4.6875, 0.375, 4.625, 2.9375 ], "texture": "#voxels_atlas" }
			}
		},
		{
			"__comment": "Voxels",
			"from": [ 5.4634, 16.3902, 0.3902 ],
			"to": [ 10.53657, 16.78044, 16.3902 ],
			"faces": {
				"down": { "uv": [ 2.875, 1.9375, 3.6875, 4.5 ], "texture": "#voxels_atlas" },
				"up": { "uv": [ 3.6875, 9.75, 4.5, 7.1875 ], "texture": "#voxels_atlas" },
				"west": { "uv": [ 13.3125, 10.5625, 15.875, 10.625 ], "texture": "#voxels_atlas" },
				"east": { "uv": [ 15.875, 10.625, 13.3125, 10.6875 ], "texture": "#voxels_atlas" }
			}
		},
		{
			"__comment": "Voxels",
			"from": [ 14.439, 24.9756, 7.8049 ],
			"to": [ 16.78046, 25.36584, 8.585387 ],
			"faces": {
				"down": { "uv": [ 5.125, 7.0625, 5.5, 7.1875 ], "texture": "#voxels_atlas" },
				"up": { "uv": [ 15.0625, 13.1875, 15.4375, 13.0625 ], "texture": "#voxels_atlas" },
				"north": { "uv": [ 6, 5.4375, 5.625, 5.5 ], "texture": "#voxels_atlas" },
				"south": { "uv": [ 5, 5.4375, 5.375, 5.5 ], "texture": "#voxels_atlas" },
				"west": { "uv": [ 2.75, 2.0625, 2.875, 2.125 ], "texture": "#voxels_atlas" },
				"east": { "uv": [ 4.5, 2, 4.375, 2.0625 ], "texture": "#voxels_atlas" }
			}
		},
		{
			"__comment": "Voxels",
			"from": [ 14.439, 25.3659, 7.8049 ],
			"to": [ 15.60973, 27.31712, 8.585387 ],
			"faces": {
				"up": { "uv": [ 5.4375, 5.5625, 5.625, 5.4375 ], "texture": "#voxels_atlas" },
				"north": { "uv": [ 1.375, 0, 1.1875, 0.3125 ], "texture": "#voxels_atlas" },
				"south": { "uv": [ 1.875, 0, 2.0625, 0.3125 ], "texture": "#voxels_atlas" },
				"west": { "uv": [ 5, 0.5625, 5.125, 0.875 ], "texture": "#voxels_atlas" },
				"east": { "uv": [ 2.875, 1.25, 2.75, 1.5625 ], "texture": "#voxels_atlas" }
			}
		},
		{
			"__comment": "Voxels",
			"from": [ 14.8293, 21.8537, 7.4146 ],
			"to": [ 17.95125, 23.02443, 8.975575 ],
			"faces": {
				"down": { "uv": [ 2.125, 0.0625, 2.625, 0.3125 ], "texture": "#voxels_atlas" },
				"up": { "uv": [ 15.25, 11.125, 15.75, 10.875 ], "texture": "#voxels_atlas" },
				"north": { "uv": [ 16, 13.6875, 15.5, 13.875 ], "texture": "#voxels_atlas" },
				"south": { "uv": [ 5.625, 2.9375, 6.125, 3.125 ], "texture": "#voxels_atlas" },
				"west": { "uv": [ 5.25, 1.25, 5.5, 1.4375 ], "texture": "#voxels_atlas" },
				"east": { "uv": [ 5.25, 1.25, 5, 1.4375 ], "texture": "#voxels_atlas" }
			}
		},
		{
			"__comment": "Voxels",
			"from": [ 14.8293, 23.0244, 7.4146 ],
			"to": [ 16.78052, 25.36586, 7.804844 ],
			"faces": {
				"up": { "uv": [ 5.4375, 2.0625, 5.75, 2 ], "texture": "#voxels_atlas" },
				"north": { "uv": [ 6.125, 3.375, 5.8125, 3.75 ], "texture": "#voxels_atlas" },
				"south": { "uv": [ 5.8125, 5.9375, 6.125, 6.3125 ], "texture": "#voxels_atlas" },
				"west": { "uv": [ 4.4375, 6, 4.5, 6.375 ], "texture": "#voxels_atlas" },
				"east": { "uv": [ 4.5, 5.625, 4.4375, 6 ], "texture": "#voxels_atlas" }
			}
		},
		{
			"__comment": "Voxels",
			"from": [ 14.8293, 23.0244, 7.8049 ],
			"to": [ 16.78052, 24.97562, 8.975632 ],
			"faces": {
				"up": { "uv": [ 5, 1.625, 5.3125, 1.4375 ], "texture": "#voxels_atlas" },
				"south": { "uv": [ 5.125, 2.375, 5.4375, 2.6875 ], "texture": "#voxels_atlas" },
				"west": { "uv": [ 2.625, 0, 2.8125, 0.3125 ], "texture": "#voxels_atlas" },
				"east": { "uv": [ 16, 12, 15.8125, 12.3125 ], "texture": "#voxels_atlas" }
			}
		},
		{
			"__comment": "Voxels",
			"from": [ 14.8293, 24.9756, 8.5854 ],
			"to": [ 16.78052, 25.36584, 8.975643 ],
			"faces": {
				"up": { "uv": [ 5.625, 1, 5.9375, 0.9375 ], "texture": "#voxels_atlas" },
				"south": { "uv": [ 5.625, 1.0625, 5.9375, 1.125 ], "texture": "#voxels_atlas" },
				"west": { "uv": [ 2.0625, 0, 2.125, 0.0625 ], "texture": "#voxels_atlas" },
				"east": { "uv": [ 1.4375, 0, 1.375, 0.0625 ], "texture": "#voxels_atlas" }
			}
		},
		{
			"__comment": "Voxels",
			"from": [ 15.2195, 18.7317, 7.0244 ],
			"to": [ 19.12194, 21.46341, 9.365863 ],
			"faces": {
				"down": { "uv": [ 5, 5.5625, 5.625, 5.9375 ], "texture": "#voxels_atlas" },
				"up": { "uv": [ 5.1875, 6.3125, 5.8125, 5.9375 ], "texture": "#voxels_atlas" },
				"north": { "uv": [ 5.125, 6.3125, 4.5, 6.75 ], "texture": "#voxels_atlas" },
				"south": { "uv": [ 4.5, 7.0625, 5.125, 7.5 ], "texture": "#voxels_atlas" },
				"west": { "uv": [ 5.8125, 6.3125, 6.1875, 6.75 ], "texture": "#voxels_atlas" },
				"east": { "uv": [ 5, 2.9375, 4.625, 3.375 ], "texture": "#voxels_atlas" }
			}
		},
		{
			"__comment": "Voxels",
			"from": [ 15.2195, 21.4634, 7.0244 ],
			"to": [ 17.95121, 23.02438, 7.414644 ],
			"faces": {
				"up": { "uv": [ 5.6875, 8.0625, 6.125, 8 ], "texture": "#voxels_atlas" },
				"north": { "uv": [ 5.5625, 2.6875, 5.125, 2.9375 ], "texture": "#voxels_atlas" },
				"south": { "uv": [ 5.5625, 2.6875, 6, 2.9375 ], "texture": "#voxels_atlas" },
				"west": { "uv": [ 2.8125, 0.0625, 2.875, 0.3125 ], "texture": "#voxels_atlas" },
				"east": { "uv": [ 2.125, 0.0625, 2.0625, 0.3125 ], "texture": "#voxels_atlas" }
			}
		},
		{
			"__comment": "Voxels",
			"from": [ 15.2195, 21.4634, 7.4146 ],
			"to": [ 17.95121, 21.85364, 9.365819 ],
			"faces": {
				"up": { "uv": [ 1.4375, 0.3125, 1.875, 0 ], "texture": "#voxels_atlas" },
				"south": { "uv": [ 5.5, 7.125, 5.9375, 7.1875 ], "texture": "#voxels_atlas" },
				"west": { "uv": [ 5.125, 0.875, 5.4375, 0.9375 ], "texture": "#voxels_atlas" },
				"east": { "uv": [ 5.9375, 1.125, 5.625, 1.1875 ], "texture": "#voxels_atlas" }
			}
		},
		{
			"__comment": "Voxels",
			"from": [ 15.2195, 21.8537, 8.9756 ],
			"to": [ 17.95121, 23.02443, 9.365844 ],
			"faces": {
				"up": { "uv": [ 5.5, 7.125, 5.9375, 7.0625 ], "texture": "#voxels_atlas" },
				"south": { "uv": [ 5.4375, 1.8125, 5.875, 2 ], "texture": "#voxels_atlas" },
				"west": { "uv": [ 4.4375, 4.5, 4.5, 4.6875 ], "texture": "#voxels_atlas" },
				"east": { "uv": [ 4.5, 4.3125, 4.4375, 4.5 ], "texture": "#voxels_atlas" }
			}
		},
		{
			"__comment": "Voxels",
			"from": [ 16, 16.3902, 6.6341 ],
			"to": [ 21.07317, 18.73166, 9.756051 ],
			"faces": {
				"down": { "uv": [ 3.6875, 0.9375, 4.5, 1.4375 ], "texture": "#voxels_atlas" },
				"up": { "uv": [ 3.6875, 1.9375, 4.5, 1.4375 ], "texture": "#voxels_atlas" },
				"north": { "uv": [ 4.5, 0, 3.6875, 0.375 ], "texture": "#voxels_atlas" },
				"south": { "uv": [ 5.125, 7.625, 5.9375, 8 ], "texture": "#voxels_atlas" },
				"west": { "uv": [ 5, 3.75, 5.5, 4.125 ], "texture": "#voxels_atlas" },
				"east": { "uv": [ 6, 3.75, 5.5, 4.125 ], "texture": "#voxels_atlas" }
			}
		},
		{
			"__comment": "Voxels",
			"from": [ 16, 18.7317, 6.6341 ],
			"to": [ 19.12195, 21.46341, 7.024344 ],
			"faces": {
				"up": { "uv": [ 15.4375, 13.125, 15.9375, 13.0625 ], "texture": "#voxels_atlas" },
				"north": { "uv": [ 6, 5, 5.5, 5.4375 ], "texture": "#voxels_atlas" },
				"west": { "uv": [ 15.9375, 15.5625, 16, 16 ], "texture": "#voxels_atlas" },
				"east": { "uv": [ 16, 15.125, 15.9375, 15.5625 ], "texture": "#voxels_atlas" }
			}
		},
		{
			"__comment": "Voxels",
			"from": [ 16, 18.7317, 9.3659 ],
			"to": [ 19.12195, 21.46341, 9.756144 ],
			"faces": {
				"up": { "uv": [ 2.125, 0.0625, 2.625, 0 ], "texture": "#voxels_atlas" },
				"south": { "uv": [ 5, 5, 5.5, 5.4375 ], "texture": "#voxels_atlas" },
				"west": { "uv": [ 3.625, 0, 3.6875, 0.4375 ], "texture": "#voxels_atlas" },
				"east": { "uv": [ 4.5, 6.75, 4.4375, 7.1875 ], "texture": "#voxels_atlas" }
			}
		},
		{
			"__comment": "Voxels",
			"from": [ 16.7805, 7.0244, 5.4634 ],
			"to": [ 19.90245, 8.975619, 10.92681 ],
			"faces": {
				"down": { "uv": [ 2.875, 1.0625, 3.375, 1.9375 ], "texture": "#voxels_atlas" },
				"up": { "uv": [ 2.25, 2.9375, 2.75, 2.0625 ], "texture": "#voxels_atlas" },
				"north": { "uv": [ 0.5, 0, 0, 0.3125 ], "texture": "#voxels_atlas" },
				"south": { "uv": [ 0.6875, 0, 1.1875, 0.3125 ], "texture": "#voxels_atlas" },
				"west": { "uv": [ 5.125, 7.1875, 6, 7.5 ], "texture": "#voxels_atlas" },
				"east": { "uv": [ 5.375, 6.75, 4.5, 7.0625 ], "texture": "#voxels_atlas" }
			}
		},
		{
			"__comment": "Voxels",
			"from": [ 16.7805, 12.878, 6.2439 ],
			"to": [ 21.07318, 18.73166, 6.634144 ],
			"faces": {
				"up": { "uv": [ 5.125, 6.375, 5.8125, 6.3125 ], "texture": "#voxels_atlas" },
				"north": { "uv": [ 2.125, 0.3125, 1.4375, 1.25 ], "texture": "#voxels_atlas" },
				"south": { "uv": [ 2.125, 0.3125, 2.8125, 1.25 ], "texture": "#voxels_atlas" },
				"west": { "uv": [ 2.8125, 0.3125, 2.875, 1.25 ], "texture": "#voxels_atlas" },
				"east": { "uv": [ 1.4375, 0.3125, 1.375, 1.25 ], "texture": "#voxels_atlas" }
			}
		},
		{
			"__comment": "Voxels",
			"from": [ 16.7805, 12.878, 6.6341 ],
			"to": [ 21.07318, 16.39019, 10.1463 ],
			"faces": {
				"up": { "uv": [ 5.1875, 9.125, 5.875, 8.5625 ], "texture": "#voxels_atlas" },
				"south": { "uv": [ 15.25, 11.125, 15.9375, 11.6875 ], "texture": "#voxels_atlas" },
				"west": { "uv": [ 4.5, 8, 5.0625, 8.5625 ], "texture": "#voxels_atlas" },
				"east": { "uv": [ 16, 13.125, 15.4375, 13.6875 ], "texture": "#voxels_atlas" }
			}
		},
		{
			"__comment": "Voxels",
			"from": [ 16.7805, 16.3902, 9.7561 ],
			"to": [ 21.07318, 18.73166, 10.14634 ],
			"faces": {
				"up": { "uv": [ 5.5, 1.375, 6.1875, 1.3125 ], "texture": "#voxels_atlas" },
				"south": { "uv": [ 5.125, 6.375, 5.8125, 6.75 ], "texture": "#voxels_atlas" },
				"west": { "uv": [ 4.4375, 5.25, 4.5, 5.625 ], "texture": "#voxels_atlas" },
				"east": { "uv": [ 4.5, 6.375, 4.4375, 6.75 ], "texture": "#voxels_atlas" }
			}
		},
		{
			"__comment": "Voxels",
			"from": [ 17.1707, 5.8537, 6.6341 ],
			"to": [ 19.12192, 7.024431, 9.365807 ],
			"faces": {
				"down": { "uv": [ 5.875, 8.6875, 6.1875, 9.125 ], "texture": "#voxels_atlas" },
				"north": { "uv": [ 5.9375, 1.4375, 5.625, 1.625 ], "texture": "#voxels_atlas" },
				"south": { "uv": [ 5.3125, 1.4375, 5.625, 1.625 ], "texture": "#voxels_atlas" },
				"west": { "uv": [ 5.4375, 2.25, 5.875, 2.4375 ], "texture": "#voxels_atlas" },
				"east": { "uv": [ 5.875, 2.0625, 5.4375, 2.25 ], "texture": "#voxels_atlas" }
			}
		},
		{
			"__comment": "Voxels",
			"from": [ 17.561, 5.0732, 7.4146 ],
			"to": [ 18.34149, 5.853687, 8.585332 ],
			"faces": {
				"down": { "uv": [ 6.0625, 3.1875, 6.1875, 3.375 ], "texture": "#voxels_atlas" },
				"north": { "uv": [ 2.875, 3.875, 2.75, 4 ], "texture": "#voxels_atlas" },
				"south": { "uv": [ 3.5625, 0.4375, 3.6875, 0.5625 ], "texture": "#voxels_atlas" },
				"west": { "uv": [ 5.9375, 7.5, 6.125, 7.625 ], "texture": "#voxels_atlas" },
				"east": { "uv": [ 5.625, 1, 5.4375, 1.125 ], "texture": "#voxels_atlas" }
			}
		}
	],
	"display": {
		"thirdperson_righthand": {
			"rotation":  [ 75, 45, 0 ],
			"translation":  [ 0, 2.5, 0 ],
			"scale":  [ 0.375, 0.375, 0.375 ]
		},
		"thirdperson_lefthand": {
			"rotation":  [ 75, 45, 0 ],
			"translation":  [ 0, 2.5, 0 ],
			"scale":  [ 0.375, 0.375, 0.375 ]
		},
		"firstperson_righthand": {
			"rotation":  [ 0, 139, 0 ],
			"translation":  [ 0, 5.5652, 0 ],
			"scale":  [ 0.3391, 0.3391, 0.3391 ]
		},
		"firstperson_lefthand": {
			"rotation":  [ 0, 139, 0 ],
			"translation":  [ 0, 5.5652, 0 ],
			"scale":  [ 0.3391, 0.3391, 0.3391 ]
		},
		"gui": {
			"rotation":  [ 22, 136, 0 ],
			"translation":  [ -0.6, 0.0979, -2.086 ],
			"scale":  [ 0.4779, 0.4779, 0.4779 ]
		},
		"head": {
			"translation":  [ 0, -0.3, -0.3 ],
			"scale":  [ 1.0347, 1.0347, 1.0347 ]
		},
		"ground": {
			"translation":  [ 0, 4.0869, 0 ],
			"scale":  [ 0.5, 0.5, 0.5 ]
		},
		"fixed": {
			"translation":  [ 0.6956, 1.3919, -3.473 ],
			"scale":  [ 0.7913, 0.7217, 0.3391 ]
		}
	}
}