{
	"credit": "Made with Blockbench",
	"textures": {
		"voxels_atlas": "vishsirisc:cosmetic/136"
	},
	"elements": [
		{
			"name": "Voxels",
			"from": [4.9577, 11.9437, 9.2394],
			"to": [6.30981, 14.19722, 10.36616],
			"faces": {
				"north": {"uv": [7.625, 8.125, 6.875, 9.375], "texture": "#voxels_atlas"},
				"east": {"uv": [11.375, 8.125, 10.75, 9.375], "texture": "#voxels_atlas"},
				"south": {"uv": [7.625, 8.125, 8.375, 9.375], "texture": "#voxels_atlas"},
				"west": {"uv": [8.75, 8.125, 9.375, 9.375], "texture": "#voxels_atlas"},
				"up": {"uv": [13.125, 14.5, 13.875, 13.875], "texture": "#voxels_atlas"},
				"down": {"uv": [14.5, 13.875, 15.25, 14.5], "texture": "#voxels_atlas"}
			}
		},
		{
			"name": "Voxels",
			"from": [4.9577, 14.1972, 9.2394],
			"to": [6.08446, 15.09861, 10.36616],
			"faces": {
				"north": {"uv": [15.125, 12.625, 14.5, 13.125], "texture": "#voxels_atlas"},
				"east": {"uv": [14.5, 11.875, 13.875, 12.375], "texture": "#voxels_atlas"},
				"south": {"uv": [15.125, 12.625, 15.75, 13.125], "texture": "#voxels_atlas"},
				"west": {"uv": [13.25, 11.875, 13.875, 12.375], "texture": "#voxels_atlas"},
				"up": {"uv": [12.625, 12.375, 13.25, 11.75], "texture": "#voxels_atlas"},
				"down": {"uv": [12, 11.75, 12.625, 12.375], "texture": "#voxels_atlas"}
			}
		},
		{
			"name": "Voxels",
			"from": [5.1831, 10.1408, 9.0141],
			"to": [6.30986, 14.19714, 9.23945],
			"faces": {
				"north": {"uv": [10.25, 8.375, 9.625, 10.625], "texture": "#voxels_atlas"},
				"east": {"uv": [2.25, 9, 2.125, 11.25], "texture": "#voxels_atlas"},
				"south": {"uv": [10.75, 11.625, 11.375, 13.875], "texture": "#voxels_atlas"},
				"west": {"uv": [2.25, 9, 2.375, 11.25], "texture": "#voxels_atlas"},
				"up": {"uv": [6.875, 8.125, 7.5, 8], "texture": "#voxels_atlas"},
				"down": {"uv": [2.375, 8, 3, 8.125], "texture": "#voxels_atlas"}
			}
		},
		{
			"name": "Voxels",
			"from": [5.1831, 10.1408, 9.2394],
			"to": [6.30986, 11.94362, 10.59151],
			"faces": {
				"north": {"uv": [12, 8.125, 11.375, 9.125], "texture": "#voxels_atlas"},
				"east": {"uv": [3.125, 8.125, 2.375, 9.125], "texture": "#voxels_atlas"},
				"south": {"uv": [3.875, 8.125, 4.5, 9.125], "texture": "#voxels_atlas"},
				"west": {"uv": [3.125, 8.125, 3.875, 9.125], "texture": "#voxels_atlas"},
				"up": {"uv": [14.5, 13.875, 15.125, 13.125], "texture": "#voxels_atlas"},
				"down": {"uv": [15.125, 13.125, 15.75, 13.875], "texture": "#voxels_atlas"}
			}
		},
		{
			"name": "Voxels",
			"from": [5.1831, 11.9437, 10.3662],
			"to": [6.30986, 14.19722, 10.59155],
			"faces": {
				"north": {"uv": [12, 9.125, 11.375, 10.375], "texture": "#voxels_atlas"},
				"east": {"uv": [16, 14.75, 15.875, 16], "texture": "#voxels_atlas"},
				"south": {"uv": [12.625, 12.625, 13.25, 13.875], "texture": "#voxels_atlas"},
				"west": {"uv": [13.25, 8.625, 13.375, 9.875], "texture": "#voxels_atlas"},
				"up": {"uv": [3.125, 8.125, 3.75, 8], "texture": "#voxels_atlas"},
				"down": {"uv": [3.875, 8, 4.5, 8.125], "texture": "#voxels_atlas"}
			}
		},
		{
			"name": "Voxels",
			"from": [5.1831, 15.0986, 9.4648],
			"to": [6.08451, 16.45071, 10.14086],
			"rotation": {"angle": -22.5, "axis": "z", "origin": [5.1831, 15.09859, 9.46479]},
			"faces": {
				"north": {"uv": [10.75, 8.375, 10.25, 9.125], "texture": "#voxels_atlas"},
				"east": {"uv": [12.875, 10.25, 12.5, 11], "texture": "#voxels_atlas"},
				"south": {"uv": [10.25, 9.125, 10.75, 9.875], "texture": "#voxels_atlas"},
				"west": {"uv": [12.5, 9.5, 12.875, 10.25], "texture": "#voxels_atlas"},
				"up": {"uv": [9.625, 8.375, 10.125, 8], "texture": "#voxels_atlas"},
				"down": {"uv": [10.25, 8, 10.75, 8.375], "texture": "#voxels_atlas"}
			}
		},
		{
			"name": "Voxels",
			"from": [5.8592, 8.5634, 7.662],
			"to": [10.14089, 12.16903, 11.94369],
			"faces": {
				"north": {"uv": [6.875, 8, 4.5, 10], "texture": "#voxels_atlas"},
				"east": {"uv": [6.875, 14, 4.5, 16], "texture": "#voxels_atlas"},
				"south": {"uv": [4.5, 10, 6.875, 12], "texture": "#voxels_atlas"},
				"west": {"uv": [4.5, 12, 6.875, 14], "texture": "#voxels_atlas"},
				"up": {"uv": [0, 16, 2.375, 13.625], "texture": "#voxels_atlas"},
				"down": {"uv": [0, 11.25, 2.375, 13.625], "texture": "#voxels_atlas"}
			}
		},
		{
			"name": "Voxels",
			"from": [6.0845, 8.338, 7.662],
			"to": [9.91549, 8.56335, 11.94369],
			"faces": {
				"north": {"uv": [15.375, 10.875, 13.25, 11], "texture": "#voxels_atlas"},
				"east": {"uv": [14.875, 11.125, 12.5, 11.25], "texture": "#voxels_atlas"},
				"south": {"uv": [13.75, 11.25, 15.875, 11.375], "texture": "#voxels_atlas"},
				"west": {"uv": [12.5, 11, 14.875, 11.125], "texture": "#voxels_atlas"},
				"up": {"uv": [2.375, 16, 4.5, 13.625], "texture": "#voxels_atlas"},
				"down": {"uv": [0, 8.875, 2.125, 11.25], "texture": "#voxels_atlas"}
			}
		},
		{
			"name": "Voxels",
			"from": [6.0845, 12.169, 7.662],
			"to": [9.91549, 12.6197, 11.71834],
			"faces": {
				"north": {"uv": [2.125, 8.125, 0, 8.375], "texture": "#voxels_atlas"},
				"east": {"uv": [2.25, 8.625, 0, 8.875], "texture": "#voxels_atlas"},
				"south": {"uv": [12, 12.375, 14.125, 12.625], "texture": "#voxels_atlas"},
				"west": {"uv": [0, 8.375, 2.25, 8.625], "texture": "#voxels_atlas"},
				"up": {"uv": [2.375, 11.375, 4.5, 9.125], "texture": "#voxels_atlas"},
				"down": {"uv": [2.375, 11.375, 4.5, 13.625], "texture": "#voxels_atlas"}
			}
		},
		{
			"name": "Voxels",
			"from": [6.3099, 8.1127, 7.662],
			"to": [9.69018, 8.33805, 11.71834],
			"faces": {
				"north": {"uv": [16, 12.5, 14.125, 12.625], "texture": "#voxels_atlas"},
				"east": {"uv": [16, 11.625, 13.75, 11.75], "texture": "#voxels_atlas"},
				"south": {"uv": [14.125, 12.375, 16, 12.5], "texture": "#voxels_atlas"},
				"west": {"uv": [13.75, 11.5, 16, 11.625], "texture": "#voxels_atlas"},
				"up": {"uv": [6.875, 13.75, 8.75, 11.5], "texture": "#voxels_atlas"},
				"down": {"uv": [6.875, 13.75, 8.75, 16], "texture": "#voxels_atlas"}
			}
		},
		{
			"name": "Voxels",
			"from": [6.5352, 7.8873, 7.662],
			"to": [9.46478, 8.11265, 11.49299],
			"faces": {
				"north": {"uv": [14.875, 10.5, 13.25, 10.625], "texture": "#voxels_atlas"},
				"east": {"uv": [2.125, 8, 0, 8.125], "texture": "#voxels_atlas"},
				"south": {"uv": [13.25, 10.375, 14.875, 10.5], "texture": "#voxels_atlas"},
				"west": {"uv": [13.75, 11.375, 15.875, 11.5], "texture": "#voxels_atlas"},
				"up": {"uv": [6.875, 11.5, 8.5, 9.375], "texture": "#voxels_atlas"},
				"down": {"uv": [8.75, 13.875, 10.375, 16], "texture": "#voxels_atlas"}
			}
		},
		{
			"name": "Voxels",
			"from": [5.4085, 16.9014, 9.4648],
			"to": [5.8592, 18.02816, 9.9155],
			"rotation": {"angle": 45, "axis": "z", "origin": [5.40845, 16.90141, 9.46479]},
			"faces": {
				"north": {"uv": [9.625, 8.75, 9.375, 9.375], "texture": "#voxels_atlas"},
				"east": {"uv": [16, 11.75, 15.75, 12.375], "texture": "#voxels_atlas"},
				"south": {"uv": [9.375, 8.125, 9.625, 8.75], "texture": "#voxels_atlas"},
				"west": {"uv": [15.75, 13.25, 16, 13.875], "texture": "#voxels_atlas"},
				"up": {"uv": [2.125, 8.375, 2.375, 8.125], "texture": "#voxels_atlas"},
				"down": {"uv": [8.5, 9.375, 8.75, 9.625], "texture": "#voxels_atlas"}
			}
		},
		{
			"name": "Voxels",
			"from": [6.7606, 7.662, 7.662],
			"to": [9.23947, 7.88735, 11.04228],
			"faces": {
				"north": {"uv": [13.125, 13.875, 11.75, 14], "texture": "#voxels_atlas"},
				"east": {"uv": [15.125, 10.625, 13.25, 10.75], "texture": "#voxels_atlas"},
				"south": {"uv": [11.75, 14, 13.125, 14.125], "texture": "#voxels_atlas"},
				"west": {"uv": [13.25, 10.75, 15.125, 10.875], "texture": "#voxels_atlas"},
				"up": {"uv": [11.75, 16, 13.125, 14.125], "texture": "#voxels_atlas"},
				"down": {"uv": [10.375, 14.125, 11.75, 16], "texture": "#voxels_atlas"}
			}
		},
		{
			"name": "Voxels",
			"from": [6.7606, 12.6197, 8.5634],
			"to": [9.23947, 12.84505, 11.26762],
			"faces": {
				"north": {"uv": [11.75, 14, 10.375, 14.125], "texture": "#voxels_atlas"},
				"east": {"uv": [14.75, 9.875, 13.25, 10], "texture": "#voxels_atlas"},
				"south": {"uv": [10.375, 13.875, 11.75, 14], "texture": "#voxels_atlas"},
				"west": {"uv": [13.25, 10, 14.75, 10.125], "texture": "#voxels_atlas"},
				"up": {"uv": [13.125, 16, 14.5, 14.5], "texture": "#voxels_atlas"},
				"down": {"uv": [14.5, 14.5, 15.875, 16], "texture": "#voxels_atlas"}
			}
		},
		{
			"name": "Voxels",
			"from": [6.9859, 7.4366, 7.662],
			"to": [9.01407, 7.66195, 10.59158],
			"faces": {
				"north": {"uv": [16, 11, 14.875, 11.125], "texture": "#voxels_atlas"},
				"east": {"uv": [14.875, 10.25, 13.25, 10.375], "texture": "#voxels_atlas"},
				"south": {"uv": [14.875, 11.125, 16, 11.25], "texture": "#voxels_atlas"},
				"west": {"uv": [13.25, 10.125, 14.875, 10.25], "texture": "#voxels_atlas"},
				"up": {"uv": [9.625, 12.25, 10.75, 10.625], "texture": "#voxels_atlas"},
				"down": {"uv": [9.625, 12.25, 10.75, 13.875], "texture": "#voxels_atlas"}
			}
		},
		{
			"name": "Voxels",
			"from": [5.6338, 15.7746, 9.4648],
			"to": [6.30986, 17.12671, 10.14086],
			"rotation": {"angle": 22.5, "axis": "z", "origin": [5.6338, 15.77465, 9.46479]},
			"faces": {
				"north": {"uv": [12.875, 8, 12.5, 8.75], "texture": "#voxels_atlas"},
				"east": {"uv": [13.25, 8.75, 12.875, 9.5], "texture": "#voxels_atlas"},
				"south": {"uv": [12.875, 10.25, 13.25, 11], "texture": "#voxels_atlas"},
				"west": {"uv": [12, 8, 12.375, 8.75], "texture": "#voxels_atlas"},
				"up": {"uv": [13.625, 9.5, 14, 9.125], "texture": "#voxels_atlas"},
				"down": {"uv": [12.875, 8.375, 13.25, 8.75], "texture": "#voxels_atlas"}
			}
		},
		{
			"name": "Voxels",
			"from": [9.6901, 16, 9.4648],
			"to": [10.36616, 17.35211, 10.14086],
			"rotation": {"angle": -22.5, "axis": "z", "origin": [9.69014, 16, 9.46479]},
			"faces": {
				"north": {"uv": [8.75, 8.625, 8.375, 9.375], "texture": "#voxels_atlas"},
				"east": {"uv": [12.375, 9.5, 12, 10.25], "texture": "#voxels_atlas"},
				"south": {"uv": [12.5, 8.75, 12.875, 9.5], "texture": "#voxels_atlas"},
				"west": {"uv": [12, 10.25, 12.375, 11], "texture": "#voxels_atlas"},
				"up": {"uv": [12.875, 8.375, 13.25, 8], "texture": "#voxels_atlas"},
				"down": {"uv": [13.625, 9.5, 14, 9.875], "texture": "#voxels_atlas"}
			}
		},
		{
			"name": "Voxels",
			"from": [10.1408, 17.1268, 9.4648],
			"to": [10.5915, 18.25356, 9.9155],
			"rotation": {"angle": -45, "axis": "z", "origin": [10.14085, 17.12676, 9.46479]},
			"faces": {
				"north": {"uv": [8.75, 10.875, 8.5, 11.5], "texture": "#voxels_atlas"},
				"east": {"uv": [8.625, 8, 8.375, 8.625], "texture": "#voxels_atlas"},
				"south": {"uv": [8.5, 10.25, 8.75, 10.875], "texture": "#voxels_atlas"},
				"west": {"uv": [8.5, 9.625, 8.75, 10.25], "texture": "#voxels_atlas"},
				"up": {"uv": [15.75, 12.875, 16, 12.625], "texture": "#voxels_atlas"},
				"down": {"uv": [15.75, 12.875, 16, 13.125], "texture": "#voxels_atlas"}
			}
		},
		{
			"name": "Voxels",
			"from": [9.9155, 14.6479, 9.4648],
			"to": [10.81691, 16.00001, 10.14086],
			"rotation": {"angle": 22.5, "axis": "z", "origin": [9.91549, 14.64789, 9.46479]},
			"faces": {
				"north": {"uv": [12.5, 11, 12, 11.75], "texture": "#voxels_atlas"},
				"east": {"uv": [13.25, 9.5, 12.875, 10.25], "texture": "#voxels_atlas"},
				"south": {"uv": [10.25, 9.875, 10.75, 10.625], "texture": "#voxels_atlas"},
				"west": {"uv": [12, 8.75, 12.375, 9.5], "texture": "#voxels_atlas"},
				"up": {"uv": [13.875, 13, 14.375, 12.625], "texture": "#voxels_atlas"},
				"down": {"uv": [13.25, 12.625, 13.75, 13], "texture": "#voxels_atlas"}
			}
		},
		{
			"name": "Voxels",
			"from": [9.6901, 10.1408, 9.0141],
			"to": [10.81686, 14.19714, 10.59157],
			"faces": {
				"north": {"uv": [12, 11.625, 11.375, 13.875], "texture": "#voxels_atlas"},
				"east": {"uv": [9.625, 9.375, 8.75, 11.625], "texture": "#voxels_atlas"},
				"south": {"uv": [10.75, 9.375, 11.375, 11.625], "texture": "#voxels_atlas"},
				"west": {"uv": [8.75, 11.625, 9.625, 13.875], "texture": "#voxels_atlas"},
				"up": {"uv": [13.25, 13.875, 13.875, 13], "texture": "#voxels_atlas"},
				"down": {"uv": [13.875, 13, 14.5, 13.875], "texture": "#voxels_atlas"}
			}
		},
		{
			"name": "Voxels",
			"from": [9.9155, 14.1972, 9.2394],
			"to": [11.04226, 15.09861, 10.36616],
			"faces": {
				"north": {"uv": [15.125, 11.875, 14.5, 12.375], "texture": "#voxels_atlas"},
				"east": {"uv": [15.75, 11.875, 15.125, 12.375], "texture": "#voxels_atlas"},
				"south": {"uv": [13.125, 11.25, 13.75, 11.75], "texture": "#voxels_atlas"},
				"west": {"uv": [12.5, 11.25, 13.125, 11.75], "texture": "#voxels_atlas"},
				"up": {"uv": [13.875, 14.5, 14.5, 13.875], "texture": "#voxels_atlas"},
				"down": {"uv": [15.25, 13.875, 15.875, 14.5], "texture": "#voxels_atlas"}
			}
		},
		{
			"name": "Voxels",
			"from": [10.8169, 11.9437, 9.2394],
			"to": [11.04225, 14.19722, 10.36616],
			"faces": {
				"north": {"uv": [13.5, 8.625, 13.375, 9.875], "texture": "#voxels_atlas"},
				"east": {"uv": [12, 10.375, 11.375, 11.625], "texture": "#voxels_atlas"},
				"south": {"uv": [13.5, 8.625, 13.625, 9.875], "texture": "#voxels_atlas"},
				"west": {"uv": [12, 12.625, 12.625, 13.875], "texture": "#voxels_atlas"},
				"up": {"uv": [15.875, 14.5, 16, 13.875], "texture": "#voxels_atlas"},
				"down": {"uv": [8.625, 8, 8.75, 8.625], "texture": "#voxels_atlas"}
			}
		}
	],
	"display": {
		"thirdperson_righthand": {
			"rotation": [75, 45, 0],
			"translation": [0, 2.5, 0],
			"scale": [0.375, 0.375, 0.375]
		},
		"thirdperson_lefthand": {
			"rotation": [75, 45, 0],
			"translation": [0, 2.5, 0],
			"scale": [0.375, 0.375, 0.375]
		},
		"firstperson_righthand": {
			"rotation": [0, 146, 0],
			"translation": [0, 2.0869, 0]
		},
		"firstperson_lefthand": {
			"rotation": [0, 146, 0],
			"translation": [0, 2.0869, 0]
		},
		"ground": {
			"translation": [0, 0, -2.086]
		},
		"gui": {
			"rotation": [20, 155, 0],
			"translation": [-1.391, -6.256, 0],
			"scale": [2, 2, 2]
		},
		"head": {
			"translation": [0, -9.042, -6.89],
			"scale": [3.6429, 3.6429, 3.7122]
		},
		"fixed": {
			"translation": [0, -9.043, -17.39],
			"scale": [4, 4, 4]
		}
	}
}