{
	"__comment": "Designed by Naturesurvival with Cubik Studio - https://cubik.studio",
	"textures": {
		"voxels_atlas": "vishsirisc:cosmetic/c"
	},
	"elements": [
		{
			"__comment": "Voxels",
			"from": [ -2, 11, 1 ],
			"to": [ 1, 12, 2 ],
			"faces": {
				"down": { "uv": [ 8.25, 11, 9, 11.25 ], "texture": "#voxels_atlas" },
				"up": { "uv": [ 12.75, 11.25, 13.5, 11 ], "texture": "#voxels_atlas" },
				"north": { "uv": [ 10, 11, 9.25, 11.25 ], "texture": "#voxels_atlas" },
				"south": { "uv": [ 6.25, 11.25, 7, 11.5 ], "texture": "#voxels_atlas" },
				"west": { "uv": [ 12.5, 14.25, 12.75, 14.5 ], "texture": "#voxels_atlas" },
				"east": { "uv": [ 15.5, 13.25, 15.25, 13.5 ], "texture": "#voxels_atlas" }
			}
		},
		{
			"__comment": "Voxels",
			"from": [ -1, 9, 1 ],
			"to": [ 1, 10, 2 ],
			"faces": {
				"down": { "uv": [ 5.25, 10.75, 5.75, 11 ], "texture": "#voxels_atlas" },
				"up": { "uv": [ 5, 10.75, 5.5, 10.5 ], "texture": "#voxels_atlas" },
				"north": { "uv": [ 6, 10.5, 5.5, 10.75 ], "texture": "#voxels_atlas" },
				"south": { "uv": [ 6, 10.5, 6.5, 10.75 ], "texture": "#voxels_atlas" },
				"west": { "uv": [ 2.75, 0, 3, 0.25 ], "texture": "#voxels_atlas" },
				"east": { "uv": [ 3.25, 0, 3, 0.25 ], "texture": "#voxels_atlas" }
			}
		},
		{
			"__comment": "Voxels",
			"from": [ -1, 13, 1 ],
			"to": [ 1, 14, 2 ],
			"faces": {
				"down": { "uv": [ 6.5, 10.5, 7, 10.75 ], "texture": "#voxels_atlas" },
				"up": { "uv": [ 7, 10.75, 7.5, 10.5 ], "texture": "#voxels_atlas" },
				"north": { "uv": [ 8, 10.5, 7.5, 10.75 ], "texture": "#voxels_atlas" },
				"south": { "uv": [ 8, 10.5, 8.5, 10.75 ], "texture": "#voxels_atlas" },
				"west": { "uv": [ 15.75, 13, 16, 13.25 ], "texture": "#voxels_atlas" },
				"east": { "uv": [ 5, 0, 4.75, 0.25 ], "texture": "#voxels_atlas" }
			}
		},
		{
			"__comment": "Voxels",
			"from": [ -1, 14, 10 ],
			"to": [ 1, 16, 11 ],
			"faces": {
				"down": { "uv": [ 8.5, 10.5, 9, 10.75 ], "texture": "#voxels_atlas" },
				"up": { "uv": [ 9, 10.75, 9.5, 10.5 ], "texture": "#voxels_atlas" },
				"north": { "uv": [ 14.5, 11.5, 14, 12 ], "texture": "#voxels_atlas" },
				"south": { "uv": [ 13, 11.5, 13.5, 12 ], "texture": "#voxels_atlas" },
				"west": { "uv": [ 4.75, 1.75, 5, 2.25 ], "texture": "#voxels_atlas" },
				"east": { "uv": [ 5, 1.25, 4.75, 1.75 ], "texture": "#voxels_atlas" }
			}
		},
		{
			"__comment": "Voxels",
			"from": [ -1, 16, 9 ],
			"to": [ 1, 18, 10 ],
			"faces": {
				"down": { "uv": [ 9.5, 10.5, 10, 10.75 ], "texture": "#voxels_atlas" },
				"up": { "uv": [ 10, 10.75, 10.5, 10.5 ], "texture": "#voxels_atlas" },
				"north": { "uv": [ 12.5, 11.5, 12, 12 ], "texture": "#voxels_atlas" },
				"south": { "uv": [ 15.5, 12, 16, 12.5 ], "texture": "#voxels_atlas" },
				"west": { "uv": [ 4.75, 0.75, 5, 1.25 ], "texture": "#voxels_atlas" },
				"east": { "uv": [ 5, 0.25, 4.75, 0.75 ], "texture": "#voxels_atlas" }
			}
		},
		{
			"__comment": "Voxels",
			"from": [ -1, 18, 9 ],
			"to": [ 0, 19, 10 ],
			"faces": {
				"up": { "uv": [ 6, 8.75, 6.25, 8.5 ], "texture": "#voxels_atlas" },
				"north": { "uv": [ 12, 9.75, 11.75, 10 ], "texture": "#voxels_atlas" },
				"south": { "uv": [ 11.5, 9.75, 11.75, 10 ], "texture": "#voxels_atlas" },
				"west": { "uv": [ 11.25, 9.75, 11.5, 10 ], "texture": "#voxels_atlas" },
				"east": { "uv": [ 11.25, 9.75, 11, 10 ], "texture": "#voxels_atlas" }
			}
		},
		{
			"__comment": "Voxels",
			"from": [ -1, 19, 8 ],
			"to": [ 0, 20, 9 ],
			"faces": {
				"down": { "uv": [ 10.75, 9.75, 11, 10 ], "texture": "#voxels_atlas" },
				"up": { "uv": [ 10.5, 10, 10.75, 9.75 ], "texture": "#voxels_atlas" },
				"north": { "uv": [ 10.5, 9.75, 10.25, 10 ], "texture": "#voxels_atlas" },
				"south": { "uv": [ 10, 9.75, 10.25, 10 ], "texture": "#voxels_atlas" },
				"west": { "uv": [ 9.75, 9.75, 10, 10 ], "texture": "#voxels_atlas" },
				"east": { "uv": [ 9.75, 9.75, 9.5, 10 ], "texture": "#voxels_atlas" }
			}
		},
		{
			"__comment": "Voxels",
			"from": [ -1, 20, 7 ],
			"to": [ 0, 21, 8 ],
			"faces": {
				"down": { "uv": [ 9.25, 9.75, 9.5, 10 ], "texture": "#voxels_atlas" },
				"up": { "uv": [ 9, 10, 9.25, 9.75 ], "texture": "#voxels_atlas" },
				"north": { "uv": [ 9, 9.75, 8.75, 10 ], "texture": "#voxels_atlas" },
				"south": { "uv": [ 8.5, 9.75, 8.75, 10 ], "texture": "#voxels_atlas" },
				"west": { "uv": [ 8.25, 9.75, 8.5, 10 ], "texture": "#voxels_atlas" },
				"east": { "uv": [ 8.25, 9.75, 8, 10 ], "texture": "#voxels_atlas" }
			}
		},
		{
			"__comment": "Voxels",
			"from": [ 0, 3, 13 ],
			"to": [ 1, 15, 14 ],
			"faces": {
				"down": { "uv": [ 7.25, 9.75, 7.5, 10 ], "texture": "#voxels_atlas" },
				"up": { "uv": [ 7, 10, 7.25, 9.75 ], "texture": "#voxels_atlas" },
				"north": { "uv": [ 4.25, 10.25, 4, 13.25 ], "texture": "#voxels_atlas" },
				"south": { "uv": [ 3, 0.25, 3.25, 3.25 ], "texture": "#voxels_atlas" },
				"west": { "uv": [ 3.25, 10.25, 3.5, 13.25 ], "texture": "#voxels_atlas" },
				"east": { "uv": [ 3.5, 7.25, 3.25, 10.25 ], "texture": "#voxels_atlas" }
			}
		},
		{
			"__comment": "Voxels",
			"from": [ 0, 4, 10 ],
			"to": [ 1, 14, 13 ],
			"faces": {
				"down": { "uv": [ 14.25, 10.75, 14.5, 11.5 ], "texture": "#voxels_atlas" },
				"up": { "uv": [ 4.75, 5.25, 5, 4.5 ], "texture": "#voxels_atlas" },
				"north": { "uv": [ 3, 0.25, 2.75, 2.75 ], "texture": "#voxels_atlas" },
				"west": { "uv": [ 2, 5, 2.75, 7.5 ], "texture": "#voxels_atlas" },
				"east": { "uv": [ 2.75, 2.5, 2, 5 ], "texture": "#voxels_atlas" }
			}
		},
		{
			"__comment": "Voxels",
			"from": [ 0, 5, 8 ],
			"to": [ 1, 19, 9 ],
			"faces": {
				"down": { "uv": [ 6.75, 9.75, 7, 10 ], "texture": "#voxels_atlas" },
				"up": { "uv": [ 6.5, 10, 6.75, 9.75 ], "texture": "#voxels_atlas" },
				"north": { "uv": [ 3.25, 9.75, 3, 13.25 ], "texture": "#voxels_atlas" },
				"south": { "uv": [ 2.75, 2.75, 3, 6.25 ], "texture": "#voxels_atlas" },
				"west": { "uv": [ 2.75, 6.25, 3, 9.75 ], "texture": "#voxels_atlas" },
				"east": { "uv": [ 3, 9.75, 2.75, 13.25 ], "texture": "#voxels_atlas" }
			}
		},
		{
			"__comment": "Voxels",
			"from": [ 0, 5, 9 ],
			"to": [ 1, 16, 10 ],
			"faces": {
				"down": { "uv": [ 5.75, 8.75, 6, 9 ], "texture": "#voxels_atlas" },
				"south": { "uv": [ 13, 13.25, 13.25, 16 ], "texture": "#voxels_atlas" },
				"west": { "uv": [ 13.75, 13.25, 14, 16 ], "texture": "#voxels_atlas" },
				"east": { "uv": [ 14.25, 13.25, 14, 16 ], "texture": "#voxels_atlas" }
			}
		},
		{
			"__comment": "Voxels",
			"from": [ 0, 6, 4 ],
			"to": [ 1, 16, 8 ],
			"faces": {
				"down": { "uv": [ 4.75, 5.25, 5, 6.25 ], "texture": "#voxels_atlas" },
				"up": { "uv": [ 4.75, 7.25, 5, 6.25 ], "texture": "#voxels_atlas" },
				"north": { "uv": [ 4.5, 10.75, 4.25, 13.25 ], "texture": "#voxels_atlas" },
				"west": { "uv": [ 0, 5, 1, 7.5 ], "texture": "#voxels_atlas" },
				"east": { "uv": [ 2, 5, 1, 7.5 ], "texture": "#voxels_atlas" }
			}
		},
		{
			"__comment": "Voxels",
			"from": [ 0, 7, 1 ],
			"to": [ 1, 9, 4 ],
			"faces": {
				"down": { "uv": [ 10.5, 10.75, 10.75, 11.5 ], "texture": "#voxels_atlas" },
				"up": { "uv": [ 14, 11.5, 14.25, 10.75 ], "texture": "#voxels_atlas" },
				"north": { "uv": [ 5.25, 10, 5, 10.5 ], "texture": "#voxels_atlas" },
				"west": { "uv": [ 14.75, 12, 15.5, 12.5 ], "texture": "#voxels_atlas" },
				"east": { "uv": [ 5.5, 11.5, 4.75, 12 ], "texture": "#voxels_atlas" }
			}
		},
		{
			"__comment": "Voxels",
			"from": [ 0, 8, 0 ],
			"to": [ 1, 10, 1 ],
			"faces": {
				"down": { "uv": [ 5.75, 0.25, 6, 0.5 ], "texture": "#voxels_atlas" },
				"up": { "uv": [ 5.75, 0.75, 6, 0.5 ], "texture": "#voxels_atlas" },
				"north": { "uv": [ 5.25, 9, 5, 9.5 ], "texture": "#voxels_atlas" },
				"south": { "uv": [ 5, 8.5, 5.25, 9 ], "texture": "#voxels_atlas" },
				"west": { "uv": [ 5, 8, 5.25, 8.5 ], "texture": "#voxels_atlas" },
				"east": { "uv": [ 5.25, 7.5, 5, 8 ], "texture": "#voxels_atlas" }
			}
		},
		{
			"__comment": "Voxels",
			"from": [ 0, 9, 2 ],
			"to": [ 1, 15, 4 ],
			"faces": {
				"up": { "uv": [ 5, 7, 5.25, 6.5 ], "texture": "#voxels_atlas" },
				"north": { "uv": [ 4.75, 8.75, 4.5, 10.25 ], "texture": "#voxels_atlas" },
				"west": { "uv": [ 5.75, 13.75, 6.25, 15.25 ], "texture": "#voxels_atlas" },
				"east": { "uv": [ 6.75, 13.75, 6.25, 15.25 ], "texture": "#voxels_atlas" }
			}
		},
		{
			"__comment": "Voxels",
			"from": [ 0, 10, 1 ],
			"to": [ 1, 11, 2 ],
			"faces": {
				"north": { "uv": [ 6, 1.25, 5.75, 1.5 ], "texture": "#voxels_atlas" },
				"west": { "uv": [ 5.75, 1.75, 6, 2 ], "texture": "#voxels_atlas" },
				"east": { "uv": [ 6, 2, 5.75, 2.25 ], "texture": "#voxels_atlas" }
			}
		},
		{
			"__comment": "Voxels",
			"from": [ 0, 12, 1 ],
			"to": [ 1, 13, 2 ],
			"faces": {
				"north": { "uv": [ 6, 4.75, 5.75, 5 ], "texture": "#voxels_atlas" },
				"west": { "uv": [ 5.75, 5.25, 6, 5.5 ], "texture": "#voxels_atlas" },
				"east": { "uv": [ 6, 5.5, 5.75, 5.75 ], "texture": "#voxels_atlas" }
			}
		},
		{
			"__comment": "Voxels",
			"from": [ 0, 14, 1 ],
			"to": [ 2, 15, 2 ],
			"faces": {
				"down": { "uv": [ 10.5, 10.5, 11, 10.75 ], "texture": "#voxels_atlas" },
				"up": { "uv": [ 11, 10.75, 11.5, 10.5 ], "texture": "#voxels_atlas" },
				"north": { "uv": [ 12, 10.5, 11.5, 10.75 ], "texture": "#voxels_atlas" },
				"south": { "uv": [ 12, 10.5, 12.5, 10.75 ], "texture": "#voxels_atlas" },
				"west": { "uv": [ 5.75, 5.75, 6, 6 ], "texture": "#voxels_atlas" },
				"east": { "uv": [ 6, 6, 5.75, 6.25 ], "texture": "#voxels_atlas" }
			}
		},
		{
			"__comment": "Voxels",
			"from": [ 0, 14, 11 ],
			"to": [ 1, 15, 13 ],
			"faces": {
				"up": { "uv": [ 5, 6, 5.25, 5.5 ], "texture": "#voxels_atlas" },
				"west": { "uv": [ 12.5, 10.5, 13, 10.75 ], "texture": "#voxels_atlas" },
				"east": { "uv": [ 13.5, 10.5, 13, 10.75 ], "texture": "#voxels_atlas" }
			}
		},
		{
			"__comment": "Voxels",
			"from": [ 0, 16, 1 ],
			"to": [ 15, 17, 2 ],
			"faces": {
				"down": { "uv": [ 9, 15.5, 12.75, 15.75 ], "texture": "#voxels_atlas" },
				"up": { "uv": [ 9, 16, 12.75, 15.75 ], "texture": "#voxels_atlas" },
				"north": { "uv": [ 12.75, 15.25, 9, 15.5 ], "texture": "#voxels_atlas" },
				"south": { "uv": [ 9, 15, 12.75, 15.25 ], "texture": "#voxels_atlas" },
				"west": { "uv": [ 5.75, 7.25, 6, 7.5 ], "texture": "#voxels_atlas" },
				"east": { "uv": [ 6, 8.5, 5.75, 8.75 ], "texture": "#voxels_atlas" }
			}
		},
		{
			"__comment": "Voxels",
			"from": [ 0, 16, 5 ],
			"to": [ 1, 18, 8 ],
			"faces": {
				"up": { "uv": [ 10.25, 11.5, 10.5, 10.75 ], "texture": "#voxels_atlas" },
				"north": { "uv": [ 5.25, 5, 5, 5.5 ], "texture": "#voxels_atlas" },
				"west": { "uv": [ 5.75, 13.25, 6.5, 13.75 ], "texture": "#voxels_atlas" },
				"east": { "uv": [ 12.75, 13.75, 12, 14.25 ], "texture": "#voxels_atlas" }
			}
		},
		{
			"__comment": "Voxels",
			"from": [ 0, 18, 6 ],
			"to": [ 1, 19, 8 ],
			"faces": {
				"up": { "uv": [ 5, 4.5, 5.25, 4 ], "texture": "#voxels_atlas" },
				"north": { "uv": [ 6, 9, 5.75, 9.25 ], "texture": "#voxels_atlas" },
				"west": { "uv": [ 13.5, 10.5, 14, 10.75 ], "texture": "#voxels_atlas" },
				"east": { "uv": [ 14.5, 10.5, 14, 10.75 ], "texture": "#voxels_atlas" }
			}
		},
		{
			"__comment": "Voxels",
			"from": [ 0, 19, 7 ],
			"to": [ 1, 20, 8 ],
			"faces": {
				"up": { "uv": [ 15.5, 10.25, 15.75, 10 ], "texture": "#voxels_atlas" },
				"north": { "uv": [ 14.5, 10, 14.25, 10.25 ], "texture": "#voxels_atlas" },
				"south": { "uv": [ 14, 10, 14.25, 10.25 ], "texture": "#voxels_atlas" },
				"west": { "uv": [ 12.25, 10, 12.5, 10.25 ], "texture": "#voxels_atlas" },
				"east": { "uv": [ 12.25, 10, 12, 10.25 ], "texture": "#voxels_atlas" }
			}
		},
		{
			"__comment": "Voxels",
			"from": [ 1, 3, 14 ],
			"to": [ 2, 15, 15 ],
			"faces": {
				"down": { "uv": [ 11.75, 10, 12, 10.25 ], "texture": "#voxels_atlas" },
				"up": { "uv": [ 11.5, 10.25, 11.75, 10 ], "texture": "#voxels_atlas" },
				"north": { "uv": [ 4, 10.25, 3.75, 13.25 ], "texture": "#voxels_atlas" },
				"south": { "uv": [ 3.5, 1.25, 3.75, 4.25 ], "texture": "#voxels_atlas" },
				"west": { "uv": [ 3.5, 4.25, 3.75, 7.25 ], "texture": "#voxels_atlas" },
				"east": { "uv": [ 3.75, 7.25, 3.5, 10.25 ], "texture": "#voxels_atlas" }
			}
		},
		{
			"__comment": "Voxels",
			"from": [ 1, 9, 0 ],
			"to": [ 2, 14, 1 ],
			"faces": {
				"down": { "uv": [ 10.75, 10, 11, 10.25 ], "texture": "#voxels_atlas" },
				"up": { "uv": [ 10.5, 10.25, 10.75, 10 ], "texture": "#voxels_atlas" },
				"north": { "uv": [ 3.5, 0, 3.25, 1.25 ], "texture": "#voxels_atlas" },
				"south": { "uv": [ 4.5, 4.75, 4.75, 6 ], "texture": "#voxels_atlas" },
				"west": { "uv": [ 4.5, 3.5, 4.75, 4.75 ], "texture": "#voxels_atlas" },
				"east": { "uv": [ 4.75, 2.25, 4.5, 3.5 ], "texture": "#voxels_atlas" }
			}
		},
		{
			"__comment": "Voxels",
			"from": [ 1, 14, 2 ],
			"to": [ 2, 15, 3 ],
			"faces": {
				"down": { "uv": [ 9.75, 10, 10, 10.25 ], "texture": "#voxels_atlas" },
				"up": { "uv": [ 9.5, 10.25, 9.75, 10 ], "texture": "#voxels_atlas" },
				"south": { "uv": [ 9, 10, 9.25, 10.25 ], "texture": "#voxels_atlas" },
				"east": { "uv": [ 8.25, 10, 8, 10.25 ], "texture": "#voxels_atlas" }
			}
		},
		{
			"__comment": "Voxels",
			"from": [ 1, 15, 1 ],
			"to": [ 3, 16, 2 ],
			"faces": {
				"down": { "uv": [ 14.5, 10.5, 15, 10.75 ], "texture": "#voxels_atlas" },
				"north": { "uv": [ 16, 10.5, 15.5, 10.75 ], "texture": "#voxels_atlas" },
				"south": { "uv": [ 5.25, 10.25, 5.75, 10.5 ], "texture": "#voxels_atlas" },
				"west": { "uv": [ 5.25, 2, 5.5, 2.25 ], "texture": "#voxels_atlas" },
				"east": { "uv": [ 5.75, 2.25, 5.5, 2.5 ], "texture": "#voxels_atlas" }
			}
		},
		{
			"__comment": "Voxels",
			"from": [ 1, 15, 3 ],
			"to": [ 2, 16, 6 ],
			"faces": {
				"down": { "uv": [ 7, 10.75, 7.25, 11.5 ], "texture": "#voxels_atlas" },
				"up": { "uv": [ 7.25, 11.5, 7.5, 10.75 ], "texture": "#voxels_atlas" },
				"north": { "uv": [ 5.5, 2.25, 5.25, 2.5 ], "texture": "#voxels_atlas" },
				"south": { "uv": [ 5.5, 2.5, 5.75, 2.75 ], "texture": "#voxels_atlas" },
				"west": { "uv": [ 7.5, 10.75, 8.25, 11 ], "texture": "#voxels_atlas" },
				"east": { "uv": [ 9, 11.25, 8.25, 11.5 ], "texture": "#voxels_atlas" }
			}
		},
		{
			"__comment": "Voxels",
			"from": [ 1, 15, 9 ],
			"to": [ 2, 16, 14 ],
			"faces": {
				"down": { "uv": [ 3.75, 0, 4, 1.25 ], "texture": "#voxels_atlas" },
				"up": { "uv": [ 4.5, 7.25, 4.75, 6 ], "texture": "#voxels_atlas" },
				"north": { "uv": [ 5.5, 3.5, 5.25, 3.75 ], "texture": "#voxels_atlas" },
				"south": { "uv": [ 5.5, 4.25, 5.75, 4.5 ], "texture": "#voxels_atlas" },
				"west": { "uv": [ 8.25, 11.75, 9.5, 12 ], "texture": "#voxels_atlas" },
				"east": { "uv": [ 9.5, 11.5, 8.25, 11.75 ], "texture": "#voxels_atlas" }
			}
		},
		{
			"__comment": "Voxels",
			"from": [ 1, 16, 6 ],
			"to": [ 2, 18, 9 ],
			"faces": {
				"down": { "uv": [ 4.75, 3.75, 5, 4.5 ], "texture": "#voxels_atlas" },
				"up": { "uv": [ 10.75, 11.5, 11, 10.75 ], "texture": "#voxels_atlas" },
				"north": { "uv": [ 5.25, 3.5, 5, 4 ], "texture": "#voxels_atlas" },
				"south": { "uv": [ 5, 3, 5.25, 3.5 ], "texture": "#voxels_atlas" },
				"west": { "uv": [ 12, 13.25, 12.75, 13.75 ], "texture": "#voxels_atlas" },
				"east": { "uv": [ 14.75, 12.5, 14, 13 ], "texture": "#voxels_atlas" }
			}
		},
		{
			"__comment": "Voxels",
			"from": [ 1, 18, 7 ],
			"to": [ 2, 19, 8 ],
			"faces": {
				"up": { "uv": [ 15.75, 10.5, 16, 10.25 ], "texture": "#voxels_atlas" },
				"north": { "uv": [ 8.5, 9.5, 8.25, 9.75 ], "texture": "#voxels_atlas" },
				"south": { "uv": [ 8, 9.5, 8.25, 9.75 ], "texture": "#voxels_atlas" },
				"east": { "uv": [ 6.25, 1, 6, 1.25 ], "texture": "#voxels_atlas" }
			}
		},
		{
			"__comment": "Voxels",
			"from": [ 2, 2, 15 ],
			"to": [ 13, 15, 16 ],
			"faces": {
				"down": { "uv": [ 0, 0, 2.75, 0.25 ], "texture": "#voxels_atlas" },
				"up": { "uv": [ 9, 15, 11.75, 14.75 ], "texture": "#voxels_atlas" },
				"north": { "uv": [ 2.75, 12.75, 0, 16 ], "texture": "#voxels_atlas" },
				"south": { "uv": [ 0, 9.5, 2.75, 12.75 ], "texture": "#voxels_atlas" },
				"west": { "uv": [ 3, 3.25, 3.25, 6.5 ], "texture": "#voxels_atlas" },
				"east": { "uv": [ 3.25, 6.5, 3, 9.75 ], "texture": "#voxels_atlas" }
			}
		},
		{
			"__comment": "Voxels",
			"from": [ 2, 10, 0 ],
			"to": [ 4, 15, 1 ],
			"faces": {
				"down": { "uv": [ 5.75, 10.25, 6.25, 10.5 ], "texture": "#voxels_atlas" },
				"up": { "uv": [ 6.25, 10.5, 6.75, 10.25 ], "texture": "#voxels_atlas" },
				"north": { "uv": [ 5, 12, 4.5, 13.25 ], "texture": "#voxels_atlas" },
				"south": { "uv": [ 5, 12, 5.5, 13.25 ], "texture": "#voxels_atlas" },
				"west": { "uv": [ 4.75, 8.25, 5, 9.5 ], "texture": "#voxels_atlas" },
				"east": { "uv": [ 3.75, 0, 3.5, 1.25 ], "texture": "#voxels_atlas" }
			}
		},
		{
			"__comment": "Voxels",
			"from": [ 2, 15, 2 ],
			"to": [ 3, 16, 3 ],
			"faces": {
				"down": { "uv": [ 6, 7.75, 6.25, 8 ], "texture": "#voxels_atlas" },
				"up": { "uv": [ 6, 8.25, 6.25, 8 ], "texture": "#voxels_atlas" },
				"south": { "uv": [ 6, 9, 6.25, 9.25 ], "texture": "#voxels_atlas" },
				"west": { "uv": [ 15.75, 9.75, 16, 10 ], "texture": "#voxels_atlas" },
				"east": { "uv": [ 15.75, 9.75, 15.5, 10 ], "texture": "#voxels_atlas" }
			}
		},
		{
			"__comment": "Voxels",
			"from": [ 2, 15, 14 ],
			"to": [ 3, 16, 15 ],
			"faces": {
				"down": { "uv": [ 5.75, 3.5, 6, 3.75 ], "texture": "#voxels_atlas" },
				"up": { "uv": [ 5.75, 4, 6, 3.75 ], "texture": "#voxels_atlas" },
				"north": { "uv": [ 6, 7.5, 5.75, 7.75 ], "texture": "#voxels_atlas" },
				"south": { "uv": [ 5.75, 7.75, 6, 8 ], "texture": "#voxels_atlas" },
				"west": { "uv": [ 5.75, 8, 6, 8.25 ], "texture": "#voxels_atlas" },
				"east": { "uv": [ 6, 8.25, 5.75, 8.5 ], "texture": "#voxels_atlas" }
			}
		},
		{
			"__comment": "Voxels",
			"from": [ 2, 16, 3 ],
			"to": [ 3, 17, 6 ],
			"faces": {
				"down": { "uv": [ 6, 10.75, 6.25, 11.5 ], "texture": "#voxels_atlas" },
				"up": { "uv": [ 5.75, 11.5, 6, 10.75 ], "texture": "#voxels_atlas" },
				"north": { "uv": [ 15.5, 10, 15.25, 10.25 ], "texture": "#voxels_atlas" },
				"south": { "uv": [ 15, 10, 15.25, 10.25 ], "texture": "#voxels_atlas" },
				"west": { "uv": [ 4.25, 13.25, 5, 13.5 ], "texture": "#voxels_atlas" },
				"east": { "uv": [ 15.25, 10.75, 14.5, 11 ], "texture": "#voxels_atlas" }
			}
		},
		{
			"__comment": "Voxels",
			"from": [ 2, 16, 9 ],
			"to": [ 3, 18, 12 ],
			"faces": {
				"down": { "uv": [ 15.75, 10.75, 16, 11.5 ], "texture": "#voxels_atlas" },
				"up": { "uv": [ 15.5, 11.5, 15.75, 10.75 ], "texture": "#voxels_atlas" },
				"north": { "uv": [ 5.25, 2.5, 5, 3 ], "texture": "#voxels_atlas" },
				"south": { "uv": [ 5, 2, 5.25, 2.5 ], "texture": "#voxels_atlas" },
				"west": { "uv": [ 14, 12, 14.75, 12.5 ], "texture": "#voxels_atlas" },
				"east": { "uv": [ 15.5, 12.5, 14.75, 13 ], "texture": "#voxels_atlas" }
			}
		},
		{
			"__comment": "Voxels",
			"from": [ 2, 16, 12 ],
			"to": [ 3, 17, 14 ],
			"faces": {
				"down": { "uv": [ 5, 1.5, 5.25, 2 ], "texture": "#voxels_atlas" },
				"up": { "uv": [ 5, 1.5, 5.25, 1 ], "texture": "#voxels_atlas" },
				"south": { "uv": [ 14.5, 10, 14.75, 10.25 ], "texture": "#voxels_atlas" },
				"west": { "uv": [ 6.75, 10.25, 7.25, 10.5 ], "texture": "#voxels_atlas" },
				"east": { "uv": [ 7.75, 10.25, 7.25, 10.5 ], "texture": "#voxels_atlas" }
			}
		},
		{
			"__comment": "Voxels",
			"from": [ 2, 17, 5 ],
			"to": [ 13, 18, 9 ],
			"faces": {
				"down": { "uv": [ 0, 8.5, 2.75, 9.5 ], "texture": "#voxels_atlas" },
				"up": { "uv": [ 0, 8.5, 2.75, 7.5 ], "texture": "#voxels_atlas" },
				"north": { "uv": [ 11.75, 14.5, 9, 14.75 ], "texture": "#voxels_atlas" },
				"south": { "uv": [ 9, 14.25, 11.75, 14.5 ], "texture": "#voxels_atlas" },
				"west": { "uv": [ 11.75, 14.5, 12.75, 14.75 ], "texture": "#voxels_atlas" },
				"east": { "uv": [ 12.75, 14.75, 11.75, 15 ], "texture": "#voxels_atlas" }
			}
		},
		{
			"__comment": "Voxels",
			"from": [ 3, 15, 0 ],
			"to": [ 12, 16, 1 ],
			"faces": {
				"down": { "uv": [ 7.75, 13, 10, 13.25 ], "texture": "#voxels_atlas" },
				"up": { "uv": [ 10, 13.25, 12.25, 13 ], "texture": "#voxels_atlas" },
				"north": { "uv": [ 10, 12, 7.75, 12.25 ], "texture": "#voxels_atlas" },
				"south": { "uv": [ 10, 12.5, 12.25, 12.75 ], "texture": "#voxels_atlas" },
				"west": { "uv": [ 13.25, 10, 13.5, 10.25 ], "texture": "#voxels_atlas" },
				"east": { "uv": [ 13.25, 10, 13, 10.25 ], "texture": "#voxels_atlas" }
			}
		},
		{
			"__comment": "Voxels",
			"from": [ 3, 15, 15 ],
			"to": [ 12, 16, 16 ],
			"faces": {
				"up": { "uv": [ 6.75, 14, 9, 13.75 ], "texture": "#voxels_atlas" },
				"north": { "uv": [ 9, 13.5, 6.75, 13.75 ], "texture": "#voxels_atlas" },
				"south": { "uv": [ 5.5, 13, 7.75, 13.25 ], "texture": "#voxels_atlas" },
				"west": { "uv": [ 5.25, 0.5, 5.5, 0.75 ], "texture": "#voxels_atlas" },
				"east": { "uv": [ 5.75, 0.75, 5.5, 1 ], "texture": "#voxels_atlas" }
			}
		},
		{
			"__comment": "Voxels",
			"from": [ 3, 16, 2 ],
			"to": [ 4, 17, 3 ],
			"faces": {
				"down": { "uv": [ 5.25, 0.75, 5.5, 1 ], "texture": "#voxels_atlas" },
				"up": { "uv": [ 5.5, 1.25, 5.75, 1 ], "texture": "#voxels_atlas" },
				"south": { "uv": [ 5.5, 3, 5.75, 3.25 ], "texture": "#voxels_atlas" },
				"west": { "uv": [ 5.25, 3, 5.5, 3.25 ], "texture": "#voxels_atlas" },
				"east": { "uv": [ 5.75, 3.25, 5.5, 3.5 ], "texture": "#voxels_atlas" }
			}
		},
		{
			"__comment": "Voxels",
			"from": [ 3, 16, 14 ],
			"to": [ 5, 17, 15 ],
			"faces": {
				"down": { "uv": [ 7.75, 10.25, 8.25, 10.5 ], "texture": "#voxels_atlas" },
				"up": { "uv": [ 8.25, 10.5, 8.75, 10.25 ], "texture": "#voxels_atlas" },
				"north": { "uv": [ 9.25, 10.25, 8.75, 10.5 ], "texture": "#voxels_atlas" },
				"south": { "uv": [ 9.25, 10.25, 9.75, 10.5 ], "texture": "#voxels_atlas" },
				"west": { "uv": [ 12.75, 10, 13, 10.25 ], "texture": "#voxels_atlas" },
				"east": { "uv": [ 12.75, 10, 12.5, 10.25 ], "texture": "#voxels_atlas" }
			}
		},
		{
			"__comment": "Voxels",
			"from": [ 3, 17, 3 ],
			"to": [ 12, 18, 5 ],
			"faces": {
				"down": { "uv": [ 6.75, 14, 9, 14.5 ], "texture": "#voxels_atlas" },
				"up": { "uv": [ 6.75, 15, 9, 14.5 ], "texture": "#voxels_atlas" },
				"north": { "uv": [ 7.75, 12.75, 5.5, 13 ], "texture": "#voxels_atlas" },
				"west": { "uv": [ 9.75, 10.25, 10.25, 10.5 ], "texture": "#voxels_atlas" },
				"east": { "uv": [ 10.75, 10.25, 10.25, 10.5 ], "texture": "#voxels_atlas" }
			}
		},
		{
			"__comment": "Voxels",
			"from": [ 3, 17, 9 ],
			"to": [ 13, 18, 12 ],
			"faces": {
				"down": { "uv": [ 0, 1.75, 2.5, 2.5 ], "texture": "#voxels_atlas" },
				"up": { "uv": [ 4.25, 16, 6.75, 15.25 ], "texture": "#voxels_atlas" },
				"south": { "uv": [ 9, 13.25, 11.5, 13.5 ], "texture": "#voxels_atlas" },
				"east": { "uv": [ 10, 10.75, 9.25, 11 ], "texture": "#voxels_atlas" }
			}
		},
		{
			"__comment": "Voxels",
			"from": [ 3, 17, 12 ],
			"to": [ 12, 18, 14 ],
			"faces": {
				"down": { "uv": [ 6.75, 15.5, 9, 16 ], "texture": "#voxels_atlas" },
				"up": { "uv": [ 6.75, 15.5, 9, 15 ], "texture": "#voxels_atlas" },
				"south": { "uv": [ 5.5, 12.5, 7.75, 12.75 ], "texture": "#voxels_atlas" },
				"west": { "uv": [ 10.75, 10.25, 11.25, 10.5 ], "texture": "#voxels_atlas" },
				"east": { "uv": [ 11.75, 10.25, 11.25, 10.5 ], "texture": "#voxels_atlas" }
			}
		},
		{
			"__comment": "Voxels",
			"from": [ 4, 11, 0 ],
			"to": [ 14, 14, 1 ],
			"faces": {
				"down": { "uv": [ 9, 13.5, 11.5, 13.75 ], "texture": "#voxels_atlas" },
				"up": { "uv": [ 9, 14.25, 11.5, 14 ], "texture": "#voxels_atlas" },
				"north": { "uv": [ 2.5, 0.25, 0, 1 ], "texture": "#voxels_atlas" },
				"south": { "uv": [ 0, 1, 2.5, 1.75 ], "texture": "#voxels_atlas" },
				"east": { "uv": [ 4.5, 0, 4.25, 0.75 ], "texture": "#voxels_atlas" }
			}
		},
		{
			"__comment": "Voxels",
			"from": [ 4, 14, 0 ],
			"to": [ 13, 15, 1 ],
			"faces": {
				"up": { "uv": [ 7.75, 13, 10, 12.75 ], "texture": "#voxels_atlas" },
				"north": { "uv": [ 10, 12.5, 7.75, 12.75 ], "texture": "#voxels_atlas" },
				"south": { "uv": [ 7.75, 12.25, 10, 12.5 ], "texture": "#voxels_atlas" },
				"east": { "uv": [ 6, 4, 5.75, 4.25 ], "texture": "#voxels_atlas" }
			}
		},
		{
			"__comment": "Voxels",
			"from": [ 4, 16, 15 ],
			"to": [ 11, 17, 16 ],
			"faces": {
				"up": { "uv": [ 12.25, 12.75, 14, 12.5 ], "texture": "#voxels_atlas" },
				"north": { "uv": [ 14, 12.25, 12.25, 12.5 ], "texture": "#voxels_atlas" },
				"south": { "uv": [ 12.25, 12, 14, 12.25 ], "texture": "#voxels_atlas" },
				"west": { "uv": [ 6, 9.5, 6.25, 9.75 ], "texture": "#voxels_atlas" },
				"east": { "uv": [ 6.25, 9.25, 6, 9.5 ], "texture": "#voxels_atlas" }
			}
		},
		{
			"__comment": "Voxels",
			"from": [ 4, 17, 2 ],
			"to": [ 11, 18, 3 ],
			"faces": {
				"down": { "uv": [ 10, 12.25, 11.75, 12.5 ], "texture": "#voxels_atlas" },
				"up": { "uv": [ 10, 12.25, 11.75, 12 ], "texture": "#voxels_atlas" },
				"north": { "uv": [ 14, 13, 12.25, 13.25 ], "texture": "#voxels_atlas" },
				"west": { "uv": [ 6, 1.5, 6.25, 1.75 ], "texture": "#voxels_atlas" },
				"east": { "uv": [ 6.25, 1.25, 6, 1.5 ], "texture": "#voxels_atlas" }
			}
		},
		{
			"__comment": "Voxels",
			"from": [ 5, 17, 14 ],
			"to": [ 10, 18, 15 ],
			"faces": {
				"down": { "uv": [ 10.75, 11.5, 12, 11.75 ], "texture": "#voxels_atlas" },
				"up": { "uv": [ 10.75, 12, 12, 11.75 ], "texture": "#voxels_atlas" },
				"south": { "uv": [ 9.5, 11.75, 10.75, 12 ], "texture": "#voxels_atlas" },
				"west": { "uv": [ 8.5, 9.5, 8.75, 9.75 ], "texture": "#voxels_atlas" },
				"east": { "uv": [ 9, 9.5, 8.75, 9.75 ], "texture": "#voxels_atlas" }
			}
		},
		{
			"__comment": "Voxels",
			"from": [ 6, 17, 1 ],
			"to": [ 9, 18, 2 ],
			"faces": {
				"up": { "uv": [ 11.5, 11.5, 12.25, 11.25 ], "texture": "#voxels_atlas" },
				"north": { "uv": [ 10, 11.25, 9.25, 11.5 ], "texture": "#voxels_atlas" },
				"west": { "uv": [ 5.5, 3.5, 5.75, 3.75 ], "texture": "#voxels_atlas" },
				"east": { "uv": [ 5.5, 3.25, 5.25, 3.5 ], "texture": "#voxels_atlas" }
			}
		},
		{
			"__comment": "Voxels",
			"from": [ 10, 16, 14 ],
			"to": [ 12, 17, 15 ],
			"faces": {
				"down": { "uv": [ 11.75, 10.25, 12.25, 10.5 ], "texture": "#voxels_atlas" },
				"up": { "uv": [ 12.25, 10.5, 12.75, 10.25 ], "texture": "#voxels_atlas" },
				"north": { "uv": [ 13.25, 10.25, 12.75, 10.5 ], "texture": "#voxels_atlas" },
				"south": { "uv": [ 13.25, 10.25, 13.75, 10.5 ], "texture": "#voxels_atlas" },
				"west": { "uv": [ 5.5, 2.75, 5.75, 3 ], "texture": "#voxels_atlas" },
				"east": { "uv": [ 5.5, 2.5, 5.25, 2.75 ], "texture": "#voxels_atlas" }
			}
		},
		{
			"__comment": "Voxels",
			"from": [ 11, 10, 0 ],
			"to": [ 14, 11, 1 ],
			"faces": {
				"down": { "uv": [ 7.5, 11, 8.25, 11.25 ], "texture": "#voxels_atlas" },
				"north": { "uv": [ 7, 10.75, 6.25, 11 ], "texture": "#voxels_atlas" },
				"south": { "uv": [ 6.25, 11, 7, 11.25 ], "texture": "#voxels_atlas" },
				"west": { "uv": [ 5.5, 2, 5.75, 2.25 ], "texture": "#voxels_atlas" },
				"east": { "uv": [ 5.5, 1.75, 5.25, 2 ], "texture": "#voxels_atlas" }
			}
		},
		{
			"__comment": "Voxels",
			"from": [ 11, 16, 2 ],
			"to": [ 12, 17, 3 ],
			"faces": {
				"down": { "uv": [ 5.5, 1.75, 5.75, 2 ], "texture": "#voxels_atlas" },
				"up": { "uv": [ 5.25, 1.75, 5.5, 1.5 ], "texture": "#voxels_atlas" },
				"south": { "uv": [ 5.25, 1.25, 5.5, 1.5 ], "texture": "#voxels_atlas" },
				"west": { "uv": [ 5.5, 1.25, 5.75, 1.5 ], "texture": "#voxels_atlas" },
				"east": { "uv": [ 5.5, 1, 5.25, 1.25 ], "texture": "#voxels_atlas" }
			}
		},
		{
			"__comment": "Voxels",
			"from": [ 12, 15, 1 ],
			"to": [ 14, 16, 2 ],
			"faces": {
				"down": { "uv": [ 13.75, 10.25, 14.25, 10.5 ], "texture": "#voxels_atlas" },
				"north": { "uv": [ 15.25, 10.25, 14.75, 10.5 ], "texture": "#voxels_atlas" },
				"south": { "uv": [ 15.25, 10.25, 15.75, 10.5 ], "texture": "#voxels_atlas" },
				"west": { "uv": [ 5.5, 0.5, 5.75, 0.75 ], "texture": "#voxels_atlas" },
				"east": { "uv": [ 5.5, 0.25, 5.25, 0.5 ], "texture": "#voxels_atlas" }
			}
		},
		{
			"__comment": "Voxels",
			"from": [ 12, 15, 2 ],
			"to": [ 13, 16, 3 ],
			"faces": {
				"down": { "uv": [ 5.5, 0.25, 5.75, 0.5 ], "texture": "#voxels_atlas" },
				"up": { "uv": [ 5.25, 0.25, 5.5, 0 ], "texture": "#voxels_atlas" },
				"south": { "uv": [ 5.75, 10, 6, 10.25 ], "texture": "#voxels_atlas" },
				"west": { "uv": [ 6, 10, 6.25, 10.25 ], "texture": "#voxels_atlas" },
				"east": { "uv": [ 6.5, 10, 6.25, 10.25 ], "texture": "#voxels_atlas" }
			}
		},
		{
			"__comment": "Voxels",
			"from": [ 12, 15, 14 ],
			"to": [ 13, 16, 15 ],
			"faces": {
				"down": { "uv": [ 6.5, 10, 6.75, 10.25 ], "texture": "#voxels_atlas" },
				"up": { "uv": [ 6.75, 10.25, 7, 10 ], "texture": "#voxels_atlas" },
				"north": { "uv": [ 7.25, 10, 7, 10.25 ], "texture": "#voxels_atlas" },
				"south": { "uv": [ 7.25, 10, 7.5, 10.25 ], "texture": "#voxels_atlas" },
				"west": { "uv": [ 7.5, 10, 7.75, 10.25 ], "texture": "#voxels_atlas" },
				"east": { "uv": [ 8, 10, 7.75, 10.25 ], "texture": "#voxels_atlas" }
			}
		},
		{
			"__comment": "Voxels",
			"from": [ 12, 16, 3 ],
			"to": [ 13, 17, 6 ],
			"faces": {
				"down": { "uv": [ 2.5, 0.25, 2.75, 1 ], "texture": "#voxels_atlas" },
				"up": { "uv": [ 2.5, 1.75, 2.75, 1 ], "texture": "#voxels_atlas" },
				"north": { "uv": [ 8.75, 10, 8.5, 10.25 ], "texture": "#voxels_atlas" },
				"south": { "uv": [ 8.75, 10, 9, 10.25 ], "texture": "#voxels_atlas" },
				"west": { "uv": [ 11.75, 14.25, 12.5, 14.5 ], "texture": "#voxels_atlas" },
				"east": { "uv": [ 5.75, 13.25, 5, 13.5 ], "texture": "#voxels_atlas" }
			}
		},
		{
			"__comment": "Voxels",
			"from": [ 12, 16, 9 ],
			"to": [ 13, 17, 14 ],
			"faces": {
				"down": { "uv": [ 4.5, 1, 4.75, 2.25 ], "texture": "#voxels_atlas" },
				"up": { "uv": [ 4.75, 10.75, 5, 9.5 ], "texture": "#voxels_atlas" },
				"north": { "uv": [ 10.25, 10, 10, 10.25 ], "texture": "#voxels_atlas" },
				"south": { "uv": [ 10.25, 10, 10.5, 10.25 ], "texture": "#voxels_atlas" },
				"west": { "uv": [ 7, 11.5, 8.25, 11.75 ], "texture": "#voxels_atlas" },
				"east": { "uv": [ 8.25, 11.75, 7, 12 ], "texture": "#voxels_atlas" }
			}
		},
		{
			"__comment": "Voxels",
			"from": [ 13, 3, 14 ],
			"to": [ 14, 15, 15 ],
			"faces": {
				"down": { "uv": [ 11, 10, 11.25, 10.25 ], "texture": "#voxels_atlas" },
				"up": { "uv": [ 11.25, 10.25, 11.5, 10 ], "texture": "#voxels_atlas" },
				"north": { "uv": [ 4, 7.25, 3.75, 10.25 ], "texture": "#voxels_atlas" },
				"south": { "uv": [ 3.75, 1.25, 4, 4.25 ], "texture": "#voxels_atlas" },
				"west": { "uv": [ 3.5, 10.25, 3.75, 13.25 ], "texture": "#voxels_atlas" },
				"east": { "uv": [ 4.25, 7.25, 4, 10.25 ], "texture": "#voxels_atlas" }
			}
		},
		{
			"__comment": "Voxels",
			"from": [ 13, 9, 0 ],
			"to": [ 15, 10, 1 ],
			"faces": {
				"down": { "uv": [ 5.25, 10, 5.75, 10.25 ], "texture": "#voxels_atlas" },
				"up": { "uv": [ 5.25, 10, 5.75, 9.75 ], "texture": "#voxels_atlas" },
				"north": { "uv": [ 5.75, 9.5, 5.25, 9.75 ], "texture": "#voxels_atlas" },
				"south": { "uv": [ 5.25, 9.25, 5.75, 9.5 ], "texture": "#voxels_atlas" },
				"west": { "uv": [ 13.5, 10, 13.75, 10.25 ], "texture": "#voxels_atlas" },
				"east": { "uv": [ 14, 10, 13.75, 10.25 ], "texture": "#voxels_atlas" }
			}
		},
		{
			"__comment": "Voxels",
			"from": [ 13, 14, 1 ],
			"to": [ 15, 15, 3 ],
			"faces": {
				"down": { "uv": [ 11.75, 12, 12.25, 12.5 ], "texture": "#voxels_atlas" },
				"up": { "uv": [ 12.5, 12, 13, 11.5 ], "texture": "#voxels_atlas" },
				"north": { "uv": [ 5.75, 9, 5.25, 9.25 ], "texture": "#voxels_atlas" },
				"south": { "uv": [ 5.25, 8.75, 5.75, 9 ], "texture": "#voxels_atlas" },
				"west": { "uv": [ 5.25, 8.5, 5.75, 8.75 ], "texture": "#voxels_atlas" },
				"east": { "uv": [ 5.75, 8.25, 5.25, 8.5 ], "texture": "#voxels_atlas" }
			}
		},
		{
			"__comment": "Voxels",
			"from": [ 13, 15, 3 ],
			"to": [ 14, 16, 6 ],
			"faces": {
				"down": { "uv": [ 13.75, 10.75, 14, 11.5 ], "texture": "#voxels_atlas" },
				"up": { "uv": [ 13.5, 11.5, 13.75, 10.75 ], "texture": "#voxels_atlas" },
				"north": { "uv": [ 6, 9.75, 5.75, 10 ], "texture": "#voxels_atlas" },
				"south": { "uv": [ 5.75, 9.5, 6, 9.75 ], "texture": "#voxels_atlas" },
				"west": { "uv": [ 12.75, 11.25, 13.5, 11.5 ], "texture": "#voxels_atlas" },
				"east": { "uv": [ 12.25, 10.75, 11.5, 11 ], "texture": "#voxels_atlas" }
			}
		},
		{
			"__comment": "Voxels",
			"from": [ 13, 15, 9 ],
			"to": [ 15, 16, 11 ],
			"faces": {
				"down": { "uv": [ 13.5, 11.5, 14, 12 ], "texture": "#voxels_atlas" },
				"up": { "uv": [ 15.5, 13, 16, 12.5 ], "texture": "#voxels_atlas" },
				"north": { "uv": [ 5.75, 8, 5.25, 8.25 ], "texture": "#voxels_atlas" },
				"south": { "uv": [ 5.25, 7.75, 5.75, 8 ], "texture": "#voxels_atlas" },
				"west": { "uv": [ 5.25, 7.5, 5.75, 7.75 ], "texture": "#voxels_atlas" },
				"east": { "uv": [ 5.75, 7.25, 5.25, 7.5 ], "texture": "#voxels_atlas" }
			}
		},
		{
			"__comment": "Voxels",
			"from": [ 13, 15, 11 ],
			"to": [ 14, 16, 14 ],
			"faces": {
				"down": { "uv": [ 9, 10.75, 9.25, 11.5 ], "texture": "#voxels_atlas" },
				"up": { "uv": [ 15.25, 11.5, 15.5, 10.75 ], "texture": "#voxels_atlas" },
				"south": { "uv": [ 5.75, 6.5, 6, 6.75 ], "texture": "#voxels_atlas" },
				"west": { "uv": [ 14.5, 11, 15.25, 11.25 ], "texture": "#voxels_atlas" },
				"east": { "uv": [ 13.5, 10.75, 12.75, 11 ], "texture": "#voxels_atlas" }
			}
		},
		{
			"__comment": "Voxels",
			"from": [ 13, 16, 6 ],
			"to": [ 15, 18, 9 ],
			"faces": {
				"down": { "uv": [ 11.5, 13.5, 12, 14.25 ], "texture": "#voxels_atlas" },
				"up": { "uv": [ 4.75, 11.5, 5.25, 10.75 ], "texture": "#voxels_atlas" },
				"north": { "uv": [ 16, 11.5, 15.5, 12 ], "texture": "#voxels_atlas" },
				"south": { "uv": [ 5.25, 11, 5.75, 11.5 ], "texture": "#voxels_atlas" },
				"west": { "uv": [ 6.25, 11.5, 7, 12 ], "texture": "#voxels_atlas" },
				"east": { "uv": [ 6.25, 11.5, 5.5, 12 ], "texture": "#voxels_atlas" }
			}
		},
		{
			"__comment": "Voxels",
			"from": [ 13, 18, 7 ],
			"to": [ 15, 19, 8 ],
			"faces": {
				"up": { "uv": [ 5.25, 7, 5.75, 6.75 ], "texture": "#voxels_atlas" },
				"north": { "uv": [ 5.75, 6.5, 5.25, 6.75 ], "texture": "#voxels_atlas" },
				"south": { "uv": [ 5.25, 6.25, 5.75, 6.5 ], "texture": "#voxels_atlas" },
				"west": { "uv": [ 5.75, 3.25, 6, 3.5 ], "texture": "#voxels_atlas" },
				"east": { "uv": [ 6, 3, 5.75, 3.25 ], "texture": "#voxels_atlas" }
			}
		},
		{
			"__comment": "Voxels",
			"from": [ 14, 3, 13 ],
			"to": [ 15, 15, 14 ],
			"faces": {
				"down": { "uv": [ 5.75, 2.75, 6, 3 ], "texture": "#voxels_atlas" },
				"up": { "uv": [ 5.75, 2.75, 6, 2.5 ], "texture": "#voxels_atlas" },
				"north": { "uv": [ 4.25, 4.25, 4, 7.25 ], "texture": "#voxels_atlas" },
				"south": { "uv": [ 3.25, 1.25, 3.5, 4.25 ], "texture": "#voxels_atlas" },
				"west": { "uv": [ 3.75, 4.25, 4, 7.25 ], "texture": "#voxels_atlas" },
				"east": { "uv": [ 3.5, 4.25, 3.25, 7.25 ], "texture": "#voxels_atlas" }
			}
		},
		{
			"__comment": "Voxels",
			"from": [ 14, 4, 10 ],
			"to": [ 15, 15, 13 ],
			"faces": {
				"down": { "uv": [ 12.25, 10.75, 12.5, 11.5 ], "texture": "#voxels_atlas" },
				"up": { "uv": [ 11, 11.5, 11.25, 10.75 ], "texture": "#voxels_atlas" },
				"north": { "uv": [ 14.75, 13.25, 14.5, 16 ], "texture": "#voxels_atlas" },
				"west": { "uv": [ 3.5, 13.25, 4.25, 16 ], "texture": "#voxels_atlas" },
				"east": { "uv": [ 3.5, 13.25, 2.75, 16 ], "texture": "#voxels_atlas" }
			}
		},
		{
			"__comment": "Voxels",
			"from": [ 14, 5, 8 ],
			"to": [ 15, 16, 9 ],
			"faces": {
				"down": { "uv": [ 6, 9.75, 6.25, 10 ], "texture": "#voxels_atlas" },
				"north": { "uv": [ 13.5, 13.25, 13.25, 16 ], "texture": "#voxels_atlas" },
				"south": { "uv": [ 14.75, 13.25, 15, 16 ], "texture": "#voxels_atlas" },
				"west": { "uv": [ 14.25, 13.25, 14.5, 16 ], "texture": "#voxels_atlas" },
				"east": { "uv": [ 13.75, 13.25, 13.5, 16 ], "texture": "#voxels_atlas" }
			}
		},
		{
			"__comment": "Voxels",
			"from": [ 14, 5, 9 ],
			"to": [ 15, 15, 10 ],
			"faces": {
				"down": { "uv": [ 7.5, 9.75, 7.75, 10 ], "texture": "#voxels_atlas" },
				"west": { "uv": [ 4.25, 0.75, 4.5, 3.25 ], "texture": "#voxels_atlas" },
				"east": { "uv": [ 4.5, 3.25, 4.25, 5.75 ], "texture": "#voxels_atlas" }
			}
		},
		{
			"__comment": "Voxels",
			"from": [ 14, 6, 4 ],
			"to": [ 15, 16, 8 ],
			"faces": {
				"down": { "uv": [ 4.5, 0, 4.75, 1 ], "texture": "#voxels_atlas" },
				"up": { "uv": [ 4.75, 8.25, 5, 7.25 ], "texture": "#voxels_atlas" },
				"north": { "uv": [ 4.5, 5.75, 4.25, 8.25 ], "texture": "#voxels_atlas" },
				"west": { "uv": [ 0, 2.5, 1, 5 ], "texture": "#voxels_atlas" },
				"east": { "uv": [ 2, 2.5, 1, 5 ], "texture": "#voxels_atlas" }
			}
		},
		{
			"__comment": "Voxels",
			"from": [ 14, 7, 1 ],
			"to": [ 15, 14, 4 ],
			"faces": {
				"down": { "uv": [ 11.25, 10.75, 11.5, 11.5 ], "texture": "#voxels_atlas" },
				"up": { "uv": [ 12.5, 11.5, 12.75, 10.75 ], "texture": "#voxels_atlas" },
				"north": { "uv": [ 4.75, 10.25, 4.5, 12 ], "texture": "#voxels_atlas" },
				"west": { "uv": [ 5, 13.5, 5.75, 15.25 ], "texture": "#voxels_atlas" },
				"east": { "uv": [ 5, 13.5, 4.25, 15.25 ], "texture": "#voxels_atlas" }
			}
		},
		{
			"__comment": "Voxels",
			"from": [ 14, 8, 0 ],
			"to": [ 15, 9, 1 ],
			"faces": {
				"down": { "uv": [ 12, 9.75, 12.25, 10 ], "texture": "#voxels_atlas" },
				"north": { "uv": [ 12.75, 9.75, 12.5, 10 ], "texture": "#voxels_atlas" },
				"west": { "uv": [ 13, 9.75, 13.25, 10 ], "texture": "#voxels_atlas" },
				"east": { "uv": [ 13.5, 9.75, 13.25, 10 ], "texture": "#voxels_atlas" }
			}
		},
		{
			"__comment": "Voxels",
			"from": [ 14, 14, 3 ],
			"to": [ 15, 15, 4 ],
			"faces": {
				"up": { "uv": [ 13.75, 10, 14, 9.75 ], "texture": "#voxels_atlas" },
				"west": { "uv": [ 14.5, 9.75, 14.75, 10 ], "texture": "#voxels_atlas" },
				"east": { "uv": [ 15, 9.75, 14.75, 10 ], "texture": "#voxels_atlas" }
			}
		},
		{
			"__comment": "Voxels",
			"from": [ 14, 16, 5 ],
			"to": [ 15, 18, 6 ],
			"faces": {
				"up": { "uv": [ 15.25, 10, 15.5, 9.75 ], "texture": "#voxels_atlas" },
				"north": { "uv": [ 5.25, 0, 5, 0.5 ], "texture": "#voxels_atlas" },
				"west": { "uv": [ 5.5, 5.75, 5.75, 6.25 ], "texture": "#voxels_atlas" },
				"east": { "uv": [ 5.5, 5.25, 5.25, 5.75 ], "texture": "#voxels_atlas" }
			}
		},
		{
			"__comment": "Voxels",
			"from": [ 14, 16, 9 ],
			"to": [ 16, 18, 10 ],
			"faces": {
				"down": { "uv": [ 5.25, 5, 5.75, 5.25 ], "texture": "#voxels_atlas" },
				"up": { "uv": [ 5.25, 5, 5.75, 4.75 ], "texture": "#voxels_atlas" },
				"north": { "uv": [ 15, 11.5, 14.5, 12 ], "texture": "#voxels_atlas" },
				"south": { "uv": [ 15, 11.5, 15.5, 12 ], "texture": "#voxels_atlas" },
				"west": { "uv": [ 5.5, 5.25, 5.75, 5.75 ], "texture": "#voxels_atlas" },
				"east": { "uv": [ 5.5, 4.25, 5.25, 4.75 ], "texture": "#voxels_atlas" }
			}
		},
		{
			"__comment": "Voxels",
			"from": [ 14, 18, 6 ],
			"to": [ 15, 19, 7 ],
			"faces": {
				"up": { "uv": [ 6, 7.5, 6.25, 7.25 ], "texture": "#voxels_atlas" },
				"north": { "uv": [ 6.25, 7, 6, 7.25 ], "texture": "#voxels_atlas" },
				"west": { "uv": [ 6, 6.5, 6.25, 6.75 ], "texture": "#voxels_atlas" },
				"east": { "uv": [ 6.25, 6.25, 6, 6.5 ], "texture": "#voxels_atlas" }
			}
		},
		{
			"__comment": "Voxels",
			"from": [ 14, 18, 8 ],
			"to": [ 15, 19, 9 ],
			"faces": {
				"up": { "uv": [ 6, 6, 6.25, 5.75 ], "texture": "#voxels_atlas" },
				"south": { "uv": [ 6, 5.25, 6.25, 5.5 ], "texture": "#voxels_atlas" },
				"west": { "uv": [ 6, 5, 6.25, 5.25 ], "texture": "#voxels_atlas" },
				"east": { "uv": [ 6.25, 4.75, 6, 5 ], "texture": "#voxels_atlas" }
			}
		},
		{
			"__comment": "Voxels",
			"from": [ 14, 19, 7 ],
			"to": [ 15, 20, 8 ],
			"faces": {
				"up": { "uv": [ 6, 4.5, 6.25, 4.25 ], "texture": "#voxels_atlas" },
				"north": { "uv": [ 6.25, 4, 6, 4.25 ], "texture": "#voxels_atlas" },
				"south": { "uv": [ 6, 3.75, 6.25, 4 ], "texture": "#voxels_atlas" },
				"west": { "uv": [ 6, 3.5, 6.25, 3.75 ], "texture": "#voxels_atlas" },
				"east": { "uv": [ 6.25, 3.25, 6, 3.5 ], "texture": "#voxels_atlas" }
			}
		},
		{
			"__comment": "Voxels",
			"from": [ 15, 9, 1 ],
			"to": [ 16, 10, 2 ],
			"faces": {
				"down": { "uv": [ 6, 3, 6.25, 3.25 ], "texture": "#voxels_atlas" },
				"up": { "uv": [ 6, 3, 6.25, 2.75 ], "texture": "#voxels_atlas" },
				"north": { "uv": [ 6.25, 2.5, 6, 2.75 ], "texture": "#voxels_atlas" },
				"south": { "uv": [ 6, 2.25, 6.25, 2.5 ], "texture": "#voxels_atlas" },
				"east": { "uv": [ 6.25, 1.75, 6, 2 ], "texture": "#voxels_atlas" }
			}
		},
		{
			"__comment": "Voxels",
			"from": [ 15, 11, 1 ],
			"to": [ 17, 12, 2 ],
			"faces": {
				"down": { "uv": [ 5.25, 4, 5.75, 4.25 ], "texture": "#voxels_atlas" },
				"up": { "uv": [ 5.25, 4, 5.75, 3.75 ], "texture": "#voxels_atlas" },
				"north": { "uv": [ 12, 13.25, 11.5, 13.5 ], "texture": "#voxels_atlas" },
				"south": { "uv": [ 15.5, 13.25, 16, 13.5 ], "texture": "#voxels_atlas" },
				"east": { "uv": [ 6.25, 0.25, 6, 0.5 ], "texture": "#voxels_atlas" }
			}
		},
		{
			"__comment": "Voxels",
			"from": [ 15, 13, 1 ],
			"to": [ 16, 14, 2 ],
			"faces": {
				"down": { "uv": [ 6, 0, 6.25, 0.25 ], "texture": "#voxels_atlas" },
				"up": { "uv": [ 6.25, 9.75, 6.5, 9.5 ], "texture": "#voxels_atlas" },
				"north": { "uv": [ 6.75, 9.5, 6.5, 9.75 ], "texture": "#voxels_atlas" },
				"south": { "uv": [ 6.75, 9.5, 7, 9.75 ], "texture": "#voxels_atlas" },
				"east": { "uv": [ 7.5, 9.5, 7.25, 9.75 ], "texture": "#voxels_atlas" }
			}
		},
		{
			"__comment": "Voxels",
			"from": [ 15, 14, 10 ],
			"to": [ 16, 16, 11 ],
			"faces": {
				"down": { "uv": [ 7.5, 9.5, 7.75, 9.75 ], "texture": "#voxels_atlas" },
				"up": { "uv": [ 7.75, 9.75, 8, 9.5 ], "texture": "#voxels_atlas" },
				"north": { "uv": [ 6.75, 13.25, 6.5, 13.75 ], "texture": "#voxels_atlas" },
				"south": { "uv": [ 4.75, 3.25, 5, 3.75 ], "texture": "#voxels_atlas" },
				"west": { "uv": [ 4.75, 2.75, 5, 3.25 ], "texture": "#voxels_atlas" },
				"east": { "uv": [ 5, 2.25, 4.75, 2.75 ], "texture": "#voxels_atlas" }
			}
		},
		{
			"__comment": "Voxels",
			"from": [ 15, 18, 9 ],
			"to": [ 16, 19, 10 ],
			"faces": {
				"up": { "uv": [ 9.25, 9.75, 9.5, 9.5 ], "texture": "#voxels_atlas" },
				"north": { "uv": [ 9.75, 9.5, 9.5, 9.75 ], "texture": "#voxels_atlas" },
				"south": { "uv": [ 9.75, 9.5, 10, 9.75 ], "texture": "#voxels_atlas" },
				"west": { "uv": [ 10, 9.5, 10.25, 9.75 ], "texture": "#voxels_atlas" },
				"east": { "uv": [ 10.5, 9.5, 10.25, 9.75 ], "texture": "#voxels_atlas" }
			}
		},
		{
			"__comment": "Voxels",
			"from": [ 15, 19, 8 ],
			"to": [ 16, 20, 9 ],
			"faces": {
				"down": { "uv": [ 10.5, 9.5, 10.75, 9.75 ], "texture": "#voxels_atlas" },
				"up": { "uv": [ 10.75, 9.75, 11, 9.5 ], "texture": "#voxels_atlas" },
				"north": { "uv": [ 11.25, 9.5, 11, 9.75 ], "texture": "#voxels_atlas" },
				"south": { "uv": [ 11.25, 9.5, 11.5, 9.75 ], "texture": "#voxels_atlas" },
				"west": { "uv": [ 11.5, 9.5, 11.75, 9.75 ], "texture": "#voxels_atlas" },
				"east": { "uv": [ 12, 9.5, 11.75, 9.75 ], "texture": "#voxels_atlas" }
			}
		},
		{
			"__comment": "Voxels",
			"from": [ 15, 20, 7 ],
			"to": [ 16, 21, 8 ],
			"faces": {
				"down": { "uv": [ 12, 9.5, 12.25, 9.75 ], "texture": "#voxels_atlas" },
				"up": { "uv": [ 12.25, 9.75, 12.5, 9.5 ], "texture": "#voxels_atlas" },
				"north": { "uv": [ 12.75, 9.5, 12.5, 9.75 ], "texture": "#voxels_atlas" },
				"south": { "uv": [ 12.75, 9.5, 13, 9.75 ], "texture": "#voxels_atlas" },
				"west": { "uv": [ 13, 9.5, 13.25, 9.75 ], "texture": "#voxels_atlas" },
				"east": { "uv": [ 13.5, 9.5, 13.25, 9.75 ], "texture": "#voxels_atlas" }
			}
		}
	],
	"display": {
		"thirdperson_righthand": {
			"scale":  [ 0.3042, 0.3042, 0.3042 ]
		},
		"thirdperson_lefthand": {
			"scale":  [ 0.3042, 0.3042, 0.3042 ]
		},
		"firstperson_righthand": {
			"rotation":  [ -3, 144, 0 ],
			"scale":  [ 0.5478, 0.5478, 0.5478 ]
		},
		"firstperson_lefthand": {
			"rotation":  [ -3, 144, 0 ],
			"scale":  [ 0.5478, 0.5478, 0.5478 ]
		},
		"gui": {
			"rotation":  [ 0, -180, 0 ],
			"translation":  [ -0.45, -2.782, 0 ],
			"scale":  [ 0.826, 0.826, 0.0001 ]
		},
		"head": {
			"translation":  [ 0.42, 0, 0 ],
			"scale":  [ 1.05, 1.05, 1.05 ]
		},
		"ground": {
			"translation":  [ 0, 1.3913, 0 ],
			"scale":  [ 0.5565, 0.5565, 0.5565 ]
		},
		"fixed": {
			"translation":  [ 0.5, -1.3, -0.5 ],
			"scale":  [ 1, 1, 0.0001 ]
		}
	}
}
