{
	"__comment": "Designed by Naturesurvival with Cubik Studio - https://cubik.studio",
	"textures": {
		"voxels_atlas": "vishsirisc:cosmetic/fire6"
	},
	"elements": [
		{
			"__comment": "Voxels",
			"from": [ 3, 6.5, 6.5 ],
			"to": [ 3.5, 8.5, 7 ],
			"faces": {
				"down": { "uv": [ 12, 9.5, 12.5, 10 ], "texture": "#voxels_atlas" },
				"up": { "uv": [ 14.5, 11, 15, 10.5 ], "texture": "#voxels_atlas" },
				"north": { "uv": [ 2, 8, 1.5, 10 ], "texture": "#voxels_atlas" },
				"south": { "uv": [ 2, 8, 2.5, 10 ], "texture": "#voxels_atlas" },
				"west": { "uv": [ 2.5, 8, 3, 10 ], "texture": "#voxels_atlas" },
				"east": { "uv": [ 3.5, 8, 3, 10 ], "texture": "#voxels_atlas" }
			}
		},
		{
			"__comment": "Voxels",
			"from": [ 3, 7, 6 ],
			"to": [ 3.5, 8, 6.5 ],
			"faces": {
				"down": { "uv": [ 14, 10.5, 14.5, 11 ], "texture": "#voxels_atlas" },
				"up": { "uv": [ 13.5, 11, 14, 10.5 ], "texture": "#voxels_atlas" },
				"north": { "uv": [ 11, 9.5, 10.5, 10.5 ], "texture": "#voxels_atlas" },
				"west": { "uv": [ 11, 12.5, 11.5, 13.5 ], "texture": "#voxels_atlas" },
				"east": { "uv": [ 12, 12.5, 11.5, 13.5 ], "texture": "#voxels_atlas" }
			}
		},
		{
			"__comment": "Voxels",
			"from": [ 3, 7, 7 ],
			"to": [ 3.5, 8, 8.5 ],
			"faces": {
				"down": { "uv": [ 8, 9, 8.5, 10.5 ], "texture": "#voxels_atlas" },
				"up": { "uv": [ 12.5, 15.5, 13, 14 ], "texture": "#voxels_atlas" },
				"south": { "uv": [ 11.5, 11.5, 12, 12.5 ], "texture": "#voxels_atlas" },
				"west": { "uv": [ 0, 10, 1.5, 11 ], "texture": "#voxels_atlas" },
				"east": { "uv": [ 1.5, 9, 0, 10 ], "texture": "#voxels_atlas" }
			}
		},
		{
			"__comment": "Voxels",
			"from": [ 3.5, 6.5, 5 ],
			"to": [ 4, 8.5, 5.5 ],
			"faces": {
				"down": { "uv": [ 12.5, 9, 13, 9.5 ], "texture": "#voxels_atlas" },
				"up": { "uv": [ 12.5, 10, 13, 9.5 ], "texture": "#voxels_atlas" },
				"north": { "uv": [ 4, 8, 3.5, 10 ], "texture": "#voxels_atlas" },
				"south": { "uv": [ 6, 13, 6.5, 15 ], "texture": "#voxels_atlas" },
				"west": { "uv": [ 6.5, 13, 7, 15 ], "texture": "#voxels_atlas" },
				"east": { "uv": [ 6.5, 11, 6, 13 ], "texture": "#voxels_atlas" }
			}
		},
		{
			"__comment": "Voxels",
			"from": [ 3.5, 7, 5.5 ],
			"to": [ 4, 8, 6 ],
			"faces": {
				"down": { "uv": [ 14.5, 11, 15, 11.5 ], "texture": "#voxels_atlas" },
				"up": { "uv": [ 14, 11.5, 14.5, 11 ], "texture": "#voxels_atlas" },
				"south": { "uv": [ 11.5, 9.5, 12, 10.5 ], "texture": "#voxels_atlas" },
				"west": { "uv": [ 11.5, 8.5, 12, 9.5 ], "texture": "#voxels_atlas" },
				"east": { "uv": [ 12.5, 11.5, 12, 12.5 ], "texture": "#voxels_atlas" }
			}
		},
		{
			"__comment": "Voxels",
			"from": [ 3.5, 7, 10.5 ],
			"to": [ 4, 8, 11.5 ],
			"faces": {
				"down": { "uv": [ 13.5, 11.5, 14, 12.5 ], "texture": "#voxels_atlas" },
				"up": { "uv": [ 7, 9, 7.5, 8 ], "texture": "#voxels_atlas" },
				"north": { "uv": [ 8, 8, 7.5, 9 ], "texture": "#voxels_atlas" },
				"south": { "uv": [ 8, 8, 8.5, 9 ], "texture": "#voxels_atlas" },
				"west": { "uv": [ 6, 8, 7, 9 ], "texture": "#voxels_atlas" },
				"east": { "uv": [ 8, 15, 7, 16 ], "texture": "#voxels_atlas" }
			}
		},
		{
			"__comment": "Voxels",
			"from": [ 4, 7, 4.5 ],
			"to": [ 4.5, 7.5, 5 ],
			"faces": {
				"down": { "uv": [ 13.5, 11, 14, 11.5 ], "texture": "#voxels_atlas" },
				"up": { "uv": [ 13, 11.5, 13.5, 11 ], "texture": "#voxels_atlas" },
				"north": { "uv": [ 15.5, 11.5, 15, 12 ], "texture": "#voxels_atlas" },
				"south": { "uv": [ 15.5, 12, 16, 12.5 ], "texture": "#voxels_atlas" },
				"west": { "uv": [ 11, 8, 11.5, 8.5 ], "texture": "#voxels_atlas" },
				"east": { "uv": [ 11, 8, 10.5, 8.5 ], "texture": "#voxels_atlas" }
			}
		},
		{
			"__comment": "Voxels",
			"from": [ 4.5, 5.5, 4 ],
			"to": [ 5, 9.5, 4.5 ],
			"faces": {
				"down": { "uv": [ 15.5, 13.5, 16, 14 ], "texture": "#voxels_atlas" },
				"up": { "uv": [ 13.5, 14.5, 14, 14 ], "texture": "#voxels_atlas" },
				"north": { "uv": [ 4.5, 12, 4, 16 ], "texture": "#voxels_atlas" },
				"south": { "uv": [ 4.5, 12, 5, 16 ], "texture": "#voxels_atlas" },
				"west": { "uv": [ 4, 8, 4.5, 12 ], "texture": "#voxels_atlas" },
				"east": { "uv": [ 5, 8, 4.5, 12 ], "texture": "#voxels_atlas" }
			}
		},
		{
			"__comment": "Voxels",
			"from": [ 5, 7, 3.5 ],
			"to": [ 6, 8, 4 ],
			"faces": {
				"down": { "uv": [ 15, 15.5, 16, 16 ], "texture": "#voxels_atlas" },
				"up": { "uv": [ 10, 14.5, 11, 14 ], "texture": "#voxels_atlas" },
				"north": { "uv": [ 8, 12, 7, 13 ], "texture": "#voxels_atlas" },
				"south": { "uv": [ 7, 9, 8, 10 ], "texture": "#voxels_atlas" },
				"west": { "uv": [ 13.5, 14.5, 14, 15.5 ], "texture": "#voxels_atlas" },
				"east": { "uv": [ 14.5, 14.5, 14, 15.5 ], "texture": "#voxels_atlas" }
			}
		},
		{
			"__comment": "Voxels",
			"from": [ 5.5, 7, 12.5 ],
			"to": [ 6, 8, 13 ],
			"faces": {
				"down": { "uv": [ 12.5, 10, 13, 10.5 ], "texture": "#voxels_atlas" },
				"up": { "uv": [ 12.5, 11, 13, 10.5 ], "texture": "#voxels_atlas" },
				"north": { "uv": [ 15, 14.5, 14.5, 15.5 ], "texture": "#voxels_atlas" },
				"south": { "uv": [ 15, 14.5, 15.5, 15.5 ], "texture": "#voxels_atlas" },
				"west": { "uv": [ 15.5, 14.5, 16, 15.5 ], "texture": "#voxels_atlas" },
				"east": { "uv": [ 10, 13, 9.5, 14 ], "texture": "#voxels_atlas" }
			}
		},
		{
			"__comment": "Voxels",
			"from": [ 6, 6.5, 3 ],
			"to": [ 7.5, 8.5, 3.5 ],
			"faces": {
				"down": { "uv": [ 12, 15.5, 13.5, 16 ], "texture": "#voxels_atlas" },
				"up": { "uv": [ 10, 15, 11.5, 14.5 ], "texture": "#voxels_atlas" },
				"north": { "uv": [ 3, 12, 1.5, 14 ], "texture": "#voxels_atlas" },
				"south": { "uv": [ 0, 12, 1.5, 14 ], "texture": "#voxels_atlas" },
				"west": { "uv": [ 6.5, 11, 7, 13 ], "texture": "#voxels_atlas" },
				"east": { "uv": [ 6.5, 9, 6, 11 ], "texture": "#voxels_atlas" }
			}
		},
		{
			"__comment": "Voxels",
			"from": [ 6, 7, 13 ],
			"to": [ 7.5, 8, 13.5 ],
			"faces": {
				"down": { "uv": [ 10, 15, 11.5, 15.5 ], "texture": "#voxels_atlas" },
				"up": { "uv": [ 13.5, 16, 15, 15.5 ], "texture": "#voxels_atlas" },
				"north": { "uv": [ 3, 10, 1.5, 11 ], "texture": "#voxels_atlas" },
				"south": { "uv": [ 0, 8, 1.5, 9 ], "texture": "#voxels_atlas" },
				"west": { "uv": [ 9.5, 12, 10, 13 ], "texture": "#voxels_atlas" },
				"east": { "uv": [ 10, 11, 9.5, 12 ], "texture": "#voxels_atlas" }
			}
		},
		{
			"__comment": "Voxels",
			"from": [ 6.5, 5, 3 ],
			"to": [ 7, 6.5, 3.5 ],
			"faces": {
				"down": { "uv": [ 12, 10, 12.5, 10.5 ], "texture": "#voxels_atlas" },
				"north": { "uv": [ 9, 9.5, 8.5, 11 ], "texture": "#voxels_atlas" },
				"south": { "uv": [ 9, 12.5, 9.5, 14 ], "texture": "#voxels_atlas" },
				"west": { "uv": [ 9, 14, 9.5, 15.5 ], "texture": "#voxels_atlas" },
				"east": { "uv": [ 8.5, 12, 8, 13.5 ], "texture": "#voxels_atlas" }
			}
		},
		{
			"__comment": "Voxels",
			"from": [ 6.5, 8.5, 3 ],
			"to": [ 7, 10, 3.5 ],
			"faces": {
				"up": { "uv": [ 12.5, 9, 13, 8.5 ], "texture": "#voxels_atlas" },
				"north": { "uv": [ 12.5, 14, 12, 15.5 ], "texture": "#voxels_atlas" },
				"south": { "uv": [ 8.5, 8, 9, 9.5 ], "texture": "#voxels_atlas" },
				"west": { "uv": [ 9.5, 14, 10, 15.5 ], "texture": "#voxels_atlas" },
				"east": { "uv": [ 8.5, 10.5, 8, 12 ], "texture": "#voxels_atlas" }
			}
		},
		{
			"__comment": "Voxels",
			"from": [ 7.5, 7, 3 ],
			"to": [ 8, 8, 3.5 ],
			"faces": {
				"down": { "uv": [ 11.5, 8, 12, 8.5 ], "texture": "#voxels_atlas" },
				"up": { "uv": [ 15, 12.5, 15.5, 12 ], "texture": "#voxels_atlas" },
				"north": { "uv": [ 10, 10, 9.5, 11 ], "texture": "#voxels_atlas" },
				"south": { "uv": [ 9.5, 9, 10, 10 ], "texture": "#voxels_atlas" },
				"east": { "uv": [ 10.5, 13, 10, 14 ], "texture": "#voxels_atlas" }
			}
		},
		{
			"__comment": "Voxels",
			"from": [ 8.5, 7, 3 ],
			"to": [ 10.5, 8, 3.5 ],
			"faces": {
				"down": { "uv": [ 10, 15.5, 12, 16 ], "texture": "#voxels_atlas" },
				"up": { "uv": [ 8, 16, 10, 15.5 ], "texture": "#voxels_atlas" },
				"north": { "uv": [ 2, 11, 0, 12 ], "texture": "#voxels_atlas" },
				"south": { "uv": [ 2, 11, 4, 12 ], "texture": "#voxels_atlas" },
				"west": { "uv": [ 10, 12, 10.5, 13 ], "texture": "#voxels_atlas" },
				"east": { "uv": [ 10.5, 11, 10, 12 ], "texture": "#voxels_atlas" }
			}
		},
		{
			"__comment": "Voxels",
			"from": [ 9.5, 5.5, 3 ],
			"to": [ 10, 7, 3.5 ],
			"faces": {
				"down": { "uv": [ 13, 10.5, 13.5, 11 ], "texture": "#voxels_atlas" },
				"north": { "uv": [ 9.5, 8, 9, 9.5 ], "texture": "#voxels_atlas" },
				"south": { "uv": [ 9, 9.5, 9.5, 11 ], "texture": "#voxels_atlas" },
				"west": { "uv": [ 9, 11, 9.5, 12.5 ], "texture": "#voxels_atlas" },
				"east": { "uv": [ 9, 11, 8.5, 12.5 ], "texture": "#voxels_atlas" }
			}
		},
		{
			"__comment": "Voxels",
			"from": [ 9.5, 7, 13 ],
			"to": [ 10.5, 8, 13.5 ],
			"faces": {
				"down": { "uv": [ 10.5, 13.5, 11.5, 14 ], "texture": "#voxels_atlas" },
				"up": { "uv": [ 11.5, 14, 12.5, 13.5 ], "texture": "#voxels_atlas" },
				"north": { "uv": [ 8, 13, 7, 14 ], "texture": "#voxels_atlas" },
				"south": { "uv": [ 7, 14, 8, 15 ], "texture": "#voxels_atlas" },
				"west": { "uv": [ 10, 10, 10.5, 11 ], "texture": "#voxels_atlas" },
				"east": { "uv": [ 10.5, 9, 10, 10 ], "texture": "#voxels_atlas" }
			}
		},
		{
			"__comment": "Voxels",
			"from": [ 9.5, 8, 3 ],
			"to": [ 10, 9.5, 3.5 ],
			"faces": {
				"up": { "uv": [ 12, 9, 12.5, 8.5 ], "texture": "#voxels_atlas" },
				"north": { "uv": [ 9, 14, 8.5, 15.5 ], "texture": "#voxels_atlas" },
				"south": { "uv": [ 13, 14, 13.5, 15.5 ], "texture": "#voxels_atlas" },
				"west": { "uv": [ 11.5, 14, 12, 15.5 ], "texture": "#voxels_atlas" },
				"east": { "uv": [ 9, 12.5, 8.5, 14 ], "texture": "#voxels_atlas" }
			}
		},
		{
			"__comment": "Voxels",
			"from": [ 10.5, 7, 3.5 ],
			"to": [ 11.5, 8, 4 ],
			"faces": {
				"down": { "uv": [ 12.5, 13.5, 13.5, 14 ], "texture": "#voxels_atlas" },
				"up": { "uv": [ 13.5, 14, 14.5, 13.5 ], "texture": "#voxels_atlas" },
				"north": { "uv": [ 7, 15, 6, 16 ], "texture": "#voxels_atlas" },
				"south": { "uv": [ 3, 10, 4, 11 ], "texture": "#voxels_atlas" },
				"west": { "uv": [ 10, 8, 10.5, 9 ], "texture": "#voxels_atlas" },
				"east": { "uv": [ 11, 12.5, 10.5, 13.5 ], "texture": "#voxels_atlas" }
			}
		},
		{
			"__comment": "Voxels",
			"from": [ 10.5, 7, 12.5 ],
			"to": [ 11.5, 8, 13 ],
			"faces": {
				"down": { "uv": [ 14.5, 13.5, 15.5, 14 ], "texture": "#voxels_atlas" },
				"up": { "uv": [ 15, 14.5, 16, 14 ], "texture": "#voxels_atlas" },
				"north": { "uv": [ 4, 12, 3, 13 ], "texture": "#voxels_atlas" },
				"south": { "uv": [ 3, 13, 4, 14 ], "texture": "#voxels_atlas" },
				"west": { "uv": [ 10.5, 11.5, 11, 12.5 ], "texture": "#voxels_atlas" },
				"east": { "uv": [ 11, 10.5, 10.5, 11.5 ], "texture": "#voxels_atlas" }
			}
		},
		{
			"__comment": "Voxels",
			"from": [ 11.5, 6.5, 4 ],
			"to": [ 12, 8.5, 4.5 ],
			"faces": {
				"down": { "uv": [ 14, 14, 14.5, 14.5 ], "texture": "#voxels_atlas" },
				"up": { "uv": [ 14.5, 14.5, 15, 14 ], "texture": "#voxels_atlas" },
				"north": { "uv": [ 7, 9, 6.5, 11 ], "texture": "#voxels_atlas" },
				"south": { "uv": [ 7, 10, 7.5, 12 ], "texture": "#voxels_atlas" },
				"west": { "uv": [ 5.5, 8, 6, 10 ], "texture": "#voxels_atlas" },
				"east": { "uv": [ 8, 10, 7.5, 12 ], "texture": "#voxels_atlas" }
			}
		},
		{
			"__comment": "Voxels",
			"from": [ 11.5, 7, 12 ],
			"to": [ 12, 8, 12.5 ],
			"faces": {
				"down": { "uv": [ 14.5, 12, 15, 12.5 ], "texture": "#voxels_atlas" },
				"up": { "uv": [ 14.5, 12, 15, 11.5 ], "texture": "#voxels_atlas" },
				"north": { "uv": [ 12.5, 12.5, 12, 13.5 ], "texture": "#voxels_atlas" },
				"south": { "uv": [ 12.5, 12.5, 13, 13.5 ], "texture": "#voxels_atlas" },
				"west": { "uv": [ 13, 12.5, 13.5, 13.5 ], "texture": "#voxels_atlas" },
				"east": { "uv": [ 14, 12.5, 13.5, 13.5 ], "texture": "#voxels_atlas" }
			}
		},
		{
			"__comment": "Voxels",
			"from": [ 12, 7, 4.5 ],
			"to": [ 12.5, 8, 5 ],
			"faces": {
				"down": { "uv": [ 12, 11, 12.5, 11.5 ], "texture": "#voxels_atlas" },
				"up": { "uv": [ 12, 11, 12.5, 10.5 ], "texture": "#voxels_atlas" },
				"north": { "uv": [ 14.5, 12.5, 14, 13.5 ], "texture": "#voxels_atlas" },
				"south": { "uv": [ 14, 11.5, 14.5, 12.5 ], "texture": "#voxels_atlas" },
				"west": { "uv": [ 14.5, 12.5, 15, 13.5 ], "texture": "#voxels_atlas" },
				"east": { "uv": [ 15.5, 12.5, 15, 13.5 ], "texture": "#voxels_atlas" }
			}
		},
		{
			"__comment": "Voxels",
			"from": [ 12.5, 7, 5.5 ],
			"to": [ 13, 8, 6 ],
			"faces": {
				"down": { "uv": [ 12, 8, 12.5, 8.5 ], "texture": "#voxels_atlas" },
				"up": { "uv": [ 12.5, 11.5, 13, 11 ], "texture": "#voxels_atlas" },
				"north": { "uv": [ 16, 12.5, 15.5, 13.5 ], "texture": "#voxels_atlas" },
				"south": { "uv": [ 11, 11.5, 11.5, 12.5 ], "texture": "#voxels_atlas" },
				"west": { "uv": [ 11, 10.5, 11.5, 11.5 ], "texture": "#voxels_atlas" },
				"east": { "uv": [ 11.5, 9.5, 11, 10.5 ], "texture": "#voxels_atlas" }
			}
		},
		{
			"__comment": "Voxels",
			"from": [ 13, 6.5, 6 ],
			"to": [ 13.5, 8.5, 6.5 ],
			"faces": {
				"down": { "uv": [ 15, 11, 15.5, 11.5 ], "texture": "#voxels_atlas" },
				"up": { "uv": [ 15.5, 11.5, 16, 11 ], "texture": "#voxels_atlas" },
				"north": { "uv": [ 8.5, 13.5, 8, 15.5 ], "texture": "#voxels_atlas" },
				"south": { "uv": [ 5.5, 14, 6, 16 ], "texture": "#voxels_atlas" },
				"west": { "uv": [ 5.5, 12, 6, 14 ], "texture": "#voxels_atlas" },
				"east": { "uv": [ 6, 10, 5.5, 12 ], "texture": "#voxels_atlas" }
			}
		},
		{
			"__comment": "Voxels",
			"from": [ 13, 7, 6.5 ],
			"to": [ 13.5, 8, 10.5 ],
			"faces": {
				"down": { "uv": [ 5, 8, 5.5, 12 ], "texture": "#voxels_atlas" },
				"up": { "uv": [ 5, 16, 5.5, 12 ], "texture": "#voxels_atlas" },
				"south": { "uv": [ 13, 11.5, 13.5, 12.5 ], "texture": "#voxels_atlas" },
				"west": { "uv": [ 0, 14, 4, 15 ], "texture": "#voxels_atlas" },
				"east": { "uv": [ 4, 15, 0, 16 ], "texture": "#voxels_atlas" }
			}
		}
	],
	"display": {
		"thirdperson_righthand": {
			"rotation":  [ 75, 45, 0 ],
			"translation":  [ 0, 1.8043, 0 ],
			"scale":  [ 0.375, 0.375, 0.375 ]
		},
		"thirdperson_lefthand": {
			"rotation":  [ 75, 45, 0 ],
			"translation":  [ 0, 1.8043, 0 ],
			"scale":  [ 0.375, 0.375, 0.375 ]
		},
		"gui": {
			"rotation":  [ 22, 144, 5 ]
		},
		"head": {
			"rotation":  [ 8, 0, 0 ],
			"translation":  [ 3.2173, 11.13, -2.782 ],
			"scale":  [ 0.8956, 0.791, 0.9304 ]
		},
		"ground": {
			"translation":  [ 0, 2, 0 ],
			"scale":  [ 0.5, 0.5, 0.5 ]
		}
	}
}
