{
	"credit": "Made with Blockbench",
	"textures": {
		"0": "pickaxe/diamond1",
		"1": "crossbow/wooden1",
		"4": "crossbow/wood2",
		"particle": "pickaxe/diamond1"
	},
	"elements": [
		{
			"from": [7.25, 14.84603, 4.63796],
			"to": [8.75, 16.34603, 11.38796],
			"rotation": {"angle": 0, "axis": "y", "origin": [8, 7.34603, 8.01296]},
			"faces": {
				"north": {"uv": [0, 0, 1, 1], "texture": "#0"},
				"east": {"uv": [0, 0, 1, 1], "texture": "#0"},
				"south": {"uv": [0, 0, 1, 1], "texture": "#0"},
				"west": {"uv": [0, 0, 1, 1], "texture": "#0"},
				"up": {"uv": [0, 0, 1, 1], "texture": "#0"},
				"down": {"uv": [0, 0, 1, 1], "texture": "#0"}
			}
		},
		{
			"from": [7.4375, 14.23957, 4.8131],
			"to": [8.5625, 15.55207, 8.31309],
			"rotation": {"angle": -22.5, "axis": "x", "origin": [8, 6.73957, 4.9381]},
			"faces": {
				"north": {"uv": [1, 0, 0, 1], "texture": "#0"},
				"east": {"uv": [1, 0, 0, 1], "texture": "#0"},
				"south": {"uv": [1, 0, 0, 1], "texture": "#0"},
				"west": {"uv": [0, 0, 3, 0.875], "texture": "#0"},
				"up": {"uv": [0, 0, 0.75, 3], "texture": "#0"},
				"down": {"uv": [0, 1, 1, 0], "texture": "#0"}
			}
		},
		{
			"from": [7.4375, 14.23957, 7.68691],
			"to": [8.5625, 15.55207, 11.18691],
			"rotation": {"angle": 22.5, "axis": "x", "origin": [8, 6.73957, 11.06191]},
			"faces": {
				"north": {"uv": [0, 0, 1, 1], "texture": "#0"},
				"east": {"uv": [0, 0, 1, 1], "texture": "#0"},
				"south": {"uv": [0, 0, 1, 1], "texture": "#0"},
				"west": {"uv": [0, 0, 1, 1], "texture": "#0"},
				"up": {"uv": [0, 0, 1, 1], "texture": "#0"},
				"down": {"uv": [0, 0, 1, 1], "texture": "#0"}
			}
		},
		{
			"from": [7.56341, 13.78012, 5.64347],
			"to": [8.43841, 15.09262, 8.64347],
			"rotation": {"angle": -45, "axis": "x", "origin": [7.93841, 6.28012, 5.36222]},
			"faces": {
				"north": {"uv": [1, 0, 0, 1], "texture": "#0"},
				"east": {"uv": [1, 0, 0, 1], "texture": "#0"},
				"south": {"uv": [1, 0, 0, 1], "texture": "#0"},
				"west": {"uv": [0, 0, 2, 0.875], "texture": "#0"},
				"up": {"uv": [0, 0, 0.5, 2], "texture": "#0"},
				"down": {"uv": [0, 1, 1, 0], "texture": "#0"}
			}
		},
		{
			"from": [7.56016, 13.7838, 7.35775],
			"to": [8.43516, 15.0963, 10.35775],
			"rotation": {"angle": 45, "axis": "x", "origin": [8.18516, 6.2838, 10.639]},
			"faces": {
				"north": {"uv": [0, 0, 1, 1], "texture": "#0"},
				"east": {"uv": [0, 0, 1, 1], "texture": "#0"},
				"south": {"uv": [0, 0, 1, 1], "texture": "#0"},
				"west": {"uv": [0, 0, 1, 1], "texture": "#0"},
				"up": {"uv": [0, 0, 1, 1], "texture": "#0"},
				"down": {"uv": [0, 0, 1, 1], "texture": "#0"}
			}
		},
		{
			"from": [7.625, 0.81402, 7.32114],
			"to": [8.375, 16.31402, 8.69614],
			"rotation": {"angle": 0, "axis": "y", "origin": [8, 11.81402, 8.00864]},
			"faces": {
				"north": {"uv": [0, 0, 0.75, 16], "texture": "#4"},
				"east": {"uv": [0, 0, 1.375, 16], "texture": "#4"},
				"south": {"uv": [0, 0, 0.75, 16], "texture": "#4"},
				"west": {"uv": [0, 0, 1.375, 16], "texture": "#4"},
				"up": {"uv": [0, 0, 0.75, 1.375], "texture": "#4"},
				"down": {"uv": [0, 0, 0.75, 1.375], "texture": "#4"}
			}
		},
		{
			"from": [7.375, 3.31402, -0.49136],
			"to": [8.625, 4.81402, 1.00864],
			"rotation": {"angle": -45, "axis": "x", "origin": [8, 11.81402, 8.00864]},
			"faces": {
				"north": {"uv": [0, 0, 1.25, 1.5], "rotation": 180, "texture": "#4"},
				"east": {"uv": [0, 0, 1.5, 1.5], "rotation": 270, "texture": "#4"},
				"south": {"uv": [0, 0, 0.75, 1.375], "texture": "#4"},
				"west": {"uv": [0, 0, 1.5, 1.5], "rotation": 90, "texture": "#4"},
				"up": {"uv": [0, 0, 1.25, 1.5], "rotation": 180, "texture": "#4"},
				"down": {"uv": [0, 0, 1.25, 1.5], "texture": "#4"}
			}
		},
		{
			"from": [6.97, 14.57451, 6.9914],
			"to": [9.03, 16.55451, 8.9714],
			"rotation": {"angle": -45, "axis": "x", "origin": [8, 15.59451, 8.0114]},
			"faces": {
				"north": {"uv": [0, 0, 1.25, 1.5], "rotation": 180, "texture": "#4"},
				"east": {"uv": [0, 0, 1.5, 1.5], "rotation": 270, "texture": "#4"},
				"south": {"uv": [0, 0, 0.75, 1.375], "texture": "#4"},
				"west": {"uv": [0, 0, 1.5, 1.5], "rotation": 90, "texture": "#4"},
				"up": {"uv": [0, 0, 1.25, 1.5], "rotation": 180, "texture": "#4"},
				"down": {"uv": [0, 0, 1.25, 1.5], "texture": "#4"}
			}
		},
		{
			"from": [7.25, 3.56402, -0.24136],
			"to": [8.75, 4.56402, 0.75864],
			"rotation": {"angle": -45, "axis": "x", "origin": [8, 11.81402, 8.00864]},
			"faces": {
				"north": {"uv": [0, 0, 1.25, 1.5], "rotation": 180, "texture": "#0"},
				"east": {"uv": [0, 0, 1.5, 1.5], "rotation": 270, "texture": "#0"},
				"south": {"uv": [0, 0, 0.75, 1.375], "texture": "#0"},
				"west": {"uv": [0, 0, 1.5, 1.5], "rotation": 90, "texture": "#0"},
				"up": {"uv": [0, 0, 1.25, 1.5], "rotation": 180, "texture": "#0"},
				"down": {"uv": [0, 0, 1.25, 1.5], "texture": "#0"}
			}
		},
		{
			"from": [6.864, 14.90451, 7.3214],
			"to": [9.136, 16.22451, 8.6414],
			"rotation": {"angle": -45, "axis": "x", "origin": [8, 15.59451, 8.0114]},
			"faces": {
				"north": {"uv": [0, 0, 1.25, 1.5], "rotation": 180, "texture": "#0"},
				"east": {"uv": [0, 0, 1.5, 1.5], "rotation": 270, "texture": "#0"},
				"south": {"uv": [0, 0, 0.75, 1.375], "texture": "#0"},
				"west": {"uv": [0, 0, 1.5, 1.5], "rotation": 90, "texture": "#0"},
				"up": {"uv": [0, 0, 1.25, 1.5], "rotation": 180, "texture": "#0"},
				"down": {"uv": [0, 0, 1.25, 1.5], "texture": "#0"}
			}
		},
		{
			"from": [7.5, 1.18902, 7.57114],
			"to": [8.5, 16.06402, 8.44614],
			"rotation": {"angle": 0, "axis": "y", "origin": [8, 11.81402, 8.00864]},
			"faces": {
				"north": {"uv": [0, 0, 0.75, 16], "texture": "#1"},
				"east": {"uv": [0, 0, 1.375, 16], "texture": "#1"},
				"south": {"uv": [0, 0, 0.75, 16], "texture": "#1"},
				"west": {"uv": [0, 0, 1.375, 16], "texture": "#1"},
				"up": {"uv": [0, 0, 0.75, 1.375], "texture": "#1"},
				"down": {"uv": [0, 0, 0.75, 1.375], "texture": "#1"}
			}
		},
		{
			"from": [7.0625, 14.84603, 6.60671],
			"to": [8.9375, 16.53353, 9.41921],
			"rotation": {"angle": 0, "axis": "y", "origin": [8, 13.53353, 8.01296]},
			"faces": {
				"north": {"uv": [0, 0, 0.75, 16], "texture": "#0"},
				"east": {"uv": [0, 0, 1.375, 16], "texture": "#0"},
				"south": {"uv": [0, 0, 0.75, 16], "texture": "#0"},
				"west": {"uv": [0, 0, 1.375, 16], "texture": "#0"},
				"up": {"uv": [0, 0, 0.75, 1.375], "texture": "#0"},
				"down": {"uv": [0, 0, 0.75, 1.375], "texture": "#0"}
			}
		}
	],
	"display": {
		"thirdperson_righthand": {
			"rotation": [0, 0, 1],
			"translation": [-0.5, -1.5, 1]
		},
		"thirdperson_lefthand": {
			"rotation": [0, 0, 1],
			"translation": [-0.5, -1.5, 1]
		},
		"firstperson_righthand": {
			"rotation": [18, 0, 0],
			"translation": [0.38, -1, -0.87]
		},
		"firstperson_lefthand": {
			"rotation": [18, -180, 0],
			"translation": [0.38, -1, -0.87]
		},
		"ground": {
			"rotation": [0, 0, 90],
			"translation": [0, -3.25, 0]
		},
		"gui": {
			"rotation": [90, -135, 90],
			"translation": [-1.5, -1.5, 0],
			"scale": [0, 1, 1]
		},
		"head": {
			"translation": [0, 14.25, 0]
		},
		"fixed": {
			"rotation": [90, -45, 90],
			"translation": [2, 0, -2],
			"scale": [2, 2, 2]
		}
	},
	"groups": [
		{
			"name": "group",
			"origin": [8, 11.04484, 8.82777],
			"children": [0, 1, 2, 3, 4, 5, 6, 7, 8, 9, 10, 11]
		}
	]
}