{
	"credit": "Made with Blockbench",
	"parent": "item/handheld",
	"textures": {
		"layer0": "pickaxe/vx_pick"
	},
	"display": {
		"thirdperson_righthand": {
			"rotation": [0, -90, 55],
			"translation": [0, 5.25, 1],
			"scale": [1.8, 1.8, 1]
		},
		"thirdperson_lefthand": {
			"rotation": [0, 90, -55],
			"translation": [0, 4, 0.5],
			"scale": [1.33, 1.25, 1]
		},
		"firstperson_righthand": {
			"rotation": [-31, -90, 25],
			"translation": [1.13, 2.7, 1.13],
			"scale": [1.6, 1.6, 0.7]
		},
		"firstperson_lefthand": {
			"rotation": [0, 90, -25],
			"translation": [1.13, 3.2, 1.13],
			"scale": [1.7, 1.7, 1]
		},
		"ground": {
			"translation": [0, 0.75, 0],
			"scale": [1, 1, 0.7]
		},
		"gui": {
			"translation": [0.5, -0.25, 0],
			"scale": [1.81, 1.75, 1]
		},
		"fixed": {
			"rotation": [0, -180, 0],
			"translation": [-1, -0.25, -0.5],
			"scale": [1.81, 1.75, 1]
		}
	}
}