{
	"credit": "Made with Blockbench",
	"ambientocclusion": false,
	"textures": {
		"0": "wing/wings4",
		"particle": "wing/wings4"
	},
	"elements": [
		{
			"from": [-4.75, -2, 20.95],
			"to": [11.25, 14, 21.05],
			"rotation": {"angle": 45, "axis": "y", "origin": [-3.75, 0, 21]},
			"faces": {
				"north": {"uv": [0.002, 0.015, 15.992, 15.997], "texture": "#0"},
				"south": {"uv": [15.94, 0, 0.123, 15.998], "texture": "#0"}
			}
		},
		{
			"from": [18.95, -2, 6],
			"to": [19.05, 14, 22],
			"rotation": {"angle": 45, "axis": "y", "origin": [19, 0, 21]},
			"faces": {
				"east": {"uv": [15.987, 0, 0.005, 15.992], "texture": "#0"},
				"west": {"uv": [-0.001, 0, 15.97, 15.996], "texture": "#0"}
			}
		}
	],
	"display": {
		"thirdperson_righthand": {
			"rotation": [68, 0, 0],
			"translation": [-5.25, 2.24, 14.75],
			"scale": [1.76563, 1.76563, 1.76563]
		},
		"thirdperson_lefthand": {
			"rotation": [68, 0, 0],
			"translation": [-6.5, 2.24, 14.75],
			"scale": [1.76563, 1.76563, 1.76563]
		},
		"firstperson_righthand": {
			"translation": [-5.5, -6, 5.67],
			"scale": [0, 0, 0]
		},
		"firstperson_lefthand": {
			"translation": [-5.5, -6, 5.67],
			"scale": [0, 0, 0]
		},
		"ground": {
			"translation": [0, 4.75, -1.75],
			"scale": [0.96, 0.89, 0.77]
		},
		"head": {
			"translation": [0, -0.75, -1.5],
			"scale": [0, 0, 0]
		},
		"fixed": {
			"rotation": [0, 180, 0],
			"translation": [0, 0, 3]
		}
	}
}