{
	"credit": "Made with Blockbench",
	"ambientocclusion": false,
	"textures": {
		"1": "wing/wings1",
		"particle": "wing/wings1"
	},
	"elements": [
		{
			"from": [-4.5, -2, 20.95],
			"to": [11.5, 14, 21.05],
			"rotation": {"angle": 45, "axis": "y", "origin": [-3.5, 0, 21]},
			"faces": {
				"north": {"uv": [0.004, 0.048, 15.998, 15.999], "texture": "#1"},
				"south": {"uv": [16, 0, 0.058, 15.998], "texture": "#1"}
			}
		},
		{
			"from": [18.7, -2, 6],
			"to": [18.8, 14, 22],
			"rotation": {"angle": 45, "axis": "y", "origin": [18.75, 0, 21]},
			"faces": {
				"east": {"uv": [15.991, 0, 0.006, 15.992], "texture": "#1"},
				"west": {"uv": [-0.005, 0, 15.967, 15.996], "texture": "#1"}
			}
		}
	],
	"display": {
		"thirdperson_righthand": {
			"rotation": [68, 0, 0],
			"translation": [-5.25, 2.24, 12.25],
			"scale": [1.76563, 1.76563, 1.76563]
		},
		"thirdperson_lefthand": {
			"rotation": [68, 0, 0],
			"translation": [-6.5, 2.24, 12.25],
			"scale": [1.76563, 1.76563, 1.76563]
		},
		"firstperson_righthand": {
			"translation": [-5.5, -6, 5.67],
			"scale": [0, 0, 0]
		},
		"firstperson_lefthand": {
			"translation": [-5.5, -6, 5.67],
			"scale": [0, 0, 0]
		},
		"ground": {
			"translation": [0, 4.75, -1.75],
			"scale": [0.96, 0.89, 0.77]
		},
		"head": {
			"translation": [0, -0.75, -1.5],
			"scale": [0, 0, 0]
		},
		"fixed": {
			"rotation": [0, 180, 0],
			"translation": [0, 0, 3]
		}
	}
}