{
	"credit": "Made with Blockbench",
	"ambientocclusion": false,
	"textures": {
		"1": "wing/0c164"
	},
	"elements": [
		{
			"from": [-5, -2, 20.95],
			"to": [11, 14, 21.05],
			"rotation": {"angle": 45, "axis": "y", "origin": [-4, 0, 21]},
			"faces": {
				"north": {"uv": [7.846, 0, 15.999, 15.998], "texture": "#1"},
				"south": {"uv": [16, 0.04, 7.757, 16], "texture": "#1"}
			}
		},
		{
			"from": [19.2, -2, 6],
			"to": [19.3, 14, 22],
			"rotation": {"angle": 45, "axis": "y", "origin": [19.25, 0, 21]},
			"faces": {
				"east": {"uv": [15.993, 0, 7.948, 15.992], "texture": "#1"},
				"west": {"uv": [7.742, 0, 15.968, 15.996], "texture": "#1"}
			}
		}
	],
	"display": {
		"thirdperson_righthand": {
			"rotation": [68, 0, 0],
			"translation": [-5, 1.24, 15.25],
			"scale": [1.5, 1.5, 1.5]
		},
		"thirdperson_lefthand": {
			"rotation": [68, 0, 0],
			"translation": [-6.5, 1.24, 15.25],
			"scale": [1.5, 1.5, 1.5]
		},
		"firstperson_righthand": {
			"translation": [-5.5, -6, 5.67],
			"scale": [0, 0, 0]
		},
		"firstperson_lefthand": {
			"translation": [-5.5, -6, 5.67],
			"scale": [0, 0, 0]
		},
		"ground": {
			"translation": [0, 4.75, -1.75],
			"scale": [0.96, 0.89, 0.77]
		},
		"head": {
			"translation": [0, -0.75, -1.5],
			"scale": [0, 0, 0]
		},
		"fixed": {
			"rotation": [0, 180, 0]
		}
	}
}