{
	"credit": "Made with Blockbench by Unknown but Pack file by @BestZige#5284 -> User:Nobphakhun Empty",
	"textures": {
		"2": "bestzige:bestzige_kits/ocean_shield_b/texture_0",
		"3": "bestzige:bestzige_kits/ocean_shield_b/texture_1",
		"4": "bestzige:bestzige_kits/ocean_shield_b/texture_2",
		"5": "bestzige:bestzige_kits/ocean_shield_b/texture_3",
		"particle": "bestzige:bestzige_kits/ocean_shield_b/texture_0"
	},
	"elements": [
		{
			"from": [15, 3, 0],
			"to": [24, 10, 1],
			"rotation": {"angle": 0, "axis": "y", "origin": [26, 9, 8]},
			"faces": {
				"north": {"uv": [0, 4.75, 1.125, 5.625], "texture": "#2"},
				"east": {"uv": [3.75, 6.5, 3.875, 7.375], "texture": "#2"},
				"south": {"uv": [1.125, 4.75, 2.25, 5.625], "texture": "#2"},
				"west": {"uv": [3.875, 6.5, 4, 7.375], "texture": "#2"},
				"up": {"uv": [7.125, 5.625, 6, 5.5], "texture": "#2"},
				"down": {"uv": [6.75, 6.125, 5.625, 6.25], "texture": "#2"}
			}
		},
		{
			"from": [14, 4, -1],
			"to": [23, 9, 0],
			"rotation": {"angle": 0, "axis": "y", "origin": [26, 9, 7]},
			"faces": {
				"north": {"uv": [2.25, 4.75, 3.375, 5.375], "texture": "#2"},
				"east": {"uv": [3.25, 6.75, 3.375, 7.375], "texture": "#2"},
				"south": {"uv": [3.375, 4.75, 4.5, 5.375], "texture": "#2"},
				"west": {"uv": [0.25, 6.875, 0.375, 7.5], "texture": "#2"},
				"up": {"uv": [7.25, 2, 6.125, 1.875], "texture": "#2"},
				"down": {"uv": [7.25, 2, 6.125, 2.125], "texture": "#2"}
			}
		},
		{
			"from": [14, 4, 1],
			"to": [23, 9, 2],
			"rotation": {"angle": 0, "axis": "y", "origin": [26, 9, -6]},
			"faces": {
				"north": {"uv": [4.5, 4.75, 3.375, 5.375], "texture": "#2"},
				"east": {"uv": [3.375, 6.75, 3.25, 7.375], "texture": "#2"},
				"south": {"uv": [3.375, 4.75, 2.25, 5.375], "texture": "#2"},
				"west": {"uv": [0.375, 6.875, 0.25, 7.5], "texture": "#2"},
				"up": {"uv": [7.25, 1.875, 6.125, 2], "texture": "#2"},
				"down": {"uv": [7.25, 2.125, 6.125, 2], "texture": "#2"}
			}
		},
		{
			"from": [15, -2, 0],
			"to": [23, 3, 1],
			"rotation": {"angle": 0, "axis": "y", "origin": [25, 2, 8]},
			"faces": {
				"north": {"uv": [4.5, 4.75, 5.5, 5.375], "texture": "#2"},
				"east": {"uv": [0.375, 6.875, 0.5, 7.5], "texture": "#2"},
				"south": {"uv": [5, 0, 6, 0.625], "texture": "#2"},
				"west": {"uv": [0.5, 6.875, 0.625, 7.5], "texture": "#2"},
				"up": {"uv": [1.25, 6.5, 0.25, 6.375], "texture": "#2"},
				"down": {"uv": [2.25, 6.375, 1.25, 6.5], "texture": "#2"}
			}
		},
		{
			"from": [14, -1, -1],
			"to": [22, 4, 0],
			"rotation": {"angle": 0, "axis": "y", "origin": [25, 2, 7]},
			"faces": {
				"north": {"uv": [5, 0.625, 6, 1.25], "texture": "#2"},
				"east": {"uv": [0.625, 6.875, 0.75, 7.5], "texture": "#2"},
				"south": {"uv": [5, 1.25, 6, 1.875], "texture": "#2"},
				"west": {"uv": [0.75, 6.875, 0.875, 7.5], "texture": "#2"},
				"up": {"uv": [3.25, 6.5, 2.25, 6.375], "texture": "#2"},
				"down": {"uv": [4.25, 6.375, 3.25, 6.5], "texture": "#2"}
			}
		},
		{
			"from": [14, -1, 1],
			"to": [22, 4, 2],
			"rotation": {"angle": 0, "axis": "y", "origin": [25, 2, -6]},
			"faces": {
				"north": {"uv": [6, 1.25, 5, 1.875], "texture": "#2"},
				"east": {"uv": [0.75, 6.875, 0.625, 7.5], "texture": "#2"},
				"south": {"uv": [6, 0.625, 5, 1.25], "texture": "#2"},
				"west": {"uv": [0.875, 6.875, 0.75, 7.5], "texture": "#2"},
				"up": {"uv": [3.25, 6.375, 2.25, 6.5], "texture": "#2"},
				"down": {"uv": [4.25, 6.5, 3.25, 6.375], "texture": "#2"}
			}
		},
		{
			"from": [15, -3, 0],
			"to": [21, -2, 1],
			"rotation": {"angle": 0, "axis": "y", "origin": [25, -3, 8]},
			"faces": {
				"north": {"uv": [2.625, 6.625, 3.375, 6.75], "texture": "#2"},
				"east": {"uv": [3.375, 6.125, 3.5, 6.25], "texture": "#2"},
				"south": {"uv": [4, 6.625, 4.75, 6.75], "texture": "#2"},
				"west": {"uv": [6.875, 1, 7, 1.125], "texture": "#2"},
				"up": {"uv": [5.75, 6.75, 5, 6.625], "texture": "#2"},
				"down": {"uv": [6.5, 6.625, 5.75, 6.75], "texture": "#2"}
			}
		},
		{
			"from": [14, -2, -1],
			"to": [20, -1, 0],
			"rotation": {"angle": 0, "axis": "y", "origin": [25, -2, 7]},
			"faces": {
				"north": {"uv": [6.5, 6.625, 7.25, 6.75], "texture": "#2"},
				"east": {"uv": [7, 1, 7.125, 1.125], "texture": "#2"},
				"south": {"uv": [0.25, 6.75, 1, 6.875], "texture": "#2"},
				"west": {"uv": [7, 6, 7.125, 6.125], "texture": "#2"},
				"up": {"uv": [1.75, 6.875, 1, 6.75], "texture": "#2"},
				"down": {"uv": [2.5, 6.75, 1.75, 6.875], "texture": "#2"}
			}
		},
		{
			"from": [14, -2, 1],
			"to": [20, -1, 2],
			"rotation": {"angle": 0, "axis": "y", "origin": [25, -2, -6]},
			"faces": {
				"north": {"uv": [1, 6.75, 0.25, 6.875], "texture": "#2"},
				"east": {"uv": [7.125, 1, 7, 1.125], "texture": "#2"},
				"south": {"uv": [7.25, 6.625, 6.5, 6.75], "texture": "#2"},
				"west": {"uv": [7.125, 6, 7, 6.125], "texture": "#2"},
				"up": {"uv": [1.75, 6.75, 1, 6.875], "texture": "#2"},
				"down": {"uv": [2.5, 6.875, 1.75, 6.75], "texture": "#2"}
			}
		},
		{
			"from": [-6, -3, 0],
			"to": [15, 16, 1],
			"rotation": {"angle": 0, "axis": "y", "origin": [17, 9, 8]},
			"faces": {
				"north": {"uv": [0, 0, 2.625, 2.375], "texture": "#2"},
				"east": {"uv": [0, 5.625, 0.125, 8], "texture": "#2"},
				"south": {"uv": [0, 2.375, 2.625, 4.75], "texture": "#2"},
				"west": {"uv": [0.125, 5.625, 0.25, 8], "texture": "#2"},
				"up": {"uv": [8.125, 4.875, 5.5, 4.75], "texture": "#2"},
				"down": {"uv": [8.125, 4.875, 5.5, 5], "texture": "#2"}
			}
		},
		{
			"from": [-5, -2, -1],
			"to": [14, 15, 0],
			"rotation": {"angle": 0, "axis": "y", "origin": [17, 9, 7]},
			"faces": {
				"north": {"uv": [2.625, 2.625, 5, 4.75], "texture": "#2"},
				"east": {"uv": [4.75, 5.75, 4.875, 7.875], "texture": "#2"},
				"south": {"uv": [2.625, 0, 5, 2.125], "texture": "#2"},
				"west": {"uv": [4.875, 5.75, 5, 7.875], "texture": "#2"},
				"up": {"uv": [7.875, 5.125, 5.5, 5], "texture": "#2"},
				"down": {"uv": [7.875, 5.125, 5.5, 5.25], "texture": "#2"}
			}
		},
		{
			"from": [-5, -2, 1],
			"to": [14, 15, 2],
			"rotation": {"angle": 0, "axis": "y", "origin": [17, 9, -6]},
			"faces": {
				"north": {"uv": [5, 0, 2.625, 2.125], "texture": "#2"},
				"east": {"uv": [4.875, 5.75, 4.75, 7.875], "texture": "#2"},
				"south": {"uv": [5, 2.625, 2.625, 4.75], "texture": "#2"},
				"west": {"uv": [5, 5.75, 4.875, 7.875], "texture": "#2"},
				"up": {"uv": [7.875, 5, 5.5, 5.125], "texture": "#2"},
				"down": {"uv": [7.875, 5.25, 5.5, 5.125], "texture": "#2"}
			}
		},
		{
			"from": [-4, 16, 0],
			"to": [12, 18, 1],
			"rotation": {"angle": 0, "axis": "y", "origin": [17, 11, 8]},
			"faces": {
				"north": {"uv": [5, 3.375, 7, 3.625], "texture": "#2"},
				"east": {"uv": [1.5, 7, 1.625, 7.25], "texture": "#2"},
				"south": {"uv": [5, 3.625, 7, 3.875], "texture": "#2"},
				"west": {"uv": [1.625, 7, 1.75, 7.25], "texture": "#2"},
				"up": {"uv": [7, 6.125, 5, 6], "texture": "#2"},
				"down": {"uv": [8, 0, 6, 0.125], "texture": "#2"}
			}
		},
		{
			"from": [-3, 15, -1],
			"to": [11, 17, 0],
			"rotation": {"angle": 0, "axis": "y", "origin": [17, 11, 7]},
			"faces": {
				"north": {"uv": [5, 3.875, 6.75, 4.125], "texture": "#2"},
				"east": {"uv": [1.75, 7, 1.875, 7.25], "texture": "#2"},
				"south": {"uv": [5, 4.125, 6.75, 4.375], "texture": "#2"},
				"west": {"uv": [1.875, 7, 2, 7.25], "texture": "#2"},
				"up": {"uv": [7.75, 0.5, 6, 0.375], "texture": "#2"},
				"down": {"uv": [7.75, 0.5, 6, 0.625], "texture": "#2"}
			}
		},
		{
			"from": [-3, 15, 1],
			"to": [11, 17, 2],
			"rotation": {"angle": 0, "axis": "y", "origin": [17, 11, -6]},
			"faces": {
				"north": {"uv": [6.75, 4.125, 5, 4.375], "texture": "#2"},
				"east": {"uv": [1.875, 7, 1.75, 7.25], "texture": "#2"},
				"south": {"uv": [6.75, 3.875, 5, 4.125], "texture": "#2"},
				"west": {"uv": [2, 7, 1.875, 7.25], "texture": "#2"},
				"up": {"uv": [7.75, 0.375, 6, 0.5], "texture": "#2"},
				"down": {"uv": [7.75, 0.625, 6, 0.5], "texture": "#2"}
			}
		},
		{
			"from": [7, 7, -2],
			"to": [12, 9, -1],
			"rotation": {"angle": 0, "axis": "y", "origin": [17, 2, 6]},
			"faces": {
				"north": {"uv": [0.25, 6.125, 0.875, 6.375], "texture": "#2"},
				"east": {"uv": [2, 7, 2.125, 7.25], "texture": "#2"},
				"south": {"uv": [0.875, 6.125, 1.5, 6.375], "texture": "#2"},
				"west": {"uv": [2.5, 7, 2.625, 7.25], "texture": "#2"},
				"up": {"uv": [5.625, 5.875, 5, 5.75], "texture": "#2"},
				"down": {"uv": [7.375, 1.75, 6.75, 1.875], "texture": "#2"}
			}
		},
		{
			"from": [7, 5, -2],
			"to": [12, 7, -1],
			"rotation": {"angle": 0, "axis": "y", "origin": [17, 0, 6]},
			"faces": {
				"north": {"uv": [1.5, 6.125, 2.125, 6.375], "texture": "#2"},
				"east": {"uv": [2.625, 7, 2.75, 7.25], "texture": "#2"},
				"south": {"uv": [2.125, 6.125, 2.75, 6.375], "texture": "#2"},
				"west": {"uv": [2.75, 7, 2.875, 7.25], "texture": "#2"},
				"up": {"uv": [7.375, 5.75, 6.75, 5.625], "texture": "#2"},
				"down": {"uv": [7.375, 5.75, 6.75, 5.875], "texture": "#2"}
			}
		},
		{
			"from": [7, 3, -2],
			"to": [10, 5, -1],
			"rotation": {"angle": 0, "axis": "y", "origin": [17, -2, 6]},
			"faces": {
				"north": {"uv": [3.375, 6.625, 3.75, 6.875], "texture": "#2"},
				"east": {"uv": [2.875, 7, 3, 7.25], "texture": "#2"},
				"south": {"uv": [2.5, 6.75, 2.875, 7], "texture": "#2"},
				"west": {"uv": [3, 7, 3.125, 7.25], "texture": "#2"},
				"up": {"uv": [3.75, 7, 3.375, 6.875], "texture": "#2"},
				"down": {"uv": [5.375, 6.875, 5, 7], "texture": "#2"}
			}
		},
		{
			"from": [8, 9, -2],
			"to": [11, 11, -1],
			"rotation": {"angle": 0, "axis": "y", "origin": [18, 4, 6]},
			"faces": {
				"north": {"uv": [2.875, 6.75, 3.25, 7], "texture": "#2"},
				"east": {"uv": [3.125, 7, 3.25, 7.25], "texture": "#2"},
				"south": {"uv": [4, 6.75, 4.375, 7], "texture": "#2"},
				"west": {"uv": [3.375, 7, 3.5, 7.25], "texture": "#2"},
				"up": {"uv": [5.75, 7, 5.375, 6.875], "texture": "#2"},
				"down": {"uv": [6.125, 6.875, 5.75, 7], "texture": "#2"}
			}
		},
		{
			"from": [-3, 18, 0],
			"to": [8, 20, 1],
			"rotation": {"angle": 0, "axis": "y", "origin": [17, 13, 8]},
			"faces": {
				"north": {"uv": [3.25, 5.375, 4.625, 5.625], "texture": "#2"},
				"east": {"uv": [3.5, 7, 3.625, 7.25], "texture": "#2"},
				"south": {"uv": [4.625, 5.375, 6, 5.625], "texture": "#2"},
				"west": {"uv": [3.625, 7, 3.75, 7.25], "texture": "#2"},
				"up": {"uv": [7.375, 4.75, 6, 4.625], "texture": "#2"},
				"down": {"uv": [7.375, 5.375, 6, 5.5], "texture": "#2"}
			}
		},
		{
			"from": [-2, 17, -1],
			"to": [7, 19, 0],
			"rotation": {"angle": 0, "axis": "y", "origin": [17, 13, 7]},
			"faces": {
				"north": {"uv": [0.25, 5.625, 1.375, 5.875], "texture": "#2"},
				"east": {"uv": [4, 7, 4.125, 7.25], "texture": "#2"},
				"south": {"uv": [5.625, 5.625, 6.75, 5.875], "texture": "#2"},
				"west": {"uv": [4.125, 7, 4.25, 7.25], "texture": "#2"},
				"up": {"uv": [7.25, 2.25, 6.125, 2.125], "texture": "#2"},
				"down": {"uv": [7.25, 2.25, 6.125, 2.375], "texture": "#2"}
			}
		},
		{
			"from": [-2, 17, 1],
			"to": [7, 19, 2],
			"rotation": {"angle": 0, "axis": "y", "origin": [17, 13, -6]},
			"faces": {
				"north": {"uv": [6.75, 5.625, 5.625, 5.875], "texture": "#2"},
				"east": {"uv": [4.125, 7, 4, 7.25], "texture": "#2"},
				"south": {"uv": [1.375, 5.625, 0.25, 5.875], "texture": "#2"},
				"west": {"uv": [4.25, 7, 4.125, 7.25], "texture": "#2"},
				"up": {"uv": [7.25, 2.125, 6.125, 2.25], "texture": "#2"},
				"down": {"uv": [7.25, 2.375, 6.125, 2.25], "texture": "#2"}
			}
		},
		{
			"from": [-3, -7, 0],
			"to": [5, -5, 1],
			"rotation": {"angle": 0, "axis": "y", "origin": [17, 0, 8]},
			"faces": {
				"north": {"uv": [1.375, 5.75, 2.5, 6], "texture": "#2"},
				"east": {"uv": [4.25, 7, 4.375, 7.25], "texture": "#2"},
				"south": {"uv": [2.5, 5.75, 3.625, 6], "texture": "#2"},
				"west": {"uv": [4.375, 7, 4.5, 7.25], "texture": "#2"},
				"up": {"uv": [7.25, 2.5, 6.125, 2.375], "texture": "#2"},
				"down": {"uv": [7.25, 2.5, 6.125, 2.625], "texture": "#2"}
			}
		},
		{
			"from": [-2, -6, -1],
			"to": [4, -4, 0],
			"rotation": {"angle": 0, "axis": "y", "origin": [17, 0, 7]},
			"faces": {
				"north": {"uv": [6, 0.625, 6.875, 0.875], "texture": "#2"},
				"east": {"uv": [4.5, 7, 4.625, 7.25], "texture": "#2"},
				"south": {"uv": [6, 0.875, 6.875, 1.125], "texture": "#2"},
				"west": {"uv": [4.625, 7, 4.75, 7.25], "texture": "#2"},
				"up": {"uv": [2.25, 5.75, 1.375, 5.625], "texture": "#2"},
				"down": {"uv": [2.625, 6.625, 1.75, 6.75], "texture": "#2"}
			}
		},
		{
			"from": [-2, -6, 1],
			"to": [4, -4, 2],
			"rotation": {"angle": 0, "axis": "y", "origin": [17, 0, -6]},
			"faces": {
				"north": {"uv": [6.875, 0.875, 6, 1.125], "texture": "#2"},
				"east": {"uv": [4.625, 7, 4.5, 7.25], "texture": "#2"},
				"south": {"uv": [6.875, 0.625, 6, 0.875], "texture": "#2"},
				"west": {"uv": [4.75, 7, 4.625, 7.25], "texture": "#2"},
				"up": {"uv": [2.25, 5.625, 1.375, 5.75], "texture": "#2"},
				"down": {"uv": [2.625, 6.75, 1.75, 6.625], "texture": "#2"}
			}
		},
		{
			"from": [-2, 20, 0],
			"to": [6, 22, 1],
			"rotation": {"angle": 0, "axis": "y", "origin": [17, 15, 8]},
			"faces": {
				"north": {"uv": [3.5, 6, 4.5, 6.25], "texture": "#2"},
				"east": {"uv": [5, 7, 5.125, 7.25], "texture": "#2"},
				"south": {"uv": [6, 0.125, 7, 0.375], "texture": "#2"},
				"west": {"uv": [5.125, 7, 5.25, 7.25], "texture": "#2"},
				"up": {"uv": [6, 6.5, 5, 6.375], "texture": "#2"},
				"down": {"uv": [7, 6.375, 6, 6.5], "texture": "#2"}
			}
		},
		{
			"from": [-1, 19, -1],
			"to": [5, 21, 0],
			"rotation": {"angle": 0, "axis": "y", "origin": [17, 15, 7]},
			"faces": {
				"north": {"uv": [6, 1.125, 6.75, 1.375], "texture": "#2"},
				"east": {"uv": [5.25, 7, 5.375, 7.25], "texture": "#2"},
				"south": {"uv": [6, 1.375, 6.75, 1.625], "texture": "#2"},
				"west": {"uv": [5.375, 7, 5.5, 7.25], "texture": "#2"},
				"up": {"uv": [5.75, 6.875, 5, 6.75], "texture": "#2"},
				"down": {"uv": [6.5, 6.75, 5.75, 6.875], "texture": "#2"}
			}
		},
		{
			"from": [-1, 19, 1],
			"to": [5, 21, 2],
			"rotation": {"angle": 0, "axis": "y", "origin": [17, 15, -6]},
			"faces": {
				"north": {"uv": [6.75, 1.375, 6, 1.625], "texture": "#2"},
				"east": {"uv": [5.375, 7, 5.25, 7.25], "texture": "#2"},
				"south": {"uv": [6.75, 1.125, 6, 1.375], "texture": "#2"},
				"west": {"uv": [5.5, 7, 5.375, 7.25], "texture": "#2"},
				"up": {"uv": [5.75, 6.75, 5, 6.875], "texture": "#2"},
				"down": {"uv": [6.5, 6.875, 5.75, 6.75], "texture": "#2"}
			}
		},
		{
			"from": [-2, -9, 0],
			"to": [4, -7, 1],
			"rotation": {"angle": 0, "axis": "y", "origin": [17, -2, 8]},
			"faces": {
				"north": {"uv": [6, 1.625, 6.75, 1.875], "texture": "#2"},
				"east": {"uv": [5.5, 7, 5.625, 7.25], "texture": "#2"},
				"south": {"uv": [6, 4.375, 6.75, 4.625], "texture": "#2"},
				"west": {"uv": [5.625, 7, 5.75, 7.25], "texture": "#2"},
				"up": {"uv": [7.25, 6.875, 6.5, 6.75], "texture": "#2"},
				"down": {"uv": [7.5, 1.125, 6.75, 1.25], "texture": "#2"}
			}
		},
		{
			"from": [-1, -8, -1],
			"to": [3, -6, 0],
			"rotation": {"angle": 0, "axis": "y", "origin": [17, -2, 7]},
			"faces": {
				"north": {"uv": [4.25, 6.375, 4.75, 6.625], "texture": "#2"},
				"east": {"uv": [5.75, 7, 5.875, 7.25], "texture": "#2"},
				"south": {"uv": [0.25, 6.5, 0.75, 6.75], "texture": "#2"},
				"west": {"uv": [5.875, 7, 6, 7.25], "texture": "#2"},
				"up": {"uv": [1.625, 7, 1.125, 6.875], "texture": "#2"},
				"down": {"uv": [2.125, 6.875, 1.625, 7], "texture": "#2"}
			}
		},
		{
			"from": [-1, -8, 1],
			"to": [3, -6, 2],
			"rotation": {"angle": 0, "axis": "y", "origin": [17, -2, -6]},
			"faces": {
				"north": {"uv": [0.75, 6.5, 0.25, 6.75], "texture": "#2"},
				"east": {"uv": [5.875, 7, 5.75, 7.25], "texture": "#2"},
				"south": {"uv": [4.75, 6.375, 4.25, 6.625], "texture": "#2"},
				"west": {"uv": [6, 7, 5.875, 7.25], "texture": "#2"},
				"up": {"uv": [1.625, 6.875, 1.125, 7], "texture": "#2"},
				"down": {"uv": [2.125, 7, 1.625, 6.875], "texture": "#2"}
			}
		},
		{
			"from": [-1, 22, 0],
			"to": [4, 24, 1],
			"rotation": {"angle": 0, "axis": "y", "origin": [17, 17, 8]},
			"faces": {
				"north": {"uv": [2.75, 6.125, 3.375, 6.375], "texture": "#2"},
				"east": {"uv": [6, 7, 6.125, 7.25], "texture": "#2"},
				"south": {"uv": [5, 6.125, 5.625, 6.375], "texture": "#2"},
				"west": {"uv": [6.125, 7, 6.25, 7.25], "texture": "#2"},
				"up": {"uv": [7.375, 6.25, 6.75, 6.125], "texture": "#2"},
				"down": {"uv": [7.375, 6.25, 6.75, 6.375], "texture": "#2"}
			}
		},
		{
			"from": [0, 21, -1],
			"to": [3, 23, 0],
			"rotation": {"angle": 0, "axis": "y", "origin": [17, 17, 7]},
			"faces": {
				"north": {"uv": [4.375, 6.75, 4.75, 7], "texture": "#2"},
				"east": {"uv": [6.25, 7, 6.375, 7.25], "texture": "#2"},
				"south": {"uv": [6.75, 1.25, 7.125, 1.5], "texture": "#2"},
				"west": {"uv": [6.375, 7, 6.5, 7.25], "texture": "#2"},
				"up": {"uv": [6.5, 7, 6.125, 6.875], "texture": "#2"},
				"down": {"uv": [6.875, 6.875, 6.5, 7], "texture": "#2"}
			}
		},
		{
			"from": [0, 21, 1],
			"to": [3, 23, 2],
			"rotation": {"angle": 0, "axis": "y", "origin": [17, 17, -6]},
			"faces": {
				"north": {"uv": [7.125, 1.25, 6.75, 1.5], "texture": "#2"},
				"east": {"uv": [6.375, 7, 6.25, 7.25], "texture": "#2"},
				"south": {"uv": [4.75, 6.75, 4.375, 7], "texture": "#2"},
				"west": {"uv": [6.5, 7, 6.375, 7.25], "texture": "#2"},
				"up": {"uv": [6.5, 6.875, 6.125, 7], "texture": "#2"},
				"down": {"uv": [6.875, 7, 6.5, 6.875], "texture": "#2"}
			}
		},
		{
			"from": [-1, -11, 0],
			"to": [2, -9, 1],
			"rotation": {"angle": 0, "axis": "y", "origin": [17, -4, 8]},
			"faces": {
				"north": {"uv": [6.75, 1.5, 7.125, 1.75], "texture": "#2"},
				"east": {"uv": [6.5, 7, 6.625, 7.25], "texture": "#2"},
				"south": {"uv": [6.75, 3.875, 7.125, 4.125], "texture": "#2"},
				"west": {"uv": [6.625, 7, 6.75, 7.25], "texture": "#2"},
				"up": {"uv": [7.25, 7, 6.875, 6.875], "texture": "#2"},
				"down": {"uv": [7.25, 0.625, 6.875, 0.75], "texture": "#2"}
			}
		},
		{
			"from": [0, -10, -1],
			"to": [1, -8, 0],
			"rotation": {"angle": 0, "axis": "y", "origin": [17, -4, 7]},
			"faces": {
				"north": {"uv": [6.75, 7, 6.875, 7.25], "texture": "#2"},
				"east": {"uv": [6.875, 7, 7, 7.25], "texture": "#2"},
				"south": {"uv": [7, 7, 7.125, 7.25], "texture": "#2"},
				"west": {"uv": [7, 0.125, 7.125, 0.375], "texture": "#2"},
				"up": {"uv": [7.25, 1.125, 7.125, 1], "texture": "#2"},
				"down": {"uv": [7.25, 5.5, 7.125, 5.625], "texture": "#2"}
			}
		},
		{
			"from": [0, -10, 1],
			"to": [1, -8, 2],
			"rotation": {"angle": 0, "axis": "y", "origin": [17, -4, -6]},
			"faces": {
				"north": {"uv": [7.125, 7, 7, 7.25], "texture": "#2"},
				"east": {"uv": [7, 7, 6.875, 7.25], "texture": "#2"},
				"south": {"uv": [6.875, 7, 6.75, 7.25], "texture": "#2"},
				"west": {"uv": [7.125, 0.125, 7, 0.375], "texture": "#2"},
				"up": {"uv": [7.25, 1, 7.125, 1.125], "texture": "#2"},
				"down": {"uv": [7.25, 5.625, 7.125, 5.5], "texture": "#2"}
			}
		},
		{
			"from": [0, 24, 0],
			"to": [3, 26, 1],
			"rotation": {"angle": 0, "axis": "y", "origin": [17, 19, 8]},
			"faces": {
				"north": {"uv": [6.75, 4.125, 7.125, 4.375], "texture": "#2"},
				"east": {"uv": [7, 3.375, 7.125, 3.625], "texture": "#2"},
				"south": {"uv": [6.75, 4.375, 7.125, 4.625], "texture": "#2"},
				"west": {"uv": [7, 3.625, 7.125, 3.875], "texture": "#2"},
				"up": {"uv": [7.25, 0.875, 6.875, 0.75], "texture": "#2"},
				"down": {"uv": [7.25, 0.875, 6.875, 1], "texture": "#2"}
			}
		},
		{
			"from": [1, 23, -1],
			"to": [2, 25, 0],
			"rotation": {"angle": 0, "axis": "y", "origin": [17, 19, 7]},
			"faces": {
				"north": {"uv": [7, 6.375, 7.125, 6.625], "texture": "#2"},
				"east": {"uv": [0.875, 7.125, 1, 7.375], "texture": "#2"},
				"south": {"uv": [1, 7.125, 1.125, 7.375], "texture": "#2"},
				"west": {"uv": [7.125, 7.125, 7.25, 7.375], "texture": "#2"},
				"up": {"uv": [7.25, 7.125, 7.125, 7], "texture": "#2"},
				"down": {"uv": [1.625, 7.25, 1.5, 7.375], "texture": "#2"}
			}
		},
		{
			"from": [1, 23, 1],
			"to": [2, 25, 2],
			"rotation": {"angle": 0, "axis": "y", "origin": [17, 19, -6]},
			"faces": {
				"north": {"uv": [1.125, 7.125, 1, 7.375], "texture": "#2"},
				"east": {"uv": [1, 7.125, 0.875, 7.375], "texture": "#2"},
				"south": {"uv": [7.125, 6.375, 7, 6.625], "texture": "#2"},
				"west": {"uv": [7.25, 7.125, 7.125, 7.375], "texture": "#2"},
				"up": {"uv": [7.25, 7, 7.125, 7.125], "texture": "#2"},
				"down": {"uv": [1.625, 7.375, 1.5, 7.25], "texture": "#2"}
			}
		},
		{
			"from": [0, -13, 0],
			"to": [1, -11, 1],
			"rotation": {"angle": 0, "axis": "y", "origin": [17, -6, 8]},
			"faces": {
				"north": {"uv": [7.125, 0.125, 7.25, 0.375], "texture": "#2"},
				"east": {"uv": [7.125, 1.25, 7.25, 1.5], "texture": "#2"},
				"south": {"uv": [7.125, 1.5, 7.25, 1.75], "texture": "#2"},
				"west": {"uv": [7.125, 2.875, 7.25, 3.125], "texture": "#2"},
				"up": {"uv": [1.75, 7.375, 1.625, 7.25], "texture": "#2"},
				"down": {"uv": [1.875, 7.25, 1.75, 7.375], "texture": "#2"}
			}
		},
		{
			"from": [0, -12, -1],
			"to": [0, -12, 0],
			"rotation": {"angle": 0, "axis": "y", "origin": [17, -6, 7]},
			"faces": {
				"north": {"uv": [0, 0, 0, 0], "texture": "#2"},
				"east": {"uv": [0, 0, 0.125, 0], "texture": "#2"},
				"south": {"uv": [0, 0, 0, 0], "texture": "#2"},
				"west": {"uv": [0, 0, 0.125, 0], "texture": "#2"},
				"up": {"uv": [0, 0.125, 0, 0], "texture": "#2"},
				"down": {"uv": [0, 0, 0, 0.125], "texture": "#2"}
			}
		},
		{
			"from": [1, 26, 0],
			"to": [2, 28, 1],
			"rotation": {"angle": 0, "axis": "y", "origin": [17, 21, 8]},
			"faces": {
				"north": {"uv": [7.125, 3.125, 7.25, 3.375], "texture": "#2"},
				"east": {"uv": [7.125, 3.375, 7.25, 3.625], "texture": "#2"},
				"south": {"uv": [7.125, 3.625, 7.25, 3.875], "texture": "#2"},
				"west": {"uv": [7.125, 3.875, 7.25, 4.125], "texture": "#2"},
				"up": {"uv": [2, 7.375, 1.875, 7.25], "texture": "#2"},
				"down": {"uv": [2.125, 7.25, 2, 7.375], "texture": "#2"}
			}
		},
		{
			"from": [1, 27, -1],
			"to": [1, 27, 0],
			"rotation": {"angle": 0, "axis": "y", "origin": [17, 21, 7]},
			"faces": {
				"north": {"uv": [0, 0, 0, 0], "texture": "#2"},
				"east": {"uv": [0, 0, 0.125, 0], "texture": "#2"},
				"south": {"uv": [0, 0, 0, 0], "texture": "#2"},
				"west": {"uv": [0, 0, 0.125, 0], "texture": "#2"},
				"up": {"uv": [0, 0.125, 0, 0], "texture": "#2"},
				"down": {"uv": [0, 0, 0, 0.125], "texture": "#2"}
			}
		},
		{
			"from": [-4, -5, 0],
			"to": [15, -3, 1],
			"rotation": {"angle": 0, "axis": "y", "origin": [17, -10, 8]},
			"faces": {
				"north": {"uv": [2.625, 2.125, 5, 2.375], "texture": "#2"},
				"east": {"uv": [7.125, 4.125, 7.25, 4.375], "texture": "#2"},
				"south": {"uv": [2.625, 2.375, 5, 2.625], "texture": "#2"},
				"west": {"uv": [7.125, 4.375, 7.25, 4.625], "texture": "#2"},
				"up": {"uv": [7.875, 5.375, 5.5, 5.25], "texture": "#2"},
				"down": {"uv": [5.625, 5.625, 3.25, 5.75], "texture": "#2"}
			}
		},
		{
			"from": [-3, -4, -1],
			"to": [14, -2, 0],
			"rotation": {"angle": 0, "axis": "y", "origin": [17, -10, 7]},
			"faces": {
				"north": {"uv": [5, 2.875, 7.125, 3.125], "texture": "#2"},
				"east": {"uv": [7.125, 5.875, 7.25, 6.125], "texture": "#2"},
				"south": {"uv": [5, 3.125, 7.125, 3.375], "texture": "#2"},
				"west": {"uv": [7.125, 6.375, 7.25, 6.625], "texture": "#2"},
				"up": {"uv": [7.125, 6, 5, 5.875], "texture": "#2"},
				"down": {"uv": [3.5, 6, 1.375, 6.125], "texture": "#2"}
			}
		},
		{
			"from": [-3, -4, 1],
			"to": [14, -2, 2],
			"rotation": {"angle": 0, "axis": "y", "origin": [17, -10, -6]},
			"faces": {
				"north": {"uv": [7.125, 3.125, 5, 3.375], "texture": "#2"},
				"east": {"uv": [7.25, 5.875, 7.125, 6.125], "texture": "#2"},
				"south": {"uv": [7.125, 2.875, 5, 3.125], "texture": "#2"},
				"west": {"uv": [7.25, 6.375, 7.125, 6.625], "texture": "#2"},
				"up": {"uv": [7.125, 5.875, 5, 6], "texture": "#2"},
				"down": {"uv": [3.5, 6.125, 1.375, 6], "texture": "#2"}
			}
		},
		{
			"from": [15, 10, 0],
			"to": [23, 11, 1],
			"rotation": {"angle": 0, "axis": "y", "origin": [28, 6, 8]},
			"faces": {
				"north": {"uv": [0.75, 6.5, 1.75, 6.625], "texture": "#2"},
				"east": {"uv": [2.375, 7.25, 2.5, 7.375], "texture": "#2"},
				"south": {"uv": [1.75, 6.5, 2.75, 6.625], "texture": "#2"},
				"west": {"uv": [2.5, 7.25, 2.625, 7.375], "texture": "#2"},
				"up": {"uv": [3.75, 6.625, 2.75, 6.5], "texture": "#2"},
				"down": {"uv": [6, 6.5, 5, 6.625], "texture": "#2"}
			}
		},
		{
			"from": [14, 9, -1],
			"to": [22, 12, 0],
			"rotation": {"angle": 0, "axis": "y", "origin": [28, 6, 7]},
			"faces": {
				"north": {"uv": [5, 4.375, 6, 4.75], "texture": "#2"},
				"east": {"uv": [2.375, 6.875, 2.5, 7.25], "texture": "#2"},
				"south": {"uv": [2.25, 5.375, 3.25, 5.75], "texture": "#2"},
				"west": {"uv": [1.125, 7, 1.25, 7.375], "texture": "#2"},
				"up": {"uv": [7, 6.625, 6, 6.5], "texture": "#2"},
				"down": {"uv": [1.75, 6.625, 0.75, 6.75], "texture": "#2"}
			}
		},
		{
			"from": [14, 9, 1],
			"to": [22, 12, 2],
			"rotation": {"angle": 0, "axis": "y", "origin": [28, 6, -6]},
			"faces": {
				"north": {"uv": [3.25, 5.375, 2.25, 5.75], "texture": "#2"},
				"east": {"uv": [2.5, 6.875, 2.375, 7.25], "texture": "#2"},
				"south": {"uv": [6, 4.375, 5, 4.75], "texture": "#2"},
				"west": {"uv": [1.25, 7, 1.125, 7.375], "texture": "#2"},
				"up": {"uv": [7, 6.5, 6, 6.625], "texture": "#2"},
				"down": {"uv": [1.75, 6.75, 0.75, 6.625], "texture": "#2"}
			}
		},
		{
			"from": [18, 11, -2],
			"to": [20, 13, -1],
			"rotation": {"angle": 0, "axis": "y", "origin": [31, 8, 6]},
			"faces": {
				"north": {"uv": [4.5, 6, 4.75, 6.25], "texture": "#2"},
				"east": {"uv": [1.25, 7, 1.375, 7.25], "texture": "#2"},
				"south": {"uv": [0.875, 6.875, 1.125, 7.125], "texture": "#2"},
				"west": {"uv": [1.375, 7, 1.5, 7.25], "texture": "#2"},
				"up": {"uv": [4.75, 6.375, 4.5, 6.25], "texture": "#2"},
				"down": {"uv": [4.25, 6.5, 4, 6.625], "texture": "#2"}
			}
		},
		{
			"from": [18, 11, 2],
			"to": [20, 13, 3],
			"rotation": {"angle": 0, "axis": "y", "origin": [31, 8, -5]},
			"faces": {
				"north": {"uv": [1.125, 6.875, 0.875, 7.125], "texture": "#2"},
				"east": {"uv": [1.375, 7, 1.25, 7.25], "texture": "#2"},
				"south": {"uv": [4.75, 6, 4.5, 6.25], "texture": "#2"},
				"west": {"uv": [1.5, 7, 1.375, 7.25], "texture": "#2"},
				"up": {"uv": [4.75, 6.25, 4.5, 6.375], "texture": "#2"},
				"down": {"uv": [4.25, 6.625, 4, 6.5], "texture": "#2"}
			}
		},
		{
			"from": [15, 11, 0],
			"to": [24, 15, 1],
			"rotation": {"angle": 0, "axis": "y", "origin": [28, 7, 8]},
			"faces": {
				"north": {"uv": [5, 1.875, 6.125, 2.375], "texture": "#2"},
				"east": {"uv": [2.125, 6.875, 2.25, 7.375], "texture": "#2"},
				"south": {"uv": [5, 2.375, 6.125, 2.875], "texture": "#2"},
				"west": {"uv": [2.25, 6.875, 2.375, 7.375], "texture": "#2"},
				"up": {"uv": [7.25, 2.75, 6.125, 2.625], "texture": "#2"},
				"down": {"uv": [7.25, 2.75, 6.125, 2.875], "texture": "#2"}
			}
		},
		{
			"from": [14, 12, -1],
			"to": [23, 14, 0],
			"rotation": {"angle": 0, "axis": "y", "origin": [28, 7, 7]},
			"faces": {
				"north": {"uv": [3.625, 5.75, 4.75, 6], "texture": "#2"},
				"east": {"uv": [1.25, 7.25, 1.375, 7.5], "texture": "#2"},
				"south": {"uv": [0.25, 5.875, 1.375, 6.125], "texture": "#2"},
				"west": {"uv": [1.375, 7.25, 1.5, 7.5], "texture": "#2"},
				"up": {"uv": [4.5, 6.375, 3.375, 6.25], "texture": "#2"},
				"down": {"uv": [6.75, 6.25, 5.625, 6.375], "texture": "#2"}
			}
		},
		{
			"from": [14, 12, 1],
			"to": [23, 14, 2],
			"rotation": {"angle": 0, "axis": "y", "origin": [28, 7, -6]},
			"faces": {
				"north": {"uv": [1.375, 5.875, 0.25, 6.125], "texture": "#2"},
				"east": {"uv": [1.375, 7.25, 1.25, 7.5], "texture": "#2"},
				"south": {"uv": [4.75, 5.75, 3.625, 6], "texture": "#2"},
				"west": {"uv": [1.5, 7.25, 1.375, 7.5], "texture": "#2"},
				"up": {"uv": [4.5, 6.25, 3.375, 6.375], "texture": "#2"},
				"down": {"uv": [6.75, 6.375, 5.625, 6.25], "texture": "#2"}
			}
		},
		{
			"from": [18.025, 12.025, -2.175],
			"to": [18.975, 12.975, -1.05],
			"rotation": {"angle": 0, "axis": "y", "origin": [26, 20, 5.95]},
			"faces": {
				"north": {"uv": [0, 0, 1, 1], "texture": "#3"},
				"east": {"uv": [0, 1, 1, 2], "texture": "#3"},
				"south": {"uv": [1, 1, 2, 2], "texture": "#3"},
				"west": {"uv": [1, 0, 2, 1], "texture": "#3"},
				"up": {"uv": [1, 3, 0, 2], "texture": "#3"},
				"down": {"uv": [2, 2, 1, 3], "texture": "#3"}
			}
		},
		{
			"from": [18.025, 12.025, 2.05],
			"to": [18.975, 12.975, 3.175],
			"rotation": {"angle": 0, "axis": "y", "origin": [26, 20, -4.95]},
			"faces": {
				"north": {"uv": [2, 1, 1, 2], "texture": "#3"},
				"east": {"uv": [1, 1, 0, 2], "texture": "#3"},
				"south": {"uv": [1, 0, 0, 1], "texture": "#3"},
				"west": {"uv": [2, 0, 1, 1], "texture": "#3"},
				"up": {"uv": [1, 2, 0, 3], "texture": "#3"},
				"down": {"uv": [2, 3, 1, 2], "texture": "#3"}
			}
		},
		{
			"from": [-7, -1, 0],
			"to": [-6, 14, 1],
			"rotation": {"angle": 0, "axis": "y", "origin": [1, 8, 8]},
			"faces": {
				"north": {"uv": [0, 0, 0.5, 7.5], "texture": "#4"},
				"east": {"uv": [0.5, 0.5, 1, 8], "texture": "#4"},
				"south": {"uv": [1, 1, 1.5, 8.5], "texture": "#4"},
				"west": {"uv": [1.5, 1.5, 2, 9], "texture": "#4"},
				"up": {"uv": [1, 0.5, 0.5, 0], "texture": "#4"},
				"down": {"uv": [1.5, 0, 1, 0.5], "texture": "#4"}
			}
		},
		{
			"from": [-6, 0, -1],
			"to": [-5, 13, 0],
			"rotation": {"angle": 0, "axis": "y", "origin": [2, 8, 7]},
			"faces": {
				"north": {"uv": [2, 2, 2.5, 8.5], "texture": "#4"},
				"east": {"uv": [2.5, 2.5, 3, 9], "texture": "#4"},
				"south": {"uv": [3, 3, 3.5, 9.5], "texture": "#4"},
				"west": {"uv": [3.5, 3.5, 4, 10], "texture": "#4"},
				"up": {"uv": [1.5, 1, 1, 0.5], "texture": "#4"},
				"down": {"uv": [2, 0, 1.5, 0.5], "texture": "#4"}
			}
		},
		{
			"from": [-6, 0, 1],
			"to": [-5, 13, 2],
			"rotation": {"angle": 0, "axis": "y", "origin": [2, 8, -6]},
			"faces": {
				"north": {"uv": [3.5, 3, 3, 9.5], "texture": "#4"},
				"east": {"uv": [3, 2.5, 2.5, 9], "texture": "#4"},
				"south": {"uv": [2.5, 2, 2, 8.5], "texture": "#4"},
				"west": {"uv": [4, 3.5, 3.5, 10], "texture": "#4"},
				"up": {"uv": [1.5, 0.5, 1, 1], "texture": "#4"},
				"down": {"uv": [2, 0.5, 1.5, 0], "texture": "#4"}
			}
		},
		{
			"from": [-8, 1, 0],
			"to": [-7, 12, 1],
			"rotation": {"angle": 0, "axis": "y", "origin": [0, 8, 8]},
			"faces": {
				"north": {"uv": [4, 4, 4.5, 9.5], "texture": "#4"},
				"east": {"uv": [4.5, 4.5, 5, 10], "texture": "#4"},
				"south": {"uv": [5, 5, 5.5, 10.5], "texture": "#4"},
				"west": {"uv": [5.5, 5.5, 6, 11], "texture": "#4"},
				"up": {"uv": [2.5, 0.5, 2, 0], "texture": "#4"},
				"down": {"uv": [2.5, 0.5, 2, 1], "texture": "#4"}
			}
		},
		{
			"from": [-7, 2, -1],
			"to": [-6, 11, 0],
			"rotation": {"angle": 0, "axis": "y", "origin": [1, 8, 7]},
			"faces": {
				"north": {"uv": [4.5, 0, 5, 4.5], "texture": "#4"},
				"east": {"uv": [5, 0, 5.5, 4.5], "texture": "#4"},
				"south": {"uv": [5.5, 0, 6, 4.5], "texture": "#4"},
				"west": {"uv": [6, 6, 6.5, 10.5], "texture": "#4"},
				"up": {"uv": [2, 1, 1.5, 0.5], "texture": "#4"},
				"down": {"uv": [2, 1, 1.5, 1.5], "texture": "#4"}
			}
		},
		{
			"from": [-7, 2, 1],
			"to": [-6, 11, 2],
			"rotation": {"angle": 0, "axis": "y", "origin": [1, 8, -6]},
			"faces": {
				"north": {"uv": [6, 0, 5.5, 4.5], "texture": "#4"},
				"east": {"uv": [5.5, 0, 5, 4.5], "texture": "#4"},
				"south": {"uv": [5, 0, 4.5, 4.5], "texture": "#4"},
				"west": {"uv": [6.5, 6, 6, 10.5], "texture": "#4"},
				"up": {"uv": [2, 0.5, 1.5, 1], "texture": "#4"},
				"down": {"uv": [2, 1.5, 1.5, 1], "texture": "#4"}
			}
		},
		{
			"from": [8, 2, 2],
			"to": [10, 10, 3],
			"rotation": {"angle": 0, "axis": "y", "origin": [16, 15, 10]},
			"faces": {
				"north": {"uv": [0, 0, 2, 6], "texture": "#5"},
				"east": {"uv": [8, 8, 9, 14], "texture": "#5"},
				"south": {"uv": [2, 2, 4, 8], "texture": "#5"},
				"west": {"uv": [8, 0, 9, 6], "texture": "#5"},
				"up": {"uv": [4, 1, 2, 0], "texture": "#5"},
				"down": {"uv": [4, 1, 2, 2], "texture": "#5"}
			}
		},
		{
			"from": [8, 2, 8],
			"to": [10, 10, 9],
			"rotation": {"angle": 0, "axis": "y", "origin": [16, 15, 16]},
			"faces": {
				"north": {"uv": [4, 4, 6, 10], "texture": "#5"},
				"east": {"uv": [9, 9, 10, 15], "texture": "#5"},
				"south": {"uv": [0, 6, 2, 12], "texture": "#5"},
				"west": {"uv": [9, 0, 10, 6], "texture": "#5"},
				"up": {"uv": [12, 11, 10, 10], "texture": "#5"},
				"down": {"uv": [12, 0, 10, 1], "texture": "#5"}
			}
		},
		{
			"from": [8, 9, 3],
			"to": [10, 10, 8],
			"rotation": {"angle": 0, "axis": "y", "origin": [16, 15, 12]},
			"faces": {
				"north": {"uv": [6, 4, 8, 5], "texture": "#5"},
				"east": {"uv": [8, 6, 12, 7], "texture": "#5"},
				"south": {"uv": [6, 5, 8, 6], "texture": "#5"},
				"west": {"uv": [8, 7, 12, 8], "texture": "#5"},
				"up": {"uv": [6, 4, 4, 0], "texture": "#5"},
				"down": {"uv": [8, 6, 6, 10], "texture": "#5"}
			}
		},
		{
			"from": [8, 2, 3],
			"to": [10, 3, 8],
			"rotation": {"angle": 0, "axis": "y", "origin": [16, 8, 12]},
			"faces": {
				"north": {"uv": [10, 1, 12, 2], "texture": "#5"},
				"east": {"uv": [9, 8, 13, 9], "texture": "#5"},
				"south": {"uv": [10, 2, 12, 3], "texture": "#5"},
				"west": {"uv": [4, 10, 8, 11], "texture": "#5"},
				"up": {"uv": [8, 4, 6, 0], "texture": "#5"},
				"down": {"uv": [4, 8, 2, 12], "texture": "#5"}
			}
		}
	],
	"display": {
		"thirdperson_righthand": {
			"rotation": [0, -90, 0],
			"translation": [-1.75, -0.75, 1],
			"scale": [0.64, 0.64, 0.64]
		},
		"thirdperson_lefthand": {
			"rotation": [0, -90, -0.5],
			"translation": [-1.75, -0.75, 2.25],
			"scale": [0.64, 0.64, 0.64]
		},
		"firstperson_righthand": {
			"rotation": [3, 0, 0],
			"translation": [1.25, 0.5, 1.75],
			"scale": [0.7, 0.7, 0.7]
		},
		"firstperson_lefthand": {
			"rotation": [3, 0, 0],
			"translation": [1.25, 0.5, 1.75],
			"scale": [0.7, 0.7, 0.7]
		},
		"ground": {
			"rotation": [48, 0, 0],
			"translation": [0, -3.25, 0],
			"scale": [0.3, 0.3, 0.3]
		},
		"gui": {
			"rotation": [0, -180, 0],
			"translation": [-0.25, 0.25, 0],
			"scale": [0.38, 0.38, 0.38]
		},
		"head": {
			"rotation": [0, 90, 0],
			"translation": [-5.5, 3, -3.75],
			"scale": [0.13, 0.14, 0.13]
		},
		"fixed": {
			"translation": [0, 0, 4.25],
			"scale": [0.71, 0.71, 0.71]
		}
	},
	"groups": [
		{
			"name": "group",
			"origin": [8, 8, 8],
			"children": [0, 1, 2, 3, 4, 5, 6, 7, 8, 9, 10, 11, 12, 13, 14, 15, 16, 17, 18, 19, 20, 21, 22, 23, 24, 25, 26, 27, 28, 29, 30, 31, 32, 33, 34, 35, 36, 37, 38, 39, 40, 41, 42, 43, 44, 45, 46, 47, 48, 49, 50, 51, 52, 53, 54, 55, 56, 57, 58, 59, 60, 61, 62]
		}, 63, 64, 65, 66]
}