{
    "animation": {
        "frames": [
            {"index": 0, "time": 3},
            {"index": 1, "time": 3},
            {"index": 0, "time": 3},
            {"index": 2, "time": 3},
            {"index": 1, "time": 3},
            {"index": 0, "time": 3},
            {"index": 2, "time": 3},
            {"index": 3, "time": 3},
            {"index": 0, "time": 60}
        ]
    }
}