{
	"credit": "Made with Blockbench",
	"textures": {
		"0": "entity/shulker/shulker"
	},
	"elements": [
		{
			"from": [5, 9, 5],
			"to": [11, 15, 11],
			"faces": {
				"north": {"uv": [1.5, 14.5, 3, 16], "texture": "#0"},
				"east": {"uv": [0, 14.5, 1.5, 16], "texture": "#0"},
				"south": {"uv": [4.5, 14.5, 6, 16], "texture": "#0"},
				"west": {"uv": [3, 14.5, 4.5, 16], "texture": "#0"},
				"up": {"uv": [1.5, 13, 3, 14.5], "texture": "#0"},
				"down": {"uv": [3, 13, 4.5, 14.5], "texture": "#0"}
			}
		}
	]
}