{
	"__comment": "Designed by vishsiriscwakizashi with Cubik Studio - https://cubik.studio",
	"textures": {
		"texture": "vishsirisc:item/maii/sw01"
	},
	"elements": [
		{
			"__comment": "Box8",
			"from": [ 8, 0, 8 ],
			"to": [ 9, 9, 9 ],
			"faces": {
				"down": { "uv": [ 14.5, 9, 15.5, 10 ], "texture": "#texture" },
				"up": { "uv": [ 14.5, 1.5, 15.5, 2.5 ], "texture": "#texture" },
				"north": { "uv": [ 14.5, 1.5, 15.5, 10 ], "texture": "#texture" },
				"south": { "uv": [ 14.5, 1.5, 15.5, 10 ], "texture": "#texture" },
				"west": { "uv": [ 14.5, 1.5, 15.5, 10 ], "texture": "#texture" },
				"east": { "uv": [ 14.5, 1.5, 15.5, 10 ], "texture": "#texture" }
			}
		},
		{
			"__comment": "Box9",
			"from": [ 7.5, 10, 6 ],
			"to": [ 9.5, 15, 11 ],
			"faces": {
				"down": { "uv": [ 4, 7, 8.5, 7.5 ], "texture": "#texture" },
				"up": { "uv": [ 4, 3, 8.5, 3.5 ], "texture": "#texture" },
				"north": { "uv": [ 8, 3, 8.5, 7.5 ], "texture": "#texture" },
				"south": { "uv": [ 4, 3, 4.5, 7.5 ], "texture": "#texture" },
				"west": { "uv": [ 4, 3, 8.5, 7.5 ], "texture": "#texture" },
				"east": { "uv": [ 4, 3, 8.5, 7.5 ], "texture": "#texture" }
			}
		},
		{
			"__comment": "Box10",
			"from": [ 8, 11, 11 ],
			"to": [ 9, 14, 12 ],
			"faces": {
				"down": { "uv": [ 8.5, 5, 9.5, 6 ], "texture": "#texture" },
				"up": { "uv": [ 8.5, 3, 9.5, 4 ], "texture": "#texture" },
				"north": { "uv": [ 8.5, 3, 9.5, 6 ], "texture": "#texture" },
				"south": { "uv": [ 8.5, 3, 9.5, 6 ], "texture": "#texture" },
				"west": { "uv": [ 8.5, 3, 9.5, 6 ], "texture": "#texture" },
				"east": { "uv": [ 8.5, 3, 9.5, 6 ], "texture": "#texture" }
			}
		},
		{
			"__comment": "Box12",
			"from": [ 8, 15, 7 ],
			"to": [ 9, 16, 10 ],
			"faces": {
				"down": { "uv": [ 3, 3, 4, 6 ], "texture": "#texture" },
				"up": { "uv": [ 3, 3, 4, 6 ], "texture": "#texture" },
				"north": { "uv": [ 3, 3, 4, 4 ], "texture": "#texture" },
				"south": { "uv": [ 3, 3, 4, 4 ], "texture": "#texture" },
				"west": { "uv": [ 3, 3, 4, 6 ], "texture": "#texture" },
				"east": { "uv": [ 3, 3, 4, 6 ], "texture": "#texture" }
			}
		},
		{
			"__comment": "Box12",
			"from": [ 8, 9, 7 ],
			"to": [ 9, 10, 10 ],
			"faces": {
				"down": { "uv": [ 9.5, 3, 10.5, 6 ], "texture": "#texture" },
				"up": { "uv": [ 9.5, 3, 10.5, 6 ], "texture": "#texture" },
				"north": { "uv": [ 9.5, 3, 10.5, 4 ], "texture": "#texture" },
				"south": { "uv": [ 9.5, 3, 10.5, 4 ], "texture": "#texture" },
				"west": { "uv": [ 9.5, 3, 10.5, 6 ], "texture": "#texture" },
				"east": { "uv": [ 9.5, 3, 10.5, 6 ], "texture": "#texture" }
			}
		},
		{
			"__comment": "PlaneX15",
			"from": [ 8.5, 4.5, -2 ],
			"to": [ 8.501, 11.5, 8 ],
			"faces": {
				"west": { "uv": [ 16, 10, 6.5, 16 ], "texture": "#texture" },
				"east": { "uv": [ 6.5, 10, 16, 16 ], "texture": "#texture" }
			}
		},
		{
			"__comment": "PlaneX15",
			"from": [ 8.5, 4.5, 9 ],
			"to": [ 8.501, 11.5, 19 ],
			"faces": {
				"west": { "uv": [ 6.5, 10, 16, 16 ], "texture": "#texture" },
				"east": { "uv": [ 16, 10, 6.5, 16 ], "texture": "#texture" }
			}
		},
		{
			"__comment": "Box10",
			"from": [ 8, 11, 5 ],
			"to": [ 9, 14, 6 ],
			"faces": {
				"down": { "uv": [ 8.5, 5, 9.5, 6 ], "texture": "#texture" },
				"up": { "uv": [ 8.5, 3, 9.5, 4 ], "texture": "#texture" },
				"north": { "uv": [ 8.5, 3, 9.5, 6 ], "texture": "#texture" },
				"south": { "uv": [ 8.5, 3, 9.5, 6 ], "texture": "#texture" },
				"west": { "uv": [ 8.5, 3, 9.5, 6 ], "texture": "#texture" },
				"east": { "uv": [ 8.5, 3, 9.5, 6 ], "texture": "#texture" }
			}
		},
		{
			"__comment": "Box12",
			"from": [ 7.5, -2, 7.5 ],
			"to": [ 9.5, 0, 9.5 ],
			"faces": {
				"down": { "uv": [ 8.5, 6, 10.5, 8 ], "texture": "#texture" },
				"up": { "uv": [ 8.5, 6, 10.5, 8 ], "texture": "#texture" },
				"north": { "uv": [ 8.5, 6, 10.5, 8 ], "texture": "#texture" },
				"south": { "uv": [ 10.5, 6, 8.5, 8 ], "texture": "#texture" },
				"west": { "uv": [ 8.5, 6, 10.5, 8 ], "texture": "#texture" },
				"east": { "uv": [ 10.5, 6, 8.5, 8 ], "texture": "#texture" }
			}
		}
	],
	"display": {
		"thirdperson_righthand": {
			"translation":  [ -0.5, 5.5, 0.5 ],
			"scale":  [ 1.3, 1.3, 1.3 ]
		},
		"thirdperson_lefthand": {
			"translation":  [ 0.5, 5.5, 0.5 ],
			"scale":  [ 1.3, 1.3, 1.3 ]
		},
		"firstperson_righthand": {
			"translation":  [ 0, 6, 0 ],
			"scale":  [ 1.1, 1.1, 1.1 ]
		},
		"firstperson_lefthand": {
			"translation":  [ 0, 6, 0 ],
			"scale":  [ 1.1, 1.1, 1.1 ]
		},
		"gui": {
			"rotation":  [ 45, 45, -45 ],
			"translation":  [ -1.478, 1.913, 5 ],
			"scale":  [ 1.2, 1.2, 1.2 ]
		},
		"ground": {
			"translation":  [ 0, 8.8695, 0 ],
			"scale":  [ 1.5, 1.5, 1.5 ]
		},
		"fixed": {
			"rotation":  [ -90, 0, 0 ],
			"translation":  [ -1.5, 0, -29.26 ],
			"scale":  [ 3, 3, 3 ]
		}
	}
}
