{
	"credit": "Made with Blockbench",
	"textures": {
		"0": "sword/diamondrapier",
		"particle": "sword/diamondrapier"
	},
	"elements": [
		{
			"name": "octagon",
			"from": [6.9119, 7.44108, 5.33998],
			"to": [9.073, 7.86641, 5.99215],
			"rotation": {"angle": 45, "axis": "y", "origin": [7.99245, 7.76716, 7.94866]},
			"faces": {
				"north": {"uv": [2, 0, 5, 1], "texture": "#0"},
				"east": {"uv": [2, 0, 5, 1], "texture": "#0"},
				"south": {"uv": [2, 0, 5, 1], "texture": "#0"},
				"west": {"uv": [2, 0, 5, 1], "texture": "#0"},
				"up": {"uv": [2, 0, 5, 1], "texture": "#0"},
				"down": {"uv": [2, 0, 5, 1], "texture": "#0"}
			}
		},
		{
			"name": "octagon",
			"from": [6.9119, 7.44108, 5.33998],
			"to": [9.073, 7.86641, 5.99215],
			"faces": {
				"north": {"uv": [2, 0, 5, 1], "texture": "#0"},
				"east": {"uv": [2, 0, 5, 1], "texture": "#0"},
				"south": {"uv": [2, 0, 5, 1], "texture": "#0"},
				"west": {"uv": [2, 0, 5, 1], "texture": "#0"},
				"up": {"uv": [2, 0, 5, 1], "texture": "#0"},
				"down": {"uv": [2, 0, 5, 1], "texture": "#0"}
			}
		},
		{
			"name": "octagon",
			"from": [6.91138, 5.86249, 5.09766],
			"to": [9.07248, 7.59924, 5.60805],
			"rotation": {"angle": 45, "axis": "x", "origin": [7.99193, 6.18857, 7.70633]},
			"faces": {
				"north": {"uv": [0, 0, 2, 2], "texture": "#0"},
				"east": {"uv": [0, 0, 1, 2], "texture": "#0"},
				"south": {"uv": [0, 0, 1, 1], "texture": "#0"},
				"west": {"uv": [0, 0, 1, 2], "texture": "#0"},
				"up": {"uv": [0, 0, 1, 1], "texture": "#0"},
				"down": {"uv": [0, 0, 1, 1], "texture": "#0"}
			}
		},
		{
			"name": "octagon",
			"from": [6.9119, 7.44108, 9.90517],
			"to": [9.073, 7.86641, 10.55734],
			"rotation": {"angle": 45, "axis": "y", "origin": [7.99245, 7.76716, 7.94866]},
			"faces": {
				"north": {"uv": [2, 0, 5, 1], "texture": "#0"},
				"east": {"uv": [2, 0, 5, 1], "texture": "#0"},
				"south": {"uv": [2, 0, 5, 1], "texture": "#0"},
				"west": {"uv": [2, 0, 5, 1], "texture": "#0"},
				"up": {"uv": [2, 0, 5, 1], "texture": "#0"},
				"down": {"uv": [2, 0, 5, 1], "texture": "#0"}
			}
		},
		{
			"name": "octagon",
			"from": [6.9119, 7.44108, 9.90517],
			"to": [9.073, 7.86641, 10.55734],
			"faces": {
				"north": {"uv": [2, 0, 5, 1], "texture": "#0"},
				"east": {"uv": [2, 0, 5, 1], "texture": "#0"},
				"south": {"uv": [2, 0, 5, 1], "texture": "#0"},
				"west": {"uv": [2, 0, 5, 1], "texture": "#0"},
				"up": {"uv": [2, 0, 5, 1], "texture": "#0"},
				"down": {"uv": [2, 0, 5, 1], "texture": "#0"}
			}
		},
		{
			"name": "octagon",
			"from": [6.91265, 5.86123, 10.28905],
			"to": [9.07375, 7.59799, 10.79944],
			"rotation": {"angle": -45, "axis": "x", "origin": [7.9932, 6.18732, 8.19076]},
			"faces": {
				"north": {"uv": [0, 0, 2, 2], "texture": "#0"},
				"east": {"uv": [1, 0, 2, 2], "texture": "#0"},
				"south": {"uv": [0, 0, 2, 2], "texture": "#0"},
				"west": {"uv": [0, 0, 1, 2], "texture": "#0"},
				"up": {"uv": [0, 0, 2, 2], "texture": "#0"},
				"down": {"uv": [0, 0, 2, 2], "texture": "#0"}
			}
		},
		{
			"name": "octagon",
			"from": [5.38378, 7.44108, 6.86811],
			"to": [6.03595, 7.86641, 9.02921],
			"rotation": {"angle": 45, "axis": "y", "origin": [7.99245, 7.76716, 7.94866]},
			"faces": {
				"north": {"uv": [2, 0, 5, 1], "texture": "#0"},
				"east": {"uv": [2, 0, 5, 1], "texture": "#0"},
				"south": {"uv": [2, 0, 5, 1], "texture": "#0"},
				"west": {"uv": [2, 0, 5, 1], "texture": "#0"},
				"up": {"uv": [2, 0, 5, 1], "rotation": 90, "texture": "#0"},
				"down": {"uv": [2, 0, 5, 1], "rotation": 90, "texture": "#0"}
			}
		},
		{
			"name": "octagon",
			"from": [5.38378, 7.44108, 6.86811],
			"to": [6.03595, 7.86641, 9.02921],
			"faces": {
				"north": {"uv": [2, 0, 5, 1], "texture": "#0"},
				"east": {"uv": [2, 0, 5, 1], "texture": "#0"},
				"south": {"uv": [2, 0, 5, 1], "texture": "#0"},
				"west": {"uv": [2, 0, 5, 1], "texture": "#0"},
				"up": {"uv": [2, 0, 5, 1], "rotation": 90, "texture": "#0"},
				"down": {"uv": [2, 0, 5, 1], "rotation": 90, "texture": "#0"}
			}
		},
		{
			"name": "octagon",
			"from": [5.14167, 5.86123, 6.86863],
			"to": [5.65207, 7.59798, 9.02972],
			"rotation": {"angle": -45, "axis": "z", "origin": [7.75035, 6.18731, 7.94917]},
			"faces": {
				"north": {"uv": [0, 0, 1, 2], "texture": "#0"},
				"east": {"uv": [0, 0, 1, 1], "texture": "#0"},
				"south": {"uv": [0, 0, 1, 2], "texture": "#0"},
				"west": {"uv": [0, 0, 2, 2], "texture": "#0"},
				"up": {"uv": [0, 0, 1, 1], "texture": "#0"},
				"down": {"uv": [0, 0, 1, 1], "texture": "#0"}
			}
		},
		{
			"name": "octagon",
			"from": [9.94896, 7.44108, 6.86811],
			"to": [10.60113, 7.86641, 9.02921],
			"rotation": {"angle": 45, "axis": "y", "origin": [7.99245, 7.76716, 7.94866]},
			"faces": {
				"north": {"uv": [2, 0, 5, 1], "texture": "#0"},
				"east": {"uv": [2, 0, 5, 1], "texture": "#0"},
				"south": {"uv": [2, 0, 5, 1], "texture": "#0"},
				"west": {"uv": [2, 0, 5, 1], "texture": "#0"},
				"up": {"uv": [2, 0, 5, 1], "rotation": 90, "texture": "#0"},
				"down": {"uv": [2, 0, 5, 1], "rotation": 90, "texture": "#0"}
			}
		},
		{
			"name": "octagon",
			"from": [9.94896, 7.44108, 6.86811],
			"to": [10.60113, 7.86641, 9.02921],
			"faces": {
				"north": {"uv": [2, 0, 5, 1], "texture": "#0"},
				"east": {"uv": [2, 0, 5, 1], "texture": "#0"},
				"south": {"uv": [2, 0, 5, 1], "texture": "#0"},
				"west": {"uv": [2, 0, 5, 1], "texture": "#0"},
				"up": {"uv": [2, 0, 5, 1], "rotation": 90, "texture": "#0"},
				"down": {"uv": [2, 0, 5, 1], "rotation": 90, "texture": "#0"}
			}
		},
		{
			"name": "octagon",
			"from": [10.33306, 5.86249, 6.86737],
			"to": [10.84346, 7.59925, 9.02847],
			"rotation": {"angle": 45, "axis": "z", "origin": [8.23478, 6.18858, 7.94792]},
			"faces": {
				"north": {"uv": [0, 0, 1, 2], "texture": "#0"},
				"east": {"uv": [0, 0, 2, 2], "texture": "#0"},
				"south": {"uv": [1, 0, 2, 2], "texture": "#0"},
				"west": {"uv": [0, 0, 1, 1], "texture": "#0"},
				"up": {"uv": [0, 0, 1, 1], "texture": "#0"},
				"down": {"uv": [0, 0, 1, 1], "texture": "#0"}
			}
		},
		{
			"from": [6.91265, 8.71798, 6.86737],
			"to": [9.0819, 9.03069, 9.03788],
			"faces": {
				"north": {"uv": [0, 0, 0.6, 5], "texture": "#0"},
				"east": {"uv": [0, 0, 0.6, 5], "texture": "#0"},
				"south": {"uv": [0, 0, 0.6, 5], "texture": "#0"},
				"west": {"uv": [0, 0, 0.6, 5], "texture": "#0"},
				"up": {"uv": [0, 0, 2, 2], "texture": "#0"},
				"down": {"uv": [0, 0, 0.6, 0.6], "texture": "#0"}
			}
		},
		{
			"from": [7.67494, 1.0462, 6.4182],
			"to": [8.32255, 1.67492, 6.6882],
			"rotation": {"angle": 22.5, "axis": "x", "origin": [7.99875, -0.79044, 7.17099]},
			"faces": {
				"north": {"uv": [1, 10, 2, 11], "texture": "#0"},
				"east": {"uv": [1, 10, 2, 11], "texture": "#0"},
				"south": {"uv": [1, 10, 2, 11], "texture": "#0"},
				"west": {"uv": [1, 10, 2, 11], "texture": "#0"},
				"up": {"uv": [1, 10, 2, 11], "texture": "#0"},
				"down": {"uv": [1, 10, 2, 11], "texture": "#0"}
			}
		},
		{
			"from": [7.67757, 1.15985, 6.59088],
			"to": [8.32519, 3.40857, 6.86088],
			"rotation": {"angle": -45, "axis": "x", "origin": [8.00153, 2.53729, 6.74646]},
			"faces": {
				"north": {"uv": [1, 7, 2, 10], "texture": "#0"},
				"east": {"uv": [1, 7, 2, 10], "texture": "#0"},
				"south": {"uv": [1, 7, 2, 10], "texture": "#0"},
				"west": {"uv": [1, 7, 2, 10], "texture": "#0"},
				"up": {"uv": [1, 7, 2, 10], "texture": "#0"},
				"down": {"uv": [1, 7, 2, 10], "texture": "#0"}
			}
		},
		{
			"from": [7.67522, 3.06022, 5.8137],
			"to": [8.32283, 4.84497, 6.0837],
			"rotation": {"angle": -22.5, "axis": "x", "origin": [7.99926, 3.57325, 5.95979]},
			"faces": {
				"north": {"uv": [1, 5, 2, 7], "texture": "#0"},
				"east": {"uv": [1, 5, 2, 7], "texture": "#0"},
				"south": {"uv": [1, 5, 2, 7], "texture": "#0"},
				"west": {"uv": [1, 5, 2, 7], "texture": "#0"},
				"up": {"uv": [1, 5, 2, 7], "texture": "#0"},
				"down": {"uv": [1, 5, 2, 7], "texture": "#0"}
			}
		},
		{
			"from": [7.67522, 4.69226, 5.33816],
			"to": [8.32283, 7.44108, 5.60815],
			"faces": {
				"north": {"uv": [1, 2, 2, 5], "texture": "#0"},
				"east": {"uv": [1, 2, 2, 5], "texture": "#0"},
				"south": {"uv": [1, 2, 2, 5], "texture": "#0"},
				"west": {"uv": [1, 2, 2, 5], "texture": "#0"},
				"up": {"uv": [1, 2, 2, 5], "texture": "#0"},
				"down": {"uv": [1, 2, 2, 5], "texture": "#0"}
			}
		},
		{
			"from": [7.568, 1.304, 7.568],
			"to": [8.432, 2.69, 8.432],
			"faces": {
				"north": {"uv": [0, 7, 1, 9], "texture": "#0"},
				"east": {"uv": [0, 7, 1, 9], "texture": "#0"},
				"south": {"uv": [0, 7, 1, 9], "texture": "#0"},
				"west": {"uv": [0, 7, 1, 9], "texture": "#0"},
				"up": {"uv": [0, 7, 1, 8], "texture": "#0"},
				"down": {"uv": [0, 8, 1, 9], "texture": "#0"}
			}
		},
		{
			"from": [7.67317, 2.69, 7.67883],
			"to": [8.32117, 8.9, 8.32683],
			"faces": {
				"north": {"uv": [0, 2, 1, 7], "texture": "#0"},
				"east": {"uv": [0, 2, 1, 7], "texture": "#0"},
				"south": {"uv": [0, 2, 1, 7], "texture": "#0"},
				"west": {"uv": [0, 2, 1, 7], "texture": "#0"},
				"up": {"uv": [0, 2, 1, 7], "texture": "#0"},
				"down": {"uv": [0, 2, 1, 7], "texture": "#0"}
			}
		},
		{
			"from": [7.6021, 7.91814, 10.3663],
			"to": [8.42971, 8.18814, 11.41678],
			"rotation": {"angle": -45, "axis": "x", "origin": [8.01591, 7.90314, 10.99154]},
			"faces": {
				"north": {"uv": [4, 1, 3, 2], "texture": "#0"},
				"east": {"uv": [4, 1, 2, 2], "rotation": 180, "texture": "#0"},
				"south": {"uv": [4, 1, 2, 2], "texture": "#0"},
				"west": {"uv": [3, 1, 2, 2], "texture": "#0"},
				"up": {"uv": [4, 1, 2, 2], "rotation": 90, "texture": "#0"},
				"down": {"uv": [4, 1, 2, 2], "rotation": 270, "texture": "#0"}
			}
		},
		{
			"from": [7.59221, 7.52861, 3.55536],
			"to": [8.41982, 7.79861, 5.60584],
			"rotation": {"angle": 22.5, "axis": "x", "origin": [8.00602, 8.20361, 5.6156]},
			"faces": {
				"north": {"uv": [4, 1, 3, 2], "texture": "#0"},
				"east": {"uv": [4, 1, 2, 2], "rotation": 180, "texture": "#0"},
				"south": {"uv": [4, 1, 2, 2], "texture": "#0"},
				"west": {"uv": [4, 1, 2, 2], "texture": "#0"},
				"up": {"uv": [4, 1, 2, 2], "rotation": 90, "texture": "#0"},
				"down": {"uv": [4, 1, 2, 2], "rotation": 270, "texture": "#0"}
			}
		},
		{
			"from": [7.59221, 7.52861, 3.55536],
			"to": [8.41982, 7.79861, 5.60584],
			"rotation": {"angle": 22.5, "axis": "x", "origin": [8.00602, 8.20361, 5.6156]},
			"faces": {
				"north": {"uv": [4, 1, 3, 2], "texture": "#0"},
				"east": {"uv": [4, 1, 2, 2], "rotation": 180, "texture": "#0"},
				"south": {"uv": [4, 1, 2, 2], "texture": "#0"},
				"west": {"uv": [4, 1, 2, 2], "texture": "#0"},
				"up": {"uv": [4, 1, 2, 2], "rotation": 90, "texture": "#0"},
				"down": {"uv": [4, 1, 2, 2], "rotation": 270, "texture": "#0"}
			}
		},
		{
			"from": [7.59272, 8.37984, 3.24234],
			"to": [8.42033, 9.43032, 3.51234],
			"rotation": {"angle": -22.5, "axis": "x", "origin": [8.00652, 8.90508, 3.37734]},
			"faces": {
				"north": {"uv": [4, 1, 2, 2], "rotation": 270, "texture": "#0"},
				"east": {"uv": [4, 1, 2, 2], "rotation": 270, "texture": "#0"},
				"south": {"uv": [4, 1, 3, 2], "rotation": 270, "texture": "#0"},
				"west": {"uv": [4, 1, 2, 2], "rotation": 270, "texture": "#0"},
				"up": {"uv": [4, 1, 2, 2], "texture": "#0"},
				"down": {"uv": [4, 1, 3, 2], "rotation": 180, "texture": "#0"}
			}
		},
		{
			"from": [7.67568, 5.68719, 4.64859],
			"to": [8.50329, 7.73767, 4.91859],
			"rotation": {"angle": 22.5, "axis": "x", "origin": [8.09227, 5.98281, 4.87647]},
			"faces": {
				"north": {"uv": [2, 1, 4, 2], "rotation": 90, "texture": "#0"},
				"east": {"uv": [2, 1, 4, 2], "rotation": 90, "texture": "#0"},
				"south": {"uv": [2, 1, 4, 2], "rotation": 90, "texture": "#0"},
				"west": {"uv": [2, 1, 4, 2], "rotation": 90, "texture": "#0"},
				"up": {"uv": [4, 2, 2, 1], "texture": "#0"},
				"down": {"uv": [4, 2, 3, 1], "rotation": 180, "texture": "#0"}
			}
		},
		{
			"from": [7.68126, 4.74795, 4.54808],
			"to": [8.50887, 5.79843, 4.81808],
			"faces": {
				"north": {"uv": [2, 1, 4, 2], "rotation": 270, "texture": "#0"},
				"east": {"uv": [2, 1, 4, 2], "rotation": 270, "texture": "#0"},
				"south": {"uv": [3, 1, 4, 2], "rotation": 270, "texture": "#0"},
				"west": {"uv": [2, 1, 4, 2], "rotation": 270, "texture": "#0"},
				"up": {"uv": [4, 2, 3, 1], "rotation": 180, "texture": "#0"},
				"down": {"uv": [4, 2, 2, 1], "texture": "#0"}
			}
		},
		{
			"from": [7.73686, 24.96488, 6.79582],
			"to": [8.20686, 26.03969, 7.87062],
			"rotation": {"angle": -45, "axis": "x", "origin": [8.09513, 25.99946, 8.2495]},
			"faces": {
				"north": {"uv": [15, 0, 16, 1], "texture": "#0"},
				"east": {"uv": [15, 0, 16, 1], "texture": "#0"},
				"south": {"uv": [15, 0, 16, 1], "texture": "#0"},
				"west": {"uv": [15, 0, 16, 1], "texture": "#0"},
				"up": {"uv": [15, 0, 16, 1], "texture": "#0"},
				"down": {"uv": [15, 0, 16, 1], "texture": "#0"}
			}
		},
		{
			"from": [7.73686, 8.99999, 7.19315],
			"to": [8.20686, 24.99999, 8.71315],
			"faces": {
				"north": {"uv": [15, 0, 16, 16], "texture": "#0"},
				"east": {"uv": [15, 0, 16, 16], "texture": "#0"},
				"south": {"uv": [15, 0, 16, 16], "texture": "#0"},
				"west": {"uv": [15, 0, 16, 16], "texture": "#0"},
				"up": {"uv": [15, 0, 16, 16], "texture": "#0"},
				"down": {"uv": [15, 0, 16, 16], "texture": "#0"}
			}
		},
		{
			"from": [7.60126, 8.21486, 11.01204],
			"to": [8.42887, 9.26534, 11.28204],
			"faces": {
				"north": {"uv": [4, 1, 2, 2], "rotation": 270, "texture": "#0"},
				"east": {"uv": [4, 1, 2, 2], "rotation": 270, "texture": "#0"},
				"south": {"uv": [4, 1, 2, 2], "rotation": 270, "texture": "#0"},
				"west": {"uv": [3, 1, 2, 2], "rotation": 270, "texture": "#0"},
				"up": {"uv": [4, 1, 2, 2], "texture": "#0"},
				"down": {"uv": [4, 1, 3, 2], "rotation": 180, "texture": "#0"}
			}
		},
		{
			"from": [7.60268, 8.85988, 10.74295],
			"to": [8.43029, 9.91036, 11.01295],
			"rotation": {"angle": -45, "axis": "x", "origin": [8.0169, 9.38427, 10.65675]},
			"faces": {
				"north": {"uv": [4, 1, 2, 2], "rotation": 270, "texture": "#0"},
				"east": {"uv": [4, 1, 2, 2], "rotation": 270, "texture": "#0"},
				"south": {"uv": [4, 1, 2, 2], "rotation": 270, "texture": "#0"},
				"west": {"uv": [3, 1, 2, 2], "rotation": 270, "texture": "#0"},
				"up": {"uv": [4, 1, 2, 2], "texture": "#0"},
				"down": {"uv": [4, 1, 3, 2], "rotation": 180, "texture": "#0"}
			}
		},
		{
			"from": [7.60317, 9.54726, 9.57745],
			"to": [8.43078, 9.81726, 10.62793],
			"rotation": {"angle": -22.5, "axis": "x", "origin": [8.01698, 9.68226, 10.10269]},
			"faces": {
				"north": {"uv": [4, 1, 2, 2], "rotation": 180, "texture": "#0"},
				"east": {"uv": [4, 1, 2, 2], "texture": "#0"},
				"south": {"uv": [4, 1, 3, 2], "rotation": 180, "texture": "#0"},
				"west": {"uv": [3, 1, 2, 2], "rotation": 180, "texture": "#0"},
				"up": {"uv": [4, 1, 2, 2], "rotation": 270, "texture": "#0"},
				"down": {"uv": [4, 1, 2, 2], "rotation": 90, "texture": "#0"}
			}
		}
	],
	"display": {
		"thirdperson_righthand": {
			"translation": [0, 1, 1.25]
		},
		"thirdperson_lefthand": {
			"rotation": [180, 180, 0],
			"translation": [0, -4.75, 1.25]
		},
		"firstperson_righthand": {
			"rotation": [10, 0, 0],
			"translation": [0.25, 1.6, 2.05],
			"scale": [0.68, 0.68, 0.68]
		},
		"firstperson_lefthand": {
			"rotation": [10, 0, 180],
			"translation": [1.5, 1.35, 2.05],
			"scale": [0.68, 0.68, 0.68]
		},
		"ground": {
			"translation": [0, 3.5, 0]
		},
		"gui": {
			"rotation": [61, 43, -82],
			"translation": [-3.5, -2, 0],
			"scale": [0.82, 0.82, 0.82]
		},
		"fixed": {
			"rotation": [180, 90, -9],
			"translation": [0, 14, -4],
			"scale": [2, 2, 2]
		}
	},
	"groups": [
		{
			"name": "hilt",
			"origin": [8, 8, 8],
			"children": [0, 1, 2, 3, 4, 5, 6, 7, 8, 9, 10, 11, 12, 13, 14, 15, 16, 17, 18, 19, 20, 21, 22, 23, 24, 25, 26, 27, 28, 29]
		}
	]
}