{
	"credit": "Made with Blockbench",
	"textures": {
		"layer0": "sword/gauntlet_textures"
	},
	"elements": [
		{
			"from": [4, 0, 4],
			"to": [12, 3, 12],
			"faces": {
				"north": {"uv": [0, 10.75, 2.4, 12.95], "texture": "#layer0"},
				"east": {"uv": [0, 10.75, 2.4, 12.95], "texture": "#layer0"},
				"south": {"uv": [0, 10.75, 2.4, 12.95], "texture": "#layer0"},
				"west": {"uv": [0, 10.75, 2.4, 12.95], "texture": "#layer0"},
				"up": {"uv": [0, 10.75, 2.4, 12.95], "texture": "#layer0"},
				"down": {"uv": [0, 5.25, 2.4, 7.45], "texture": "#layer0"}
			}
		},
		{
			"from": [4.1, 3, 4.1],
			"to": [11.9, 4, 11.9],
			"faces": {
				"north": {"uv": [0, 13.75, 2.4, 15.95], "texture": "#layer0"},
				"east": {"uv": [0, 13.75, 2.4, 15.95], "texture": "#layer0"},
				"south": {"uv": [0, 13.75, 2.4, 15.95], "texture": "#layer0"},
				"west": {"uv": [0, 13.75, 2.4, 15.95], "texture": "#layer0"},
				"up": {"uv": [0, 13.75, 2.4, 15.95], "texture": "#layer0"},
				"down": {"uv": [0, 13.75, 2.4, 15.95], "texture": "#layer0"}
			}
		},
		{
			"from": [4.2, 4, 4.2],
			"to": [11.8, 5, 11.8],
			"faces": {
				"north": {"uv": [0, 13.75, 2.4, 15.95], "texture": "#layer0"},
				"east": {"uv": [0, 13.75, 2.4, 15.95], "texture": "#layer0"},
				"south": {"uv": [0, 13.75, 2.4, 15.95], "texture": "#layer0"},
				"west": {"uv": [0, 13.75, 2.4, 15.95], "texture": "#layer0"},
				"up": {"uv": [0, 13.75, 2.4, 15.95], "texture": "#layer0"},
				"down": {"uv": [0, 13.75, 2.4, 15.95], "texture": "#layer0"}
			}
		},
		{
			"from": [4.1, 5, 4.1],
			"to": [11.9, 6, 11.9],
			"faces": {
				"north": {"uv": [0, 10.75, 2.4, 12.95], "texture": "#layer0"},
				"east": {"uv": [0, 10.75, 2.4, 12.95], "texture": "#layer0"},
				"south": {"uv": [0, 10.75, 2.4, 12.95], "texture": "#layer0"},
				"west": {"uv": [0, 10.75, 2.4, 12.95], "texture": "#layer0"},
				"up": {"uv": [0, 10.75, 2.4, 12.95], "texture": "#layer0"},
				"down": {"uv": [0, 10.75, 2.4, 12.95], "texture": "#layer0"}
			}
		},
		{
			"from": [4, 6, 4],
			"to": [12, 8, 12],
			"faces": {
				"north": {"uv": [0, 10.75, 2.4, 12.95], "texture": "#layer0"},
				"east": {"uv": [0, 10.75, 2.4, 12.95], "texture": "#layer0"},
				"south": {"uv": [0, 10.75, 2.4, 12.95], "texture": "#layer0"},
				"west": {"uv": [0, 10.75, 2.4, 12.95], "texture": "#layer0"},
				"up": {"uv": [0, 10.75, 2.4, 12.95], "texture": "#layer0"},
				"down": {"uv": [0, 10.75, 2.4, 12.95], "texture": "#layer0"}
			}
		},
		{
			"from": [4.2, 8, 4.2],
			"to": [11.6, 8.2, 11.8],
			"faces": {
				"north": {"uv": [0, 13.5, 2.4, 15.7], "texture": "#layer0"},
				"east": {"uv": [0, 13.5, 2.4, 15.7], "texture": "#layer0"},
				"south": {"uv": [0, 13.5, 2.4, 15.7], "texture": "#layer0"},
				"west": {"uv": [0, 13.5, 2.4, 15.7], "texture": "#layer0"},
				"up": {"uv": [0, 13.5, 2.4, 15.7], "texture": "#layer0"},
				"down": {"uv": [0, 13.5, 2.4, 15.7], "texture": "#layer0"}
			}
		},
		{
			"from": [10, 7, 3.9],
			"to": [12.1, 9, 5.8],
			"faces": {
				"north": {"uv": [0, 5.5, 2.1, 7.4], "texture": "#layer0"},
				"east": {"uv": [0, 5.5, 2.1, 7.4], "texture": "#layer0"},
				"south": {"uv": [0, 5.5, 2.1, 7.4], "texture": "#layer0"},
				"west": {"uv": [0, 5.5, 2.1, 7.4], "texture": "#layer0"},
				"up": {"uv": [0, 5.5, 2.1, 7.4], "texture": "#layer0"},
				"down": {"uv": [0, 5.5, 2.1, 7.4], "texture": "#layer0"}
			}
		},
		{
			"from": [10, 7, 10.2],
			"to": [12.1, 9, 12.1],
			"faces": {
				"north": {"uv": [0.25, 5.25, 2.35, 7.15], "texture": "#layer0"},
				"east": {"uv": [0.25, 5.25, 2.35, 7.15], "texture": "#layer0"},
				"south": {"uv": [0.25, 5.25, 2.35, 7.15], "texture": "#layer0"},
				"west": {"uv": [0.25, 5.25, 2.35, 7.15], "texture": "#layer0"},
				"up": {"uv": [0.25, 5.25, 2.35, 7.15], "texture": "#layer0"},
				"down": {"uv": [0.25, 5.25, 2.35, 7.15], "texture": "#layer0"}
			}
		},
		{
			"from": [10, 7, 8.1],
			"to": [12.1, 9, 10],
			"faces": {
				"north": {"uv": [0, 5.5, 2.1, 7.4], "texture": "#layer0"},
				"east": {"uv": [0, 5.5, 2.1, 7.4], "texture": "#layer0"},
				"south": {"uv": [0, 5.5, 2.1, 7.4], "texture": "#layer0"},
				"west": {"uv": [0, 5.5, 2.1, 7.4], "texture": "#layer0"},
				"up": {"uv": [0, 5.5, 2.1, 7.4], "texture": "#layer0"},
				"down": {"uv": [0, 5.5, 2.1, 7.4], "texture": "#layer0"}
			}
		},
		{
			"from": [10, 7, 6],
			"to": [12.1, 9, 7.9],
			"faces": {
				"north": {"uv": [0, 5.5, 2.1, 7.4], "texture": "#layer0"},
				"east": {"uv": [0, 5.5, 2.1, 7.4], "texture": "#layer0"},
				"south": {"uv": [0, 5.5, 2.1, 7.4], "texture": "#layer0"},
				"west": {"uv": [0, 5.5, 2.1, 7.4], "texture": "#layer0"},
				"up": {"uv": [0, 5.5, 2.1, 7.4], "texture": "#layer0"},
				"down": {"uv": [0, 5.5, 2.1, 7.4], "texture": "#layer0"}
			}
		},
		{
			"from": [10.20086, 8.60533, 10.29381],
			"to": [12.10086, 10.00533, 11.99381],
			"rotation": {"angle": 22.5, "axis": "z", "origin": [11.15086, 8.50533, 7.99381]},
			"faces": {
				"north": {"uv": [0.25, 13.75, 2.449, 15.6], "texture": "#layer0"},
				"east": {"uv": [0.25, 13.75, 2.449, 15.6], "texture": "#layer0"},
				"south": {"uv": [0.25, 13.75, 2.449, 15.6], "texture": "#layer0"},
				"west": {"uv": [0.25, 13.75, 2.449, 15.6], "texture": "#layer0"},
				"up": {"uv": [0.25, 13.75, 2.449, 15.6], "texture": "#layer0"},
				"down": {"uv": [0.25, 13.75, 2.449, 15.6], "texture": "#layer0"}
			}
		},
		{
			"from": [10.20086, 8.60533, 8.19381],
			"to": [12.10086, 10.00533, 9.89381],
			"rotation": {"angle": 22.5, "axis": "z", "origin": [11.15086, 8.50533, 7.99381]},
			"faces": {
				"north": {"uv": [0.25, 13.75, 2.449, 15.6], "texture": "#layer0"},
				"east": {"uv": [0.25, 13.75, 2.449, 15.6], "texture": "#layer0"},
				"south": {"uv": [0.25, 13.75, 2.449, 15.6], "texture": "#layer0"},
				"west": {"uv": [0.25, 13.75, 2.449, 15.6], "texture": "#layer0"},
				"up": {"uv": [0.25, 13.75, 2.449, 15.6], "texture": "#layer0"},
				"down": {"uv": [0.25, 13.75, 2.449, 15.6], "texture": "#layer0"}
			}
		},
		{
			"from": [10.20086, 8.60533, 6.09381],
			"to": [12.10086, 10.00533, 7.79381],
			"rotation": {"angle": 22.5, "axis": "z", "origin": [11.15086, 8.50533, 7.99381]},
			"faces": {
				"north": {"uv": [0.25, 13.75, 2.449, 15.6], "texture": "#layer0"},
				"east": {"uv": [0.25, 13.75, 2.449, 15.6], "texture": "#layer0"},
				"south": {"uv": [0.25, 13.75, 2.449, 15.6], "texture": "#layer0"},
				"west": {"uv": [0.25, 13.75, 2.449, 15.6], "texture": "#layer0"},
				"up": {"uv": [0.25, 13.75, 2.449, 15.6], "texture": "#layer0"},
				"down": {"uv": [0.25, 13.75, 2.449, 15.6], "texture": "#layer0"}
			}
		},
		{
			"from": [10.20086, 8.60533, 3.99381],
			"to": [12.10086, 10.00533, 5.69381],
			"rotation": {"angle": 22.5, "axis": "z", "origin": [11.15086, 8.50533, 7.99381]},
			"faces": {
				"north": {"uv": [0.25, 13.75, 2.449, 15.6], "texture": "#layer0"},
				"east": {"uv": [0.25, 13.75, 2.449, 15.6], "texture": "#layer0"},
				"south": {"uv": [0.25, 13.75, 2.449, 15.6], "texture": "#layer0"},
				"west": {"uv": [0.25, 13.75, 2.449, 15.6], "texture": "#layer0"},
				"up": {"uv": [0.25, 13.75, 2.449, 15.6], "texture": "#layer0"},
				"down": {"uv": [0.25, 13.75, 2.449, 15.6], "texture": "#layer0"}
			}
		},
		{
			"from": [9.22968, 9.41871, 10.19282],
			"to": [11.12968, 10.61871, 12.09282],
			"rotation": {"angle": -22.5, "axis": "z", "origin": [10.62968, 9.56871, 7.99282]},
			"faces": {
				"north": {"uv": [0.25, 5.5, 2.35, 7.4], "rotation": 270, "texture": "#layer0"},
				"east": {"uv": [0.25, 5.5, 2.35, 7.4], "rotation": 270, "texture": "#layer0"},
				"south": {"uv": [0.25, 5.5, 2.35, 7.4], "rotation": 270, "texture": "#layer0"},
				"west": {"uv": [0.25, 5.5, 2.35, 7.4], "rotation": 270, "texture": "#layer0"},
				"up": {"uv": [0.25, 5.5, 2.35, 7.4], "rotation": 270, "texture": "#layer0"},
				"down": {"uv": [0.25, 5.5, 2.35, 7.4], "rotation": 270, "texture": "#layer0"}
			}
		},
		{
			"from": [9.22968, 9.41871, 8.09282],
			"to": [11.12968, 10.61871, 9.99282],
			"rotation": {"angle": -22.5, "axis": "z", "origin": [10.62968, 9.56871, 7.99282]},
			"faces": {
				"north": {"uv": [0.25, 5.5, 2.35, 7.4], "rotation": 270, "texture": "#layer0"},
				"east": {"uv": [0.25, 5.5, 2.35, 7.4], "rotation": 270, "texture": "#layer0"},
				"south": {"uv": [0.25, 5.5, 2.35, 7.4], "rotation": 270, "texture": "#layer0"},
				"west": {"uv": [0.25, 5.5, 2.35, 7.4], "rotation": 270, "texture": "#layer0"},
				"up": {"uv": [0.25, 5.5, 2.35, 7.4], "rotation": 270, "texture": "#layer0"},
				"down": {"uv": [0.25, 5.5, 2.35, 7.4], "rotation": 270, "texture": "#layer0"}
			}
		},
		{
			"from": [9.22968, 9.41871, 5.99282],
			"to": [11.12968, 10.61871, 7.89282],
			"rotation": {"angle": -22.5, "axis": "z", "origin": [10.62968, 9.56871, 7.99282]},
			"faces": {
				"north": {"uv": [0.25, 5.5, 2.35, 7.4], "rotation": 270, "texture": "#layer0"},
				"east": {"uv": [0.25, 5.5, 2.35, 7.4], "rotation": 270, "texture": "#layer0"},
				"south": {"uv": [0.25, 5.5, 2.35, 7.4], "rotation": 270, "texture": "#layer0"},
				"west": {"uv": [0.25, 5.5, 2.35, 7.4], "rotation": 270, "texture": "#layer0"},
				"up": {"uv": [0.25, 5.5, 2.35, 7.4], "rotation": 270, "texture": "#layer0"},
				"down": {"uv": [0.25, 5.5, 2.35, 7.4], "rotation": 270, "texture": "#layer0"}
			}
		},
		{
			"from": [9.22968, 9.41871, 3.89282],
			"to": [11.12968, 10.61871, 5.79282],
			"rotation": {"angle": -22.5, "axis": "z", "origin": [10.62968, 9.56871, 7.99282]},
			"faces": {
				"north": {"uv": [0.25, 5.5, 2.35, 7.4], "rotation": 270, "texture": "#layer0"},
				"east": {"uv": [0.25, 5.5, 2.35, 7.4], "rotation": 270, "texture": "#layer0"},
				"south": {"uv": [0.25, 5.5, 2.35, 7.4], "rotation": 270, "texture": "#layer0"},
				"west": {"uv": [0.25, 5.5, 2.35, 7.4], "rotation": 270, "texture": "#layer0"},
				"up": {"uv": [0.25, 5.5, 2.35, 7.4], "rotation": 270, "texture": "#layer0"},
				"down": {"uv": [0.25, 5.5, 2.35, 7.4], "rotation": 270, "texture": "#layer0"}
			}
		},
		{
			"from": [8.69613, 9.08699, 10.29166],
			"to": [9.69613, 10.98699, 11.99166],
			"faces": {
				"north": {"uv": [0.25, 13.75, 2.449, 15.6], "rotation": 270, "texture": "#layer0"},
				"east": {"uv": [0.25, 13.75, 2.449, 15.6], "rotation": 270, "texture": "#layer0"},
				"south": {"uv": [0.25, 13.75, 2.449, 15.6], "rotation": 270, "texture": "#layer0"},
				"west": {"uv": [0.25, 13.75, 2.449, 15.6], "rotation": 270, "texture": "#layer0"},
				"up": {"uv": [0.25, 13.75, 2.449, 15.6], "rotation": 270, "texture": "#layer0"},
				"down": {"uv": [0.25, 13.75, 2.449, 15.6], "rotation": 270, "texture": "#layer0"}
			}
		},
		{
			"from": [8.69613, 9.08699, 8.19166],
			"to": [9.69613, 10.98699, 9.89166],
			"faces": {
				"north": {"uv": [0.25, 13.75, 2.449, 15.6], "rotation": 270, "texture": "#layer0"},
				"east": {"uv": [0.25, 13.75, 2.449, 15.6], "rotation": 270, "texture": "#layer0"},
				"south": {"uv": [0.25, 13.75, 2.449, 15.6], "rotation": 270, "texture": "#layer0"},
				"west": {"uv": [0.25, 13.75, 2.449, 15.6], "rotation": 270, "texture": "#layer0"},
				"up": {"uv": [0.25, 13.75, 2.449, 15.6], "rotation": 270, "texture": "#layer0"},
				"down": {"uv": [0.25, 13.75, 2.449, 15.6], "rotation": 270, "texture": "#layer0"}
			}
		},
		{
			"from": [8.69613, 9.08699, 6.09166],
			"to": [9.69613, 10.98699, 7.79166],
			"faces": {
				"north": {"uv": [0.25, 13.75, 2.449, 15.6], "rotation": 270, "texture": "#layer0"},
				"east": {"uv": [0.25, 13.75, 2.449, 15.6], "rotation": 270, "texture": "#layer0"},
				"south": {"uv": [0.25, 13.75, 2.449, 15.6], "rotation": 270, "texture": "#layer0"},
				"west": {"uv": [0.25, 13.75, 2.449, 15.6], "rotation": 270, "texture": "#layer0"},
				"up": {"uv": [0.25, 13.75, 2.449, 15.6], "rotation": 270, "texture": "#layer0"},
				"down": {"uv": [0.25, 13.75, 2.449, 15.6], "rotation": 270, "texture": "#layer0"}
			}
		},
		{
			"from": [8.69613, 9.08699, 3.99166],
			"to": [9.69613, 10.98699, 5.69166],
			"faces": {
				"north": {"uv": [0.25, 13.75, 2.449, 15.6], "rotation": 270, "texture": "#layer0"},
				"east": {"uv": [0.25, 13.75, 2.449, 15.6], "rotation": 270, "texture": "#layer0"},
				"south": {"uv": [0.25, 13.75, 2.449, 15.6], "rotation": 270, "texture": "#layer0"},
				"west": {"uv": [0.25, 13.75, 2.449, 15.6], "rotation": 270, "texture": "#layer0"},
				"up": {"uv": [0.25, 13.75, 2.449, 15.6], "rotation": 270, "texture": "#layer0"},
				"down": {"uv": [0.25, 13.75, 2.449, 15.6], "rotation": 270, "texture": "#layer0"}
			}
		},
		{
			"from": [6.5257, 10.34353, 3.99677],
			"to": [8.0257, 12.24353, 5.69677],
			"rotation": {"angle": 22.5, "axis": "z", "origin": [11.5257, 13.29353, 7.99677]},
			"faces": {
				"north": {"uv": [0.25, 13.75, 2.449, 15.6], "rotation": 270, "texture": "#layer0"},
				"east": {"uv": [0.25, 13.75, 2.449, 15.6], "rotation": 270, "texture": "#layer0"},
				"south": {"uv": [0.25, 13.75, 2.449, 15.6], "rotation": 270, "texture": "#layer0"},
				"west": {"uv": [0.25, 13.75, 2.449, 15.6], "rotation": 270, "texture": "#layer0"},
				"up": {"uv": [0.25, 13.75, 2.449, 15.6], "rotation": 270, "texture": "#layer0"},
				"down": {"uv": [0.25, 13.75, 2.449, 15.6], "rotation": 270, "texture": "#layer0"}
			}
		},
		{
			"from": [6.3257, 10.34353, 6.09677],
			"to": [8.0257, 12.24353, 7.79677],
			"rotation": {"angle": 22.5, "axis": "z", "origin": [11.5257, 13.29353, 7.99677]},
			"faces": {
				"north": {"uv": [0.25, 13.75, 2.449, 15.6], "rotation": 270, "texture": "#layer0"},
				"east": {"uv": [0.25, 13.75, 2.449, 15.6], "rotation": 270, "texture": "#layer0"},
				"south": {"uv": [0.25, 13.75, 2.449, 15.6], "rotation": 270, "texture": "#layer0"},
				"west": {"uv": [0.25, 13.75, 2.449, 15.6], "rotation": 270, "texture": "#layer0"},
				"up": {"uv": [0.25, 13.75, 2.449, 15.6], "rotation": 270, "texture": "#layer0"},
				"down": {"uv": [0.25, 13.75, 2.449, 15.6], "rotation": 270, "texture": "#layer0"}
			}
		},
		{
			"from": [6.1257, 10.34353, 8.19677],
			"to": [8.0257, 12.24353, 9.89677],
			"rotation": {"angle": 22.5, "axis": "z", "origin": [11.5257, 13.29353, 7.99677]},
			"faces": {
				"north": {"uv": [0.25, 13.75, 2.449, 15.6], "rotation": 270, "texture": "#layer0"},
				"east": {"uv": [0.25, 13.75, 2.449, 15.6], "rotation": 270, "texture": "#layer0"},
				"south": {"uv": [0.25, 13.75, 2.449, 15.6], "rotation": 270, "texture": "#layer0"},
				"west": {"uv": [0.25, 13.75, 2.449, 15.6], "rotation": 270, "texture": "#layer0"},
				"up": {"uv": [0.25, 13.75, 2.449, 15.6], "rotation": 270, "texture": "#layer0"},
				"down": {"uv": [0.25, 13.75, 2.449, 15.6], "rotation": 270, "texture": "#layer0"}
			}
		},
		{
			"from": [6.3257, 10.34353, 10.29677],
			"to": [8.0257, 12.24353, 11.99677],
			"rotation": {"angle": 22.5, "axis": "z", "origin": [11.5257, 13.29353, 7.99677]},
			"faces": {
				"north": {"uv": [0.25, 13.75, 2.449, 15.6], "rotation": 270, "texture": "#layer0"},
				"east": {"uv": [0.25, 13.75, 2.449, 15.6], "rotation": 270, "texture": "#layer0"},
				"south": {"uv": [0.25, 13.75, 2.449, 15.6], "rotation": 270, "texture": "#layer0"},
				"west": {"uv": [0.25, 13.75, 2.449, 15.6], "rotation": 270, "texture": "#layer0"},
				"up": {"uv": [0.25, 13.75, 2.449, 15.6], "rotation": 270, "texture": "#layer0"},
				"down": {"uv": [0.25, 13.75, 2.449, 15.6], "rotation": 270, "texture": "#layer0"}
			}
		},
		{
			"from": [6.4257, 10.44353, 4.09677],
			"to": [6.5257, 12.14353, 5.59677],
			"rotation": {"angle": 22.5, "axis": "z", "origin": [11.5257, 13.29353, 7.99677]},
			"faces": {
				"north": {"uv": [0.25, 13.75, 2.449, 15.6], "rotation": 270, "texture": "#layer0"},
				"east": {"uv": [0.25, 13.75, 2.449, 15.6], "rotation": 270, "texture": "#layer0"},
				"south": {"uv": [0.25, 13.75, 2.449, 15.6], "rotation": 270, "texture": "#layer0"},
				"west": {"uv": [0.25, 13.75, 2.449, 15.6], "rotation": 270, "texture": "#layer0"},
				"up": {"uv": [0.25, 13.75, 2.449, 15.6], "rotation": 270, "texture": "#layer0"},
				"down": {"uv": [0.25, 13.75, 2.449, 15.6], "rotation": 270, "texture": "#layer0"}
			}
		},
		{
			"from": [6.2257, 10.44353, 6.19677],
			"to": [6.5257, 12.14353, 7.69677],
			"rotation": {"angle": 22.5, "axis": "z", "origin": [11.5257, 13.29353, 7.99677]},
			"faces": {
				"north": {"uv": [0.25, 13.75, 2.449, 15.6], "rotation": 270, "texture": "#layer0"},
				"east": {"uv": [0.25, 13.75, 2.449, 15.6], "rotation": 270, "texture": "#layer0"},
				"south": {"uv": [0.25, 13.75, 2.449, 15.6], "rotation": 270, "texture": "#layer0"},
				"west": {"uv": [0.25, 13.75, 2.449, 15.6], "rotation": 270, "texture": "#layer0"},
				"up": {"uv": [0.25, 13.75, 2.449, 15.6], "rotation": 270, "texture": "#layer0"},
				"down": {"uv": [0.25, 13.75, 2.449, 15.6], "rotation": 270, "texture": "#layer0"}
			}
		},
		{
			"from": [6.0257, 10.44353, 8.29677],
			"to": [6.5257, 12.14353, 9.79677],
			"rotation": {"angle": 22.5, "axis": "z", "origin": [11.5257, 13.29353, 7.99677]},
			"faces": {
				"north": {"uv": [0.25, 13.75, 2.449, 15.6], "rotation": 270, "texture": "#layer0"},
				"east": {"uv": [0.25, 13.75, 2.449, 15.6], "rotation": 270, "texture": "#layer0"},
				"south": {"uv": [0.25, 13.75, 2.449, 15.6], "rotation": 270, "texture": "#layer0"},
				"west": {"uv": [0.25, 13.75, 2.449, 15.6], "rotation": 270, "texture": "#layer0"},
				"up": {"uv": [0.25, 13.75, 2.449, 15.6], "rotation": 270, "texture": "#layer0"},
				"down": {"uv": [0.25, 13.75, 2.449, 15.6], "rotation": 270, "texture": "#layer0"}
			}
		},
		{
			"from": [6.2257, 10.44353, 10.39677],
			"to": [6.5257, 12.14353, 11.89677],
			"rotation": {"angle": 22.5, "axis": "z", "origin": [11.5257, 13.29353, 7.99677]},
			"faces": {
				"north": {"uv": [0.25, 13.75, 2.449, 15.6], "rotation": 270, "texture": "#layer0"},
				"east": {"uv": [0.25, 13.75, 2.449, 15.6], "rotation": 270, "texture": "#layer0"},
				"south": {"uv": [0.25, 13.75, 2.449, 15.6], "rotation": 270, "texture": "#layer0"},
				"west": {"uv": [0.25, 13.75, 2.449, 15.6], "rotation": 270, "texture": "#layer0"},
				"up": {"uv": [0.25, 13.75, 2.449, 15.6], "rotation": 270, "texture": "#layer0"},
				"down": {"uv": [0.25, 13.75, 2.449, 15.6], "rotation": 270, "texture": "#layer0"}
			}
		},
		{
			"from": [3.9, 7, 10.2],
			"to": [6, 9, 12.1],
			"faces": {
				"north": {"uv": [0, 5.5, 2.1, 7.4], "texture": "#layer0"},
				"east": {"uv": [0, 5.5, 2.1, 7.4], "texture": "#layer0"},
				"south": {"uv": [0, 5.5, 2.1, 7.4], "texture": "#layer0"},
				"west": {"uv": [0, 5.5, 2.1, 7.4], "texture": "#layer0"},
				"up": {"uv": [0, 5.5, 2.1, 7.4], "texture": "#layer0"},
				"down": {"uv": [0, 5.5, 2.1, 7.4], "texture": "#layer0"}
			}
		},
		{
			"from": [4.05086, 8.60533, 10.24381],
			"to": [5.75086, 10.00533, 12.14381],
			"rotation": {"angle": -22.5, "axis": "x", "origin": [8.05086, 8.50533, 11.19381]},
			"faces": {
				"north": {"uv": [0.25, 13.75, 2.449, 15.6], "texture": "#layer0"},
				"east": {"uv": [0.25, 13.75, 2.449, 15.6], "texture": "#layer0"},
				"south": {"uv": [0.25, 13.75, 2.449, 15.6], "texture": "#layer0"},
				"west": {"uv": [0.25, 13.75, 2.449, 15.6], "texture": "#layer0"},
				"up": {"uv": [0.25, 13.75, 2.449, 15.6], "texture": "#layer0"},
				"down": {"uv": [0.25, 13.75, 2.449, 15.6], "texture": "#layer0"}
			}
		},
		{
			"from": [4.05185, 8.61871, 9.27263],
			"to": [5.75185, 10.51871, 11.17263],
			"rotation": {"angle": 22.5, "axis": "x", "origin": [8.05185, 9.56871, 10.67263]},
			"faces": {
				"north": {"uv": [0.25, 13.75, 2.449, 15.6], "rotation": 90, "texture": "#layer0"},
				"east": {"uv": [0.25, 13.75, 2.449, 15.6], "rotation": 90, "texture": "#layer0"},
				"south": {"uv": [0.25, 13.75, 2.449, 15.6], "rotation": 90, "texture": "#layer0"},
				"west": {"uv": [0.25, 13.75, 2.449, 15.6], "rotation": 90, "texture": "#layer0"},
				"up": {"uv": [0.25, 13.75, 2.449, 15.6], "rotation": 90, "texture": "#layer0"},
				"down": {"uv": [0.25, 13.75, 2.449, 15.6], "rotation": 90, "texture": "#layer0"}
			}
		},
		{
			"from": [4.04946, 8.96492, 8.24496],
			"to": [5.74946, 10.86492, 10.14496],
			"rotation": {"angle": -22.5, "axis": "x", "origin": [8.04946, 9.91492, 9.64496]},
			"faces": {
				"north": {"uv": [0.25, 13.75, 2.449, 15.6], "rotation": 90, "texture": "#layer0"},
				"east": {"uv": [0.25, 13.75, 2.449, 15.6], "rotation": 90, "texture": "#layer0"},
				"south": {"uv": [0.25, 13.75, 2.449, 15.6], "rotation": 90, "texture": "#layer0"},
				"west": {"uv": [0.25, 13.75, 2.449, 15.6], "rotation": 90, "texture": "#layer0"},
				"up": {"uv": [0.25, 13.75, 2.449, 15.6], "rotation": 90, "texture": "#layer0"},
				"down": {"uv": [0.25, 13.75, 2.449, 15.6], "rotation": 90, "texture": "#layer0"}
			}
		},
		{
			"from": [4.14946, 9.06492, 8.14496],
			"to": [5.64946, 10.76492, 8.24496],
			"rotation": {"angle": -22.5, "axis": "x", "origin": [8.04946, 9.91492, 9.64496]},
			"faces": {
				"north": {"uv": [0.25, 13.75, 2.449, 15.6], "rotation": 90, "texture": "#layer0"},
				"east": {"uv": [0.25, 13.75, 2.449, 15.6], "rotation": 90, "texture": "#layer0"},
				"south": {"uv": [0.25, 13.75, 2.449, 15.6], "rotation": 90, "texture": "#layer0"},
				"west": {"uv": [0.25, 13.75, 2.449, 15.6], "rotation": 90, "texture": "#layer0"},
				"up": {"uv": [0.25, 13.75, 2.449, 15.6], "rotation": 90, "texture": "#layer0"},
				"down": {"uv": [0.25, 13.75, 2.449, 15.6], "rotation": 90, "texture": "#layer0"}
			}
		},
		{
			"from": [8, -1, 4],
			"to": [11, 0, 5],
			"faces": {
				"north": {"uv": [0.25, 12, 1.75, 12.75], "texture": "#layer0"},
				"east": {"uv": [0.25, 12, 1.75, 12.75], "texture": "#layer0"},
				"south": {"uv": [0.25, 12, 1.75, 12.75], "texture": "#layer0"},
				"west": {"uv": [0.25, 12, 1.75, 12.75], "texture": "#layer0"},
				"up": {"uv": [0.25, 12, 1.75, 12.75], "texture": "#layer0"},
				"down": {"uv": [0.25, 12, 1.75, 12.75], "texture": "#layer0"}
			}
		},
		{
			"from": [8, -1, 11],
			"to": [11, 0, 12],
			"faces": {
				"north": {"uv": [0.25, 12, 1.75, 12.75], "texture": "#layer0"},
				"east": {"uv": [0.25, 12, 1.75, 12.75], "texture": "#layer0"},
				"south": {"uv": [0.25, 12, 1.75, 12.75], "texture": "#layer0"},
				"west": {"uv": [0.25, 12, 1.75, 12.75], "texture": "#layer0"},
				"up": {"uv": [0.25, 12, 1.75, 12.75], "texture": "#layer0"},
				"down": {"uv": [0.25, 12, 1.75, 12.75], "texture": "#layer0"}
			}
		},
		{
			"from": [10, -2, 11],
			"to": [11, -1, 12],
			"faces": {
				"north": {"uv": [0.25, 12, 1.75, 12.75], "texture": "#layer0"},
				"east": {"uv": [0.25, 12, 1.75, 12.75], "texture": "#layer0"},
				"south": {"uv": [0.25, 12, 1.75, 12.75], "texture": "#layer0"},
				"west": {"uv": [0.25, 12, 1.75, 12.75], "texture": "#layer0"},
				"up": {"uv": [0.25, 12, 1.75, 12.75], "texture": "#layer0"},
				"down": {"uv": [0.25, 12, 1.75, 12.75], "texture": "#layer0"}
			}
		},
		{
			"from": [10, -2, 4],
			"to": [11, -1, 5],
			"faces": {
				"north": {"uv": [0.25, 12, 1.75, 12.75], "texture": "#layer0"},
				"east": {"uv": [0.25, 12, 1.75, 12.75], "texture": "#layer0"},
				"south": {"uv": [0.25, 12, 1.75, 12.75], "texture": "#layer0"},
				"west": {"uv": [0.25, 12, 1.75, 12.75], "texture": "#layer0"},
				"up": {"uv": [0.25, 12, 1.75, 12.75], "texture": "#layer0"},
				"down": {"uv": [0.25, 12, 1.75, 12.75], "texture": "#layer0"}
			}
		},
		{
			"from": [11, -2, 4],
			"to": [12, 0, 12],
			"faces": {
				"north": {"uv": [0.25, 12, 1.75, 12.75], "texture": "#layer0"},
				"east": {"uv": [0.25, 12, 1.75, 12.75], "texture": "#layer0"},
				"south": {"uv": [0.25, 12, 1.75, 12.75], "texture": "#layer0"},
				"west": {"uv": [0.25, 12, 1.75, 12.75], "texture": "#layer0"},
				"up": {"uv": [0.25, 12, 1.75, 12.75], "texture": "#layer0"},
				"down": {"uv": [0.25, 12, 1.75, 12.75], "texture": "#layer0"}
			}
		},
		{
			"from": [5.02911, -1.84635, 10.99992],
			"to": [10.22911, -0.74635, 11.99992],
			"rotation": {"angle": -22.5, "axis": "z", "origin": [9.72911, -1.34635, 11.49992]},
			"faces": {
				"north": {"uv": [0.5, 11.75, 2, 12.5], "texture": "#layer0"},
				"east": {"uv": [0.5, 11.75, 2, 12.5], "texture": "#layer0"},
				"south": {"uv": [0.5, 11.75, 2, 12.5], "texture": "#layer0"},
				"west": {"uv": [0.5, 11.75, 2, 12.5], "texture": "#layer0"},
				"up": {"uv": [0.5, 11.75, 2, 12.5], "texture": "#layer0"},
				"down": {"uv": [0.5, 11.75, 2, 12.5], "texture": "#layer0"}
			}
		},
		{
			"from": [5.02911, -1.84635, 3.99992],
			"to": [10.22911, -0.74635, 4.99992],
			"rotation": {"angle": -22.5, "axis": "z", "origin": [9.72911, -1.34635, 4.49992]},
			"faces": {
				"north": {"uv": [0.75, 11.75, 2.25, 12.5], "texture": "#layer0"},
				"east": {"uv": [0.75, 11.75, 2.25, 12.5], "texture": "#layer0"},
				"south": {"uv": [0.75, 11.75, 2.25, 12.5], "texture": "#layer0"},
				"west": {"uv": [0.75, 11.75, 2.25, 12.5], "texture": "#layer0"},
				"up": {"uv": [0.75, 11.75, 2.25, 12.5], "texture": "#layer0"},
				"down": {"uv": [0.75, 11.75, 2.25, 12.5], "texture": "#layer0"}
			}
		},
		{
			"from": [3.9, 6.5, 12],
			"to": [6, 9.1, 12.3],
			"faces": {
				"north": {"uv": [0, 5.5, 2.1, 7.4], "texture": "#layer0"},
				"east": {"uv": [0, 5.5, 2.1, 7.4], "texture": "#layer0"},
				"south": {"uv": [0, 5.5, 2.1, 7.4], "texture": "#layer0"},
				"west": {"uv": [0, 5.5, 2.1, 7.4], "texture": "#layer0"},
				"up": {"uv": [0, 5.5, 2.1, 7.4], "texture": "#layer0"},
				"down": {"uv": [0, 5.5, 2.1, 7.4], "texture": "#layer0"}
			}
		},
		{
			"from": [10, 2.8, 6.8],
			"to": [12.1, 5.6, 9.1],
			"faces": {
				"north": {"uv": [0, 5.5, 2.1, 7.4], "texture": "#layer0"},
				"east": {"uv": [0, 5.5, 2.1, 7.4], "texture": "#layer0"},
				"south": {"uv": [0, 5.5, 2.1, 7.4], "texture": "#layer0"},
				"west": {"uv": [0, 5.5, 2.1, 7.4], "texture": "#layer0"},
				"up": {"uv": [0, 5.5, 2.1, 7.4], "texture": "#layer0"},
				"down": {"uv": [0, 5.5, 2.1, 7.4], "texture": "#layer0"}
			}
		},
		{
			"from": [9.22968, 8.61871, 10.29282],
			"to": [11.12968, 10.51871, 11.99282],
			"rotation": {"angle": -22.5, "axis": "z", "origin": [10.62968, 9.56871, 7.99282]},
			"faces": {
				"north": {"uv": [0.25, 13.75, 2.15, 15.65], "rotation": 90, "texture": "#layer0"},
				"east": {"uv": [0.25, 13.75, 2.15, 15.65], "rotation": 90, "texture": "#layer0"},
				"south": {"uv": [0.25, 13.75, 2.15, 15.65], "rotation": 90, "texture": "#layer0"},
				"west": {"uv": [0.25, 13.75, 2.15, 15.65], "rotation": 90, "texture": "#layer0"},
				"up": {"uv": [0.25, 13.75, 2.15, 15.65], "rotation": 90, "texture": "#layer0"},
				"down": {"uv": [0.25, 13.75, 2.15, 15.65], "rotation": 90, "texture": "#layer0"}
			}
		},
		{
			"from": [9.22968, 8.61871, 8.19282],
			"to": [11.12968, 10.51871, 9.89282],
			"rotation": {"angle": -22.5, "axis": "z", "origin": [10.62968, 9.56871, 7.99282]},
			"faces": {
				"north": {"uv": [0.25, 13.75, 2.15, 15.65], "rotation": 90, "texture": "#layer0"},
				"east": {"uv": [0.25, 13.75, 2.15, 15.65], "rotation": 90, "texture": "#layer0"},
				"south": {"uv": [0.25, 13.75, 2.15, 15.65], "rotation": 90, "texture": "#layer0"},
				"west": {"uv": [0.25, 13.75, 2.15, 15.65], "rotation": 90, "texture": "#layer0"},
				"up": {"uv": [0.25, 13.75, 2.15, 15.65], "rotation": 90, "texture": "#layer0"},
				"down": {"uv": [0.25, 13.75, 2.15, 15.65], "rotation": 90, "texture": "#layer0"}
			}
		},
		{
			"from": [9.22968, 8.61871, 6.09282],
			"to": [11.12968, 10.51871, 7.79282],
			"rotation": {"angle": -22.5, "axis": "z", "origin": [10.62968, 9.56871, 7.99282]},
			"faces": {
				"north": {"uv": [0.25, 13.75, 2.15, 15.65], "rotation": 90, "texture": "#layer0"},
				"east": {"uv": [0.25, 13.75, 2.15, 15.65], "rotation": 90, "texture": "#layer0"},
				"south": {"uv": [0.25, 13.75, 2.15, 15.65], "rotation": 90, "texture": "#layer0"},
				"west": {"uv": [0.25, 13.75, 2.15, 15.65], "rotation": 90, "texture": "#layer0"},
				"up": {"uv": [0.25, 13.75, 2.15, 15.65], "rotation": 90, "texture": "#layer0"},
				"down": {"uv": [0.25, 13.75, 2.15, 15.65], "rotation": 90, "texture": "#layer0"}
			}
		},
		{
			"from": [9.22968, 8.61871, 3.99282],
			"to": [11.12968, 10.51871, 5.69282],
			"rotation": {"angle": -22.5, "axis": "z", "origin": [10.62968, 9.56871, 7.99282]},
			"faces": {
				"north": {"uv": [0.25, 13.75, 2.15, 15.65], "rotation": 90, "texture": "#layer0"},
				"east": {"uv": [0.25, 13.75, 2.15, 15.65], "rotation": 90, "texture": "#layer0"},
				"south": {"uv": [0.25, 13.75, 2.15, 15.65], "rotation": 90, "texture": "#layer0"},
				"west": {"uv": [0.25, 13.75, 2.15, 15.65], "rotation": 90, "texture": "#layer0"},
				"up": {"uv": [0.25, 13.75, 2.15, 15.65], "rotation": 90, "texture": "#layer0"},
				"down": {"uv": [0.25, 13.75, 2.15, 15.65], "rotation": 90, "texture": "#layer0"}
			}
		},
		{
			"from": [12.1, 7.1, 10.3],
			"to": [12.3, 8.9, 12],
			"faces": {
				"north": {"uv": [10.75, 13.75, 12.949, 15.8], "texture": "#layer0"},
				"east": {"uv": [10.75, 13.75, 12.949, 15.8], "texture": "#layer0"},
				"south": {"uv": [10.75, 13.75, 12.949, 15.8], "texture": "#layer0"},
				"west": {"uv": [10.75, 13.75, 12.949, 15.8], "texture": "#layer0"},
				"up": {"uv": [10.75, 13.75, 12.949, 15.8], "texture": "#layer0"},
				"down": {"uv": [10.75, 13.75, 12.949, 15.8], "texture": "#layer0"}
			}
		},
		{
			"from": [12.1, 7.1, 6.1],
			"to": [12.3, 8.9, 7.8],
			"faces": {
				"north": {"uv": [13.5, 10.75, 15.699, 13.05], "texture": "#layer0"},
				"east": {"uv": [13.5, 10.75, 15.699, 13.05], "texture": "#layer0"},
				"south": {"uv": [13.5, 10.75, 15.699, 13.05], "texture": "#layer0"},
				"west": {"uv": [13.5, 10.75, 15.699, 13.05], "texture": "#layer0"},
				"up": {"uv": [13.5, 10.75, 15.699, 13.05], "texture": "#layer0"},
				"down": {"uv": [13.5, 10.75, 15.699, 13.05], "texture": "#layer0"}
			}
		},
		{
			"from": [12.1, 7.1, 8.2],
			"to": [12.3, 8.9, 9.9],
			"faces": {
				"north": {"uv": [13.5, 2.5, 15.699, 4.8], "texture": "#layer0"},
				"east": {"uv": [13.5, 2.5, 15.699, 4.8], "texture": "#layer0"},
				"south": {"uv": [13.5, 2.5, 15.699, 4.8], "texture": "#layer0"},
				"west": {"uv": [13.5, 2.5, 15.699, 4.8], "texture": "#layer0"},
				"up": {"uv": [13.5, 2.5, 15.699, 4.8], "texture": "#layer0"},
				"down": {"uv": [13.5, 2.5, 15.699, 4.8], "texture": "#layer0"}
			}
		},
		{
			"from": [12.1, 7.1, 4],
			"to": [12.3, 8.9, 5.7],
			"faces": {
				"north": {"uv": [13.5, 13.5, 15.699, 15.8], "texture": "#layer0"},
				"east": {"uv": [13.5, 13.5, 15.699, 15.8], "texture": "#layer0"},
				"south": {"uv": [13.5, 13.5, 15.699, 15.8], "texture": "#layer0"},
				"west": {"uv": [13.5, 13.5, 15.699, 15.8], "texture": "#layer0"},
				"up": {"uv": [13.5, 13.5, 15.699, 15.8], "texture": "#layer0"},
				"down": {"uv": [13.5, 13.5, 15.699, 15.8], "texture": "#layer0"}
			}
		},
		{
			"from": [4, 7.1, 10.6],
			"to": [5.9, 8.9, 12.5],
			"faces": {
				"north": {"uv": [13.5, 5.5, 15.4, 7.3], "texture": "#layer0"},
				"east": {"uv": [13.5, 5.5, 15.4, 7.3], "texture": "#layer0"},
				"south": {"uv": [13.5, 5.5, 15.4, 7.3], "texture": "#layer0"},
				"west": {"uv": [13.5, 5.5, 15.4, 7.3], "texture": "#layer0"},
				"up": {"uv": [13.5, 5.5, 15.4, 7.3], "texture": "#layer0"},
				"down": {"uv": [13.5, 5.5, 15.4, 7.3], "texture": "#layer0"}
			}
		},
		{
			"from": [12.3, 7.2, 10.4],
			"to": [12.4, 8.8, 11.9],
			"faces": {
				"north": {"uv": [10.75, 13.75, 12.949, 15.8], "texture": "#layer0"},
				"east": {"uv": [10.75, 13.75, 12.949, 15.8], "texture": "#layer0"},
				"south": {"uv": [10.75, 13.75, 12.949, 15.8], "texture": "#layer0"},
				"west": {"uv": [10.75, 13.75, 12.949, 15.8], "texture": "#layer0"},
				"up": {"uv": [10.75, 13.75, 12.949, 15.8], "texture": "#layer0"},
				"down": {"uv": [10.75, 13.75, 12.949, 15.8], "texture": "#layer0"}
			}
		},
		{
			"from": [12.3, 7.2, 8.3],
			"to": [12.4, 8.8, 9.8],
			"faces": {
				"north": {"uv": [13.5, 2.5, 15.699, 4.8], "texture": "#layer0"},
				"east": {"uv": [13.5, 2.5, 15.699, 4.8], "texture": "#layer0"},
				"south": {"uv": [13.5, 2.5, 15.699, 4.8], "texture": "#layer0"},
				"west": {"uv": [13.5, 2.5, 15.699, 4.8], "texture": "#layer0"},
				"up": {"uv": [13.5, 2.5, 15.699, 4.8], "texture": "#layer0"},
				"down": {"uv": [13.5, 2.5, 15.699, 4.8], "texture": "#layer0"}
			}
		},
		{
			"from": [12.3, 7.2, 6.2],
			"to": [12.4, 8.8, 7.7],
			"faces": {
				"north": {"uv": [13.5, 10.75, 15.699, 13.05], "texture": "#layer0"},
				"east": {"uv": [13.5, 10.75, 15.699, 13.05], "texture": "#layer0"},
				"south": {"uv": [13.5, 10.75, 15.699, 13.05], "texture": "#layer0"},
				"west": {"uv": [13.5, 10.75, 15.699, 13.05], "texture": "#layer0"},
				"up": {"uv": [13.5, 10.75, 15.699, 13.05], "texture": "#layer0"},
				"down": {"uv": [13.5, 10.75, 15.699, 13.05], "texture": "#layer0"}
			}
		},
		{
			"from": [12.3, 7.2, 4.1],
			"to": [12.4, 8.8, 5.6],
			"faces": {
				"north": {"uv": [13.5, 13.5, 15.699, 15.8], "texture": "#layer0"},
				"east": {"uv": [13.5, 13.5, 15.699, 15.8], "texture": "#layer0"},
				"south": {"uv": [13.5, 13.5, 15.699, 15.8], "texture": "#layer0"},
				"west": {"uv": [13.5, 13.5, 15.699, 15.8], "texture": "#layer0"},
				"up": {"uv": [13.5, 13.5, 15.699, 15.8], "texture": "#layer0"},
				"down": {"uv": [13.5, 13.5, 15.699, 15.8], "texture": "#layer0"}
			}
		},
		{
			"from": [4.1, 7.2, 12.5],
			"to": [5.8, 8.8, 12.6],
			"faces": {
				"north": {"uv": [13.5, 5.5, 15.4, 7.3], "texture": "#layer0"},
				"east": {"uv": [13.5, 5.5, 15.4, 7.3], "texture": "#layer0"},
				"south": {"uv": [13.5, 5.5, 15.4, 7.3], "texture": "#layer0"},
				"west": {"uv": [13.5, 5.5, 15.4, 7.3], "texture": "#layer0"},
				"up": {"uv": [13.5, 5.5, 15.4, 7.3], "texture": "#layer0"},
				"down": {"uv": [13.5, 5.5, 15.4, 7.3], "texture": "#layer0"}
			}
		}
	],
	"display": {
		"thirdperson_righthand": {
			"rotation": [-90, 0, 0],
			"translation": [0, -2, -0.25],
			"scale": [0.61, 0.61, 0.61]
		},
		"thirdperson_lefthand": {
			"rotation": [0, -139.25, 0],
			"translation": [0, 0.75, 0],
			"scale": [0.6, 0.6, 0.6]
		},
		"firstperson_righthand": {
			"rotation": [-90, -70, 0],
			"translation": [0, 0, -1],
			"scale": [0.6, 0.6, 0.6]
		},
		"firstperson_lefthand": {
			"rotation": [0, -140, 0],
			"scale": [0.6, 0.6, 0.6]
		},
		"ground": {
			"translation": [0, 2, 0],
			"scale": [0.6, 0.6, 0.6]
		},
		"gui": {
			"rotation": [-3, 37, 135],
			"translation": [-1.5, -2.25, 0],
			"scale": [0.8, 0.8, 0.8]
		},
		"head": {
			"rotation": [0, 137, 0],
			"translation": [0, 18.25, 0]
		},
		"fixed": {
			"rotation": [0, 133, 0],
			"translation": [0, 3.5, 0]
		}
	}
}