{
	"credit": "Made with Blockbench",
	"textures": {
		"texture": "sword/palette1"
	},
	"elements": [
		{
			"name": "Element",
			"from": [7.5052, -13.6724, 8.0593],
			"to": [8.25784, -12.91976, 8.81194],
			"rotation": {"angle": -45, "axis": "x", "origin": [7.32883, -13.67237, 8.05927]},
			"faces": {
				"north": {"uv": [8.34375, 10.875, 8.53125, 11.03125], "texture": "#texture"},
				"east": {"uv": [8.34375, 10.875, 8.53125, 11.03125], "texture": "#texture"},
				"south": {"uv": [8.34375, 10.875, 8.53125, 11.03125], "texture": "#texture"},
				"west": {"uv": [8.34375, 10.875, 8.53125, 11.03125], "texture": "#texture"},
				"up": {"uv": [8.34375, 10.875, 8.53125, 11.03125], "texture": "#texture"},
				"down": {"uv": [8.34375, 10.875, 8.53125, 11.03125], "texture": "#texture"}
			}
		},
		{
			"name": "Element",
			"from": [7.3288, -13.1402, 7.68],
			"to": [8.08144, -12.38756, 8.43264],
			"rotation": {"angle": -45, "axis": "z", "origin": [7.32885, -13.14016, 7.52708]},
			"faces": {
				"north": {"uv": [8.34375, 10.875, 8.53125, 11.03125], "texture": "#texture"},
				"east": {"uv": [8.34375, 10.875, 8.53125, 11.03125], "texture": "#texture"},
				"south": {"uv": [8.34375, 10.875, 8.53125, 11.03125], "texture": "#texture"},
				"west": {"uv": [8.34375, 10.875, 8.53125, 11.03125], "texture": "#texture"},
				"up": {"uv": [8.34375, 10.875, 8.53125, 11.03125], "texture": "#texture"},
				"down": {"uv": [8.34375, 10.875, 8.53125, 11.03125], "texture": "#texture"}
			}
		},
		{
			"name": "Element",
			"from": [7.3288, -13.1402, 7.5271],
			"to": [8.39308, -12.66392, 8.59138],
			"faces": {
				"north": {"uv": [8.34375, 10.875, 8.53125, 11.03125], "texture": "#texture"},
				"east": {"uv": [8.34375, 10.875, 8.53125, 11.03125], "texture": "#texture"},
				"south": {"uv": [8.34375, 10.875, 8.53125, 11.03125], "texture": "#texture"},
				"west": {"uv": [8.34375, 10.875, 8.53125, 11.03125], "texture": "#texture"},
				"up": {"uv": [8.34375, 10.875, 8.53125, 11.03125], "texture": "#texture"},
				"down": {"uv": [8.34375, 10.875, 8.53125, 11.03125], "texture": "#texture"}
			}
		},
		{
			"name": "Element",
			"from": [7.6875, -13.0347, 8.2551],
			"to": [8.05206, -11.65878, 8.55498],
			"rotation": {"angle": 22.5, "axis": "x", "origin": [7.68752, -13.12252, 8.59136]},
			"faces": {
				"north": {"uv": [8.53125, 11.03125, 8.34375, 10.875], "texture": "#texture"},
				"east": {"uv": [8.34375, 10.875, 8.53125, 11.03125], "rotation": 90, "texture": "#texture"},
				"south": {"uv": [8.34375, 10.875, 8.53125, 11.03125], "texture": "#texture"},
				"west": {"uv": [8.34375, 10.875, 8.53125, 11.03125], "rotation": 270, "texture": "#texture"},
				"up": {"uv": [8.34375, 10.875, 8.53125, 11.03125], "texture": "#texture"},
				"down": {"uv": [8.53125, 11.03125, 8.34375, 10.875], "texture": "#texture"}
			}
		},
		{
			"name": "Element",
			"from": [7.6875, -12.8936, 7.5378],
			"to": [8.05206, -11.51768, 7.83768],
			"rotation": {"angle": -22.5, "axis": "x", "origin": [7.68752, -12.9814, 7.874]},
			"faces": {
				"north": {"uv": [8.53125, 11.03125, 8.34375, 10.875], "texture": "#texture"},
				"east": {"uv": [8.34375, 10.875, 8.53125, 11.03125], "rotation": 90, "texture": "#texture"},
				"south": {"uv": [8.34375, 10.875, 8.53125, 11.03125], "texture": "#texture"},
				"west": {"uv": [8.34375, 10.875, 8.53125, 11.03125], "rotation": 270, "texture": "#texture"},
				"up": {"uv": [8.34375, 10.875, 8.53125, 11.03125], "texture": "#texture"},
				"down": {"uv": [8.53125, 11.03125, 8.34375, 10.875], "texture": "#texture"}
			}
		},
		{
			"name": "Element",
			"from": [7.3641, -13.0229, 7.9082],
			"to": [7.72866, -11.64698, 8.20808],
			"rotation": {"angle": 22.5, "axis": "z", "origin": [7.36412, -13.11075, 8.24443]},
			"faces": {
				"north": {"uv": [8.53125, 11.03125, 8.34375, 10.875], "texture": "#texture"},
				"east": {"uv": [8.34375, 10.875, 8.53125, 11.03125], "rotation": 90, "texture": "#texture"},
				"south": {"uv": [8.34375, 10.875, 8.53125, 11.03125], "texture": "#texture"},
				"west": {"uv": [8.34375, 10.875, 8.53125, 11.03125], "rotation": 270, "texture": "#texture"},
				"up": {"uv": [8.34375, 10.875, 8.53125, 11.03125], "texture": "#texture"},
				"down": {"uv": [8.53125, 11.03125, 8.34375, 10.875], "texture": "#texture"}
			}
		},
		{
			"name": "Element",
			"from": [8.0227, -12.8818, 7.9082],
			"to": [8.38726, -11.50588, 8.20808],
			"rotation": {"angle": -22.5, "axis": "z", "origin": [8.02268, -12.96964, 8.24444]},
			"faces": {
				"north": {"uv": [8.53125, 11.03125, 8.34375, 10.875], "texture": "#texture"},
				"east": {"uv": [8.34375, 10.875, 8.53125, 11.03125], "rotation": 90, "texture": "#texture"},
				"south": {"uv": [8.34375, 10.875, 8.53125, 11.03125], "texture": "#texture"},
				"west": {"uv": [8.34375, 10.875, 8.53125, 11.03125], "rotation": 270, "texture": "#texture"},
				"up": {"uv": [8.34375, 10.875, 8.53125, 11.03125], "texture": "#texture"},
				"down": {"uv": [8.53125, 11.03125, 8.34375, 10.875], "texture": "#texture"}
			}
		},
		{
			"name": "Element",
			"from": [7.6875, -11.9462, 6.8997],
			"to": [8.05206, -10.94072, 7.19958],
			"rotation": {"angle": 45, "axis": "x", "origin": [7.68752, -11.9769, 7.1789]},
			"faces": {
				"north": {"uv": [8.53125, 11.03125, 8.34375, 10.875], "texture": "#texture"},
				"east": {"uv": [8.34375, 10.875, 8.53125, 11.03125], "rotation": 90, "texture": "#texture"},
				"south": {"uv": [8.34375, 10.875, 8.53125, 11.03125], "texture": "#texture"},
				"west": {"uv": [8.34375, 10.875, 8.53125, 11.03125], "rotation": 270, "texture": "#texture"},
				"up": {"uv": [8.34375, 10.875, 8.53125, 11.03125], "texture": "#texture"},
				"down": {"uv": [8.53125, 11.03125, 8.34375, 10.875], "texture": "#texture"}
			}
		},
		{
			"name": "Element",
			"from": [7.6875, -11.7619, 8.8458],
			"to": [8.05206, -10.75642, 9.14568],
			"rotation": {"angle": -45, "axis": "x", "origin": [7.68752, -11.79269, 9.12498]},
			"faces": {
				"north": {"uv": [8.53125, 11.03125, 8.34375, 10.875], "texture": "#texture"},
				"east": {"uv": [8.34375, 10.875, 8.53125, 11.03125], "rotation": 90, "texture": "#texture"},
				"south": {"uv": [8.34375, 10.875, 8.53125, 11.03125], "texture": "#texture"},
				"west": {"uv": [8.34375, 10.875, 8.53125, 11.03125], "rotation": 270, "texture": "#texture"},
				"up": {"uv": [8.34375, 10.875, 8.53125, 11.03125], "texture": "#texture"},
				"down": {"uv": [8.53125, 11.03125, 8.34375, 10.875], "texture": "#texture"}
			}
		},
		{
			"name": "Element",
			"from": [8.6836, -12.0056, 7.9082],
			"to": [9.04816, -11.00012, 8.20808],
			"rotation": {"angle": 45, "axis": "z", "origin": [8.68357, -12.03638, 8.18735]},
			"faces": {
				"north": {"uv": [8.53125, 11.03125, 8.34375, 10.875], "texture": "#texture"},
				"east": {"uv": [8.34375, 10.875, 8.53125, 11.03125], "rotation": 90, "texture": "#texture"},
				"south": {"uv": [8.34375, 10.875, 8.53125, 11.03125], "texture": "#texture"},
				"west": {"uv": [8.34375, 10.875, 8.53125, 11.03125], "rotation": 270, "texture": "#texture"},
				"up": {"uv": [8.34375, 10.875, 8.53125, 11.03125], "texture": "#texture"},
				"down": {"uv": [8.53125, 11.03125, 8.34375, 10.875], "texture": "#texture"}
			}
		},
		{
			"name": "Element",
			"from": [6.7822, -11.7494, 7.9082],
			"to": [7.14676, -10.74392, 8.20808],
			"rotation": {"angle": -45, "axis": "z", "origin": [6.78224, -11.78016, 8.18734]},
			"faces": {
				"north": {"uv": [8.53125, 11.03125, 8.34375, 10.875], "texture": "#texture"},
				"east": {"uv": [8.34375, 10.875, 8.53125, 11.03125], "rotation": 90, "texture": "#texture"},
				"south": {"uv": [8.34375, 10.875, 8.53125, 11.03125], "texture": "#texture"},
				"west": {"uv": [8.34375, 10.875, 8.53125, 11.03125], "rotation": 270, "texture": "#texture"},
				"up": {"uv": [8.34375, 10.875, 8.53125, 11.03125], "texture": "#texture"},
				"down": {"uv": [8.53125, 11.03125, 8.34375, 10.875], "texture": "#texture"}
			}
		},
		{
			"name": "Element",
			"from": [7.4876, -12.0288, 7.533],
			"to": [8.24024, -11.27616, 8.28564],
			"rotation": {"angle": 45, "axis": "x", "origin": [7.4876, -12.02884, 7.53296]},
			"faces": {
				"north": {"uv": [0.375, 7.625, 0.75, 8], "texture": "#texture"},
				"east": {"uv": [0.375, 7.625, 0.75, 8], "texture": "#texture"},
				"south": {"uv": [0.375, 7.625, 0.75, 8], "texture": "#texture"},
				"west": {"uv": [0.375, 7.625, 0.75, 8], "texture": "#texture"},
				"up": {"uv": [0.375, 7.625, 0.75, 8], "texture": "#texture"},
				"down": {"uv": [0.375, 7.625, 0.75, 8], "texture": "#texture"}
			}
		},
		{
			"name": "Element",
			"from": [7.8757, -12.5639, 7.6917],
			"to": [8.62834, -11.81126, 8.44434],
			"rotation": {"angle": 45, "axis": "z", "origin": [7.87568, -12.56392, 7.69172]},
			"faces": {
				"north": {"uv": [0.375, 7.625, 0.75, 8], "texture": "#texture"},
				"east": {"uv": [0.375, 7.625, 0.75, 8], "texture": "#texture"},
				"south": {"uv": [0.375, 7.625, 0.75, 8], "texture": "#texture"},
				"west": {"uv": [0.375, 7.625, 0.75, 8], "texture": "#texture"},
				"up": {"uv": [0.375, 7.625, 0.75, 8], "texture": "#texture"},
				"down": {"uv": [0.375, 7.625, 0.75, 8], "texture": "#texture"}
			}
		},
		{
			"name": "Element",
			"from": [7.7812, -11.1179, 7.6397],
			"to": [7.94888, -10.76604, 7.85044],
			"rotation": {"angle": -45, "axis": "y", "origin": [7.8651, -11.01251, 8.06122]},
			"faces": {
				"north": {"uv": [8.53125, 11.03125, 8.34375, 10.875], "texture": "#texture"},
				"east": {"uv": [8.53125, 11.03125, 8.34375, 10.875], "texture": "#texture"},
				"south": {"uv": [8.53125, 11.03125, 8.34375, 10.875], "texture": "#texture"},
				"west": {"uv": [8.53125, 11.03125, 8.34375, 10.875], "texture": "#texture"},
				"up": {"uv": [8.53125, 11.03125, 8.34375, 10.875], "texture": "#texture"},
				"down": {"uv": [8.53125, 11.03125, 8.34375, 10.875], "texture": "#texture"}
			}
		},
		{
			"name": "Element",
			"from": [7.7812, -11.1179, 7.6397],
			"to": [7.94888, -10.76604, 7.85044],
			"rotation": {"angle": -22.5, "axis": "y", "origin": [7.8651, -11.01251, 8.06122]},
			"faces": {
				"north": {"uv": [8.53125, 11.03125, 8.34375, 10.875], "texture": "#texture"},
				"east": {"uv": [8.53125, 11.03125, 8.34375, 10.875], "texture": "#texture"},
				"south": {"uv": [8.53125, 11.03125, 8.34375, 10.875], "texture": "#texture"},
				"west": {"uv": [8.53125, 11.03125, 8.34375, 10.875], "texture": "#texture"},
				"up": {"uv": [8.53125, 11.03125, 8.34375, 10.875], "texture": "#texture"},
				"down": {"uv": [8.53125, 11.03125, 8.34375, 10.875], "texture": "#texture"}
			}
		},
		{
			"name": "Element",
			"from": [7.7812, -11.1179, 7.6397],
			"to": [7.94888, -10.76604, 7.85044],
			"faces": {
				"north": {"uv": [8.53125, 11.03125, 8.34375, 10.875], "texture": "#texture"},
				"east": {"uv": [8.53125, 11.03125, 8.34375, 10.875], "texture": "#texture"},
				"south": {"uv": [8.53125, 11.03125, 8.34375, 10.875], "texture": "#texture"},
				"west": {"uv": [8.53125, 11.03125, 8.34375, 10.875], "texture": "#texture"},
				"up": {"uv": [8.53125, 11.03125, 8.34375, 10.875], "texture": "#texture"},
				"down": {"uv": [8.53125, 11.03125, 8.34375, 10.875], "texture": "#texture"}
			}
		},
		{
			"name": "Element",
			"from": [7.7812, -11.1179, 7.6397],
			"to": [7.94888, -10.76604, 7.85044],
			"rotation": {"angle": 22.5, "axis": "y", "origin": [7.8651, -11.01251, 8.06122]},
			"faces": {
				"north": {"uv": [8.53125, 11.03125, 8.34375, 10.875], "texture": "#texture"},
				"east": {"uv": [8.53125, 11.03125, 8.34375, 10.875], "texture": "#texture"},
				"south": {"uv": [8.53125, 11.03125, 8.34375, 10.875], "texture": "#texture"},
				"west": {"uv": [8.53125, 11.03125, 8.34375, 10.875], "texture": "#texture"},
				"up": {"uv": [8.53125, 11.03125, 8.34375, 10.875], "texture": "#texture"},
				"down": {"uv": [8.53125, 11.03125, 8.34375, 10.875], "texture": "#texture"}
			}
		},
		{
			"name": "Element",
			"from": [7.7812, -11.1179, 7.6397],
			"to": [7.94888, -10.76604, 7.85044],
			"rotation": {"angle": 45, "axis": "y", "origin": [7.8651, -11.01251, 8.06122]},
			"faces": {
				"north": {"uv": [8.53125, 11.03125, 8.34375, 10.875], "texture": "#texture"},
				"east": {"uv": [8.53125, 11.03125, 8.34375, 10.875], "texture": "#texture"},
				"south": {"uv": [8.53125, 11.03125, 8.34375, 10.875], "texture": "#texture"},
				"west": {"uv": [8.53125, 11.03125, 8.34375, 10.875], "texture": "#texture"},
				"up": {"uv": [8.53125, 11.03125, 8.34375, 10.875], "texture": "#texture"},
				"down": {"uv": [8.53125, 11.03125, 8.34375, 10.875], "texture": "#texture"}
			}
		},
		{
			"name": "Element",
			"from": [7.7812, -11.1179, 8.272],
			"to": [7.94888, -10.76604, 8.48274],
			"rotation": {"angle": -45, "axis": "y", "origin": [7.8651, -11.01251, 8.06122]},
			"faces": {
				"north": {"uv": [8.53125, 11.03125, 8.34375, 10.875], "texture": "#texture"},
				"east": {"uv": [8.53125, 11.03125, 8.34375, 10.875], "texture": "#texture"},
				"south": {"uv": [8.53125, 11.03125, 8.34375, 10.875], "texture": "#texture"},
				"west": {"uv": [8.53125, 11.03125, 8.34375, 10.875], "texture": "#texture"},
				"up": {"uv": [8.53125, 11.03125, 8.34375, 10.875], "texture": "#texture"},
				"down": {"uv": [8.53125, 11.03125, 8.34375, 10.875], "texture": "#texture"}
			}
		},
		{
			"name": "Element",
			"from": [7.7812, -11.1179, 8.272],
			"to": [7.94888, -10.76604, 8.48274],
			"rotation": {"angle": -22.5, "axis": "y", "origin": [7.8651, -11.01251, 8.06122]},
			"faces": {
				"north": {"uv": [8.53125, 11.03125, 8.34375, 10.875], "texture": "#texture"},
				"east": {"uv": [8.53125, 11.03125, 8.34375, 10.875], "texture": "#texture"},
				"south": {"uv": [8.53125, 11.03125, 8.34375, 10.875], "texture": "#texture"},
				"west": {"uv": [8.53125, 11.03125, 8.34375, 10.875], "texture": "#texture"},
				"up": {"uv": [8.53125, 11.03125, 8.34375, 10.875], "texture": "#texture"},
				"down": {"uv": [8.53125, 11.03125, 8.34375, 10.875], "texture": "#texture"}
			}
		},
		{
			"name": "Element",
			"from": [7.7812, -11.1179, 8.272],
			"to": [7.94888, -10.76604, 8.48274],
			"faces": {
				"north": {"uv": [8.53125, 11.03125, 8.34375, 10.875], "texture": "#texture"},
				"east": {"uv": [8.53125, 11.03125, 8.34375, 10.875], "texture": "#texture"},
				"south": {"uv": [8.53125, 11.03125, 8.34375, 10.875], "texture": "#texture"},
				"west": {"uv": [8.53125, 11.03125, 8.34375, 10.875], "texture": "#texture"},
				"up": {"uv": [8.53125, 11.03125, 8.34375, 10.875], "texture": "#texture"},
				"down": {"uv": [8.53125, 11.03125, 8.34375, 10.875], "texture": "#texture"}
			}
		},
		{
			"name": "Element",
			"from": [7.7812, -11.1179, 8.272],
			"to": [7.94888, -10.76604, 8.48274],
			"rotation": {"angle": 22.5, "axis": "y", "origin": [7.8651, -11.01251, 8.06122]},
			"faces": {
				"north": {"uv": [8.53125, 11.03125, 8.34375, 10.875], "texture": "#texture"},
				"east": {"uv": [8.53125, 11.03125, 8.34375, 10.875], "texture": "#texture"},
				"south": {"uv": [8.53125, 11.03125, 8.34375, 10.875], "texture": "#texture"},
				"west": {"uv": [8.53125, 11.03125, 8.34375, 10.875], "texture": "#texture"},
				"up": {"uv": [8.53125, 11.03125, 8.34375, 10.875], "texture": "#texture"},
				"down": {"uv": [8.53125, 11.03125, 8.34375, 10.875], "texture": "#texture"}
			}
		},
		{
			"name": "Element",
			"from": [7.7813, -11.1179, 8.272],
			"to": [7.94898, -10.76604, 8.48274],
			"rotation": {"angle": 45, "axis": "y", "origin": [7.8651, -11.01251, 8.06122]},
			"faces": {
				"north": {"uv": [8.53125, 11.03125, 8.34375, 10.875], "texture": "#texture"},
				"east": {"uv": [8.53125, 11.03125, 8.34375, 10.875], "texture": "#texture"},
				"south": {"uv": [8.53125, 11.03125, 8.34375, 10.875], "texture": "#texture"},
				"west": {"uv": [8.53125, 11.03125, 8.34375, 10.875], "texture": "#texture"},
				"up": {"uv": [8.53125, 11.03125, 8.34375, 10.875], "texture": "#texture"},
				"down": {"uv": [8.53125, 11.03125, 8.34375, 10.875], "texture": "#texture"}
			}
		},
		{
			"name": "Element",
			"from": [7.4436, -11.1179, 7.9774],
			"to": [7.65434, -10.76604, 8.14508],
			"rotation": {"angle": -22.5, "axis": "y", "origin": [7.8651, -11.01251, 8.06122]},
			"faces": {
				"north": {"uv": [8.53125, 11.03125, 8.34375, 10.875], "texture": "#texture"},
				"east": {"uv": [8.53125, 11.03125, 8.34375, 10.875], "texture": "#texture"},
				"south": {"uv": [8.53125, 11.03125, 8.34375, 10.875], "texture": "#texture"},
				"west": {"uv": [8.53125, 11.03125, 8.34375, 10.875], "texture": "#texture"},
				"up": {"uv": [8.53125, 11.03125, 8.34375, 10.875], "texture": "#texture"},
				"down": {"uv": [8.53125, 11.03125, 8.34375, 10.875], "texture": "#texture"}
			}
		},
		{
			"name": "Element",
			"from": [7.4436, -11.1179, 7.9774],
			"to": [7.65434, -10.76604, 8.14508],
			"faces": {
				"north": {"uv": [8.53125, 11.03125, 8.34375, 10.875], "texture": "#texture"},
				"east": {"uv": [8.53125, 11.03125, 8.34375, 10.875], "texture": "#texture"},
				"south": {"uv": [8.53125, 11.03125, 8.34375, 10.875], "texture": "#texture"},
				"west": {"uv": [8.53125, 11.03125, 8.34375, 10.875], "texture": "#texture"},
				"up": {"uv": [8.53125, 11.03125, 8.34375, 10.875], "texture": "#texture"},
				"down": {"uv": [8.53125, 11.03125, 8.34375, 10.875], "texture": "#texture"}
			}
		},
		{
			"name": "Element",
			"from": [7.4436, -11.1179, 7.9774],
			"to": [7.65434, -10.76604, 8.14508],
			"rotation": {"angle": 22.5, "axis": "y", "origin": [7.8651, -11.01251, 8.06122]},
			"faces": {
				"north": {"uv": [8.53125, 11.03125, 8.34375, 10.875], "texture": "#texture"},
				"east": {"uv": [8.53125, 11.03125, 8.34375, 10.875], "texture": "#texture"},
				"south": {"uv": [8.53125, 11.03125, 8.34375, 10.875], "texture": "#texture"},
				"west": {"uv": [8.53125, 11.03125, 8.34375, 10.875], "texture": "#texture"},
				"up": {"uv": [8.53125, 11.03125, 8.34375, 10.875], "texture": "#texture"},
				"down": {"uv": [8.53125, 11.03125, 8.34375, 10.875], "texture": "#texture"}
			}
		},
		{
			"name": "Element",
			"from": [8.0758, -11.1179, 7.9774],
			"to": [8.28654, -10.76604, 8.14508],
			"rotation": {"angle": -22.5, "axis": "y", "origin": [7.8651, -11.01251, 8.06122]},
			"faces": {
				"north": {"uv": [8.53125, 11.03125, 8.34375, 10.875], "texture": "#texture"},
				"east": {"uv": [8.53125, 11.03125, 8.34375, 10.875], "texture": "#texture"},
				"south": {"uv": [8.53125, 11.03125, 8.34375, 10.875], "texture": "#texture"},
				"west": {"uv": [8.53125, 11.03125, 8.34375, 10.875], "texture": "#texture"},
				"up": {"uv": [8.53125, 11.03125, 8.34375, 10.875], "texture": "#texture"},
				"down": {"uv": [8.53125, 11.03125, 8.34375, 10.875], "texture": "#texture"}
			}
		},
		{
			"name": "Element",
			"from": [8.0758, -11.1179, 7.9774],
			"to": [8.28654, -10.76604, 8.14508],
			"faces": {
				"north": {"uv": [8.53125, 11.03125, 8.34375, 10.875], "texture": "#texture"},
				"east": {"uv": [8.53125, 11.03125, 8.34375, 10.875], "texture": "#texture"},
				"south": {"uv": [8.53125, 11.03125, 8.34375, 10.875], "texture": "#texture"},
				"west": {"uv": [8.53125, 11.03125, 8.34375, 10.875], "texture": "#texture"},
				"up": {"uv": [8.53125, 11.03125, 8.34375, 10.875], "texture": "#texture"},
				"down": {"uv": [8.53125, 11.03125, 8.34375, 10.875], "texture": "#texture"}
			}
		},
		{
			"name": "Element",
			"from": [8.0758, -11.1179, 7.9774],
			"to": [8.28654, -10.76604, 8.14508],
			"rotation": {"angle": 22.5, "axis": "y", "origin": [7.8651, -11.01251, 8.06122]},
			"faces": {
				"north": {"uv": [8.53125, 11.03125, 8.34375, 10.875], "texture": "#texture"},
				"east": {"uv": [8.53125, 11.03125, 8.34375, 10.875], "texture": "#texture"},
				"south": {"uv": [8.53125, 11.03125, 8.34375, 10.875], "texture": "#texture"},
				"west": {"uv": [8.53125, 11.03125, 8.34375, 10.875], "texture": "#texture"},
				"up": {"uv": [8.53125, 11.03125, 8.34375, 10.875], "texture": "#texture"},
				"down": {"uv": [8.53125, 11.03125, 8.34375, 10.875], "texture": "#texture"}
			}
		},
		{
			"name": "Element",
			"from": [7.5758, -11.3686, 7.7861],
			"to": [8.18144, -10.91584, 8.32562],
			"faces": {
				"north": {"uv": [8.34375, 10.875, 8.53125, 11.03125], "texture": "#texture"},
				"east": {"uv": [8.34375, 10.875, 8.53125, 11.03125], "texture": "#texture"},
				"south": {"uv": [8.34375, 10.875, 8.53125, 11.03125], "texture": "#texture"},
				"west": {"uv": [8.34375, 10.875, 8.53125, 11.03125], "texture": "#texture"},
				"up": {"uv": [8.34375, 10.875, 8.53125, 11.03125], "texture": "#texture"},
				"down": {"uv": [8.34375, 10.875, 8.53125, 11.03125], "texture": "#texture"}
			}
		},
		{
			"name": "Element",
			"from": [7.795, -10.852, 7.6741],
			"to": [7.94471, -2.88124, 7.86226],
			"rotation": {"angle": -45, "axis": "y", "origin": [7.8698, -10.75792, 8.0504]},
			"faces": {
				"north": {"uv": [14.46875, 7.28125, 15.875, 7.71875], "texture": "#texture"},
				"east": {"uv": [14.46875, 7.28125, 15.875, 7.71875], "texture": "#texture"},
				"south": {"uv": [14.46875, 7.28125, 15.875, 7.71875], "texture": "#texture"},
				"west": {"uv": [14.46875, 7.28125, 15.875, 7.71875], "texture": "#texture"},
				"up": {"uv": [14.46875, 7.28125, 15.875, 7.71875], "texture": "#texture"},
				"down": {"uv": [14.46875, 7.28125, 15.875, 7.71875], "texture": "#texture"}
			}
		},
		{
			"name": "Element",
			"from": [7.795, -10.852, 7.6741],
			"to": [7.94471, -2.88124, 7.86226],
			"rotation": {"angle": -22.5, "axis": "y", "origin": [7.8698, -10.75792, 8.0504]},
			"faces": {
				"north": {"uv": [14.46875, 7.28125, 15.875, 7.71875], "texture": "#texture"},
				"east": {"uv": [14.46875, 7.28125, 15.875, 7.71875], "texture": "#texture"},
				"south": {"uv": [14.46875, 7.28125, 15.875, 7.71875], "texture": "#texture"},
				"west": {"uv": [14.46875, 7.28125, 15.875, 7.71875], "texture": "#texture"},
				"up": {"uv": [14.46875, 7.28125, 15.875, 7.71875], "texture": "#texture"},
				"down": {"uv": [14.46875, 7.28125, 15.875, 7.71875], "texture": "#texture"}
			}
		},
		{
			"name": "Element",
			"from": [7.795, -10.852, 7.6741],
			"to": [7.94471, -2.88124, 7.86226],
			"faces": {
				"north": {"uv": [14.46875, 7.28125, 15.875, 7.71875], "texture": "#texture"},
				"east": {"uv": [14.46875, 7.28125, 15.875, 7.71875], "texture": "#texture"},
				"south": {"uv": [14.46875, 7.28125, 15.875, 7.71875], "texture": "#texture"},
				"west": {"uv": [14.46875, 7.28125, 15.875, 7.71875], "texture": "#texture"},
				"up": {"uv": [14.46875, 7.28125, 15.875, 7.71875], "texture": "#texture"},
				"down": {"uv": [14.46875, 7.28125, 15.875, 7.71875], "texture": "#texture"}
			}
		},
		{
			"name": "Element",
			"from": [7.795, -10.852, 7.6741],
			"to": [7.94471, -2.88124, 7.86226],
			"rotation": {"angle": 22.5, "axis": "y", "origin": [7.8698, -10.75792, 8.0504]},
			"faces": {
				"north": {"uv": [14.46875, 7.28125, 15.875, 7.71875], "texture": "#texture"},
				"east": {"uv": [14.46875, 7.28125, 15.875, 7.71875], "texture": "#texture"},
				"south": {"uv": [14.46875, 7.28125, 15.875, 7.71875], "texture": "#texture"},
				"west": {"uv": [14.46875, 7.28125, 15.875, 7.71875], "texture": "#texture"},
				"up": {"uv": [14.46875, 7.28125, 15.875, 7.71875], "texture": "#texture"},
				"down": {"uv": [14.46875, 7.28125, 15.875, 7.71875], "texture": "#texture"}
			}
		},
		{
			"name": "Element",
			"from": [7.795, -10.852, 7.6741],
			"to": [7.94471, -2.88124, 7.86226],
			"rotation": {"angle": 45, "axis": "y", "origin": [7.8698, -10.75792, 8.0504]},
			"faces": {
				"north": {"uv": [14.46875, 7.28125, 15.875, 7.71875], "texture": "#texture"},
				"east": {"uv": [14.46875, 7.28125, 15.875, 7.71875], "texture": "#texture"},
				"south": {"uv": [14.46875, 7.28125, 15.875, 7.71875], "texture": "#texture"},
				"west": {"uv": [14.46875, 7.28125, 15.875, 7.71875], "texture": "#texture"},
				"up": {"uv": [14.46875, 7.28125, 15.875, 7.71875], "texture": "#texture"},
				"down": {"uv": [14.46875, 7.28125, 15.875, 7.71875], "texture": "#texture"}
			}
		},
		{
			"name": "Element",
			"from": [7.795, -10.852, 8.2386],
			"to": [7.94471, -2.88124, 8.42676],
			"rotation": {"angle": -45, "axis": "y", "origin": [7.8698, -10.75792, 8.0504]},
			"faces": {
				"north": {"uv": [14.46875, 7.28125, 15.875, 7.71875], "texture": "#texture"},
				"east": {"uv": [14.46875, 7.28125, 15.875, 7.71875], "texture": "#texture"},
				"south": {"uv": [14.46875, 7.28125, 15.875, 7.71875], "texture": "#texture"},
				"west": {"uv": [14.46875, 7.28125, 15.875, 7.71875], "texture": "#texture"},
				"up": {"uv": [14.46875, 7.28125, 15.875, 7.71875], "texture": "#texture"},
				"down": {"uv": [14.46875, 7.28125, 15.875, 7.71875], "texture": "#texture"}
			}
		},
		{
			"name": "Element",
			"from": [7.795, -10.852, 8.2386],
			"to": [7.94471, -2.88124, 8.42676],
			"rotation": {"angle": -22.5, "axis": "y", "origin": [7.8698, -10.75792, 8.0504]},
			"faces": {
				"north": {"uv": [14.46875, 7.28125, 15.875, 7.71875], "texture": "#texture"},
				"east": {"uv": [14.46875, 7.28125, 15.875, 7.71875], "texture": "#texture"},
				"south": {"uv": [14.46875, 7.28125, 15.875, 7.71875], "texture": "#texture"},
				"west": {"uv": [14.46875, 7.28125, 15.875, 7.71875], "texture": "#texture"},
				"up": {"uv": [14.46875, 7.28125, 15.875, 7.71875], "texture": "#texture"},
				"down": {"uv": [14.46875, 7.28125, 15.875, 7.71875], "texture": "#texture"}
			}
		},
		{
			"name": "Element",
			"from": [7.795, -10.852, 8.2386],
			"to": [7.94471, -2.88124, 8.42676],
			"faces": {
				"north": {"uv": [14.46875, 7.28125, 15.875, 7.71875], "texture": "#texture"},
				"east": {"uv": [14.46875, 7.28125, 15.875, 7.71875], "texture": "#texture"},
				"south": {"uv": [14.46875, 7.28125, 15.875, 7.71875], "texture": "#texture"},
				"west": {"uv": [14.46875, 7.28125, 15.875, 7.71875], "texture": "#texture"},
				"up": {"uv": [14.46875, 7.28125, 15.875, 7.71875], "texture": "#texture"},
				"down": {"uv": [14.46875, 7.28125, 15.875, 7.71875], "texture": "#texture"}
			}
		},
		{
			"name": "Element",
			"from": [7.795, -10.852, 8.2386],
			"to": [7.94471, -2.88124, 8.42676],
			"rotation": {"angle": 22.5, "axis": "y", "origin": [7.8698, -10.75792, 8.0504]},
			"faces": {
				"north": {"uv": [14.46875, 7.28125, 15.875, 7.71875], "texture": "#texture"},
				"east": {"uv": [14.46875, 7.28125, 15.875, 7.71875], "texture": "#texture"},
				"south": {"uv": [14.46875, 7.28125, 15.875, 7.71875], "texture": "#texture"},
				"west": {"uv": [14.46875, 7.28125, 15.875, 7.71875], "texture": "#texture"},
				"up": {"uv": [14.46875, 7.28125, 15.875, 7.71875], "texture": "#texture"},
				"down": {"uv": [14.46875, 7.28125, 15.875, 7.71875], "texture": "#texture"}
			}
		},
		{
			"name": "Element",
			"from": [7.795, -10.852, 8.2386],
			"to": [7.94471, -2.88124, 8.42676],
			"rotation": {"angle": 45, "axis": "y", "origin": [7.8698, -10.75792, 8.0504]},
			"faces": {
				"north": {"uv": [14.46875, 7.28125, 15.875, 7.71875], "texture": "#texture"},
				"east": {"uv": [14.46875, 7.28125, 15.875, 7.71875], "texture": "#texture"},
				"south": {"uv": [14.46875, 7.28125, 15.875, 7.71875], "texture": "#texture"},
				"west": {"uv": [14.46875, 7.28125, 15.875, 7.71875], "texture": "#texture"},
				"up": {"uv": [14.46875, 7.28125, 15.875, 7.71875], "texture": "#texture"},
				"down": {"uv": [14.46875, 7.28125, 15.875, 7.71875], "texture": "#texture"}
			}
		},
		{
			"name": "Element",
			"from": [7.4935, -10.852, 7.9756],
			"to": [7.68166, -2.88124, 8.12531],
			"rotation": {"angle": -22.5, "axis": "y", "origin": [7.8698, -10.75792, 8.0504]},
			"faces": {
				"north": {"uv": [14.46875, 7.28125, 15.875, 7.71875], "texture": "#texture"},
				"east": {"uv": [14.46875, 7.28125, 15.875, 7.71875], "texture": "#texture"},
				"south": {"uv": [14.46875, 7.28125, 15.875, 7.71875], "texture": "#texture"},
				"west": {"uv": [14.46875, 7.28125, 15.875, 7.71875], "texture": "#texture"},
				"up": {"uv": [14.46875, 7.28125, 15.875, 7.71875], "texture": "#texture"},
				"down": {"uv": [14.46875, 7.28125, 15.875, 7.71875], "texture": "#texture"}
			}
		},
		{
			"name": "Element",
			"from": [7.4935, -10.852, 7.9756],
			"to": [7.68166, -2.88124, 8.12531],
			"faces": {
				"north": {"uv": [14.46875, 7.28125, 15.875, 7.71875], "texture": "#texture"},
				"east": {"uv": [14.46875, 7.28125, 15.875, 7.71875], "texture": "#texture"},
				"south": {"uv": [14.46875, 7.28125, 15.875, 7.71875], "texture": "#texture"},
				"west": {"uv": [14.46875, 7.28125, 15.875, 7.71875], "texture": "#texture"},
				"up": {"uv": [14.46875, 7.28125, 15.875, 7.71875], "texture": "#texture"},
				"down": {"uv": [14.46875, 7.28125, 15.875, 7.71875], "texture": "#texture"}
			}
		},
		{
			"name": "Element",
			"from": [7.4935, -10.852, 7.9756],
			"to": [7.68166, -2.88124, 8.12531],
			"rotation": {"angle": 22.5, "axis": "y", "origin": [7.8698, -10.75792, 8.0504]},
			"faces": {
				"north": {"uv": [14.46875, 7.28125, 15.875, 7.71875], "texture": "#texture"},
				"east": {"uv": [14.46875, 7.28125, 15.875, 7.71875], "texture": "#texture"},
				"south": {"uv": [14.46875, 7.28125, 15.875, 7.71875], "texture": "#texture"},
				"west": {"uv": [14.46875, 7.28125, 15.875, 7.71875], "texture": "#texture"},
				"up": {"uv": [14.46875, 7.28125, 15.875, 7.71875], "texture": "#texture"},
				"down": {"uv": [14.46875, 7.28125, 15.875, 7.71875], "texture": "#texture"}
			}
		},
		{
			"name": "Element",
			"from": [8.058, -10.852, 7.9756],
			"to": [8.24616, -2.88124, 8.12531],
			"rotation": {"angle": -22.5, "axis": "y", "origin": [7.8698, -10.75792, 8.0504]},
			"faces": {
				"north": {"uv": [14.46875, 7.28125, 15.875, 7.71875], "texture": "#texture"},
				"east": {"uv": [14.46875, 7.28125, 15.875, 7.71875], "texture": "#texture"},
				"south": {"uv": [14.46875, 7.28125, 15.875, 7.71875], "texture": "#texture"},
				"west": {"uv": [14.46875, 7.28125, 15.875, 7.71875], "texture": "#texture"},
				"up": {"uv": [14.46875, 7.28125, 15.875, 7.71875], "texture": "#texture"},
				"down": {"uv": [14.46875, 7.28125, 15.875, 7.71875], "texture": "#texture"}
			}
		},
		{
			"name": "Element",
			"from": [8.058, -10.852, 7.9756],
			"to": [8.24616, -2.88124, 8.12531],
			"faces": {
				"north": {"uv": [14.46875, 7.28125, 15.875, 7.71875], "texture": "#texture"},
				"east": {"uv": [14.46875, 7.28125, 15.875, 7.71875], "texture": "#texture"},
				"south": {"uv": [14.46875, 7.28125, 15.875, 7.71875], "texture": "#texture"},
				"west": {"uv": [14.46875, 7.28125, 15.875, 7.71875], "texture": "#texture"},
				"up": {"uv": [14.46875, 7.28125, 15.875, 7.71875], "texture": "#texture"},
				"down": {"uv": [14.46875, 7.28125, 15.875, 7.71875], "texture": "#texture"}
			}
		},
		{
			"name": "Element",
			"from": [8.058, -10.852, 7.9756],
			"to": [8.24616, -2.88124, 8.12531],
			"rotation": {"angle": 22.5, "axis": "y", "origin": [7.8698, -10.75792, 8.0504]},
			"faces": {
				"north": {"uv": [14.46875, 7.28125, 15.875, 7.71875], "texture": "#texture"},
				"east": {"uv": [14.46875, 7.28125, 15.875, 7.71875], "texture": "#texture"},
				"south": {"uv": [14.46875, 7.28125, 15.875, 7.71875], "texture": "#texture"},
				"west": {"uv": [14.46875, 7.28125, 15.875, 7.71875], "texture": "#texture"},
				"up": {"uv": [14.46875, 7.28125, 15.875, 7.71875], "texture": "#texture"},
				"down": {"uv": [14.46875, 7.28125, 15.875, 7.71875], "texture": "#texture"}
			}
		},
		{
			"name": "Element",
			"from": [7.7812, -9.1019, 7.6397],
			"to": [7.94888, -8.75004, 7.85044],
			"rotation": {"angle": -45, "axis": "y", "origin": [7.8651, -8.99651, 8.06122]},
			"faces": {
				"north": {"uv": [8.53125, 11.03125, 8.34375, 10.875], "texture": "#texture"},
				"east": {"uv": [8.53125, 11.03125, 8.34375, 10.875], "texture": "#texture"},
				"south": {"uv": [8.53125, 11.03125, 8.34375, 10.875], "texture": "#texture"},
				"west": {"uv": [8.53125, 11.03125, 8.34375, 10.875], "texture": "#texture"},
				"up": {"uv": [8.53125, 11.03125, 8.34375, 10.875], "texture": "#texture"},
				"down": {"uv": [8.53125, 11.03125, 8.34375, 10.875], "texture": "#texture"}
			}
		},
		{
			"name": "Element",
			"from": [7.7812, -9.1019, 7.6397],
			"to": [7.94888, -8.75004, 7.85044],
			"rotation": {"angle": -22.5, "axis": "y", "origin": [7.8651, -8.99651, 8.06122]},
			"faces": {
				"north": {"uv": [8.53125, 11.03125, 8.34375, 10.875], "texture": "#texture"},
				"east": {"uv": [8.53125, 11.03125, 8.34375, 10.875], "texture": "#texture"},
				"south": {"uv": [8.53125, 11.03125, 8.34375, 10.875], "texture": "#texture"},
				"west": {"uv": [8.53125, 11.03125, 8.34375, 10.875], "texture": "#texture"},
				"up": {"uv": [8.53125, 11.03125, 8.34375, 10.875], "texture": "#texture"},
				"down": {"uv": [8.53125, 11.03125, 8.34375, 10.875], "texture": "#texture"}
			}
		},
		{
			"name": "Element",
			"from": [7.7812, -9.1019, 7.6397],
			"to": [7.94888, -8.75004, 7.85044],
			"faces": {
				"north": {"uv": [8.53125, 11.03125, 8.34375, 10.875], "texture": "#texture"},
				"east": {"uv": [8.53125, 11.03125, 8.34375, 10.875], "texture": "#texture"},
				"south": {"uv": [8.53125, 11.03125, 8.34375, 10.875], "texture": "#texture"},
				"west": {"uv": [8.53125, 11.03125, 8.34375, 10.875], "texture": "#texture"},
				"up": {"uv": [8.53125, 11.03125, 8.34375, 10.875], "texture": "#texture"},
				"down": {"uv": [8.53125, 11.03125, 8.34375, 10.875], "texture": "#texture"}
			}
		},
		{
			"name": "Element",
			"from": [7.7812, -9.1019, 7.6397],
			"to": [7.94888, -8.75004, 7.85044],
			"rotation": {"angle": 22.5, "axis": "y", "origin": [7.8651, -8.99651, 8.06122]},
			"faces": {
				"north": {"uv": [8.53125, 11.03125, 8.34375, 10.875], "texture": "#texture"},
				"east": {"uv": [8.53125, 11.03125, 8.34375, 10.875], "texture": "#texture"},
				"south": {"uv": [8.53125, 11.03125, 8.34375, 10.875], "texture": "#texture"},
				"west": {"uv": [8.53125, 11.03125, 8.34375, 10.875], "texture": "#texture"},
				"up": {"uv": [8.53125, 11.03125, 8.34375, 10.875], "texture": "#texture"},
				"down": {"uv": [8.53125, 11.03125, 8.34375, 10.875], "texture": "#texture"}
			}
		},
		{
			"name": "Element",
			"from": [7.7812, -9.1019, 7.6397],
			"to": [7.94888, -8.75004, 7.85044],
			"rotation": {"angle": 45, "axis": "y", "origin": [7.8651, -8.99651, 8.06122]},
			"faces": {
				"north": {"uv": [8.53125, 11.03125, 8.34375, 10.875], "texture": "#texture"},
				"east": {"uv": [8.53125, 11.03125, 8.34375, 10.875], "texture": "#texture"},
				"south": {"uv": [8.53125, 11.03125, 8.34375, 10.875], "texture": "#texture"},
				"west": {"uv": [8.53125, 11.03125, 8.34375, 10.875], "texture": "#texture"},
				"up": {"uv": [8.53125, 11.03125, 8.34375, 10.875], "texture": "#texture"},
				"down": {"uv": [8.53125, 11.03125, 8.34375, 10.875], "texture": "#texture"}
			}
		},
		{
			"name": "Element",
			"from": [7.7812, -9.1019, 8.272],
			"to": [7.94888, -8.75004, 8.48274],
			"rotation": {"angle": -45, "axis": "y", "origin": [7.8651, -8.99651, 8.06122]},
			"faces": {
				"north": {"uv": [8.53125, 11.03125, 8.34375, 10.875], "texture": "#texture"},
				"east": {"uv": [8.53125, 11.03125, 8.34375, 10.875], "texture": "#texture"},
				"south": {"uv": [8.53125, 11.03125, 8.34375, 10.875], "texture": "#texture"},
				"west": {"uv": [8.53125, 11.03125, 8.34375, 10.875], "texture": "#texture"},
				"up": {"uv": [8.53125, 11.03125, 8.34375, 10.875], "texture": "#texture"},
				"down": {"uv": [8.53125, 11.03125, 8.34375, 10.875], "texture": "#texture"}
			}
		},
		{
			"name": "Element",
			"from": [7.7812, -9.1019, 8.272],
			"to": [7.94888, -8.75004, 8.48274],
			"rotation": {"angle": -22.5, "axis": "y", "origin": [7.8651, -8.99651, 8.06122]},
			"faces": {
				"north": {"uv": [8.53125, 11.03125, 8.34375, 10.875], "texture": "#texture"},
				"east": {"uv": [8.53125, 11.03125, 8.34375, 10.875], "texture": "#texture"},
				"south": {"uv": [8.53125, 11.03125, 8.34375, 10.875], "texture": "#texture"},
				"west": {"uv": [8.53125, 11.03125, 8.34375, 10.875], "texture": "#texture"},
				"up": {"uv": [8.53125, 11.03125, 8.34375, 10.875], "texture": "#texture"},
				"down": {"uv": [8.53125, 11.03125, 8.34375, 10.875], "texture": "#texture"}
			}
		},
		{
			"name": "Element",
			"from": [7.7812, -9.1019, 8.272],
			"to": [7.94888, -8.75004, 8.48274],
			"faces": {
				"north": {"uv": [8.53125, 11.03125, 8.34375, 10.875], "texture": "#texture"},
				"east": {"uv": [8.53125, 11.03125, 8.34375, 10.875], "texture": "#texture"},
				"south": {"uv": [8.53125, 11.03125, 8.34375, 10.875], "texture": "#texture"},
				"west": {"uv": [8.53125, 11.03125, 8.34375, 10.875], "texture": "#texture"},
				"up": {"uv": [8.53125, 11.03125, 8.34375, 10.875], "texture": "#texture"},
				"down": {"uv": [8.53125, 11.03125, 8.34375, 10.875], "texture": "#texture"}
			}
		},
		{
			"name": "Element",
			"from": [7.7812, -9.1019, 8.272],
			"to": [7.94888, -8.75004, 8.48274],
			"rotation": {"angle": 22.5, "axis": "y", "origin": [7.8651, -8.99651, 8.06122]},
			"faces": {
				"north": {"uv": [8.53125, 11.03125, 8.34375, 10.875], "texture": "#texture"},
				"east": {"uv": [8.53125, 11.03125, 8.34375, 10.875], "texture": "#texture"},
				"south": {"uv": [8.53125, 11.03125, 8.34375, 10.875], "texture": "#texture"},
				"west": {"uv": [8.53125, 11.03125, 8.34375, 10.875], "texture": "#texture"},
				"up": {"uv": [8.53125, 11.03125, 8.34375, 10.875], "texture": "#texture"},
				"down": {"uv": [8.53125, 11.03125, 8.34375, 10.875], "texture": "#texture"}
			}
		},
		{
			"name": "Element",
			"from": [7.7813, -9.1019, 8.272],
			"to": [7.94898, -8.75004, 8.48274],
			"rotation": {"angle": 45, "axis": "y", "origin": [7.8651, -8.99651, 8.06122]},
			"faces": {
				"north": {"uv": [8.53125, 11.03125, 8.34375, 10.875], "texture": "#texture"},
				"east": {"uv": [8.53125, 11.03125, 8.34375, 10.875], "texture": "#texture"},
				"south": {"uv": [8.53125, 11.03125, 8.34375, 10.875], "texture": "#texture"},
				"west": {"uv": [8.53125, 11.03125, 8.34375, 10.875], "texture": "#texture"},
				"up": {"uv": [8.53125, 11.03125, 8.34375, 10.875], "texture": "#texture"},
				"down": {"uv": [8.53125, 11.03125, 8.34375, 10.875], "texture": "#texture"}
			}
		},
		{
			"name": "Element",
			"from": [7.4436, -9.1019, 7.9774],
			"to": [7.65434, -8.75004, 8.14508],
			"rotation": {"angle": -22.5, "axis": "y", "origin": [7.8651, -8.99651, 8.06122]},
			"faces": {
				"north": {"uv": [8.53125, 11.03125, 8.34375, 10.875], "texture": "#texture"},
				"east": {"uv": [8.53125, 11.03125, 8.34375, 10.875], "texture": "#texture"},
				"south": {"uv": [8.53125, 11.03125, 8.34375, 10.875], "texture": "#texture"},
				"west": {"uv": [8.53125, 11.03125, 8.34375, 10.875], "texture": "#texture"},
				"up": {"uv": [8.53125, 11.03125, 8.34375, 10.875], "texture": "#texture"},
				"down": {"uv": [8.53125, 11.03125, 8.34375, 10.875], "texture": "#texture"}
			}
		},
		{
			"name": "Element",
			"from": [7.4436, -9.1019, 7.9774],
			"to": [7.65434, -8.75004, 8.14508],
			"faces": {
				"north": {"uv": [8.53125, 11.03125, 8.34375, 10.875], "texture": "#texture"},
				"east": {"uv": [8.53125, 11.03125, 8.34375, 10.875], "texture": "#texture"},
				"south": {"uv": [8.53125, 11.03125, 8.34375, 10.875], "texture": "#texture"},
				"west": {"uv": [8.53125, 11.03125, 8.34375, 10.875], "texture": "#texture"},
				"up": {"uv": [8.53125, 11.03125, 8.34375, 10.875], "texture": "#texture"},
				"down": {"uv": [8.53125, 11.03125, 8.34375, 10.875], "texture": "#texture"}
			}
		},
		{
			"name": "Element",
			"from": [7.4436, -9.1019, 7.9774],
			"to": [7.65434, -8.75004, 8.14508],
			"rotation": {"angle": 22.5, "axis": "y", "origin": [7.8651, -8.99651, 8.06122]},
			"faces": {
				"north": {"uv": [8.53125, 11.03125, 8.34375, 10.875], "texture": "#texture"},
				"east": {"uv": [8.53125, 11.03125, 8.34375, 10.875], "texture": "#texture"},
				"south": {"uv": [8.53125, 11.03125, 8.34375, 10.875], "texture": "#texture"},
				"west": {"uv": [8.53125, 11.03125, 8.34375, 10.875], "texture": "#texture"},
				"up": {"uv": [8.53125, 11.03125, 8.34375, 10.875], "texture": "#texture"},
				"down": {"uv": [8.53125, 11.03125, 8.34375, 10.875], "texture": "#texture"}
			}
		},
		{
			"name": "Element",
			"from": [8.0758, -9.1019, 7.9774],
			"to": [8.28654, -8.75004, 8.14508],
			"rotation": {"angle": -22.5, "axis": "y", "origin": [7.8651, -8.99651, 8.06122]},
			"faces": {
				"north": {"uv": [8.53125, 11.03125, 8.34375, 10.875], "texture": "#texture"},
				"east": {"uv": [8.53125, 11.03125, 8.34375, 10.875], "texture": "#texture"},
				"south": {"uv": [8.53125, 11.03125, 8.34375, 10.875], "texture": "#texture"},
				"west": {"uv": [8.53125, 11.03125, 8.34375, 10.875], "texture": "#texture"},
				"up": {"uv": [8.53125, 11.03125, 8.34375, 10.875], "texture": "#texture"},
				"down": {"uv": [8.53125, 11.03125, 8.34375, 10.875], "texture": "#texture"}
			}
		},
		{
			"name": "Element",
			"from": [8.0758, -9.1019, 7.9774],
			"to": [8.28654, -8.75004, 8.14508],
			"faces": {
				"north": {"uv": [8.53125, 11.03125, 8.34375, 10.875], "texture": "#texture"},
				"east": {"uv": [8.53125, 11.03125, 8.34375, 10.875], "texture": "#texture"},
				"south": {"uv": [8.53125, 11.03125, 8.34375, 10.875], "texture": "#texture"},
				"west": {"uv": [8.53125, 11.03125, 8.34375, 10.875], "texture": "#texture"},
				"up": {"uv": [8.53125, 11.03125, 8.34375, 10.875], "texture": "#texture"},
				"down": {"uv": [8.53125, 11.03125, 8.34375, 10.875], "texture": "#texture"}
			}
		},
		{
			"name": "Element",
			"from": [8.0758, -9.1019, 7.9774],
			"to": [8.28654, -8.75004, 8.14508],
			"rotation": {"angle": 22.5, "axis": "y", "origin": [7.8651, -8.99651, 8.06122]},
			"faces": {
				"north": {"uv": [8.53125, 11.03125, 8.34375, 10.875], "texture": "#texture"},
				"east": {"uv": [8.53125, 11.03125, 8.34375, 10.875], "texture": "#texture"},
				"south": {"uv": [8.53125, 11.03125, 8.34375, 10.875], "texture": "#texture"},
				"west": {"uv": [8.53125, 11.03125, 8.34375, 10.875], "texture": "#texture"},
				"up": {"uv": [8.53125, 11.03125, 8.34375, 10.875], "texture": "#texture"},
				"down": {"uv": [8.53125, 11.03125, 8.34375, 10.875], "texture": "#texture"}
			}
		},
		{
			"name": "Element",
			"from": [8.0758, -5.6789, 7.9774],
			"to": [8.28654, -5.32704, 8.14508],
			"rotation": {"angle": 22.5, "axis": "y", "origin": [7.8651, -5.57351, 8.06122]},
			"faces": {
				"north": {"uv": [8.53125, 11.03125, 8.34375, 10.875], "texture": "#texture"},
				"east": {"uv": [8.53125, 11.03125, 8.34375, 10.875], "texture": "#texture"},
				"south": {"uv": [8.53125, 11.03125, 8.34375, 10.875], "texture": "#texture"},
				"west": {"uv": [8.53125, 11.03125, 8.34375, 10.875], "texture": "#texture"},
				"up": {"uv": [8.53125, 11.03125, 8.34375, 10.875], "texture": "#texture"},
				"down": {"uv": [8.53125, 11.03125, 8.34375, 10.875], "texture": "#texture"}
			}
		},
		{
			"name": "Element",
			"from": [7.7812, -5.6789, 7.6397],
			"to": [7.94888, -5.32704, 7.85044],
			"faces": {
				"north": {"uv": [8.53125, 11.03125, 8.34375, 10.875], "texture": "#texture"},
				"east": {"uv": [8.53125, 11.03125, 8.34375, 10.875], "texture": "#texture"},
				"south": {"uv": [8.53125, 11.03125, 8.34375, 10.875], "texture": "#texture"},
				"west": {"uv": [8.53125, 11.03125, 8.34375, 10.875], "texture": "#texture"},
				"up": {"uv": [8.53125, 11.03125, 8.34375, 10.875], "texture": "#texture"},
				"down": {"uv": [8.53125, 11.03125, 8.34375, 10.875], "texture": "#texture"}
			}
		},
		{
			"name": "Element",
			"from": [7.7812, -5.6789, 7.6397],
			"to": [7.94888, -5.32704, 7.85044],
			"rotation": {"angle": 22.5, "axis": "y", "origin": [7.8651, -5.57351, 8.06122]},
			"faces": {
				"north": {"uv": [8.53125, 11.03125, 8.34375, 10.875], "texture": "#texture"},
				"east": {"uv": [8.53125, 11.03125, 8.34375, 10.875], "texture": "#texture"},
				"south": {"uv": [8.53125, 11.03125, 8.34375, 10.875], "texture": "#texture"},
				"west": {"uv": [8.53125, 11.03125, 8.34375, 10.875], "texture": "#texture"},
				"up": {"uv": [8.53125, 11.03125, 8.34375, 10.875], "texture": "#texture"},
				"down": {"uv": [8.53125, 11.03125, 8.34375, 10.875], "texture": "#texture"}
			}
		},
		{
			"name": "Element",
			"from": [7.7812, -5.6789, 7.6397],
			"to": [7.94888, -5.32704, 7.85044],
			"rotation": {"angle": 45, "axis": "y", "origin": [7.8651, -5.57351, 8.06122]},
			"faces": {
				"north": {"uv": [8.53125, 11.03125, 8.34375, 10.875], "texture": "#texture"},
				"east": {"uv": [8.53125, 11.03125, 8.34375, 10.875], "texture": "#texture"},
				"south": {"uv": [8.53125, 11.03125, 8.34375, 10.875], "texture": "#texture"},
				"west": {"uv": [8.53125, 11.03125, 8.34375, 10.875], "texture": "#texture"},
				"up": {"uv": [8.53125, 11.03125, 8.34375, 10.875], "texture": "#texture"},
				"down": {"uv": [8.53125, 11.03125, 8.34375, 10.875], "texture": "#texture"}
			}
		},
		{
			"name": "Element",
			"from": [7.7812, -5.6789, 8.272],
			"to": [7.94888, -5.32704, 8.48274],
			"rotation": {"angle": -45, "axis": "y", "origin": [7.8651, -5.57351, 8.06122]},
			"faces": {
				"north": {"uv": [8.53125, 11.03125, 8.34375, 10.875], "texture": "#texture"},
				"east": {"uv": [8.53125, 11.03125, 8.34375, 10.875], "texture": "#texture"},
				"south": {"uv": [8.53125, 11.03125, 8.34375, 10.875], "texture": "#texture"},
				"west": {"uv": [8.53125, 11.03125, 8.34375, 10.875], "texture": "#texture"},
				"up": {"uv": [8.53125, 11.03125, 8.34375, 10.875], "texture": "#texture"},
				"down": {"uv": [8.53125, 11.03125, 8.34375, 10.875], "texture": "#texture"}
			}
		},
		{
			"name": "Element",
			"from": [7.7812, -5.6789, 8.272],
			"to": [7.94888, -5.32704, 8.48274],
			"rotation": {"angle": -22.5, "axis": "y", "origin": [7.8651, -5.57351, 8.06122]},
			"faces": {
				"north": {"uv": [8.53125, 11.03125, 8.34375, 10.875], "texture": "#texture"},
				"east": {"uv": [8.53125, 11.03125, 8.34375, 10.875], "texture": "#texture"},
				"south": {"uv": [8.53125, 11.03125, 8.34375, 10.875], "texture": "#texture"},
				"west": {"uv": [8.53125, 11.03125, 8.34375, 10.875], "texture": "#texture"},
				"up": {"uv": [8.53125, 11.03125, 8.34375, 10.875], "texture": "#texture"},
				"down": {"uv": [8.53125, 11.03125, 8.34375, 10.875], "texture": "#texture"}
			}
		},
		{
			"name": "Element",
			"from": [7.7812, -5.6789, 8.272],
			"to": [7.94888, -5.32704, 8.48274],
			"faces": {
				"north": {"uv": [8.53125, 11.03125, 8.34375, 10.875], "texture": "#texture"},
				"east": {"uv": [8.53125, 11.03125, 8.34375, 10.875], "texture": "#texture"},
				"south": {"uv": [8.53125, 11.03125, 8.34375, 10.875], "texture": "#texture"},
				"west": {"uv": [8.53125, 11.03125, 8.34375, 10.875], "texture": "#texture"},
				"up": {"uv": [8.53125, 11.03125, 8.34375, 10.875], "texture": "#texture"},
				"down": {"uv": [8.53125, 11.03125, 8.34375, 10.875], "texture": "#texture"}
			}
		},
		{
			"name": "Element",
			"from": [7.7812, -5.6789, 8.272],
			"to": [7.94888, -5.32704, 8.48274],
			"rotation": {"angle": 22.5, "axis": "y", "origin": [7.8651, -5.57351, 8.06122]},
			"faces": {
				"north": {"uv": [8.53125, 11.03125, 8.34375, 10.875], "texture": "#texture"},
				"east": {"uv": [8.53125, 11.03125, 8.34375, 10.875], "texture": "#texture"},
				"south": {"uv": [8.53125, 11.03125, 8.34375, 10.875], "texture": "#texture"},
				"west": {"uv": [8.53125, 11.03125, 8.34375, 10.875], "texture": "#texture"},
				"up": {"uv": [8.53125, 11.03125, 8.34375, 10.875], "texture": "#texture"},
				"down": {"uv": [8.53125, 11.03125, 8.34375, 10.875], "texture": "#texture"}
			}
		},
		{
			"name": "Element",
			"from": [7.7813, -5.6789, 8.272],
			"to": [7.94898, -5.32704, 8.48274],
			"rotation": {"angle": 45, "axis": "y", "origin": [7.8651, -5.57351, 8.06122]},
			"faces": {
				"north": {"uv": [8.53125, 11.03125, 8.34375, 10.875], "texture": "#texture"},
				"east": {"uv": [8.53125, 11.03125, 8.34375, 10.875], "texture": "#texture"},
				"south": {"uv": [8.53125, 11.03125, 8.34375, 10.875], "texture": "#texture"},
				"west": {"uv": [8.53125, 11.03125, 8.34375, 10.875], "texture": "#texture"},
				"up": {"uv": [8.53125, 11.03125, 8.34375, 10.875], "texture": "#texture"},
				"down": {"uv": [8.53125, 11.03125, 8.34375, 10.875], "texture": "#texture"}
			}
		},
		{
			"name": "Element",
			"from": [7.4436, -5.6789, 7.9774],
			"to": [7.65434, -5.32704, 8.14508],
			"rotation": {"angle": -22.5, "axis": "y", "origin": [7.8651, -5.57351, 8.06122]},
			"faces": {
				"north": {"uv": [8.53125, 11.03125, 8.34375, 10.875], "texture": "#texture"},
				"east": {"uv": [8.53125, 11.03125, 8.34375, 10.875], "texture": "#texture"},
				"south": {"uv": [8.53125, 11.03125, 8.34375, 10.875], "texture": "#texture"},
				"west": {"uv": [8.53125, 11.03125, 8.34375, 10.875], "texture": "#texture"},
				"up": {"uv": [8.53125, 11.03125, 8.34375, 10.875], "texture": "#texture"},
				"down": {"uv": [8.53125, 11.03125, 8.34375, 10.875], "texture": "#texture"}
			}
		},
		{
			"name": "Element",
			"from": [7.4436, -5.6789, 7.9774],
			"to": [7.65434, -5.32704, 8.14508],
			"faces": {
				"north": {"uv": [8.53125, 11.03125, 8.34375, 10.875], "texture": "#texture"},
				"east": {"uv": [8.53125, 11.03125, 8.34375, 10.875], "texture": "#texture"},
				"south": {"uv": [8.53125, 11.03125, 8.34375, 10.875], "texture": "#texture"},
				"west": {"uv": [8.53125, 11.03125, 8.34375, 10.875], "texture": "#texture"},
				"up": {"uv": [8.53125, 11.03125, 8.34375, 10.875], "texture": "#texture"},
				"down": {"uv": [8.53125, 11.03125, 8.34375, 10.875], "texture": "#texture"}
			}
		},
		{
			"name": "Element",
			"from": [7.4436, -5.6789, 7.9774],
			"to": [7.65434, -5.32704, 8.14508],
			"rotation": {"angle": 22.5, "axis": "y", "origin": [7.8651, -5.57351, 8.06122]},
			"faces": {
				"north": {"uv": [8.53125, 11.03125, 8.34375, 10.875], "texture": "#texture"},
				"east": {"uv": [8.53125, 11.03125, 8.34375, 10.875], "texture": "#texture"},
				"south": {"uv": [8.53125, 11.03125, 8.34375, 10.875], "texture": "#texture"},
				"west": {"uv": [8.53125, 11.03125, 8.34375, 10.875], "texture": "#texture"},
				"up": {"uv": [8.53125, 11.03125, 8.34375, 10.875], "texture": "#texture"},
				"down": {"uv": [8.53125, 11.03125, 8.34375, 10.875], "texture": "#texture"}
			}
		},
		{
			"name": "Element",
			"from": [8.0758, -5.6789, 7.9774],
			"to": [8.28654, -5.32704, 8.14508],
			"rotation": {"angle": -22.5, "axis": "y", "origin": [7.8651, -5.57351, 8.06122]},
			"faces": {
				"north": {"uv": [8.53125, 11.03125, 8.34375, 10.875], "texture": "#texture"},
				"east": {"uv": [8.53125, 11.03125, 8.34375, 10.875], "texture": "#texture"},
				"south": {"uv": [8.53125, 11.03125, 8.34375, 10.875], "texture": "#texture"},
				"west": {"uv": [8.53125, 11.03125, 8.34375, 10.875], "texture": "#texture"},
				"up": {"uv": [8.53125, 11.03125, 8.34375, 10.875], "texture": "#texture"},
				"down": {"uv": [8.53125, 11.03125, 8.34375, 10.875], "texture": "#texture"}
			}
		},
		{
			"name": "Element",
			"from": [8.0758, -5.6789, 7.9774],
			"to": [8.28654, -5.32704, 8.14508],
			"faces": {
				"north": {"uv": [8.53125, 11.03125, 8.34375, 10.875], "texture": "#texture"},
				"east": {"uv": [8.53125, 11.03125, 8.34375, 10.875], "texture": "#texture"},
				"south": {"uv": [8.53125, 11.03125, 8.34375, 10.875], "texture": "#texture"},
				"west": {"uv": [8.53125, 11.03125, 8.34375, 10.875], "texture": "#texture"},
				"up": {"uv": [8.53125, 11.03125, 8.34375, 10.875], "texture": "#texture"},
				"down": {"uv": [8.53125, 11.03125, 8.34375, 10.875], "texture": "#texture"}
			}
		},
		{
			"name": "Element",
			"from": [7.7812, -5.6789, 7.6397],
			"to": [7.94888, -5.32704, 7.85044],
			"rotation": {"angle": -22.5, "axis": "y", "origin": [7.8651, -5.57351, 8.06122]},
			"faces": {
				"north": {"uv": [8.53125, 11.03125, 8.34375, 10.875], "texture": "#texture"},
				"east": {"uv": [8.53125, 11.03125, 8.34375, 10.875], "texture": "#texture"},
				"south": {"uv": [8.53125, 11.03125, 8.34375, 10.875], "texture": "#texture"},
				"west": {"uv": [8.53125, 11.03125, 8.34375, 10.875], "texture": "#texture"},
				"up": {"uv": [8.53125, 11.03125, 8.34375, 10.875], "texture": "#texture"},
				"down": {"uv": [8.53125, 11.03125, 8.34375, 10.875], "texture": "#texture"}
			}
		},
		{
			"name": "Element",
			"from": [7.7812, -5.6789, 7.6397],
			"to": [7.94888, -5.32704, 7.85044],
			"rotation": {"angle": -45, "axis": "y", "origin": [7.8651, -5.57351, 8.06122]},
			"faces": {
				"north": {"uv": [8.53125, 11.03125, 8.34375, 10.875], "texture": "#texture"},
				"east": {"uv": [8.53125, 11.03125, 8.34375, 10.875], "texture": "#texture"},
				"south": {"uv": [8.53125, 11.03125, 8.34375, 10.875], "texture": "#texture"},
				"west": {"uv": [8.53125, 11.03125, 8.34375, 10.875], "texture": "#texture"},
				"up": {"uv": [8.53125, 11.03125, 8.34375, 10.875], "texture": "#texture"},
				"down": {"uv": [8.53125, 11.03125, 8.34375, 10.875], "texture": "#texture"}
			}
		},
		{
			"name": "Element",
			"from": [7.6824, -3.1033, 7.731],
			"to": [8.04696, -1.72738, 8.03088],
			"rotation": {"angle": -22.5, "axis": "x", "origin": [7.79496, -3.19108, 7.87974]},
			"faces": {
				"north": {"uv": [8.53125, 11.03125, 8.34375, 10.875], "texture": "#texture"},
				"east": {"uv": [8.34375, 10.875, 8.53125, 11.03125], "rotation": 90, "texture": "#texture"},
				"south": {"uv": [8.34375, 10.875, 8.53125, 11.03125], "texture": "#texture"},
				"west": {"uv": [8.34375, 10.875, 8.53125, 11.03125], "rotation": 270, "texture": "#texture"},
				"up": {"uv": [8.34375, 10.875, 8.53125, 11.03125], "texture": "#texture"},
				"down": {"uv": [8.53125, 11.03125, 8.34375, 10.875], "texture": "#texture"}
			}
		},
		{
			"name": "Element",
			"from": [7.6824, -3.2459, 8.0416],
			"to": [8.04696, -1.86998, 8.34148],
			"rotation": {"angle": 22.5, "axis": "x", "origin": [7.79496, -3.33367, 8.5653]},
			"faces": {
				"north": {"uv": [8.53125, 11.03125, 8.34375, 10.875], "texture": "#texture"},
				"east": {"uv": [8.34375, 10.875, 8.53125, 11.03125], "rotation": 90, "texture": "#texture"},
				"south": {"uv": [8.34375, 10.875, 8.53125, 11.03125], "texture": "#texture"},
				"west": {"uv": [8.34375, 10.875, 8.53125, 11.03125], "rotation": 270, "texture": "#texture"},
				"up": {"uv": [8.34375, 10.875, 8.53125, 11.03125], "texture": "#texture"},
				"down": {"uv": [8.53125, 11.03125, 8.34375, 10.875], "texture": "#texture"}
			}
		},
		{
			"name": "Element",
			"from": [7.8268, -3.0925, 7.9004],
			"to": [8.19136, -1.71658, 8.20028],
			"rotation": {"angle": -22.5, "axis": "z", "origin": [8.01429, -3.18025, 8.16163]},
			"faces": {
				"north": {"uv": [8.53125, 11.03125, 8.34375, 10.875], "texture": "#texture"},
				"east": {"uv": [8.34375, 10.875, 8.53125, 11.03125], "rotation": 90, "texture": "#texture"},
				"south": {"uv": [8.34375, 10.875, 8.53125, 11.03125], "texture": "#texture"},
				"west": {"uv": [8.34375, 10.875, 8.53125, 11.03125], "rotation": 270, "texture": "#texture"},
				"up": {"uv": [8.34375, 10.875, 8.53125, 11.03125], "texture": "#texture"},
				"down": {"uv": [8.53125, 11.03125, 8.34375, 10.875], "texture": "#texture"}
			}
		},
		{
			"name": "Element",
			"from": [7.5788, -3.2463, 7.9004],
			"to": [7.94336, -1.87038, 8.20028],
			"rotation": {"angle": 22.5, "axis": "z", "origin": [7.35385, -3.33411, 8.16162]},
			"faces": {
				"north": {"uv": [8.53125, 11.03125, 8.34375, 10.875], "texture": "#texture"},
				"east": {"uv": [8.34375, 10.875, 8.53125, 11.03125], "rotation": 90, "texture": "#texture"},
				"south": {"uv": [8.34375, 10.875, 8.53125, 11.03125], "texture": "#texture"},
				"west": {"uv": [8.34375, 10.875, 8.53125, 11.03125], "rotation": 270, "texture": "#texture"},
				"up": {"uv": [8.34375, 10.875, 8.53125, 11.03125], "texture": "#texture"},
				"down": {"uv": [8.53125, 11.03125, 8.34375, 10.875], "texture": "#texture"}
			}
		},
		{
			"name": "Element",
			"from": [7.7812, -2.9414, 7.6397],
			"to": [7.94888, -2.10204, 7.85044],
			"rotation": {"angle": -45, "axis": "y", "origin": [7.8651, -2.83601, 8.06122]},
			"faces": {
				"north": {"uv": [8.53125, 11.03125, 8.34375, 10.875], "texture": "#texture"},
				"east": {"uv": [8.53125, 11.03125, 8.34375, 10.875], "texture": "#texture"},
				"south": {"uv": [8.53125, 11.03125, 8.34375, 10.875], "texture": "#texture"},
				"west": {"uv": [8.53125, 11.03125, 8.34375, 10.875], "texture": "#texture"},
				"up": {"uv": [8.53125, 11.03125, 8.34375, 10.875], "texture": "#texture"},
				"down": {"uv": [8.53125, 11.03125, 8.34375, 10.875], "texture": "#texture"}
			}
		},
		{
			"name": "Element",
			"from": [7.7812, -2.9414, 8.272],
			"to": [7.94888, -2.10204, 8.48274],
			"rotation": {"angle": -45, "axis": "y", "origin": [7.8651, -2.83601, 8.06122]},
			"faces": {
				"north": {"uv": [8.53125, 11.03125, 8.34375, 10.875], "texture": "#texture"},
				"east": {"uv": [8.53125, 11.03125, 8.34375, 10.875], "texture": "#texture"},
				"south": {"uv": [8.53125, 11.03125, 8.34375, 10.875], "texture": "#texture"},
				"west": {"uv": [8.53125, 11.03125, 8.34375, 10.875], "texture": "#texture"},
				"up": {"uv": [8.53125, 11.03125, 8.34375, 10.875], "texture": "#texture"},
				"down": {"uv": [8.53125, 11.03125, 8.34375, 10.875], "texture": "#texture"}
			}
		},
		{
			"name": "Element",
			"from": [7.7812, -2.9414, 8.272],
			"to": [7.94888, -2.10204, 8.48274],
			"rotation": {"angle": -22.5, "axis": "y", "origin": [7.8651, -2.83601, 8.06122]},
			"faces": {
				"north": {"uv": [8.53125, 11.03125, 8.34375, 10.875], "texture": "#texture"},
				"east": {"uv": [8.53125, 11.03125, 8.34375, 10.875], "texture": "#texture"},
				"south": {"uv": [8.53125, 11.03125, 8.34375, 10.875], "texture": "#texture"},
				"west": {"uv": [8.53125, 11.03125, 8.34375, 10.875], "texture": "#texture"},
				"up": {"uv": [8.53125, 11.03125, 8.34375, 10.875], "texture": "#texture"},
				"down": {"uv": [8.53125, 11.03125, 8.34375, 10.875], "texture": "#texture"}
			}
		},
		{
			"name": "Element",
			"from": [7.7812, -2.9414, 8.272],
			"to": [7.94888, -2.10204, 8.48274],
			"faces": {
				"north": {"uv": [8.53125, 11.03125, 8.34375, 10.875], "texture": "#texture"},
				"east": {"uv": [8.53125, 11.03125, 8.34375, 10.875], "texture": "#texture"},
				"south": {"uv": [8.53125, 11.03125, 8.34375, 10.875], "texture": "#texture"},
				"west": {"uv": [8.53125, 11.03125, 8.34375, 10.875], "texture": "#texture"},
				"up": {"uv": [8.53125, 11.03125, 8.34375, 10.875], "texture": "#texture"},
				"down": {"uv": [8.53125, 11.03125, 8.34375, 10.875], "texture": "#texture"}
			}
		},
		{
			"name": "Element",
			"from": [7.7812, -2.9414, 8.272],
			"to": [7.94888, -2.10204, 8.48274],
			"rotation": {"angle": 22.5, "axis": "y", "origin": [7.8651, -2.83601, 8.06122]},
			"faces": {
				"north": {"uv": [8.53125, 11.03125, 8.34375, 10.875], "texture": "#texture"},
				"east": {"uv": [8.53125, 11.03125, 8.34375, 10.875], "texture": "#texture"},
				"south": {"uv": [8.53125, 11.03125, 8.34375, 10.875], "texture": "#texture"},
				"west": {"uv": [8.53125, 11.03125, 8.34375, 10.875], "texture": "#texture"},
				"up": {"uv": [8.53125, 11.03125, 8.34375, 10.875], "texture": "#texture"},
				"down": {"uv": [8.53125, 11.03125, 8.34375, 10.875], "texture": "#texture"}
			}
		},
		{
			"name": "Element",
			"from": [7.7813, -2.9414, 8.272],
			"to": [7.94898, -2.10204, 8.48274],
			"rotation": {"angle": 45, "axis": "y", "origin": [7.8651, -2.83601, 8.06122]},
			"faces": {
				"north": {"uv": [8.53125, 11.03125, 8.34375, 10.875], "texture": "#texture"},
				"east": {"uv": [8.53125, 11.03125, 8.34375, 10.875], "texture": "#texture"},
				"south": {"uv": [8.53125, 11.03125, 8.34375, 10.875], "texture": "#texture"},
				"west": {"uv": [8.53125, 11.03125, 8.34375, 10.875], "texture": "#texture"},
				"up": {"uv": [8.53125, 11.03125, 8.34375, 10.875], "texture": "#texture"},
				"down": {"uv": [8.53125, 11.03125, 8.34375, 10.875], "texture": "#texture"}
			}
		},
		{
			"name": "Element",
			"from": [7.4436, -2.9414, 7.9774],
			"to": [7.65434, -2.10204, 8.14508],
			"rotation": {"angle": -22.5, "axis": "y", "origin": [7.8651, -2.83601, 8.06122]},
			"faces": {
				"north": {"uv": [8.53125, 11.03125, 8.34375, 10.875], "texture": "#texture"},
				"east": {"uv": [8.53125, 11.03125, 8.34375, 10.875], "texture": "#texture"},
				"south": {"uv": [8.53125, 11.03125, 8.34375, 10.875], "texture": "#texture"},
				"west": {"uv": [8.53125, 11.03125, 8.34375, 10.875], "texture": "#texture"},
				"up": {"uv": [8.53125, 11.03125, 8.34375, 10.875], "texture": "#texture"},
				"down": {"uv": [8.53125, 11.03125, 8.34375, 10.875], "texture": "#texture"}
			}
		},
		{
			"name": "Element",
			"from": [7.4436, -2.9414, 7.9774],
			"to": [7.65434, -2.10204, 8.14508],
			"faces": {
				"north": {"uv": [8.53125, 11.03125, 8.34375, 10.875], "texture": "#texture"},
				"east": {"uv": [8.53125, 11.03125, 8.34375, 10.875], "texture": "#texture"},
				"south": {"uv": [8.53125, 11.03125, 8.34375, 10.875], "texture": "#texture"},
				"west": {"uv": [8.53125, 11.03125, 8.34375, 10.875], "texture": "#texture"},
				"up": {"uv": [8.53125, 11.03125, 8.34375, 10.875], "texture": "#texture"},
				"down": {"uv": [8.53125, 11.03125, 8.34375, 10.875], "texture": "#texture"}
			}
		},
		{
			"name": "Element",
			"from": [7.4436, -2.9414, 7.9774],
			"to": [7.65434, -2.10204, 8.14508],
			"rotation": {"angle": 22.5, "axis": "y", "origin": [7.8651, -2.83601, 8.06122]},
			"faces": {
				"north": {"uv": [8.53125, 11.03125, 8.34375, 10.875], "texture": "#texture"},
				"east": {"uv": [8.53125, 11.03125, 8.34375, 10.875], "texture": "#texture"},
				"south": {"uv": [8.53125, 11.03125, 8.34375, 10.875], "texture": "#texture"},
				"west": {"uv": [8.53125, 11.03125, 8.34375, 10.875], "texture": "#texture"},
				"up": {"uv": [8.53125, 11.03125, 8.34375, 10.875], "texture": "#texture"},
				"down": {"uv": [8.53125, 11.03125, 8.34375, 10.875], "texture": "#texture"}
			}
		},
		{
			"name": "Element",
			"from": [8.0758, -2.9414, 7.9774],
			"to": [8.28654, -2.10204, 8.14508],
			"rotation": {"angle": -22.5, "axis": "y", "origin": [7.8651, -2.83601, 8.06122]},
			"faces": {
				"north": {"uv": [8.53125, 11.03125, 8.34375, 10.875], "texture": "#texture"},
				"east": {"uv": [8.53125, 11.03125, 8.34375, 10.875], "texture": "#texture"},
				"south": {"uv": [8.53125, 11.03125, 8.34375, 10.875], "texture": "#texture"},
				"west": {"uv": [8.53125, 11.03125, 8.34375, 10.875], "texture": "#texture"},
				"up": {"uv": [8.53125, 11.03125, 8.34375, 10.875], "texture": "#texture"},
				"down": {"uv": [8.53125, 11.03125, 8.34375, 10.875], "texture": "#texture"}
			}
		},
		{
			"name": "Element",
			"from": [8.0758, -2.9414, 7.9774],
			"to": [8.28654, -2.10204, 8.14508],
			"faces": {
				"north": {"uv": [8.53125, 11.03125, 8.34375, 10.875], "texture": "#texture"},
				"east": {"uv": [8.53125, 11.03125, 8.34375, 10.875], "texture": "#texture"},
				"south": {"uv": [8.53125, 11.03125, 8.34375, 10.875], "texture": "#texture"},
				"west": {"uv": [8.53125, 11.03125, 8.34375, 10.875], "texture": "#texture"},
				"up": {"uv": [8.53125, 11.03125, 8.34375, 10.875], "texture": "#texture"},
				"down": {"uv": [8.53125, 11.03125, 8.34375, 10.875], "texture": "#texture"}
			}
		},
		{
			"name": "Element",
			"from": [7.7812, -2.9414, 7.6397],
			"to": [7.94888, -2.10204, 7.85044],
			"rotation": {"angle": -22.5, "axis": "y", "origin": [7.8651, -2.83601, 8.06122]},
			"faces": {
				"north": {"uv": [8.53125, 11.03125, 8.34375, 10.875], "texture": "#texture"},
				"east": {"uv": [8.53125, 11.03125, 8.34375, 10.875], "texture": "#texture"},
				"south": {"uv": [8.53125, 11.03125, 8.34375, 10.875], "texture": "#texture"},
				"west": {"uv": [8.53125, 11.03125, 8.34375, 10.875], "texture": "#texture"},
				"up": {"uv": [8.53125, 11.03125, 8.34375, 10.875], "texture": "#texture"},
				"down": {"uv": [8.53125, 11.03125, 8.34375, 10.875], "texture": "#texture"}
			}
		},
		{
			"name": "Element",
			"from": [7.7812, -2.9414, 7.6397],
			"to": [7.94888, -2.10204, 7.85044],
			"rotation": {"angle": 45, "axis": "y", "origin": [7.8651, -2.83601, 8.06122]},
			"faces": {
				"north": {"uv": [8.53125, 11.03125, 8.34375, 10.875], "texture": "#texture"},
				"east": {"uv": [8.53125, 11.03125, 8.34375, 10.875], "texture": "#texture"},
				"south": {"uv": [8.53125, 11.03125, 8.34375, 10.875], "texture": "#texture"},
				"west": {"uv": [8.53125, 11.03125, 8.34375, 10.875], "texture": "#texture"},
				"up": {"uv": [8.53125, 11.03125, 8.34375, 10.875], "texture": "#texture"},
				"down": {"uv": [8.53125, 11.03125, 8.34375, 10.875], "texture": "#texture"}
			}
		},
		{
			"name": "Element",
			"from": [7.7812, -2.9414, 7.6397],
			"to": [7.94888, -2.10204, 7.85044],
			"rotation": {"angle": 22.5, "axis": "y", "origin": [7.8651, -2.83601, 8.06122]},
			"faces": {
				"north": {"uv": [8.53125, 11.03125, 8.34375, 10.875], "texture": "#texture"},
				"east": {"uv": [8.53125, 11.03125, 8.34375, 10.875], "texture": "#texture"},
				"south": {"uv": [8.53125, 11.03125, 8.34375, 10.875], "texture": "#texture"},
				"west": {"uv": [8.53125, 11.03125, 8.34375, 10.875], "texture": "#texture"},
				"up": {"uv": [8.53125, 11.03125, 8.34375, 10.875], "texture": "#texture"},
				"down": {"uv": [8.53125, 11.03125, 8.34375, 10.875], "texture": "#texture"}
			}
		},
		{
			"name": "Element",
			"from": [7.7812, -2.9414, 7.6397],
			"to": [7.94888, -2.10204, 7.85044],
			"faces": {
				"north": {"uv": [8.53125, 11.03125, 8.34375, 10.875], "texture": "#texture"},
				"east": {"uv": [8.53125, 11.03125, 8.34375, 10.875], "texture": "#texture"},
				"south": {"uv": [8.53125, 11.03125, 8.34375, 10.875], "texture": "#texture"},
				"west": {"uv": [8.53125, 11.03125, 8.34375, 10.875], "texture": "#texture"},
				"up": {"uv": [8.53125, 11.03125, 8.34375, 10.875], "texture": "#texture"},
				"down": {"uv": [8.53125, 11.03125, 8.34375, 10.875], "texture": "#texture"}
			}
		},
		{
			"name": "Element",
			"from": [8.0758, -2.9414, 7.9774],
			"to": [8.28654, -2.10204, 8.14508],
			"rotation": {"angle": 22.5, "axis": "y", "origin": [7.8651, -2.83601, 8.06122]},
			"faces": {
				"north": {"uv": [8.53125, 11.03125, 8.34375, 10.875], "texture": "#texture"},
				"east": {"uv": [8.53125, 11.03125, 8.34375, 10.875], "texture": "#texture"},
				"south": {"uv": [8.53125, 11.03125, 8.34375, 10.875], "texture": "#texture"},
				"west": {"uv": [8.53125, 11.03125, 8.34375, 10.875], "texture": "#texture"},
				"up": {"uv": [8.53125, 11.03125, 8.34375, 10.875], "texture": "#texture"},
				"down": {"uv": [8.53125, 11.03125, 8.34375, 10.875], "texture": "#texture"}
			}
		},
		{
			"name": "Element",
			"from": [7.4876, -1.4538, 7.533],
			"to": [8.24024, -0.70116, 8.28564],
			"rotation": {"angle": 45, "axis": "x", "origin": [7.4876, -1.45384, 7.53296]},
			"faces": {
				"north": {"uv": [0.375, 7.625, 0.75, 8], "texture": "#texture"},
				"east": {"uv": [0.375, 7.625, 0.75, 8], "texture": "#texture"},
				"south": {"uv": [0.375, 7.625, 0.75, 8], "texture": "#texture"},
				"west": {"uv": [0.375, 7.625, 0.75, 8], "texture": "#texture"},
				"up": {"uv": [0.375, 7.625, 0.75, 8], "texture": "#texture"},
				"down": {"uv": [0.375, 7.625, 0.75, 8], "texture": "#texture"}
			}
		},
		{
			"name": "Element",
			"from": [7.8757, -1.9889, 7.6917],
			"to": [8.62834, -1.23626, 8.44434],
			"rotation": {"angle": 45, "axis": "z", "origin": [7.87568, -1.98892, 7.69172]},
			"faces": {
				"north": {"uv": [0.375, 7.625, 0.75, 8], "texture": "#texture"},
				"east": {"uv": [0.375, 7.625, 0.75, 8], "texture": "#texture"},
				"south": {"uv": [0.375, 7.625, 0.75, 8], "texture": "#texture"},
				"west": {"uv": [0.375, 7.625, 0.75, 8], "texture": "#texture"},
				"up": {"uv": [0.375, 7.625, 0.75, 8], "texture": "#texture"},
				"down": {"uv": [0.375, 7.625, 0.75, 8], "texture": "#texture"}
			}
		},
		{
			"name": "Element",
			"from": [5.7302, -2.1095, 7.9004],
			"to": [7.10612, -1.74494, 8.20028],
			"rotation": {"angle": -22.5, "axis": "z", "origin": [7.1939, -2.33448, 8.16162]},
			"faces": {
				"north": {"uv": [8.53125, 11.03125, 8.34375, 10.875], "rotation": 90, "texture": "#texture"},
				"east": {"uv": [8.53125, 11.03125, 8.34375, 10.875], "rotation": 270, "texture": "#texture"},
				"south": {"uv": [8.34375, 10.875, 8.53125, 11.03125], "rotation": 270, "texture": "#texture"},
				"west": {"uv": [8.34375, 10.875, 8.53125, 11.03125], "rotation": 90, "texture": "#texture"},
				"up": {"uv": [8.34375, 10.875, 8.53125, 11.03125], "texture": "#texture"},
				"down": {"uv": [8.34375, 10.875, 8.53125, 11.03125], "rotation": 180, "texture": "#texture"}
			}
		},
		{
			"name": "Element",
			"from": [8.7866, -2.879, 7.9004],
			"to": [10.16252, -2.51444, 8.20028],
			"rotation": {"angle": 22.5, "axis": "z", "origin": [6.68781, -3.10404, 8.16162]},
			"faces": {
				"north": {"uv": [8.53125, 11.03125, 8.34375, 10.875], "rotation": 90, "texture": "#texture"},
				"east": {"uv": [8.53125, 11.03125, 8.34375, 10.875], "rotation": 270, "texture": "#texture"},
				"south": {"uv": [8.34375, 10.875, 8.53125, 11.03125], "rotation": 270, "texture": "#texture"},
				"west": {"uv": [8.34375, 10.875, 8.53125, 11.03125], "rotation": 90, "texture": "#texture"},
				"up": {"uv": [8.34375, 10.875, 8.53125, 11.03125], "texture": "#texture"},
				"down": {"uv": [8.34375, 10.875, 8.53125, 11.03125], "rotation": 180, "texture": "#texture"}
			}
		},
		{
			"name": "Element",
			"from": [4.3163, -1.5942, 7.9004],
			"to": [6.06722, -1.22964, 8.20028],
			"faces": {
				"north": {"uv": [8.53125, 11.03125, 8.34375, 10.875], "rotation": 90, "texture": "#texture"},
				"east": {"uv": [8.53125, 11.03125, 8.34375, 10.875], "rotation": 270, "texture": "#texture"},
				"south": {"uv": [8.34375, 10.875, 8.53125, 11.03125], "rotation": 270, "texture": "#texture"},
				"west": {"uv": [8.34375, 10.875, 8.53125, 11.03125], "rotation": 90, "texture": "#texture"},
				"up": {"uv": [8.34375, 10.875, 8.53125, 11.03125], "texture": "#texture"},
				"down": {"uv": [8.34375, 10.875, 8.53125, 11.03125], "rotation": 180, "texture": "#texture"}
			}
		},
		{
			"name": "Element",
			"from": [9.6724, -1.5942, 7.9004],
			"to": [11.42332, -1.22964, 8.20028],
			"faces": {
				"north": {"uv": [8.53125, 11.03125, 8.34375, 10.875], "rotation": 90, "texture": "#texture"},
				"east": {"uv": [8.53125, 11.03125, 8.34375, 10.875], "rotation": 270, "texture": "#texture"},
				"south": {"uv": [8.34375, 10.875, 8.53125, 11.03125], "rotation": 270, "texture": "#texture"},
				"west": {"uv": [8.34375, 10.875, 8.53125, 11.03125], "rotation": 90, "texture": "#texture"},
				"up": {"uv": [8.34375, 10.875, 8.53125, 11.03125], "texture": "#texture"},
				"down": {"uv": [8.34375, 10.875, 8.53125, 11.03125], "rotation": 180, "texture": "#texture"}
			}
		},
		{
			"name": "Element",
			"from": [4.0902, -2.2807, 7.9004],
			"to": [8.16612, -1.91614, 8.20028],
			"rotation": {"angle": -22.5, "axis": "z", "origin": [5.92894, -2.50573, 8.16162]},
			"faces": {
				"north": {"uv": [8.53125, 11.03125, 8.34375, 10.875], "rotation": 90, "texture": "#texture"},
				"east": {"uv": [8.53125, 11.03125, 8.34375, 10.875], "rotation": 270, "texture": "#texture"},
				"south": {"uv": [8.34375, 10.875, 8.53125, 11.03125], "rotation": 270, "texture": "#texture"},
				"west": {"uv": [8.34375, 10.875, 8.53125, 11.03125], "rotation": 90, "texture": "#texture"},
				"up": {"uv": [8.34375, 10.875, 8.53125, 11.03125], "texture": "#texture"},
				"down": {"uv": [8.34375, 10.875, 8.53125, 11.03125], "rotation": 180, "texture": "#texture"}
			}
		},
		{
			"name": "Element",
			"from": [7.3311, -2.4875, 7.9004],
			"to": [11.40702, -2.12294, 8.20028],
			"rotation": {"angle": 22.5, "axis": "z", "origin": [9.16985, -1.99996, 8.16162]},
			"faces": {
				"north": {"uv": [8.53125, 11.03125, 8.34375, 10.875], "rotation": 90, "texture": "#texture"},
				"east": {"uv": [8.53125, 11.03125, 8.34375, 10.875], "rotation": 270, "texture": "#texture"},
				"south": {"uv": [8.34375, 10.875, 8.53125, 11.03125], "rotation": 270, "texture": "#texture"},
				"west": {"uv": [8.34375, 10.875, 8.53125, 11.03125], "rotation": 90, "texture": "#texture"},
				"up": {"uv": [8.34375, 10.875, 8.53125, 11.03125], "texture": "#texture"},
				"down": {"uv": [8.34375, 10.875, 8.53125, 11.03125], "rotation": 180, "texture": "#texture"}
			}
		},
		{
			"name": "Element",
			"from": [4.9527, -1.9807, 7.9004],
			"to": [8.16612, -1.61614, 8.20028],
			"rotation": {"angle": -22.5, "axis": "z", "origin": [5.92894, -2.50573, 8.16162]},
			"faces": {
				"north": {"uv": [8.53125, 11.03125, 8.34375, 10.875], "rotation": 90, "texture": "#texture"},
				"east": {"uv": [8.53125, 11.03125, 8.34375, 10.875], "rotation": 270, "texture": "#texture"},
				"south": {"uv": [8.34375, 10.875, 8.53125, 11.03125], "rotation": 270, "texture": "#texture"},
				"west": {"uv": [8.34375, 10.875, 8.53125, 11.03125], "rotation": 90, "texture": "#texture"},
				"up": {"uv": [8.34375, 10.875, 8.53125, 11.03125], "texture": "#texture"},
				"down": {"uv": [8.34375, 10.875, 8.53125, 11.03125], "rotation": 180, "texture": "#texture"}
			}
		},
		{
			"name": "Element",
			"from": [7.4277, -3.4807, 7.9004],
			"to": [10.64112, -3.11614, 8.20028],
			"rotation": {"angle": 22.5, "axis": "z", "origin": [5.92894, -2.50573, 8.16162]},
			"faces": {
				"north": {"uv": [8.53125, 11.03125, 8.34375, 10.875], "rotation": 90, "texture": "#texture"},
				"east": {"uv": [8.53125, 11.03125, 8.34375, 10.875], "rotation": 270, "texture": "#texture"},
				"south": {"uv": [8.34375, 10.875, 8.53125, 11.03125], "rotation": 270, "texture": "#texture"},
				"west": {"uv": [8.34375, 10.875, 8.53125, 11.03125], "rotation": 90, "texture": "#texture"},
				"up": {"uv": [8.34375, 10.875, 8.53125, 11.03125], "texture": "#texture"},
				"down": {"uv": [8.34375, 10.875, 8.53125, 11.03125], "rotation": 180, "texture": "#texture"}
			}
		},
		{
			"name": "Element",
			"from": [7.6824, -1.8957, 8.6187],
			"to": [8.04696, -0.93228, 8.91858],
			"faces": {
				"north": {"uv": [8.53125, 11.03125, 8.34375, 10.875], "texture": "#texture"},
				"east": {"uv": [8.34375, 10.875, 8.53125, 11.03125], "rotation": 90, "texture": "#texture"},
				"south": {"uv": [8.34375, 10.875, 8.53125, 11.03125], "texture": "#texture"},
				"west": {"uv": [8.34375, 10.875, 8.53125, 11.03125], "rotation": 270, "texture": "#texture"},
				"up": {"uv": [8.34375, 10.875, 8.53125, 11.03125], "texture": "#texture"},
				"down": {"uv": [8.53125, 11.03125, 8.34375, 10.875], "texture": "#texture"}
			}
		},
		{
			"name": "Element",
			"from": [7.6824, -1.8957, 7.1822],
			"to": [8.04696, -0.93228, 7.48208],
			"faces": {
				"north": {"uv": [8.53125, 11.03125, 8.34375, 10.875], "texture": "#texture"},
				"east": {"uv": [8.34375, 10.875, 8.53125, 11.03125], "rotation": 90, "texture": "#texture"},
				"south": {"uv": [8.34375, 10.875, 8.53125, 11.03125], "texture": "#texture"},
				"west": {"uv": [8.34375, 10.875, 8.53125, 11.03125], "rotation": 270, "texture": "#texture"},
				"up": {"uv": [8.34375, 10.875, 8.53125, 11.03125], "texture": "#texture"},
				"down": {"uv": [8.53125, 11.03125, 8.34375, 10.875], "texture": "#texture"}
			}
		},
		{
			"name": "Element",
			"from": [7.6824, -1.4714, 8.7609],
			"to": [8.04696, 0.46702, 9.06078],
			"rotation": {"angle": -22.5, "axis": "x", "origin": [7.79496, -1.55916, 7.63463]},
			"faces": {
				"north": {"uv": [8.53125, 11.03125, 8.34375, 10.875], "texture": "#texture"},
				"east": {"uv": [8.34375, 10.875, 8.53125, 11.03125], "rotation": 90, "texture": "#texture"},
				"south": {"uv": [8.34375, 10.875, 8.53125, 11.03125], "texture": "#texture"},
				"west": {"uv": [8.34375, 10.875, 8.53125, 11.03125], "rotation": 270, "texture": "#texture"},
				"up": {"uv": [8.34375, 10.875, 8.53125, 11.03125], "texture": "#texture"},
				"down": {"uv": [8.53125, 11.03125, 8.34375, 10.875], "texture": "#texture"}
			}
		},
		{
			"name": "Element",
			"from": [7.6824, -1.0256, 7.1287],
			"to": [8.04696, 0.91282, 7.42858],
			"rotation": {"angle": 22.5, "axis": "x", "origin": [7.79496, -1.11337, 7.38994]},
			"faces": {
				"north": {"uv": [8.53125, 11.03125, 8.34375, 10.875], "texture": "#texture"},
				"east": {"uv": [8.34375, 10.875, 8.53125, 11.03125], "rotation": 90, "texture": "#texture"},
				"south": {"uv": [8.34375, 10.875, 8.53125, 11.03125], "texture": "#texture"},
				"west": {"uv": [8.34375, 10.875, 8.53125, 11.03125], "rotation": 270, "texture": "#texture"},
				"up": {"uv": [8.34375, 10.875, 8.53125, 11.03125], "texture": "#texture"},
				"down": {"uv": [8.53125, 11.03125, 8.34375, 10.875], "texture": "#texture"}
			}
		},
		{
			"name": "Element",
			"from": [4.3913, -1.3317, 7.6754],
			"to": [4.8413, -0.36714, 8.42528],
			"rotation": {"angle": 22.5, "axis": "z", "origin": [6.15501, -1.81921, 8.16162]},
			"faces": {
				"north": {"uv": [8.53125, 11.03125, 8.34375, 10.875], "rotation": 90, "texture": "#texture"},
				"east": {"uv": [8.53125, 11.03125, 8.34375, 10.875], "rotation": 270, "texture": "#texture"},
				"south": {"uv": [8.34375, 10.875, 8.53125, 11.03125], "rotation": 270, "texture": "#texture"},
				"west": {"uv": [8.34375, 10.875, 8.53125, 11.03125], "rotation": 90, "texture": "#texture"},
				"up": {"uv": [8.34375, 10.875, 8.53125, 11.03125], "texture": "#texture"},
				"down": {"uv": [8.34375, 10.875, 8.53125, 11.03125], "rotation": 180, "texture": "#texture"}
			}
		},
		{
			"name": "Element",
			"from": [10.0964, -0.2219, 7.6754],
			"to": [10.5464, 0.74266, 8.42528],
			"rotation": {"angle": -22.5, "axis": "z", "origin": [6.19764, -2.9969, 8.16162]},
			"faces": {
				"north": {"uv": [8.53125, 11.03125, 8.34375, 10.875], "rotation": 90, "texture": "#texture"},
				"east": {"uv": [8.53125, 11.03125, 8.34375, 10.875], "rotation": 270, "texture": "#texture"},
				"south": {"uv": [8.34375, 10.875, 8.53125, 11.03125], "rotation": 270, "texture": "#texture"},
				"west": {"uv": [8.34375, 10.875, 8.53125, 11.03125], "rotation": 90, "texture": "#texture"},
				"up": {"uv": [8.34375, 10.875, 8.53125, 11.03125], "texture": "#texture"},
				"down": {"uv": [8.34375, 10.875, 8.53125, 11.03125], "rotation": 180, "texture": "#texture"}
			}
		},
		{
			"name": "Element",
			"from": [6.1777, -1.7738, 7.9004],
			"to": [6.54226, 2.52712, 8.20028],
			"rotation": {"angle": -22.5, "axis": "z", "origin": [7.49017, -1.22407, 7.63662]},
			"faces": {
				"north": {"uv": [8.53125, 11.03125, 8.34375, 10.875], "texture": "#texture"},
				"east": {"uv": [8.34375, 10.875, 8.53125, 11.03125], "rotation": 90, "texture": "#texture"},
				"south": {"uv": [8.34375, 10.875, 8.53125, 11.03125], "texture": "#texture"},
				"west": {"uv": [8.34375, 10.875, 8.53125, 11.03125], "rotation": 270, "texture": "#texture"},
				"up": {"uv": [8.34375, 10.875, 8.53125, 11.03125], "texture": "#texture"},
				"down": {"uv": [8.53125, 11.03125, 8.34375, 10.875], "texture": "#texture"}
			}
		},
		{
			"name": "Element",
			"from": [9.8146, -0.7517, 7.9004],
			"to": [10.17916, 3.54922, 8.20028],
			"rotation": {"angle": 22.5, "axis": "z", "origin": [11.12711, -2.26453, 7.63662]},
			"faces": {
				"north": {"uv": [8.53125, 11.03125, 8.34375, 10.875], "texture": "#texture"},
				"east": {"uv": [8.34375, 10.875, 8.53125, 11.03125], "rotation": 90, "texture": "#texture"},
				"south": {"uv": [8.34375, 10.875, 8.53125, 11.03125], "texture": "#texture"},
				"west": {"uv": [8.34375, 10.875, 8.53125, 11.03125], "rotation": 270, "texture": "#texture"},
				"up": {"uv": [8.34375, 10.875, 8.53125, 11.03125], "texture": "#texture"},
				"down": {"uv": [8.53125, 11.03125, 8.34375, 10.875], "texture": "#texture"}
			}
		},
		{
			"name": "Element",
			"from": [7.6824, 0.6336, 7.924],
			"to": [8.0469, 2.22296, 8.188],
			"faces": {
				"north": {"uv": [8.53125, 11.03125, 8.34375, 10.875], "texture": "#texture"},
				"east": {"uv": [8.53125, 11.03125, 8.34375, 10.875], "texture": "#texture"},
				"south": {"uv": [8.53125, 11.03125, 8.34375, 10.875], "texture": "#texture"},
				"west": {"uv": [8.53125, 11.03125, 8.34375, 10.875], "texture": "#texture"},
				"up": {"uv": [8.53125, 11.03125, 8.34375, 10.875], "texture": "#texture"},
				"down": {"uv": [8.53125, 11.03125, 8.34375, 10.875], "texture": "#texture"}
			}
		},
		{
			"name": "Element",
			"from": [11.097, 1.2594, 7.9004],
			"to": [11.319, 1.4814, 8.2004],
			"rotation": {"angle": 45, "axis": "z", "origin": [7.88082, -1.97272, 8.05159]},
			"faces": {
				"north": {"uv": [8.53125, 11.03125, 8.34375, 10.875], "texture": "#texture"},
				"east": {"uv": [8.53125, 11.03125, 8.34375, 10.875], "texture": "#texture"},
				"south": {"uv": [8.53125, 11.03125, 8.34375, 10.875], "texture": "#texture"},
				"west": {"uv": [8.53125, 11.03125, 8.34375, 10.875], "texture": "#texture"},
				"up": {"uv": [8.53125, 11.03125, 8.34375, 10.875], "texture": "#texture"},
				"down": {"uv": [8.53125, 11.03125, 8.34375, 10.875], "texture": "#texture"}
			}
		},
		{
			"name": "Element",
			"from": [7.5758, -2.5561, 7.7861],
			"to": [8.18144, -2.10334, 8.32562],
			"faces": {
				"north": {"uv": [8.34375, 10.875, 8.53125, 11.03125], "texture": "#texture"},
				"east": {"uv": [8.34375, 10.875, 8.53125, 11.03125], "texture": "#texture"},
				"south": {"uv": [8.34375, 10.875, 8.53125, 11.03125], "texture": "#texture"},
				"west": {"uv": [8.34375, 10.875, 8.53125, 11.03125], "texture": "#texture"},
				"up": {"uv": [8.34375, 10.875, 8.53125, 11.03125], "texture": "#texture"},
				"down": {"uv": [8.34375, 10.875, 8.53125, 11.03125], "texture": "#texture"}
			}
		},
		{
			"name": "Element",
			"from": [5.9902, -1.6488, 7.9629],
			"to": [6.35476, -0.59788, 8.13778],
			"faces": {
				"north": {"uv": [6.375, 8.3125, 6.125, 8.21875], "texture": "#texture"},
				"east": {"uv": [6.375, 8.3125, 6.125, 8.21875], "texture": "#texture"},
				"south": {"uv": [6.375, 8.3125, 6.125, 8.21875], "texture": "#texture"},
				"west": {"uv": [6.375, 8.3125, 6.125, 8.21875], "texture": "#texture"},
				"up": {"uv": [6.375, 8.3125, 6.125, 8.21875], "texture": "#texture"},
				"down": {"uv": [6.375, 8.3125, 6.125, 8.21875], "texture": "#texture"}
			}
		},
		{
			"name": "Element",
			"from": [5.7613, -1.348, 7.9629],
			"to": [6.12586, 2.70292, 8.13778],
			"rotation": {"angle": -22.5, "axis": "z", "origin": [7.76128, -1.54826, 5.9491]},
			"faces": {
				"north": {"uv": [6.375, 8.3125, 6.125, 8.21875], "texture": "#texture"},
				"east": {"uv": [6.375, 8.3125, 6.125, 8.21875], "texture": "#texture"},
				"south": {"uv": [6.375, 8.3125, 6.125, 8.21875], "texture": "#texture"},
				"west": {"uv": [6.375, 8.3125, 6.125, 8.21875], "texture": "#texture"},
				"up": {"uv": [6.375, 8.3125, 6.125, 8.21875], "texture": "#texture"},
				"down": {"uv": [6.375, 8.3125, 6.125, 8.21875], "texture": "#texture"}
			}
		},
		{
			"name": "Element",
			"from": [9.4277, -1.6488, 7.9629],
			"to": [9.79226, -0.59788, 8.13778],
			"faces": {
				"north": {"uv": [6.375, 8.3125, 6.125, 8.21875], "texture": "#texture"},
				"east": {"uv": [6.375, 8.3125, 6.125, 8.21875], "texture": "#texture"},
				"south": {"uv": [6.375, 8.3125, 6.125, 8.21875], "texture": "#texture"},
				"west": {"uv": [6.375, 8.3125, 6.125, 8.21875], "texture": "#texture"},
				"up": {"uv": [6.375, 8.3125, 6.125, 8.21875], "texture": "#texture"},
				"down": {"uv": [6.375, 8.3125, 6.125, 8.21875], "texture": "#texture"}
			}
		},
		{
			"name": "Element",
			"from": [9.6519, -0.4496, 7.9629],
			"to": [10.01646, 3.60132, 8.13778],
			"rotation": {"angle": 22.5, "axis": "z", "origin": [10.27692, -1.08742, 5.9491]},
			"faces": {
				"north": {"uv": [6.375, 8.3125, 6.125, 8.21875], "texture": "#texture"},
				"east": {"uv": [6.375, 8.3125, 6.125, 8.21875], "texture": "#texture"},
				"south": {"uv": [6.375, 8.3125, 6.125, 8.21875], "texture": "#texture"},
				"west": {"uv": [6.375, 8.3125, 6.125, 8.21875], "texture": "#texture"},
				"up": {"uv": [6.375, 8.3125, 6.125, 8.21875], "texture": "#texture"},
				"down": {"uv": [6.375, 8.3125, 6.125, 8.21875], "texture": "#texture"}
			}
		},
		{
			"name": "Element",
			"from": [7.0738, 1.9645, 7.9629],
			"to": [8.68836, 29.39042, 8.13778],
			"faces": {
				"north": {"uv": [6.375, 8.3125, 6.125, 8.21875], "texture": "#texture"},
				"east": {"uv": [6.375, 8.3125, 6.125, 8.21875], "texture": "#texture"},
				"south": {"uv": [6.375, 8.3125, 6.125, 8.21875], "texture": "#texture"},
				"west": {"uv": [6.375, 8.3125, 6.125, 8.21875], "texture": "#texture"},
				"up": {"uv": [6.375, 8.3125, 6.125, 8.21875], "texture": "#texture"},
				"down": {"uv": [6.375, 8.3125, 6.125, 8.21875], "texture": "#texture"}
			}
		},
		{
			"name": "Element",
			"from": [29.1363, 19.652, 7.9629],
			"to": [30.43836, 20.95292, 8.13778],
			"rotation": {"angle": 45, "axis": "z", "origin": [7.76128, -1.54826, 5.9491]},
			"faces": {
				"north": {"uv": [6.375, 8.3125, 6.125, 8.21875], "texture": "#texture"},
				"east": {"uv": [6.375, 8.3125, 6.125, 8.21875], "texture": "#texture"},
				"south": {"uv": [6.375, 8.3125, 6.125, 8.21875], "texture": "#texture"},
				"west": {"uv": [6.375, 8.3125, 6.125, 8.21875], "texture": "#texture"},
				"up": {"uv": [6.375, 8.3125, 6.125, 8.21875], "texture": "#texture"},
				"down": {"uv": [6.375, 8.3125, 6.125, 8.21875], "texture": "#texture"}
			}
		},
		{
			"name": "Element",
			"from": [8.20392, 1.73169, 7.9375],
			"to": [8.36017, 29.54419, 8.15625],
			"faces": {
				"north": {"uv": [8.09375, 8.28125, 7.90625, 8.1875], "rotation": 180, "texture": "#texture"},
				"east": {"uv": [8.09375, 8.28125, 7.90625, 8.1875], "rotation": 180, "texture": "#texture"},
				"south": {"uv": [8.09375, 8.28125, 7.90625, 8.1875], "rotation": 180, "texture": "#texture"},
				"west": {"uv": [8.09375, 8.28125, 7.90625, 8.1875], "rotation": 180, "texture": "#texture"},
				"up": {"uv": [8.09375, 8.28125, 7.90625, 8.1875], "rotation": 180, "texture": "#texture"},
				"down": {"uv": [8.09375, 8.28125, 7.90625, 8.1875], "rotation": 180, "texture": "#texture"}
			}
		},
		{
			"name": "Element",
			"from": [7.3437, 1.625, 7.9375],
			"to": [7.49995, 29.5, 8.15625],
			"faces": {
				"north": {"uv": [8.09375, 8.28125, 7.90625, 8.1875], "rotation": 180, "texture": "#texture"},
				"east": {"uv": [8.09375, 8.28125, 7.90625, 8.1875], "rotation": 180, "texture": "#texture"},
				"south": {"uv": [8.09375, 8.28125, 7.90625, 8.1875], "rotation": 180, "texture": "#texture"},
				"west": {"uv": [8.09375, 8.28125, 7.90625, 8.1875], "rotation": 180, "texture": "#texture"},
				"up": {"uv": [8.09375, 8.28125, 7.90625, 8.1875], "rotation": 180, "texture": "#texture"},
				"down": {"uv": [8.09375, 8.28125, 7.90625, 8.1875], "rotation": 180, "texture": "#texture"}
			}
		},
		{
			"name": "Element",
			"from": [8.23582, 29.84218, 7.9375],
			"to": [8.39207, 30.52968, 8.15625],
			"rotation": {"angle": 45, "axis": "z", "origin": [8.73582, 29.65467, 8]},
			"faces": {
				"north": {"uv": [8.09375, 8.28125, 7.90625, 8.1875], "rotation": 180, "texture": "#texture"},
				"east": {"uv": [8.09375, 8.28125, 7.90625, 8.1875], "rotation": 180, "texture": "#texture"},
				"south": {"uv": [8.09375, 8.28125, 7.90625, 8.1875], "rotation": 180, "texture": "#texture"},
				"west": {"uv": [8.09375, 8.28125, 7.90625, 8.1875], "rotation": 180, "texture": "#texture"},
				"up": {"uv": [8.09375, 8.28125, 7.90625, 8.1875], "rotation": 180, "texture": "#texture"},
				"down": {"uv": [8.09375, 8.28125, 7.90625, 8.1875], "rotation": 180, "texture": "#texture"}
			}
		},
		{
			"name": "Element",
			"from": [7.06465, 29.2014, 7.9375],
			"to": [7.2209, 29.9514, 8.15625],
			"rotation": {"angle": -45, "axis": "z", "origin": [7.56462, 29.01386, 8]},
			"faces": {
				"north": {"uv": [8.09375, 8.28125, 7.90625, 8.1875], "rotation": 180, "texture": "#texture"},
				"east": {"uv": [8.09375, 8.28125, 7.90625, 8.1875], "rotation": 180, "texture": "#texture"},
				"south": {"uv": [8.09375, 8.28125, 7.90625, 8.1875], "rotation": 180, "texture": "#texture"},
				"west": {"uv": [8.09375, 8.28125, 7.90625, 8.1875], "rotation": 180, "texture": "#texture"},
				"up": {"uv": [8.09375, 8.28125, 7.90625, 8.1875], "rotation": 180, "texture": "#texture"},
				"down": {"uv": [8.09375, 8.28125, 7.90625, 8.1875], "rotation": 180, "texture": "#texture"}
			}
		}
	],
	"display": {
		"thirdperson_righthand": {
			"rotation": [0, 90, 0],
			"translation": [0, 11, 1],
			"scale": [0.8918, 0.8918, 0.8918]
		},
		"thirdperson_lefthand": {
			"rotation": [-112.75, 0, 41],
			"translation": [-4.75, -6, 7.5],
			"scale": [0.8918, 0.8918, 0.8918]
		},
		"firstperson_righthand": {
			"rotation": [-18.25, 90, 13],
			"translation": [0.75, 11, 2],
			"scale": [0.8, 0.8, 0.8]
		},
		"firstperson_lefthand": {
			"rotation": [-18.25, 90, 13],
			"translation": [0.75, 80, 2.25],
			"scale": [0.8, 0.8, 0.8]
		},
		"ground": {
			"rotation": [90, 0, 0],
			"translation": [0, -2.75, 1],
			"scale": [0.6, 0.6, 0.6]
		},
		"gui": {
			"rotation": [0, 0, -45],
			"scale": [0.63164, 0.63164, 0.63164]
		},
		"head": {
			"scale": [0.9, 0.9, 0.9]
		},
		"fixed": {
			"rotation": [0, 0, 45],
			"translation": [0, 0, -1.5],
			"scale": [0.79531, 0.79531, 0.79531]
		}
	}
}