{
	"credit": "Made with Blockbench",
	"textures": {
		"1": "sword/gold_sword"
	},
	"elements": [
		{
			"from": [7.5, 0, 7.5],
			"to": [8.5, 6, 8.5],
			"rotation": {"angle": 0, "axis": "y", "origin": [8, 8, 8.5]},
			"faces": {
				"north": {"uv": [8.5, 0, 9.5, 6], "texture": "#1"},
				"east": {"uv": [7.5, 0, 8.5, 6], "texture": "#1"},
				"south": {"uv": [10.5, 0, 11.5, 6], "texture": "#1"},
				"west": {"uv": [9.5, 0, 10.5, 6], "texture": "#1"},
				"up": {"uv": [9.5, 0, 10.5, 6], "texture": "#1"},
				"down": {"uv": [5.75, 0.75, 6.75, 1.75], "texture": "#1"}
			}
		},
		{
			"from": [7.875, 8, 8.25],
			"to": [8.125, 19, 8.75],
			"rotation": {"angle": 0, "axis": "y", "origin": [8.125, 9, 8]},
			"faces": {
				"north": {"uv": [2.75, 2, 3, 13], "texture": "#1"},
				"east": {"uv": [3, 2, 3.5, 13], "texture": "#1"},
				"south": {"uv": [2.75, 2, 3, 13], "texture": "#1"},
				"west": {"uv": [2.5, 2, 3, 13], "texture": "#1"},
				"up": {"uv": [2.75, 2, 3.25, 2.25], "rotation": 90, "texture": "#1"},
				"down": {"uv": [2.25, 2, 2.75, 13], "texture": "#1"}
			}
		},
		{
			"from": [7.5, 6, 7],
			"to": [8.5, 7, 9],
			"rotation": {"angle": 0, "axis": "y", "origin": [8, 9, 9]},
			"faces": {
				"north": {"uv": [5.25, 1, 6.25, 2], "rotation": 90, "texture": "#1"},
				"east": {"uv": [3.5, 0, 4.5, 2], "rotation": 90, "texture": "#1"},
				"south": {"uv": [3.5, 0, 4.5, 1], "texture": "#1"},
				"west": {"uv": [3.5, 0, 4.5, 2], "rotation": 90, "texture": "#1"},
				"up": {"uv": [5.75, 1, 6.75, 3], "texture": "#1"},
				"down": {"uv": [3.5, 0, 4.5, 2], "texture": "#1"}
			}
		},
		{
			"from": [7.845, 6.97, 7.22],
			"to": [8.155, 7.53, 8.78],
			"rotation": {"angle": 0, "axis": "y", "origin": [8.375, 9, 9.25]},
			"faces": {
				"north": {"uv": [3, 13.5, 3.5, 13.75], "rotation": 90, "texture": "#1"},
				"east": {"uv": [2.75, 13.5, 4.5, 14], "texture": "#1"},
				"south": {"uv": [2.75, 13.5, 3, 14], "texture": "#1"},
				"west": {"uv": [1.25, 13.5, 2.75, 14], "texture": "#1"},
				"up": {"uv": [3.5, 12, 5.25, 13], "texture": "#1"},
				"down": {"uv": [1.25, 13, 3, 14], "texture": "#1"}
			}
		},
		{
			"from": [7.875, 7, 7.25],
			"to": [8.125, 8, 8.75],
			"rotation": {"angle": 0, "axis": "y", "origin": [8.375, 9, 9.25]},
			"faces": {
				"north": {"uv": [1.25, 13, 3, 14], "texture": "#1"},
				"east": {"uv": [2.75, 13, 4.5, 14], "texture": "#1"},
				"south": {"uv": [2.75, 13, 3, 14], "texture": "#1"},
				"west": {"uv": [1.25, 13, 2.75, 14], "texture": "#1"},
				"up": {"uv": [3.25, 11.75, 3.5, 13.25], "texture": "#1"},
				"down": {"uv": [1.25, 13, 3, 14], "texture": "#1"}
			}
		},
		{
			"from": [7.975, 8, 7.25],
			"to": [8.025, 21, 8.5],
			"rotation": {"angle": 0, "axis": "y", "origin": [7.975, 9, 8]},
			"faces": {
				"north": {"uv": [0, 0, 0, 0], "texture": "#1"},
				"east": {"uv": [0, 0, 1.25, 13], "texture": "#1"},
				"south": {"uv": [2.25, 0, 2.5, 13], "texture": "#1"},
				"west": {"uv": [1.25, 0, 2.5, 13], "texture": "#1"},
				"up": {"uv": [0, 0, 0, 0], "texture": "#1"},
				"down": {"uv": [0, 0, 0, 0], "texture": "#1"}
			}
		}
	],
	"display": {
		"thirdperson_righthand": {
			"translation": [0, 3.25, 0.75]
		},
		"thirdperson_lefthand": {
			"translation": [0, 3.25, 0.75]
		},
		"firstperson_righthand": {
			"rotation": [0, 0, -11],
			"translation": [1, 3.25, 0]
		},
		"firstperson_lefthand": {
			"rotation": [0, 0, -11],
			"translation": [1, 3.25, 0]
		},
		"ground": {
			"rotation": [0, 0, 90]
		},
		"gui": {
			"rotation": [-86.75, 135, 88.5],
			"translation": [-1.75, -1.75, -0.5]
		},
		"fixed": {
			"rotation": [0, 90, 0],
			"translation": [0, -2, -1]
		}
	}
}