{
    "animation": {
        "frames": [
            {"index": 0, "time": 30},
            {"index": 1, "time": 3},
            {"index": 2, "time": 3},
            {"index": 1, "time": 3}
        ]
    }
}