{
	"credit": "Made with Blockbench",
	"textures": {
		"main": "vishsirisc:sword/swordeffphxt",
		"2_main": "vishsirisc:sword/swordeffphx"
	},
	"elements": [
		{
			"name": "Box1",
			"from": [2.3415, -2.7317, 8.0049],
			"to": [13.26833, 19.90245, 8.0059],
			"faces": {
				"north": {"uv": [1.5, 0, 6.5, 8], "texture": "#main"},
				"east": {"uv": [4.09706, 0.39024, 4.09756, 7.02439], "texture": "#main"},
				"south": {"uv": [6.5, 0, 1.5, 8], "texture": "#main"},
				"west": {"uv": [3.90244, 0.39024, 3.90294, 7.02439], "texture": "#main"},
				"up": {"uv": [2.34146, 3.90244, 3.90244, 3.90294], "texture": "#main"},
				"down": {"uv": [2.34146, 4.09706, 3.90244, 4.09756], "texture": "#main"}
			}
		},
		{
			"name": "Box1",
			"from": [2.3415, -2.7317, 8.3951],
			"to": [13.26833, 19.90245, 8.3961],
			"faces": {
				"north": {"uv": [1.5, 0, 6.5, 8], "texture": "#main"},
				"east": {"uv": [4.09706, 0.39024, 4.09756, 7.02439], "texture": "#main"},
				"south": {"uv": [6.5, 0, 1.5, 8], "texture": "#main"},
				"west": {"uv": [3.90244, 0.39024, 3.90294, 7.02439], "texture": "#main"},
				"up": {"uv": [2.34146, 3.90244, 3.90244, 3.90294], "texture": "#main"},
				"down": {"uv": [2.34146, 4.09706, 3.90244, 4.09756], "texture": "#main"}
			}
		},
		{
			"name": "Box1",
			"from": [2.3415, -8.9756, 8.1951],
			"to": [13.26833, 4.29269, 8.1961],
			"faces": {
				"north": {"uv": [8.75, 0, 15.25, 8], "texture": "#main"},
				"east": {"uv": [4.09706, 0.39024, 4.09756, 7.02439], "texture": "#main"},
				"south": {"uv": [15.25, 0, 8.75, 8], "texture": "#main"},
				"west": {"uv": [3.90244, 0.39024, 3.90294, 7.02439], "texture": "#main"},
				"up": {"uv": [2.34146, 3.90244, 3.90244, 3.90294], "texture": "#main"},
				"down": {"uv": [2.34146, 4.09706, 3.90244, 4.09756], "texture": "#main"}
			}
		},
		{
			"name": "Voxels",
			"from": [3.9024, -2.3415, 7.8049],
			"to": [11.70728, -1.95126, 8.58539],
			"faces": {
				"north": {"uv": [2.5, 13.375, 0, 13.5], "texture": "#main"},
				"east": {"uv": [7.125, 15.125, 6.875, 15.25], "texture": "#main"},
				"south": {"uv": [0, 13.25, 2.5, 13.375], "texture": "#main"},
				"west": {"uv": [7.25, 15.25, 7.5, 15.375], "texture": "#main"},
				"up": {"uv": [0, 15.75, 2.5, 15.5], "texture": "#main"},
				"down": {"uv": [0, 15.75, 2.5, 16], "texture": "#main"}
			}
		},
		{
			"name": "Voxels",
			"from": [3.9024, -1.9512, 7.8049],
			"to": [5.46338, -1.56096, 8.58539],
			"faces": {
				"north": {"uv": [7.375, 15.5, 6.875, 15.625], "texture": "#main"},
				"east": {"uv": [6.875, 15.125, 6.625, 15.25], "texture": "#main"},
				"south": {"uv": [3.75, 14.625, 4.25, 14.75], "texture": "#main"},
				"west": {"uv": [6.875, 15.25, 7.125, 15.375], "texture": "#main"},
				"up": {"uv": [2, 15.25, 2.5, 15], "texture": "#main"}
			}
		},
		{
			"name": "Voxels",
			"from": [4.2927, -3.122, 7.8049],
			"to": [5.46343, -2.34151, 8.58539],
			"faces": {
				"north": {"uv": [3.625, 12.875, 3.25, 13.125], "texture": "#main"},
				"east": {"uv": [7.625, 15.5, 7.375, 15.75], "texture": "#main"},
				"south": {"uv": [3.625, 12.875, 4, 13.125], "texture": "#main"},
				"west": {"uv": [4.25, 13, 4.5, 13.25], "texture": "#main"},
				"down": {"uv": [2.875, 12.375, 3.25, 12.625], "texture": "#main"}
			}
		},
		{
			"name": "Voxels",
			"from": [4.2927, -1.561, 7.8049],
			"to": [5.07319, -0.78051, 8.58539],
			"faces": {
				"north": {"uv": [2, 12, 1.75, 12.25], "texture": "#main"},
				"east": {"uv": [4.5, 14.5, 4.25, 14.75], "texture": "#main"},
				"south": {"uv": [4, 12.25, 4.25, 12.5], "texture": "#main"},
				"west": {"uv": [4, 12, 4.25, 12.25], "texture": "#main"},
				"up": {"uv": [1, 12.25, 1.25, 12], "texture": "#main"}
			}
		},
		{
			"name": "Voxels",
			"from": [4.6829, -5.0732, 7.8049],
			"to": [10.9268, -4.68296, 8.58539],
			"faces": {
				"north": {"uv": [4.5, 15.875, 2.5, 16], "texture": "#main"},
				"east": {"uv": [6.875, 15.25, 6.625, 15.375], "texture": "#main"},
				"south": {"uv": [4.5, 15.875, 6.5, 16], "texture": "#main"},
				"west": {"uv": [3.75, 14.875, 4, 15], "texture": "#main"},
				"up": {"uv": [0, 15.25, 2, 15], "texture": "#main"},
				"down": {"uv": [0, 15.25, 2, 15.5], "texture": "#main"}
			}
		},
		{
			"name": "Voxels",
			"from": [4.6829, -3.5122, 7.8049],
			"to": [5.07314, -3.12196, 8.58539],
			"faces": {
				"north": {"uv": [4.75, 12, 4.625, 12.125], "texture": "#main"},
				"east": {"uv": [7.875, 15.375, 7.625, 15.5], "texture": "#main"},
				"south": {"uv": [7.875, 15.375, 8, 15.5], "texture": "#main"},
				"west": {"uv": [5.875, 15.25, 6.125, 15.375], "texture": "#main"},
				"down": {"uv": [4.5, 13.125, 4.625, 13.375], "texture": "#main"}
			}
		},
		{
			"name": "Voxels",
			"from": [4.6829, -0.7805, 7.8049],
			"to": [5.07314, -0.39026, 8.58539],
			"faces": {
				"north": {"uv": [4.625, 12, 4.5, 12.125], "texture": "#main"},
				"east": {"uv": [3.5, 12, 3.25, 12.125], "texture": "#main"},
				"south": {"uv": [3.5, 12, 3.625, 12.125], "texture": "#main"},
				"west": {"uv": [7.125, 15.375, 7.375, 15.5], "texture": "#main"},
				"up": {"uv": [7.875, 15.75, 8, 15.5], "texture": "#main"}
			}
		},
		{
			"name": "Voxels",
			"from": [5.0732, -6.2439, 7.8049],
			"to": [6.24393, -5.07317, 8.58539],
			"faces": {
				"north": {"uv": [3.25, 13.875, 2.875, 14.25], "texture": "#main"},
				"east": {"uv": [3.875, 12.5, 3.625, 12.875], "texture": "#main"},
				"south": {"uv": [2.5, 13.875, 2.875, 14.25], "texture": "#main"},
				"west": {"uv": [3.25, 12.125, 3.5, 12.5], "texture": "#main"},
				"down": {"uv": [2.875, 12.875, 3.25, 13.125], "texture": "#main"}
			}
		},
		{
			"name": "Voxels",
			"from": [5.0732, -4.6829, 7.8049],
			"to": [10.53661, -4.29266, 8.58539],
			"faces": {
				"north": {"uv": [8, 15.75, 6.25, 15.875], "texture": "#main"},
				"east": {"uv": [4.25, 14.875, 4, 15], "texture": "#main"},
				"south": {"uv": [2.5, 15.625, 4.25, 15.75], "texture": "#main"},
				"west": {"uv": [4, 14.75, 4.25, 14.875], "texture": "#main"},
				"up": {"uv": [0, 14.25, 1.75, 14], "texture": "#main"}
			}
		},
		{
			"name": "Voxels",
			"from": [5.4634, -7.0244, 7.8049],
			"to": [6.24389, -6.24391, 8.58539],
			"faces": {
				"north": {"uv": [4.5, 14.25, 4.25, 14.5], "texture": "#main"},
				"east": {"uv": [6.375, 15.5, 6.125, 15.75], "texture": "#main"},
				"south": {"uv": [1.5, 12, 1.75, 12.25], "texture": "#main"},
				"west": {"uv": [6.375, 15.5, 6.625, 15.75], "texture": "#main"},
				"down": {"uv": [4, 13.375, 4.25, 13.625], "texture": "#main"}
			}
		},
		{
			"name": "Voxels",
			"from": [5.4634, -4.2927, 7.8049],
			"to": [10.14633, -3.90246, 8.58539],
			"faces": {
				"north": {"uv": [8, 15.875, 6.5, 16], "texture": "#main"},
				"east": {"uv": [5, 13.25, 4.75, 13.375], "texture": "#main"},
				"south": {"uv": [2.5, 14.75, 4, 14.875], "texture": "#main"},
				"west": {"uv": [7.375, 15.375, 7.625, 15.5], "texture": "#main"},
				"up": {"uv": [0, 13.75, 1.5, 13.5], "texture": "#main"}
			}
		},
		{
			"name": "Voxels",
			"from": [5.4634, -2.7317, 7.8049],
			"to": [11.31706, -2.34146, 8.58539],
			"faces": {
				"north": {"uv": [4.375, 15.75, 2.5, 15.875], "texture": "#main"},
				"east": {"uv": [5, 13.5, 4.75, 13.625], "texture": "#main"},
				"south": {"uv": [4.375, 15.75, 6.25, 15.875], "texture": "#main"},
				"down": {"uv": [0, 14.75, 1.875, 15], "texture": "#main"}
			}
		},
		{
			"name": "Voxels",
			"from": [5.8537, -7.4146, 7.8049],
			"to": [6.24394, -7.02436, 8.58539],
			"faces": {
				"north": {"uv": [5, 12.75, 4.875, 12.875], "texture": "#main"},
				"east": {"uv": [5, 14.875, 4.75, 15], "texture": "#main"},
				"south": {"uv": [4.75, 12.75, 4.875, 12.875], "texture": "#main"},
				"west": {"uv": [4.75, 14.75, 5, 14.875], "texture": "#main"},
				"down": {"uv": [4.75, 14.5, 4.875, 14.75], "texture": "#main"}
			}
		},
		{
			"name": "Voxels",
			"from": [5.8537, -3.9024, 7.8049],
			"to": [9.75614, -3.51216, 8.58539],
			"faces": {
				"north": {"uv": [3.75, 14.625, 2.5, 14.75], "texture": "#main"},
				"east": {"uv": [6.75, 15, 6.5, 15.125], "texture": "#main"},
				"south": {"uv": [2.5, 14.5, 3.75, 14.625], "texture": "#main"},
				"west": {"uv": [6.75, 15, 7, 15.125], "texture": "#main"},
				"up": {"uv": [0, 12.75, 1.25, 12.5], "texture": "#main"}
			}
		},
		{
			"name": "Voxels",
			"from": [5.8537, -1.9512, 7.8049],
			"to": [7.02443, -1.56096, 8.58539],
			"faces": {
				"north": {"uv": [6, 15.375, 5.625, 15.5], "texture": "#main"},
				"east": {"uv": [5.75, 15, 5.5, 15.125], "texture": "#main"},
				"south": {"uv": [3.875, 12.5, 4.25, 12.625], "texture": "#main"},
				"west": {"uv": [5.75, 15, 6, 15.125], "texture": "#main"},
				"up": {"uv": [3.875, 12.875, 4.25, 12.625], "texture": "#main"}
			}
		},
		{
			"name": "Voxels",
			"from": [6.2439, -5.8537, 7.8049],
			"to": [6.63414, -5.07321, 8.58539],
			"faces": {
				"north": {"uv": [4.75, 13.625, 4.625, 13.875], "texture": "#main"},
				"east": {"uv": [1.5, 12, 1.25, 12.25], "texture": "#main"},
				"south": {"uv": [4.625, 13.875, 4.75, 14.125], "texture": "#main"},
				"down": {"uv": [4.625, 13.125, 4.75, 13.375], "texture": "#main"}
			}
		},
		{
			"name": "Voxels",
			"from": [6.2439, -3.5122, 7.8049],
			"to": [9.36585, -2.73171, 8.58539],
			"faces": {
				"north": {"uv": [2.5, 13.5, 1.5, 13.75], "texture": "#main"},
				"east": {"uv": [4.25, 12.875, 4, 13.125], "texture": "#main"},
				"south": {"uv": [1.5, 13.75, 2.5, 14], "texture": "#main"},
				"west": {"uv": [4, 13.125, 4.25, 13.375], "texture": "#main"}
			}
		},
		{
			"name": "Voxels",
			"from": [6.6341, -14.0488, 7.8049],
			"to": [7.02434, -12.09758, 8.58539],
			"faces": {
				"north": {"uv": [4.375, 14.75, 4.25, 15.375], "texture": "#main"},
				"east": {"uv": [4.25, 15, 4, 15.625], "texture": "#main"},
				"south": {"uv": [4.375, 14.75, 4.5, 15.375], "texture": "#main"},
				"west": {"uv": [3.75, 15, 4, 15.625], "texture": "#main"},
				"up": {"uv": [4.625, 15.125, 4.75, 14.875], "texture": "#main"},
				"down": {"uv": [4.625, 14.625, 4.75, 14.875], "texture": "#main"}
			}
		},
		{
			"name": "Voxels",
			"from": [6.6341, -5.4634, 7.8049],
			"to": [10.53654, -5.07316, 8.58539],
			"faces": {
				"north": {"uv": [3.75, 14.375, 2.5, 14.5], "texture": "#main"},
				"east": {"uv": [7.75, 15.125, 7.5, 15.25], "texture": "#main"},
				"south": {"uv": [2.5, 14.25, 3.75, 14.375], "texture": "#main"},
				"down": {"uv": [0, 12.75, 1.25, 13], "texture": "#main"}
			}
		},
		{
			"name": "Voxels",
			"from": [7.0244, -13.2683, 7.8049],
			"to": [7.41464, -10.92684, 8.58539],
			"faces": {
				"north": {"uv": [2.875, 12.375, 2.75, 13.125], "texture": "#main"},
				"east": {"uv": [2.5, 12.25, 2.25, 13], "texture": "#main"},
				"south": {"uv": [3.5, 12.125, 3.625, 12.875], "texture": "#main"},
				"west": {"uv": [3.5, 14.875, 3.75, 15.625], "texture": "#main"},
				"up": {"uv": [7.125, 15.375, 7.25, 15.125], "texture": "#main"},
				"down": {"uv": [2.375, 14.75, 2.5, 15], "texture": "#main"}
			}
		},
		{
			"name": "Voxels",
			"from": [7.0244, -8.5854, 7.8049],
			"to": [8.58538, -8.19516, 8.58539],
			"faces": {
				"north": {"uv": [4.25, 14.375, 3.75, 14.5], "texture": "#main"},
				"east": {"uv": [5.5, 15, 5.25, 15.125], "texture": "#main"},
				"south": {"uv": [3.75, 14.5, 4.25, 14.625], "texture": "#main"},
				"west": {"uv": [5, 15, 5.25, 15.125], "texture": "#main"},
				"up": {"uv": [3.5, 13.875, 4, 13.625], "texture": "#main"},
				"down": {"uv": [2.5, 13.375, 3, 13.625], "texture": "#main"}
			}
		},
		{
			"name": "Voxels",
			"from": [7.0244, -5.8537, 7.8049],
			"to": [8.58538, -5.46346, 8.58539],
			"faces": {
				"north": {"uv": [7.375, 15.625, 6.875, 15.75], "texture": "#main"},
				"east": {"uv": [7.5, 15, 7.25, 15.125], "texture": "#main"},
				"south": {"uv": [5.625, 15.5, 6.125, 15.625], "texture": "#main"},
				"west": {"uv": [7, 15, 7.25, 15.125], "texture": "#main"},
				"down": {"uv": [3, 13.625, 3.5, 13.875], "texture": "#main"}
			}
		},
		{
			"name": "Voxels",
			"from": [7.4146, -12.878, 7.8049],
			"to": [8.97557, -12.09751, 8.58539],
			"faces": {
				"north": {"uv": [2.25, 14.25, 1.75, 14.5], "texture": "#main"},
				"east": {"uv": [4.5, 12.25, 4.25, 12.5], "texture": "#main"},
				"south": {"uv": [1.875, 14.75, 2.375, 15], "texture": "#main"},
				"up": {"uv": [1.75, 14.25, 2.25, 14], "texture": "#main"},
				"down": {"uv": [2, 12, 2.5, 12.25], "texture": "#main"}
			}
		},
		{
			"name": "Voxels",
			"from": [7.4146, -12.0976, 7.8049],
			"to": [8.58533, -10.92687, 8.58539],
			"faces": {
				"north": {"uv": [3.625, 13.875, 3.25, 14.25], "texture": "#main"},
				"east": {"uv": [4.25, 13.875, 4, 14.25], "texture": "#main"},
				"south": {"uv": [3.625, 13.875, 4, 14.25], "texture": "#main"},
				"up": {"uv": [3.625, 12.5, 4, 12.25], "texture": "#main"}
			}
		},
		{
			"name": "Voxels",
			"from": [7.4146, -10.9268, 7.8049],
			"to": [8.19509, -8.58534, 8.58539],
			"faces": {
				"north": {"uv": [3.5, 14.875, 3.25, 15.625], "texture": "#main"},
				"east": {"uv": [2.75, 14.875, 2.5, 15.625], "texture": "#main"},
				"south": {"uv": [3, 14.875, 3.25, 15.625], "texture": "#main"},
				"west": {"uv": [2.75, 14.875, 3, 15.625], "texture": "#main"}
			}
		},
		{
			"name": "Voxels",
			"from": [7.4146, -8.1951, 7.8049],
			"to": [8.19509, -5.85364, 8.58539],
			"faces": {
				"north": {"uv": [2, 12.25, 1.75, 13], "texture": "#main"},
				"east": {"uv": [2.25, 12.25, 2, 13], "texture": "#main"},
				"south": {"uv": [1.5, 12.25, 1.75, 13], "texture": "#main"},
				"west": {"uv": [1.25, 12.25, 1.5, 13], "texture": "#main"}
			}
		},
		{
			"name": "Voxels",
			"from": [8.1951, -13.2683, 7.8049],
			"to": [8.97559, -12.87806, 8.58539],
			"faces": {
				"north": {"uv": [6.375, 15.25, 6.125, 15.375], "texture": "#main"},
				"east": {"uv": [6.625, 15.125, 6.375, 15.25], "texture": "#main"},
				"south": {"uv": [6.125, 15.125, 6.375, 15.25], "texture": "#main"},
				"west": {"uv": [6.375, 15.25, 6.625, 15.375], "texture": "#main"},
				"down": {"uv": [4.25, 13.25, 4.5, 13.5], "texture": "#main"}
			}
		},
		{
			"name": "Voxels",
			"from": [8.5854, -14.0488, 7.8049],
			"to": [8.97564, -13.26831, 8.58539],
			"faces": {
				"north": {"uv": [4.625, 12.375, 4.5, 12.625], "texture": "#main"},
				"east": {"uv": [2.5, 14.25, 2.25, 14.5], "texture": "#main"},
				"south": {"uv": [4.5, 12.125, 4.625, 12.375], "texture": "#main"},
				"west": {"uv": [4.25, 14, 4.5, 14.25], "texture": "#main"},
				"down": {"uv": [4.5, 12.875, 4.625, 13.125], "texture": "#main"}
			}
		},
		{
			"name": "Voxels",
			"from": [8.5854, -1.9512, 7.8049],
			"to": [9.75613, -1.56096, 8.58539],
			"faces": {
				"north": {"uv": [3.25, 12, 2.875, 12.125], "texture": "#main"},
				"east": {"uv": [7.75, 15.25, 7.5, 15.375], "texture": "#main"},
				"south": {"uv": [6, 15.375, 6.375, 15.5], "texture": "#main"},
				"west": {"uv": [7.25, 15.125, 7.5, 15.25], "texture": "#main"},
				"up": {"uv": [3.625, 13.375, 4, 13.125], "texture": "#main"}
			}
		},
		{
			"name": "Voxels",
			"from": [8.9756, -5.8537, 7.8049],
			"to": [10.53658, -5.46346, 8.58539],
			"faces": {
				"north": {"uv": [4.25, 14.25, 3.75, 14.375], "texture": "#main"},
				"east": {"uv": [5, 15, 4.75, 15.125], "texture": "#main"},
				"south": {"uv": [5.625, 15.625, 6.125, 15.75], "texture": "#main"},
				"west": {"uv": [7.75, 15.125, 8, 15.25], "texture": "#main"},
				"down": {"uv": [3, 13.375, 3.5, 13.625], "texture": "#main"}
			}
		},
		{
			"name": "Voxels",
			"from": [9.3659, -7.4146, 7.8049],
			"to": [9.75614, -5.85362, 8.58539],
			"faces": {
				"north": {"uv": [4.625, 15, 4.5, 15.5], "texture": "#main"},
				"east": {"uv": [2.75, 12.375, 2.5, 12.875], "texture": "#main"},
				"south": {"uv": [4.5, 14.5, 4.625, 15], "texture": "#main"},
				"west": {"uv": [2.5, 12.875, 2.75, 13.375], "texture": "#main"},
				"down": {"uv": [4.625, 14.375, 4.75, 14.625], "texture": "#main"}
			}
		},
		{
			"name": "Voxels",
			"from": [9.7561, -7.0244, 7.8049],
			"to": [10.14634, -5.85367, 8.58539],
			"faces": {
				"north": {"uv": [2.875, 12, 2.75, 12.375], "texture": "#main"},
				"east": {"uv": [4.5, 15.375, 4.25, 15.75], "texture": "#main"},
				"south": {"uv": [4.5, 14.125, 4.625, 14.5], "texture": "#main"},
				"down": {"uv": [4.625, 12.875, 4.75, 13.125], "texture": "#main"}
			}
		},
		{
			"name": "Voxels",
			"from": [10.1463, -6.2439, 7.8049],
			"to": [10.53654, -5.85366, 8.58539],
			"faces": {
				"north": {"uv": [4.875, 13.125, 4.75, 13.25], "texture": "#main"},
				"east": {"uv": [6.5, 15, 6.25, 15.125], "texture": "#main"},
				"south": {"uv": [4.875, 13.125, 5, 13.25], "texture": "#main"},
				"down": {"uv": [4.625, 12.375, 4.75, 12.625], "texture": "#main"}
			}
		},
		{
			"name": "Voxels",
			"from": [10.1463, -3.122, 7.8049],
			"to": [11.31703, -2.73176, 8.58539],
			"faces": {
				"north": {"uv": [6.75, 15.375, 6.375, 15.5], "texture": "#main"},
				"east": {"uv": [8, 15, 7.75, 15.125], "texture": "#main"},
				"south": {"uv": [6.75, 15.375, 7.125, 15.5], "texture": "#main"},
				"west": {"uv": [7.5, 15, 7.75, 15.125], "texture": "#main"},
				"down": {"uv": [4.5, 15.5, 4.875, 15.75], "texture": "#main"}
			}
		},
		{
			"name": "Voxels",
			"from": [10.1463, -1.9512, 7.8049],
			"to": [11.70728, -1.56096, 8.58539],
			"faces": {
				"north": {"uv": [5.125, 15.375, 4.625, 15.5], "texture": "#main"},
				"east": {"uv": [5, 14.25, 4.75, 14.375], "texture": "#main"},
				"south": {"uv": [5.125, 15.375, 5.625, 15.5], "texture": "#main"},
				"west": {"uv": [4.75, 14.375, 5, 14.5], "texture": "#main"},
				"up": {"uv": [2.75, 13.375, 3.25, 13.125], "texture": "#main"}
			}
		},
		{
			"name": "Voxels",
			"from": [10.5366, -3.5122, 7.8049],
			"to": [10.92684, -3.12196, 8.58539],
			"faces": {
				"north": {"uv": [4.875, 13, 4.75, 13.125], "texture": "#main"},
				"east": {"uv": [5, 13.75, 4.75, 13.875], "texture": "#main"},
				"south": {"uv": [4.875, 13, 5, 13.125], "texture": "#main"},
				"west": {"uv": [4.75, 13.875, 5, 14], "texture": "#main"},
				"down": {"uv": [4.875, 14.5, 5, 14.75], "texture": "#main"}
			}
		},
		{
			"name": "Voxels",
			"from": [10.5366, -1.561, 7.8049],
			"to": [11.31709, -0.78051, 8.58539],
			"faces": {
				"north": {"uv": [5.125, 15.125, 4.875, 15.375], "texture": "#main"},
				"east": {"uv": [5.875, 15.125, 5.625, 15.375], "texture": "#main"},
				"south": {"uv": [5.125, 15.125, 5.375, 15.375], "texture": "#main"},
				"west": {"uv": [5.375, 15.125, 5.625, 15.375], "texture": "#main"},
				"up": {"uv": [4.625, 15.375, 4.875, 15.125], "texture": "#main"}
			}
		},
		{
			"name": "Voxels",
			"from": [10.5366, -0.7805, 7.8049],
			"to": [10.92684, -0.39026, 8.58539],
			"faces": {
				"north": {"uv": [4.875, 12.875, 4.75, 13], "texture": "#main"},
				"east": {"uv": [5, 13.625, 4.75, 13.75], "texture": "#main"},
				"south": {"uv": [4.875, 12.875, 5, 13], "texture": "#main"},
				"west": {"uv": [5.875, 15.125, 6.125, 15.25], "texture": "#main"},
				"up": {"uv": [4.5, 13.875, 4.625, 13.625], "texture": "#main"}
			}
		},
		{
			"name": "Box1",
			"from": [2.3415, -2.7317, 8.1951],
			"to": [13.26833, 19.90245, 8.1961],
			"faces": {
				"north": {"uv": [0.1875, 0, 0.8125, 1], "texture": "#2_main"},
				"east": {"uv": [0.51213, 0.04878, 0.5122, 0.87805], "texture": "#2_main"},
				"south": {"uv": [0.8125, 0, 0.1875, 1], "texture": "#2_main"},
				"west": {"uv": [0.4878, 0.04878, 0.48787, 0.87805], "texture": "#2_main"},
				"up": {"uv": [0.29268, 0.4878, 0.4878, 0.48787], "texture": "#2_main"},
				"down": {"uv": [0.29268, 0.51213, 0.4878, 0.5122], "texture": "#2_main"}
			}
		},
		{
			"name": "Box1",
			"from": [2.3415, -2.7317, 8.1951],
			"to": [13.26833, 19.90245, 8.1961],
			"faces": {
				"north": {"uv": [5.1875, 0, 5.8125, 1], "texture": "#2_main"},
				"east": {"uv": [4.51213, 0.04878, 4.5122, 0.87805], "texture": "#2_main"},
				"south": {"uv": [5.8125, 0, 5.1875, 1], "texture": "#2_main"},
				"west": {"uv": [4.4878, 0.04878, 4.48787, 0.87805], "texture": "#2_main"},
				"up": {"uv": [4.29268, 0.4878, 4.4878, 0.48787], "texture": "#2_main"},
				"down": {"uv": [4.29268, 0.51213, 4.4878, 0.5122], "texture": "#2_main"}
			}
		},
		{
			"name": "Box1",
			"from": [2.3415, -2.7317, 8.1951],
			"to": [13.26833, 19.90245, 8.1961],
			"faces": {
				"north": {"uv": [10.1875, 0, 10.8125, 1], "texture": "#2_main"},
				"east": {"uv": [8.51213, 0.04878, 8.5122, 0.87805], "texture": "#2_main"},
				"south": {"uv": [10.8125, 0, 10.1875, 1], "texture": "#2_main"},
				"west": {"uv": [8.4878, 0.04878, 8.48787, 0.87805], "texture": "#2_main"},
				"up": {"uv": [8.29268, 0.4878, 8.4878, 0.48787], "texture": "#2_main"},
				"down": {"uv": [8.29268, 0.51213, 8.4878, 0.5122], "texture": "#2_main"}
			}
		},
		{
			"name": "Box1",
			"from": [2.3415, -2.7317, 8.1951],
			"to": [13.26833, 19.90245, 8.1961],
			"faces": {
				"north": {"uv": [15.1875, 0, 15.8125, 1], "texture": "#2_main"},
				"east": {"uv": [12.51213, 0.04878, 12.5122, 0.87805], "texture": "#2_main"},
				"south": {"uv": [15.8125, 0, 15.1875, 1], "texture": "#2_main"},
				"west": {"uv": [12.4878, 0.04878, 12.48787, 0.87805], "texture": "#2_main"},
				"up": {"uv": [12.29268, 0.4878, 12.4878, 0.48787], "texture": "#2_main"},
				"down": {"uv": [12.29268, 0.51213, 12.4878, 0.5122], "texture": "#2_main"}
			}
		},
		{
			"name": "Box1",
			"from": [2.3415, -2.7317, 8.1951],
			"to": [13.26833, 19.90245, 8.1961],
			"faces": {
				"north": {"uv": [0.1875, 5, 0.8125, 6], "texture": "#2_main"},
				"east": {"uv": [0.51213, 4.04878, 0.5122, 4.87805], "texture": "#2_main"},
				"south": {"uv": [0.8125, 5, 0.1875, 6], "texture": "#2_main"},
				"west": {"uv": [0.4878, 4.04878, 0.48787, 4.87805], "texture": "#2_main"},
				"up": {"uv": [0.29268, 4.4878, 0.4878, 4.48787], "texture": "#2_main"},
				"down": {"uv": [0.29268, 4.51213, 0.4878, 4.5122], "texture": "#2_main"}
			}
		},
		{
			"name": "Box1",
			"from": [2.3415, -2.7317, 8.1951],
			"to": [13.26833, 19.90245, 8.1961],
			"faces": {
				"north": {"uv": [5.1875, 5, 5.8125, 6], "texture": "#2_main"},
				"east": {"uv": [4.51213, 4.04878, 4.5122, 4.87805], "texture": "#2_main"},
				"south": {"uv": [5.8125, 5, 5.1875, 6], "texture": "#2_main"},
				"west": {"uv": [4.4878, 4.04878, 4.48787, 4.87805], "texture": "#2_main"},
				"up": {"uv": [4.29268, 4.4878, 4.4878, 4.48787], "texture": "#2_main"},
				"down": {"uv": [4.29268, 4.51213, 4.4878, 4.5122], "texture": "#2_main"}
			}
		}
	],
	"display": {
		"thirdperson_righthand": {
			"rotation": [0, -90, 0],
			"translation": [0, 18.085, 1.3913],
			"scale": [1.2, 1.2, 1.2]
		},
		"thirdperson_lefthand": {
			"rotation": [0, -90, 0],
			"translation": [0, 18.085, 1.3913],
			"scale": [1.2, 1.2, 1.2]
		},
		"firstperson_righthand": {
			"rotation": [0, 106, 6],
			"translation": [13.913, 7.6521, -11.82],
			"scale": [1, 1.2782, 1]
		},
		"firstperson_lefthand": {
			"rotation": [0, 106, 6],
			"translation": [13.913, 7.6521, -11.82],
			"scale": [1, 1.2782, 1]
		},
		"ground": {
			"translation": [0, 11.739, 0],
			"scale": [0.5, 0.5, 0.5]
		},
		"gui": {
			"rotation": [0, 0, -45],
			"scale": [0.6173, 0.5477, 1]
		},
		"head": {
			"scale": [0.0001, 0.0001, 0.0001]
		},
		"fixed": {
			"translation": [0, 1.3913, -1.391]
		}
	},
	"groups": [
		{
			"name": "string",
			"origin": [8, 8, 8],
			"color": 0,
			"children": [0, 1, 2, 3, 4, 5, 6, 7, 8, 9, 10, 11, 12, 13, 14, 15, 16, 17, 18, 19, 20, 21, 22, 23, 24, 25, 26, 27, 28, 29, 30, 31, 32, 33, 34, 35, 36, 37, 38, 39, 40]
		},
		{
			"name": "swordeffphx",
			"origin": [8, 8, 8],
			"color": 0,
			"children": [41, 42, 43, 44, 45, 46]
		}
	]
}