{
	"__comment": "Designed by Naturesurvival with Cubik Studio - https://cubik.studio",
	"textures": {
		"voxels_atlas": "vishsirisc:sword/njs1"
	},
	"elements": [
		{
			"__comment": "Voxels",
			"from": [ 3.5, 2, 8.5 ],
			"to": [ 5.5, 2.5, 9 ],
			"faces": {
				"down": { "uv": [ 12, 14.5, 13, 14.75 ], "texture": "#voxels_atlas" },
				"up": { "uv": [ 13.5, 15.75, 14.5, 15.5 ], "texture": "#voxels_atlas" },
				"north": { "uv": [ 16, 15.75, 15, 16 ], "texture": "#voxels_atlas" },
				"south": { "uv": [ 11, 14.5, 12, 14.75 ], "texture": "#voxels_atlas" },
				"west": { "uv": [ 13.25, 12.25, 13.5, 12.5 ], "texture": "#voxels_atlas" },
				"east": { "uv": [ 13.75, 12.25, 13.5, 12.5 ], "texture": "#voxels_atlas" }
			}
		},
		{
			"__comment": "Voxels",
			"from": [ 3.5, 5.5, 8.5 ],
			"to": [ 4.5, 6, 9 ],
			"faces": {
				"down": { "uv": [ 2.5, 8, 3, 8.25 ], "texture": "#voxels_atlas" },
				"up": { "uv": [ 13, 15, 13.5, 14.75 ], "texture": "#voxels_atlas" },
				"north": { "uv": [ 14, 14.75, 13.5, 15 ], "texture": "#voxels_atlas" },
				"south": { "uv": [ 14, 14.75, 14.5, 15 ], "texture": "#voxels_atlas" },
				"west": { "uv": [ 13.75, 12.25, 14, 12.5 ], "texture": "#voxels_atlas" },
				"east": { "uv": [ 14.25, 12.25, 14, 12.5 ], "texture": "#voxels_atlas" }
			}
		},
		{
			"__comment": "Voxels",
			"from": [ 3.5, 6, 8.5 ],
			"to": [ 4, 6.5, 9 ],
			"faces": {
				"up": { "uv": [ 11.75, 9.25, 12, 9 ], "texture": "#voxels_atlas" },
				"north": { "uv": [ 12, 8.75, 11.75, 9 ], "texture": "#voxels_atlas" },
				"south": { "uv": [ 11.75, 8.5, 12, 8.75 ], "texture": "#voxels_atlas" },
				"west": { "uv": [ 11.75, 8.25, 12, 8.5 ], "texture": "#voxels_atlas" },
				"east": { "uv": [ 12, 8, 11.75, 8.25 ], "texture": "#voxels_atlas" }
			}
		},
		{
			"__comment": "Voxels",
			"from": [ 4, 1.5, 8 ],
			"to": [ 5, 2, 8.5 ],
			"faces": {
				"down": { "uv": [ 10, 11.5, 10.5, 11.75 ], "texture": "#voxels_atlas" },
				"up": { "uv": [ 10, 11.5, 10.5, 11.25 ], "texture": "#voxels_atlas" },
				"north": { "uv": [ 10.5, 11, 10, 11.25 ], "texture": "#voxels_atlas" },
				"south": { "uv": [ 10, 10.75, 10.5, 11 ], "texture": "#voxels_atlas" },
				"west": { "uv": [ 12.5, 11.75, 12.75, 12 ], "texture": "#voxels_atlas" },
				"east": { "uv": [ 13, 11.75, 12.75, 12 ], "texture": "#voxels_atlas" }
			}
		},
		{
			"__comment": "Voxels",
			"from": [ 4, 1.5, 8.5 ],
			"to": [ 4.5, 2, 9.5 ],
			"faces": {
				"down": { "uv": [ 7.75, 8, 8, 8.5 ], "texture": "#voxels_atlas" },
				"up": { "uv": [ 8, 8.5, 8.25, 8 ], "texture": "#voxels_atlas" },
				"south": { "uv": [ 13.25, 11.75, 13.5, 12 ], "texture": "#voxels_atlas" },
				"west": { "uv": [ 10, 9.5, 10.5, 9.75 ], "texture": "#voxels_atlas" },
				"east": { "uv": [ 10.5, 9.25, 10, 9.5 ], "texture": "#voxels_atlas" }
			}
		},
		{
			"__comment": "Voxels",
			"from": [ 4, 2, 8 ],
			"to": [ 4.5, 3, 8.5 ],
			"faces": {
				"up": { "uv": [ 12, 11.5, 12.25, 11.25 ], "texture": "#voxels_atlas" },
				"north": { "uv": [ 8.5, 8, 8.25, 8.5 ], "texture": "#voxels_atlas" },
				"south": { "uv": [ 8.5, 8, 8.75, 8.5 ], "texture": "#voxels_atlas" },
				"west": { "uv": [ 8.75, 8, 9, 8.5 ], "texture": "#voxels_atlas" },
				"east": { "uv": [ 9.25, 8, 9, 8.5 ], "texture": "#voxels_atlas" }
			}
		},
		{
			"__comment": "Voxels",
			"from": [ 4, 2, 9 ],
			"to": [ 4.5, 3, 9.5 ],
			"faces": {
				"up": { "uv": [ 12, 9, 12.25, 8.75 ], "texture": "#voxels_atlas" },
				"north": { "uv": [ 9.5, 8, 9.25, 8.5 ], "texture": "#voxels_atlas" },
				"south": { "uv": [ 7, 8, 7.25, 8.5 ], "texture": "#voxels_atlas" },
				"west": { "uv": [ 9.5, 8.25, 9.75, 8.75 ], "texture": "#voxels_atlas" },
				"east": { "uv": [ 10, 13.25, 9.75, 13.75 ], "texture": "#voxels_atlas" }
			}
		},
		{
			"__comment": "Voxels",
			"from": [ 4, 2.5, 8.5 ],
			"to": [ 5, 3.5, 9 ],
			"faces": {
				"up": { "uv": [ 10.75, 13.25, 11.25, 13 ], "texture": "#voxels_atlas" },
				"north": { "uv": [ 15, 15.5, 14.5, 16 ], "texture": "#voxels_atlas" },
				"south": { "uv": [ 13, 15.5, 13.5, 16 ], "texture": "#voxels_atlas" },
				"west": { "uv": [ 9.75, 12.75, 10, 13.25 ], "texture": "#voxels_atlas" },
				"east": { "uv": [ 10, 12.25, 9.75, 12.75 ], "texture": "#voxels_atlas" }
			}
		},
		{
			"__comment": "Voxels",
			"from": [ 4, 3.5, 8.5 ],
			"to": [ 4.5, 5.5, 9 ],
			"faces": {
				"north": { "uv": [ 5, 8.75, 4.75, 9.75 ], "texture": "#voxels_atlas" },
				"south": { "uv": [ 4.25, 8.75, 4.5, 9.75 ], "texture": "#voxels_atlas" },
				"west": { "uv": [ 4.5, 8.75, 4.75, 9.75 ], "texture": "#voxels_atlas" },
				"east": { "uv": [ 2, 8.25, 1.75, 9.25 ], "texture": "#voxels_atlas" }
			}
		},
		{
			"__comment": "Voxels",
			"from": [ 4.5, 1, 8 ],
			"to": [ 5.5, 1.5, 9.5 ],
			"faces": {
				"down": { "uv": [ 12.5, 14.75, 13, 15.5 ], "texture": "#voxels_atlas" },
				"up": { "uv": [ 11, 15.5, 11.5, 14.75 ], "texture": "#voxels_atlas" },
				"north": { "uv": [ 11.75, 13, 11.25, 13.25 ], "texture": "#voxels_atlas" },
				"south": { "uv": [ 11.75, 13, 12.25, 13.25 ], "texture": "#voxels_atlas" },
				"west": { "uv": [ 13.75, 13.25, 14.5, 13.5 ], "texture": "#voxels_atlas" },
				"east": { "uv": [ 15.25, 13.25, 14.5, 13.5 ], "texture": "#voxels_atlas" }
			}
		},
		{
			"__comment": "Voxels",
			"from": [ 4.5, 1.5, 9 ],
			"to": [ 5, 2, 9.5 ],
			"faces": {
				"up": { "uv": [ 12.5, 11.75, 12.75, 11.5 ], "texture": "#voxels_atlas" },
				"north": { "uv": [ 13, 11.5, 12.75, 11.75 ], "texture": "#voxels_atlas" },
				"south": { "uv": [ 13, 11.5, 13.25, 11.75 ], "texture": "#voxels_atlas" },
				"east": { "uv": [ 14.25, 11.5, 14, 11.75 ], "texture": "#voxels_atlas" }
			}
		},
		{
			"__comment": "Voxels",
			"from": [ 4.5, 4, 8.5 ],
			"to": [ 5, 5, 9 ],
			"faces": {
				"down": { "uv": [ 14.25, 11.5, 14.5, 11.75 ], "texture": "#voxels_atlas" },
				"up": { "uv": [ 15, 11.75, 15.25, 11.5 ], "texture": "#voxels_atlas" },
				"north": { "uv": [ 11, 11.5, 10.75, 12 ], "texture": "#voxels_atlas" },
				"south": { "uv": [ 10.75, 11, 11, 11.5 ], "texture": "#voxels_atlas" },
				"east": { "uv": [ 11, 10, 10.75, 10.5 ], "texture": "#voxels_atlas" }
			}
		},
		{
			"__comment": "Voxels",
			"from": [ 5, 1.5, 8.5 ],
			"to": [ 6.5, 2, 9 ],
			"faces": {
				"down": { "uv": [ 10.75, 14, 11.5, 14.25 ], "texture": "#voxels_atlas" },
				"up": { "uv": [ 11.5, 14.25, 12.25, 14 ], "texture": "#voxels_atlas" },
				"north": { "uv": [ 13, 14, 12.25, 14.25 ], "texture": "#voxels_atlas" },
				"south": { "uv": [ 13, 14, 13.75, 14.25 ], "texture": "#voxels_atlas" },
				"west": { "uv": [ 15.25, 11.5, 15.5, 11.75 ], "texture": "#voxels_atlas" },
				"east": { "uv": [ 15.75, 11.5, 15.5, 11.75 ], "texture": "#voxels_atlas" }
			}
		},
		{
			"__comment": "Voxels",
			"from": [ 5.5, 0.5, 8 ],
			"to": [ 6.5, 1, 9.5 ],
			"faces": {
				"down": { "uv": [ 11.5, 14.75, 12, 15.5 ], "texture": "#voxels_atlas" },
				"up": { "uv": [ 12, 15.5, 12.5, 14.75 ], "texture": "#voxels_atlas" },
				"north": { "uv": [ 13.75, 13, 13.25, 13.25 ], "texture": "#voxels_atlas" },
				"south": { "uv": [ 13.75, 13, 14.25, 13.25 ], "texture": "#voxels_atlas" },
				"west": { "uv": [ 10.75, 13.75, 11.5, 14 ], "texture": "#voxels_atlas" },
				"east": { "uv": [ 12.25, 13.75, 11.5, 14 ], "texture": "#voxels_atlas" }
			}
		},
		{
			"__comment": "Voxels",
			"from": [ 5.5, 1, 8.5 ],
			"to": [ 7.5, 1.5, 9 ],
			"faces": {
				"down": { "uv": [ 14.5, 15.25, 15.5, 15.5 ], "texture": "#voxels_atlas" },
				"up": { "uv": [ 14.5, 15.25, 15.5, 15 ], "texture": "#voxels_atlas" },
				"north": { "uv": [ 15.5, 14.75, 14.5, 15 ], "texture": "#voxels_atlas" },
				"south": { "uv": [ 10, 14.5, 11, 14.75 ], "texture": "#voxels_atlas" },
				"east": { "uv": [ 12.5, 10.75, 12.25, 11 ], "texture": "#voxels_atlas" }
			}
		},
		{
			"__comment": "Voxels",
			"from": [ 6.5, 0.5, 8.5 ],
			"to": [ 7.5, 1, 9 ],
			"faces": {
				"down": { "uv": [ 15.5, 15.25, 16, 15.5 ], "texture": "#voxels_atlas" },
				"north": { "uv": [ 10.5, 12.5, 10, 12.75 ], "texture": "#voxels_atlas" },
				"south": { "uv": [ 10, 12.25, 10.5, 12.5 ], "texture": "#voxels_atlas" },
				"east": { "uv": [ 12.5, 8.25, 12.25, 8.5 ], "texture": "#voxels_atlas" }
			}
		},
		{
			"__comment": "Voxels",
			"from": [ 7.5, -12.5, 8.5 ],
			"to": [ 9, -12, 9 ],
			"faces": {
				"down": { "uv": [ 15.25, 13.75, 16, 14 ], "texture": "#voxels_atlas", "cullface": "down" },
				"up": { "uv": [ 10, 13.75, 10.75, 13.5 ], "texture": "#voxels_atlas", "cullface": "down" },
				"north": { "uv": [ 11.5, 13.5, 10.75, 13.75 ], "texture": "#voxels_atlas", "cullface": "down" },
				"south": { "uv": [ 11.5, 13.5, 12.25, 13.75 ], "texture": "#voxels_atlas", "cullface": "down" },
				"west": { "uv": [ 12.25, 8, 12.5, 8.25 ], "texture": "#voxels_atlas", "cullface": "down" },
				"east": { "uv": [ 12.75, 11.25, 12.5, 11.5 ], "texture": "#voxels_atlas", "cullface": "down" }
			}
		},
		{
			"__comment": "Voxels",
			"from": [ 7.5, -12, 8 ],
			"to": [ 9, -11.5, 8.5 ],
			"faces": {
				"down": { "uv": [ 12.25, 13.5, 13, 13.75 ], "texture": "#voxels_atlas", "cullface": "down" },
				"up": { "uv": [ 13, 13.75, 13.75, 13.5 ], "texture": "#voxels_atlas", "cullface": "down" },
				"north": { "uv": [ 14.5, 13.5, 13.75, 13.75 ], "texture": "#voxels_atlas", "cullface": "down" },
				"south": { "uv": [ 14.5, 13.5, 15.25, 13.75 ], "texture": "#voxels_atlas", "cullface": "down" },
				"west": { "uv": [ 12.75, 11.25, 13, 11.5 ], "texture": "#voxels_atlas", "cullface": "down" },
				"east": { "uv": [ 13.75, 11.25, 13.5, 11.5 ], "texture": "#voxels_atlas", "cullface": "down" }
			}
		},
		{
			"__comment": "Voxels",
			"from": [ 7.5, -12, 8.5 ],
			"to": [ 8, 0.5, 9 ],
			"faces": {
				"up": { "uv": [ 14, 11.5, 14.25, 11.25 ], "texture": "#voxels_atlas", "cullface": "down" },
				"north": { "uv": [ 3.75, 9.75, 3.5, 16 ], "texture": "#voxels_atlas", "cullface": "down" },
				"south": { "uv": [ 3.75, 9.75, 4, 16 ], "texture": "#voxels_atlas", "cullface": "down" },
				"west": { "uv": [ 4, 9.75, 4.25, 16 ], "texture": "#voxels_atlas", "cullface": "down" },
				"east": { "uv": [ 3.25, 9.75, 3, 16 ], "texture": "#voxels_atlas", "cullface": "down" }
			}
		},
		{
			"__comment": "Voxels",
			"from": [ 7.5, -12, 9 ],
			"to": [ 9, -11.5, 9.5 ],
			"faces": {
				"down": { "uv": [ 10.75, 13.25, 11.5, 13.5 ], "texture": "#voxels_atlas", "cullface": "down" },
				"up": { "uv": [ 11.5, 13.5, 12.25, 13.25 ], "texture": "#voxels_atlas", "cullface": "down" },
				"north": { "uv": [ 13, 13.25, 12.25, 13.5 ], "texture": "#voxels_atlas", "cullface": "down" },
				"south": { "uv": [ 13, 13.25, 13.75, 13.5 ], "texture": "#voxels_atlas", "cullface": "down" },
				"west": { "uv": [ 14.25, 11.25, 14.5, 11.5 ], "texture": "#voxels_atlas", "cullface": "down" },
				"east": { "uv": [ 12.75, 10.5, 12.5, 10.75 ], "texture": "#voxels_atlas", "cullface": "down" }
			}
		},
		{
			"__comment": "Voxels",
			"from": [ 7.5, -1, 8 ],
			"to": [ 8, 10, 8.5 ],
			"faces": {
				"down": { "uv": [ 12.5, 10.25, 12.75, 10.5 ], "texture": "#voxels_atlas", "cullface": "down" },
				"up": { "uv": [ 12.5, 10.25, 12.75, 10 ], "texture": "#voxels_atlas", "cullface": "down" },
				"north": { "uv": [ 5.25, 10.5, 5, 16 ], "texture": "#voxels_atlas", "cullface": "down" },
				"south": { "uv": [ 5.25, 10.5, 5.5, 16 ], "texture": "#voxels_atlas", "cullface": "down" },
				"west": { "uv": [ 5.5, 10.5, 5.75, 16 ], "texture": "#voxels_atlas", "cullface": "down" },
				"east": { "uv": [ 6, 10.5, 5.75, 16 ], "texture": "#voxels_atlas", "cullface": "down" }
			}
		},
		{
			"__comment": "Voxels",
			"from": [ 7.5, -1, 9 ],
			"to": [ 8, 10, 9.5 ],
			"faces": {
				"down": { "uv": [ 12.25, 11, 12.5, 11.25 ], "texture": "#voxels_atlas", "cullface": "down" },
				"up": { "uv": [ 12.25, 11.5, 12.5, 11.25 ], "texture": "#voxels_atlas", "cullface": "down" },
				"north": { "uv": [ 6.25, 10.5, 6, 16 ], "texture": "#voxels_atlas", "cullface": "down" },
				"south": { "uv": [ 6.25, 10.5, 6.5, 16 ], "texture": "#voxels_atlas", "cullface": "down" },
				"west": { "uv": [ 6.5, 10.5, 6.75, 16 ], "texture": "#voxels_atlas", "cullface": "down" },
				"east": { "uv": [ 7, 10.5, 6.75, 16 ], "texture": "#voxels_atlas", "cullface": "down" }
			}
		},
		{
			"__comment": "Voxels",
			"from": [ 7.5, -0.5, 7.5 ],
			"to": [ 9, 0, 8 ],
			"faces": {
				"down": { "uv": [ 10.75, 14.25, 11.5, 14.5 ], "texture": "#voxels_atlas", "cullface": "down" },
				"up": { "uv": [ 11.5, 14.5, 12.25, 14.25 ], "texture": "#voxels_atlas", "cullface": "down" },
				"north": { "uv": [ 13, 14.25, 12.25, 14.5 ], "texture": "#voxels_atlas", "cullface": "down" },
				"south": { "uv": [ 13, 14.25, 13.75, 14.5 ], "texture": "#voxels_atlas", "cullface": "down" },
				"west": { "uv": [ 14.75, 11.5, 15, 11.75 ], "texture": "#voxels_atlas", "cullface": "down" },
				"east": { "uv": [ 14.75, 11.5, 14.5, 11.75 ], "texture": "#voxels_atlas", "cullface": "down" }
			}
		},
		{
			"__comment": "Voxels",
			"from": [ 7.5, -0.5, 9.5 ],
			"to": [ 9, 0, 10 ],
			"faces": {
				"down": { "uv": [ 13.75, 14.25, 14.5, 14.5 ], "texture": "#voxels_atlas", "cullface": "down" },
				"up": { "uv": [ 14.5, 14.5, 15.25, 14.25 ], "texture": "#voxels_atlas", "cullface": "down" },
				"north": { "uv": [ 16, 14.25, 15.25, 14.5 ], "texture": "#voxels_atlas", "cullface": "down" },
				"south": { "uv": [ 10, 14, 10.75, 14.25 ], "texture": "#voxels_atlas", "cullface": "down" },
				"west": { "uv": [ 12, 9.75, 12.25, 10 ], "texture": "#voxels_atlas", "cullface": "down" },
				"east": { "uv": [ 12.25, 10, 12, 10.25 ], "texture": "#voxels_atlas", "cullface": "down" }
			}
		},
		{
			"__comment": "Voxels",
			"from": [ 7.5, 0.5, 7.5 ],
			"to": [ 8, 2.5, 8 ],
			"faces": {
				"down": { "uv": [ 12, 10.25, 12.25, 10.5 ], "texture": "#voxels_atlas" },
				"up": { "uv": [ 12, 10.75, 12.25, 10.5 ], "texture": "#voxels_atlas" },
				"north": { "uv": [ 9.5, 8.5, 9.25, 9.5 ], "texture": "#voxels_atlas" },
				"west": { "uv": [ 1.5, 8.25, 1.75, 9.25 ], "texture": "#voxels_atlas" },
				"east": { "uv": [ 3.25, 8.75, 3, 9.75 ], "texture": "#voxels_atlas" }
			}
		},
		{
			"__comment": "Voxels",
			"from": [ 7.5, 0.5, 9.5 ],
			"to": [ 8, 2.5, 10 ],
			"faces": {
				"down": { "uv": [ 15.75, 11.75, 16, 12 ], "texture": "#voxels_atlas" },
				"up": { "uv": [ 15.5, 12, 15.75, 11.75 ], "texture": "#voxels_atlas" },
				"south": { "uv": [ 3.5, 8.75, 3.75, 9.75 ], "texture": "#voxels_atlas" },
				"west": { "uv": [ 3.75, 8.75, 4, 9.75 ], "texture": "#voxels_atlas" },
				"east": { "uv": [ 4.25, 8.75, 4, 9.75 ], "texture": "#voxels_atlas" }
			}
		},
		{
			"__comment": "Voxels",
			"from": [ 7.5, 1, 7 ],
			"to": [ 9, 1.5, 7.5 ],
			"faces": {
				"down": { "uv": [ 13.75, 14, 14.5, 14.25 ], "texture": "#voxels_atlas" },
				"up": { "uv": [ 14.5, 14.25, 15.25, 14 ], "texture": "#voxels_atlas" },
				"north": { "uv": [ 16, 14, 15.25, 14.25 ], "texture": "#voxels_atlas" },
				"south": { "uv": [ 10, 13.75, 10.75, 14 ], "texture": "#voxels_atlas" },
				"west": { "uv": [ 11.75, 9.5, 12, 9.75 ], "texture": "#voxels_atlas" },
				"east": { "uv": [ 12, 9.75, 11.75, 10 ], "texture": "#voxels_atlas" }
			}
		},
		{
			"__comment": "Voxels",
			"from": [ 7.5, 1, 10 ],
			"to": [ 9, 1.5, 10.5 ],
			"faces": {
				"down": { "uv": [ 12.25, 13.75, 13, 14 ], "texture": "#voxels_atlas" },
				"up": { "uv": [ 13, 14, 13.75, 13.75 ], "texture": "#voxels_atlas" },
				"north": { "uv": [ 14.5, 13.75, 13.75, 14 ], "texture": "#voxels_atlas" },
				"south": { "uv": [ 14.5, 13.75, 15.25, 14 ], "texture": "#voxels_atlas" },
				"west": { "uv": [ 11.75, 10, 12, 10.25 ], "texture": "#voxels_atlas" },
				"east": { "uv": [ 12, 10.25, 11.75, 10.5 ], "texture": "#voxels_atlas" }
			}
		},
		{
			"__comment": "Voxels",
			"from": [ 7.5, 1.5, 8.5 ],
			"to": [ 8, 17.5, 9 ],
			"faces": {
				"down": { "uv": [ 11.75, 10.5, 12, 10.75 ], "texture": "#voxels_atlas", "cullface": "up" },
				"up": { "uv": [ 11.75, 11, 12, 10.75 ], "texture": "#voxels_atlas", "cullface": "up" },
				"north": { "uv": [ 0.25, 8, 0, 16 ], "texture": "#voxels_atlas", "cullface": "up" },
				"south": { "uv": [ 0.25, 8, 0.5, 16 ], "texture": "#voxels_atlas", "cullface": "up" },
				"west": { "uv": [ 0.5, 8, 0.75, 16 ], "texture": "#voxels_atlas", "cullface": "up" },
				"east": { "uv": [ 1, 8, 0.75, 16 ], "texture": "#voxels_atlas", "cullface": "up" }
			}
		},
		{
			"__comment": "Voxels",
			"from": [ 8, -12.5, 8 ],
			"to": [ 8.5, -12, 8.5 ],
			"faces": {
				"down": { "uv": [ 11.75, 11, 12, 11.25 ], "texture": "#voxels_atlas", "cullface": "down" },
				"north": { "uv": [ 13, 12, 12.75, 12.25 ], "texture": "#voxels_atlas", "cullface": "down" },
				"west": { "uv": [ 12.25, 12, 12.5, 12.25 ], "texture": "#voxels_atlas", "cullface": "down" },
				"east": { "uv": [ 12.25, 12, 12, 12.25 ], "texture": "#voxels_atlas", "cullface": "down" }
			}
		},
		{
			"__comment": "Voxels",
			"from": [ 8, -12.5, 9 ],
			"to": [ 8.5, -12, 9.5 ],
			"faces": {
				"down": { "uv": [ 11.5, 8.25, 11.75, 8.5 ], "texture": "#voxels_atlas", "cullface": "down" },
				"south": { "uv": [ 11.5, 9, 11.75, 9.25 ], "texture": "#voxels_atlas", "cullface": "down" },
				"west": { "uv": [ 11.5, 9.75, 11.75, 10 ], "texture": "#voxels_atlas", "cullface": "down" },
				"east": { "uv": [ 11.75, 10, 11.5, 10.25 ], "texture": "#voxels_atlas", "cullface": "down" }
			}
		},
		{
			"__comment": "Voxels",
			"from": [ 8, -11.5, 8 ],
			"to": [ 8.5, -1, 8.5 ],
			"faces": {
				"up": { "uv": [ 11.5, 10.75, 11.75, 10.5 ], "texture": "#voxels_atlas", "cullface": "down" },
				"north": { "uv": [ 8.5, 10.75, 8.25, 16 ], "texture": "#voxels_atlas", "cullface": "down" },
				"south": { "uv": [ 7.5, 10.75, 7.75, 16 ], "texture": "#voxels_atlas", "cullface": "down" },
				"west": { "uv": [ 8.75, 10.75, 9, 16 ], "texture": "#voxels_atlas", "cullface": "down" },
				"east": { "uv": [ 8.75, 10.75, 8.5, 16 ], "texture": "#voxels_atlas", "cullface": "down" }
			}
		},
		{
			"__comment": "Voxels",
			"from": [ 8, -11.5, 9 ],
			"to": [ 8.5, -1, 9.5 ],
			"faces": {
				"up": { "uv": [ 15.25, 12.5, 15.5, 12.25 ], "texture": "#voxels_atlas", "cullface": "down" },
				"north": { "uv": [ 8.25, 10.75, 8, 16 ], "texture": "#voxels_atlas", "cullface": "down" },
				"south": { "uv": [ 7.75, 10.75, 8, 16 ], "texture": "#voxels_atlas", "cullface": "down" },
				"west": { "uv": [ 7.25, 10.75, 7.5, 16 ], "texture": "#voxels_atlas", "cullface": "down" },
				"east": { "uv": [ 7.25, 10.75, 7, 16 ], "texture": "#voxels_atlas", "cullface": "down" }
			}
		},
		{
			"__comment": "Voxels",
			"from": [ 8, -1.5, 7.5 ],
			"to": [ 8.5, -0.5, 8 ],
			"faces": {
				"down": { "uv": [ 15, 12.25, 15.25, 12.5 ], "texture": "#voxels_atlas", "cullface": "down" },
				"north": { "uv": [ 11, 8.5, 10.75, 9 ], "texture": "#voxels_atlas", "cullface": "down" },
				"south": { "uv": [ 10.75, 9, 11, 9.5 ], "texture": "#voxels_atlas", "cullface": "down" },
				"west": { "uv": [ 10.75, 9.5, 11, 10 ], "texture": "#voxels_atlas", "cullface": "down" },
				"east": { "uv": [ 9.75, 8.75, 9.5, 9.25 ], "texture": "#voxels_atlas", "cullface": "down" }
			}
		},
		{
			"__comment": "Voxels",
			"from": [ 8, -1.5, 9.5 ],
			"to": [ 8.5, -0.5, 10 ],
			"faces": {
				"down": { "uv": [ 13, 12.25, 13.25, 12.5 ], "texture": "#voxels_atlas", "cullface": "down" },
				"north": { "uv": [ 10, 9.25, 9.75, 9.75 ], "texture": "#voxels_atlas", "cullface": "down" },
				"south": { "uv": [ 9.75, 9.75, 10, 10.25 ], "texture": "#voxels_atlas", "cullface": "down" },
				"west": { "uv": [ 7.5, 8, 7.75, 8.5 ], "texture": "#voxels_atlas", "cullface": "down" },
				"east": { "uv": [ 7.5, 8, 7.25, 8.5 ], "texture": "#voxels_atlas", "cullface": "down" }
			}
		},
		{
			"__comment": "Voxels",
			"from": [ 8, 0, 7.5 ],
			"to": [ 8.5, 0.5, 8 ],
			"faces": {
				"up": { "uv": [ 15.75, 13, 16, 12.75 ], "texture": "#voxels_atlas" },
				"north": { "uv": [ 10.75, 8.25, 10.5, 8.5 ], "texture": "#voxels_atlas" },
				"south": { "uv": [ 10.5, 8.5, 10.75, 8.75 ], "texture": "#voxels_atlas" },
				"west": { "uv": [ 10.5, 8.75, 10.75, 9 ], "texture": "#voxels_atlas" },
				"east": { "uv": [ 10.75, 9, 10.5, 9.25 ], "texture": "#voxels_atlas" }
			}
		},
		{
			"__comment": "Voxels",
			"from": [ 8, 0, 9.5 ],
			"to": [ 8.5, 0.5, 10 ],
			"faces": {
				"up": { "uv": [ 10.5, 9.75, 10.75, 9.5 ], "texture": "#voxels_atlas" },
				"north": { "uv": [ 10.75, 10, 10.5, 10.25 ], "texture": "#voxels_atlas" },
				"south": { "uv": [ 10.5, 9.75, 10.75, 10 ], "texture": "#voxels_atlas" },
				"west": { "uv": [ 13.5, 12, 13.75, 12.25 ], "texture": "#voxels_atlas" },
				"east": { "uv": [ 14, 12, 13.75, 12.25 ], "texture": "#voxels_atlas" }
			}
		},
		{
			"__comment": "Voxels",
			"from": [ 8, 0.5, 7 ],
			"to": [ 8.5, 1, 7.5 ],
			"faces": {
				"down": { "uv": [ 14, 12, 14.25, 12.25 ], "texture": "#voxels_atlas" },
				"north": { "uv": [ 15.25, 12, 15, 12.25 ], "texture": "#voxels_atlas" },
				"south": { "uv": [ 15.25, 12, 15.5, 12.25 ], "texture": "#voxels_atlas" },
				"west": { "uv": [ 15.5, 12, 15.75, 12.25 ], "texture": "#voxels_atlas" },
				"east": { "uv": [ 16, 12, 15.75, 12.25 ], "texture": "#voxels_atlas" }
			}
		},
		{
			"__comment": "Voxels",
			"from": [ 8, 0.5, 10 ],
			"to": [ 8.5, 1, 10.5 ],
			"faces": {
				"down": { "uv": [ 14, 11.75, 14.25, 12 ], "texture": "#voxels_atlas" },
				"north": { "uv": [ 14.75, 11.75, 14.5, 12 ], "texture": "#voxels_atlas" },
				"south": { "uv": [ 14.75, 11.75, 15, 12 ], "texture": "#voxels_atlas" },
				"west": { "uv": [ 12, 11, 12.25, 11.25 ], "texture": "#voxels_atlas" },
				"east": { "uv": [ 12.25, 10.75, 12, 11 ], "texture": "#voxels_atlas" }
			}
		},
		{
			"__comment": "Voxels",
			"from": [ 8, 1.5, 7 ],
			"to": [ 8.5, 2, 7.5 ],
			"faces": {
				"up": { "uv": [ 12.5, 9.25, 12.75, 9 ], "texture": "#voxels_atlas" },
				"north": { "uv": [ 12.75, 8.75, 12.5, 9 ], "texture": "#voxels_atlas" },
				"south": { "uv": [ 12.5, 8.5, 12.75, 8.75 ], "texture": "#voxels_atlas" },
				"west": { "uv": [ 1.5, 8, 1.75, 8.25 ], "texture": "#voxels_atlas" },
				"east": { "uv": [ 2, 8, 1.75, 8.25 ], "texture": "#voxels_atlas" }
			}
		},
		{
			"__comment": "Voxels",
			"from": [ 8, 1.5, 10 ],
			"to": [ 8.5, 2, 10.5 ],
			"faces": {
				"up": { "uv": [ 9.75, 8.25, 10, 8 ], "texture": "#voxels_atlas" },
				"north": { "uv": [ 16, 14.5, 15.75, 14.75 ], "texture": "#voxels_atlas" },
				"south": { "uv": [ 10.5, 12.75, 10.75, 13 ], "texture": "#voxels_atlas" },
				"west": { "uv": [ 10.5, 12.5, 10.75, 12.75 ], "texture": "#voxels_atlas" },
				"east": { "uv": [ 10.75, 12.25, 10.5, 12.5 ], "texture": "#voxels_atlas" }
			}
		},
		{
			"__comment": "Voxels",
			"from": [ 8, 2, 7.5 ],
			"to": [ 9, 2.5, 8 ],
			"faces": {
				"down": { "uv": [ 14.25, 13, 14.75, 13.25 ], "texture": "#voxels_atlas" },
				"up": { "uv": [ 2, 8.25, 2.5, 8 ], "texture": "#voxels_atlas" },
				"north": { "uv": [ 10.5, 12, 10, 12.25 ], "texture": "#voxels_atlas" },
				"south": { "uv": [ 10, 11.75, 10.5, 12 ], "texture": "#voxels_atlas" },
				"east": { "uv": [ 10.75, 11.75, 10.5, 12 ], "texture": "#voxels_atlas" }
			}
		},
		{
			"__comment": "Voxels",
			"from": [ 8, 2, 9.5 ],
			"to": [ 9, 2.5, 10 ],
			"faces": {
				"down": { "uv": [ 10, 10.5, 10.5, 10.75 ], "texture": "#voxels_atlas" },
				"up": { "uv": [ 10, 10.5, 10.5, 10.25 ], "texture": "#voxels_atlas" },
				"north": { "uv": [ 10.5, 10, 10, 10.25 ], "texture": "#voxels_atlas" },
				"south": { "uv": [ 10, 9.75, 10.5, 10 ], "texture": "#voxels_atlas" },
				"east": { "uv": [ 10.75, 11.25, 10.5, 11.5 ], "texture": "#voxels_atlas" }
			}
		},
		{
			"__comment": "Voxels",
			"from": [ 8, 2.5, 7.5 ],
			"to": [ 8.5, 3.5, 8 ],
			"faces": {
				"up": { "uv": [ 10.5, 11, 10.75, 10.75 ], "texture": "#voxels_atlas" },
				"north": { "uv": [ 10, 11.75, 9.75, 12.25 ], "texture": "#voxels_atlas" },
				"south": { "uv": [ 9.75, 11.25, 10, 11.75 ], "texture": "#voxels_atlas" },
				"west": { "uv": [ 9.75, 10.75, 10, 11.25 ], "texture": "#voxels_atlas" },
				"east": { "uv": [ 10, 10.25, 9.75, 10.75 ], "texture": "#voxels_atlas" }
			}
		},
		{
			"__comment": "Voxels",
			"from": [ 8, 2.5, 9.5 ],
			"to": [ 8.5, 3.5, 10 ],
			"faces": {
				"up": { "uv": [ 10.5, 10.5, 10.75, 10.25 ], "texture": "#voxels_atlas" },
				"north": { "uv": [ 10, 8.75, 9.75, 9.25 ], "texture": "#voxels_atlas" },
				"south": { "uv": [ 9.75, 8.25, 10, 8.75 ], "texture": "#voxels_atlas" },
				"west": { "uv": [ 10.75, 12.5, 11, 13 ], "texture": "#voxels_atlas" },
				"east": { "uv": [ 11, 12, 10.75, 12.5 ], "texture": "#voxels_atlas" }
			}
		},
		{
			"__comment": "Voxels",
			"from": [ 8, 3.5, 8 ],
			"to": [ 9, 10, 8.5 ],
			"faces": {
				"down": { "uv": [ 12.25, 13, 12.75, 13.25 ], "texture": "#voxels_atlas" },
				"up": { "uv": [ 12.75, 13.25, 13.25, 13 ], "texture": "#voxels_atlas" },
				"north": { "uv": [ 3, 12.75, 2.5, 16 ], "texture": "#voxels_atlas" },
				"south": { "uv": [ 2.5, 9.5, 3, 12.75 ], "texture": "#voxels_atlas" },
				"east": { "uv": [ 9.5, 12.75, 9.25, 16 ], "texture": "#voxels_atlas" }
			}
		},
		{
			"__comment": "Voxels",
			"from": [ 8, 3.5, 9 ],
			"to": [ 9, 10, 9.5 ],
			"faces": {
				"down": { "uv": [ 10, 8.5, 10.5, 8.75 ], "texture": "#voxels_atlas" },
				"up": { "uv": [ 10, 8.5, 10.5, 8.25 ], "texture": "#voxels_atlas" },
				"north": { "uv": [ 2.5, 9.5, 2, 12.75 ], "texture": "#voxels_atlas" },
				"south": { "uv": [ 2, 12.75, 2.5, 16 ], "texture": "#voxels_atlas" },
				"east": { "uv": [ 9.25, 12.75, 9, 16 ], "texture": "#voxels_atlas" }
			}
		},
		{
			"__comment": "Voxels",
			"from": [ 8, 10, 8 ],
			"to": [ 8.5, 15, 8.5 ],
			"faces": {
				"up": { "uv": [ 15.75, 13.25, 16, 13 ], "texture": "#voxels_atlas" },
				"north": { "uv": [ 5.5, 8, 5.25, 10.5 ], "texture": "#voxels_atlas" },
				"south": { "uv": [ 5, 8, 5.25, 10.5 ], "texture": "#voxels_atlas" },
				"west": { "uv": [ 5.5, 8, 5.75, 10.5 ], "texture": "#voxels_atlas" },
				"east": { "uv": [ 7, 8, 6.75, 10.5 ], "texture": "#voxels_atlas" }
			}
		},
		{
			"__comment": "Voxels",
			"from": [ 8, 10, 9 ],
			"to": [ 8.5, 15, 9.5 ],
			"faces": {
				"up": { "uv": [ 12.5, 12.5, 12.75, 12.25 ], "texture": "#voxels_atlas" },
				"north": { "uv": [ 6.75, 8, 6.5, 10.5 ], "texture": "#voxels_atlas" },
				"south": { "uv": [ 6.25, 8, 6.5, 10.5 ], "texture": "#voxels_atlas" },
				"west": { "uv": [ 6, 8, 6.25, 10.5 ], "texture": "#voxels_atlas" },
				"east": { "uv": [ 6, 8, 5.75, 10.5 ], "texture": "#voxels_atlas" }
			}
		},
		{
			"__comment": "Voxels",
			"from": [ 8, 15, 8.5 ],
			"to": [ 9, 17.5, 9 ],
			"faces": {
				"down": { "uv": [ 10, 9, 10.5, 9.25 ], "texture": "#voxels_atlas", "cullface": "up" },
				"up": { "uv": [ 10, 9, 10.5, 8.75 ], "texture": "#voxels_atlas", "cullface": "up" },
				"north": { "uv": [ 3, 8.25, 2.5, 9.5 ], "texture": "#voxels_atlas", "cullface": "up" },
				"south": { "uv": [ 2, 8.25, 2.5, 9.5 ], "texture": "#voxels_atlas", "cullface": "up" },
				"east": { "uv": [ 1.5, 8, 1.25, 9.25 ], "texture": "#voxels_atlas", "cullface": "up" }
			}
		},
		{
			"__comment": "Voxels",
			"from": [ 8, 17.5, 8.5 ],
			"to": [ 8.5, 22, 9 ],
			"faces": {
				"up": { "uv": [ 14.5, 12.5, 14.75, 12.25 ], "texture": "#voxels_atlas", "cullface": "up" },
				"north": { "uv": [ 9, 8.5, 8.75, 10.75 ], "texture": "#voxels_atlas", "cullface": "up" },
				"south": { "uv": [ 9.5, 13.75, 9.75, 16 ], "texture": "#voxels_atlas", "cullface": "up" },
				"west": { "uv": [ 9.5, 11.5, 9.75, 13.75 ], "texture": "#voxels_atlas", "cullface": "up" },
				"east": { "uv": [ 9.75, 9.25, 9.5, 11.5 ], "texture": "#voxels_atlas", "cullface": "up" }
			}
		},
		{
			"__comment": "Voxels",
			"from": [ 8.5, -12, 8.5 ],
			"to": [ 9, 0.5, 9 ],
			"faces": {
				"up": { "uv": [ 11.25, 8.25, 11.5, 8 ], "texture": "#voxels_atlas", "cullface": "down" },
				"north": { "uv": [ 3.5, 9.75, 3.25, 16 ], "texture": "#voxels_atlas", "cullface": "down" },
				"south": { "uv": [ 4.25, 9.75, 4.5, 16 ], "texture": "#voxels_atlas", "cullface": "down" },
				"west": { "uv": [ 4.5, 9.75, 4.75, 16 ], "texture": "#voxels_atlas", "cullface": "down" },
				"east": { "uv": [ 5, 9.75, 4.75, 16 ], "texture": "#voxels_atlas", "cullface": "down" }
			}
		},
		{
			"__comment": "Voxels",
			"from": [ 8.5, -1, 8 ],
			"to": [ 9, 3.5, 8.5 ],
			"faces": {
				"down": { "uv": [ 11.5, 9.5, 11.75, 9.75 ], "texture": "#voxels_atlas", "cullface": "down" },
				"north": { "uv": [ 7.25, 8.5, 7, 10.75 ], "texture": "#voxels_atlas", "cullface": "down" },
				"south": { "uv": [ 8.5, 8.5, 8.75, 10.75 ], "texture": "#voxels_atlas", "cullface": "down" },
				"west": { "uv": [ 8.25, 8.5, 8.5, 10.75 ], "texture": "#voxels_atlas", "cullface": "down" },
				"east": { "uv": [ 8.25, 8.5, 8, 10.75 ], "texture": "#voxels_atlas", "cullface": "down" }
			}
		},
		{
			"__comment": "Voxels",
			"from": [ 8.5, -1, 9 ],
			"to": [ 9, 3.5, 9.5 ],
			"faces": {
				"down": { "uv": [ 11.5, 8, 11.75, 8.25 ], "texture": "#voxels_atlas", "cullface": "down" },
				"north": { "uv": [ 8, 8.5, 7.75, 10.75 ], "texture": "#voxels_atlas", "cullface": "down" },
				"south": { "uv": [ 7.5, 8.5, 7.75, 10.75 ], "texture": "#voxels_atlas", "cullface": "down" },
				"west": { "uv": [ 7.25, 8.5, 7.5, 10.75 ], "texture": "#voxels_atlas", "cullface": "down" },
				"east": { "uv": [ 10, 13.75, 9.75, 16 ], "texture": "#voxels_atlas", "cullface": "down" }
			}
		},
		{
			"__comment": "Voxels",
			"from": [ 8.5, 0.5, 7.5 ],
			"to": [ 9, 2, 8 ],
			"faces": {
				"down": { "uv": [ 13, 12, 13.25, 12.25 ], "texture": "#voxels_atlas" },
				"north": { "uv": [ 3.25, 8, 3, 8.75 ], "texture": "#voxels_atlas" },
				"west": { "uv": [ 3.5, 8, 3.75, 8.75 ], "texture": "#voxels_atlas" },
				"east": { "uv": [ 4, 8, 3.75, 8.75 ], "texture": "#voxels_atlas" }
			}
		},
		{
			"__comment": "Voxels",
			"from": [ 8.5, 0.5, 9.5 ],
			"to": [ 9, 2, 10 ],
			"faces": {
				"down": { "uv": [ 14.5, 12, 14.75, 12.25 ], "texture": "#voxels_atlas" },
				"south": { "uv": [ 4.25, 8, 4.5, 8.75 ], "texture": "#voxels_atlas" },
				"west": { "uv": [ 4.5, 8, 4.75, 8.75 ], "texture": "#voxels_atlas" },
				"east": { "uv": [ 5, 8, 4.75, 8.75 ], "texture": "#voxels_atlas" }
			}
		},
		{
			"__comment": "Voxels",
			"from": [ 8.5, 1.5, 8.5 ],
			"to": [ 9, 15, 9 ],
			"faces": {
				"down": { "uv": [ 11.75, 11.75, 12, 12 ], "texture": "#voxels_atlas" },
				"north": { "uv": [ 1.5, 9.25, 1.25, 16 ], "texture": "#voxels_atlas" },
				"south": { "uv": [ 1.5, 9.25, 1.75, 16 ], "texture": "#voxels_atlas" },
				"west": { "uv": [ 1, 9.25, 1.25, 16 ], "texture": "#voxels_atlas" },
				"east": { "uv": [ 2, 9.25, 1.75, 16 ], "texture": "#voxels_atlas" }
			}
		},
		{
			"__comment": "Voxels",
			"from": [ 9, 0.5, 8.5 ],
			"to": [ 11, 1.5, 9 ],
			"faces": {
				"down": { "uv": [ 13.5, 15.75, 14.5, 16 ], "texture": "#voxels_atlas" },
				"up": { "uv": [ 12, 15.75, 13, 15.5 ], "texture": "#voxels_atlas" },
				"north": { "uv": [ 11, 15.5, 10, 16 ], "texture": "#voxels_atlas" },
				"south": { "uv": [ 11, 15.5, 12, 16 ], "texture": "#voxels_atlas" },
				"west": { "uv": [ 10.75, 8, 11, 8.5 ], "texture": "#voxels_atlas" },
				"east": { "uv": [ 11.25, 12.5, 11, 13 ], "texture": "#voxels_atlas" }
			}
		},
		{
			"__comment": "Voxels",
			"from": [ 10, 0.5, 8 ],
			"to": [ 11, 1, 8.5 ],
			"faces": {
				"down": { "uv": [ 14.75, 13, 15.25, 13.25 ], "texture": "#voxels_atlas" },
				"up": { "uv": [ 15.25, 13.25, 15.75, 13 ], "texture": "#voxels_atlas" },
				"north": { "uv": [ 11.75, 12.75, 11.25, 13 ], "texture": "#voxels_atlas" },
				"west": { "uv": [ 12, 11.75, 12.25, 12 ], "texture": "#voxels_atlas" },
				"east": { "uv": [ 12.5, 11.75, 12.25, 12 ], "texture": "#voxels_atlas" }
			}
		},
		{
			"__comment": "Voxels",
			"from": [ 10, 0.5, 9 ],
			"to": [ 11, 1, 9.5 ],
			"faces": {
				"down": { "uv": [ 12.25, 12.75, 12.75, 13 ], "texture": "#voxels_atlas" },
				"up": { "uv": [ 12.75, 13, 13.25, 12.75 ], "texture": "#voxels_atlas" },
				"south": { "uv": [ 13.75, 12.75, 14.25, 13 ], "texture": "#voxels_atlas" },
				"west": { "uv": [ 13.5, 11.75, 13.75, 12 ], "texture": "#voxels_atlas" },
				"east": { "uv": [ 14, 11.75, 13.75, 12 ], "texture": "#voxels_atlas" }
			}
		},
		{
			"__comment": "Voxels",
			"from": [ 10, 1.5, 8.5 ],
			"to": [ 11.5, 2, 9 ],
			"faces": {
				"down": { "uv": [ 15.25, 13.5, 16, 13.75 ], "texture": "#voxels_atlas" },
				"up": { "uv": [ 10, 13.5, 10.75, 13.25 ], "texture": "#voxels_atlas" },
				"north": { "uv": [ 16, 13.25, 15.25, 13.5 ], "texture": "#voxels_atlas" },
				"south": { "uv": [ 10, 13, 10.75, 13.25 ], "texture": "#voxels_atlas" },
				"west": { "uv": [ 15, 11.75, 15.25, 12 ], "texture": "#voxels_atlas" },
				"east": { "uv": [ 15.5, 11.75, 15.25, 12 ], "texture": "#voxels_atlas" }
			}
		},
		{
			"__comment": "Voxels",
			"from": [ 11, 1, 8 ],
			"to": [ 12, 1.5, 9.5 ],
			"faces": {
				"down": { "uv": [ 10.5, 14.75, 11, 15.5 ], "texture": "#voxels_atlas" },
				"up": { "uv": [ 10, 15.5, 10.5, 14.75 ], "texture": "#voxels_atlas" },
				"north": { "uv": [ 14.75, 12.75, 14.25, 13 ], "texture": "#voxels_atlas" },
				"south": { "uv": [ 14.75, 12.75, 15.25, 13 ], "texture": "#voxels_atlas" },
				"west": { "uv": [ 15, 14.5, 15.75, 14.75 ], "texture": "#voxels_atlas" },
				"east": { "uv": [ 10.75, 14.25, 10, 14.5 ], "texture": "#voxels_atlas" }
			}
		},
		{
			"__comment": "Voxels",
			"from": [ 11, 2, 8.5 ],
			"to": [ 13, 2.5, 9 ],
			"faces": {
				"down": { "uv": [ 14, 14.5, 15, 14.75 ], "texture": "#voxels_atlas" },
				"up": { "uv": [ 12, 16, 13, 15.75 ], "texture": "#voxels_atlas" },
				"north": { "uv": [ 14, 14.5, 13, 14.75 ], "texture": "#voxels_atlas" },
				"south": { "uv": [ 15, 15.5, 16, 15.75 ], "texture": "#voxels_atlas" },
				"west": { "uv": [ 12, 9.5, 12.25, 9.75 ], "texture": "#voxels_atlas" },
				"east": { "uv": [ 12.25, 9.25, 12, 9.5 ], "texture": "#voxels_atlas" }
			}
		},
		{
			"__comment": "Voxels",
			"from": [ 11.5, 1.5, 8 ],
			"to": [ 12.5, 2, 8.5 ],
			"faces": {
				"down": { "uv": [ 15.25, 12.75, 15.75, 13 ], "texture": "#voxels_atlas" },
				"up": { "uv": [ 11.25, 12.75, 11.75, 12.5 ], "texture": "#voxels_atlas" },
				"north": { "uv": [ 12.25, 12.5, 11.75, 12.75 ], "texture": "#voxels_atlas" },
				"south": { "uv": [ 12.25, 12.5, 12.75, 12.75 ], "texture": "#voxels_atlas" },
				"west": { "uv": [ 12, 8, 12.25, 8.25 ], "texture": "#voxels_atlas" },
				"east": { "uv": [ 12.75, 8.25, 12.5, 8.5 ], "texture": "#voxels_atlas" }
			}
		},
		{
			"__comment": "Voxels",
			"from": [ 11.5, 1.5, 9 ],
			"to": [ 12.5, 2, 9.5 ],
			"faces": {
				"down": { "uv": [ 12.75, 12.5, 13.25, 12.75 ], "texture": "#voxels_atlas" },
				"up": { "uv": [ 13.25, 12.75, 13.75, 12.5 ], "texture": "#voxels_atlas" },
				"north": { "uv": [ 14.25, 12.5, 13.75, 12.75 ], "texture": "#voxels_atlas" },
				"south": { "uv": [ 14.25, 12.5, 14.75, 12.75 ], "texture": "#voxels_atlas" },
				"west": { "uv": [ 13.5, 11.5, 13.75, 11.75 ], "texture": "#voxels_atlas" },
				"east": { "uv": [ 14, 11.5, 13.75, 11.75 ], "texture": "#voxels_atlas" }
			}
		},
		{
			"__comment": "Voxels",
			"from": [ 11.5, 2.5, 8.5 ],
			"to": [ 12.5, 3.5, 9 ],
			"faces": {
				"up": { "uv": [ 15.25, 12.75, 15.75, 12.5 ], "texture": "#voxels_atlas" },
				"north": { "uv": [ 13.5, 15, 13, 15.5 ], "texture": "#voxels_atlas" },
				"south": { "uv": [ 13.5, 15, 14, 15.5 ], "texture": "#voxels_atlas" },
				"west": { "uv": [ 11, 11.5, 11.25, 12 ], "texture": "#voxels_atlas" },
				"east": { "uv": [ 11.25, 11, 11, 11.5 ], "texture": "#voxels_atlas" }
			}
		},
		{
			"__comment": "Voxels",
			"from": [ 11.5, 4, 8.5 ],
			"to": [ 12.5, 5, 9 ],
			"faces": {
				"down": { "uv": [ 11.25, 12.25, 11.75, 12.5 ], "texture": "#voxels_atlas" },
				"up": { "uv": [ 11.75, 12.5, 12.25, 12.25 ], "texture": "#voxels_atlas" },
				"north": { "uv": [ 14.5, 15, 14, 15.5 ], "texture": "#voxels_atlas" },
				"south": { "uv": [ 15.5, 14.75, 16, 15.25 ], "texture": "#voxels_atlas" },
				"west": { "uv": [ 11, 10.5, 11.25, 11 ], "texture": "#voxels_atlas" },
				"east": { "uv": [ 11.25, 10, 11, 10.5 ], "texture": "#voxels_atlas" }
			}
		},
		{
			"__comment": "Voxels",
			"from": [ 12, 1.5, 8.5 ],
			"to": [ 12.5, 2, 9 ],
			"faces": {
				"down": { "uv": [ 12.25, 10.25, 12.5, 10.5 ], "texture": "#voxels_atlas" },
				"west": { "uv": [ 12.25, 9.25, 12.5, 9.5 ], "texture": "#voxels_atlas" },
				"east": { "uv": [ 12.5, 9, 12.25, 9.25 ], "texture": "#voxels_atlas" }
			}
		},
		{
			"__comment": "Voxels",
			"from": [ 12, 2, 8 ],
			"to": [ 12.5, 3, 8.5 ],
			"faces": {
				"up": { "uv": [ 12.25, 8.75, 12.5, 8.5 ], "texture": "#voxels_atlas" },
				"north": { "uv": [ 11.25, 9.5, 11, 10 ], "texture": "#voxels_atlas" },
				"south": { "uv": [ 11, 9, 11.25, 9.5 ], "texture": "#voxels_atlas" },
				"west": { "uv": [ 11, 8.5, 11.25, 9 ], "texture": "#voxels_atlas" },
				"east": { "uv": [ 11.25, 8, 11, 8.5 ], "texture": "#voxels_atlas" }
			}
		},
		{
			"__comment": "Voxels",
			"from": [ 12, 2, 9 ],
			"to": [ 12.5, 3, 9.5 ],
			"faces": {
				"up": { "uv": [ 13.25, 11.5, 13.5, 11.25 ], "texture": "#voxels_atlas" },
				"north": { "uv": [ 11.5, 11.75, 11.25, 12.25 ], "texture": "#voxels_atlas" },
				"south": { "uv": [ 11.25, 11.25, 11.5, 11.75 ], "texture": "#voxels_atlas" },
				"west": { "uv": [ 11.25, 10.75, 11.5, 11.25 ], "texture": "#voxels_atlas" },
				"east": { "uv": [ 11.5, 10.25, 11.25, 10.75 ], "texture": "#voxels_atlas" }
			}
		},
		{
			"__comment": "Voxels",
			"from": [ 12, 3.5, 8.5 ],
			"to": [ 12.5, 4, 9 ],
			"faces": {
				"north": { "uv": [ 15.25, 11.25, 15, 11.5 ], "texture": "#voxels_atlas" },
				"south": { "uv": [ 15.25, 11.25, 15.5, 11.5 ], "texture": "#voxels_atlas" },
				"west": { "uv": [ 15.5, 11.25, 15.75, 11.5 ], "texture": "#voxels_atlas" },
				"east": { "uv": [ 16, 11.25, 15.75, 11.5 ], "texture": "#voxels_atlas" }
			}
		},
		{
			"__comment": "Voxels",
			"from": [ 12, 5, 8.5 ],
			"to": [ 12.5, 6, 9 ],
			"faces": {
				"up": { "uv": [ 12.5, 11, 12.75, 10.75 ], "texture": "#voxels_atlas" },
				"north": { "uv": [ 11.5, 9.75, 11.25, 10.25 ], "texture": "#voxels_atlas" },
				"south": { "uv": [ 11.25, 9.25, 11.5, 9.75 ], "texture": "#voxels_atlas" },
				"west": { "uv": [ 11.25, 8.75, 11.5, 9.25 ], "texture": "#voxels_atlas" },
				"east": { "uv": [ 11.5, 8.25, 11.25, 8.75 ], "texture": "#voxels_atlas" }
			}
		},
		{
			"__comment": "Voxels",
			"from": [ 12.5, 5.5, 8.5 ],
			"to": [ 13, 6.5, 9 ],
			"faces": {
				"down": { "uv": [ 12.5, 9.5, 12.75, 9.75 ], "texture": "#voxels_atlas" },
				"up": { "uv": [ 12.5, 9.5, 12.75, 9.25 ], "texture": "#voxels_atlas" },
				"north": { "uv": [ 11.75, 11.75, 11.5, 12.25 ], "texture": "#voxels_atlas" },
				"south": { "uv": [ 11.5, 11.25, 11.75, 11.75 ], "texture": "#voxels_atlas" },
				"west": { "uv": [ 11.5, 10.75, 11.75, 11.25 ], "texture": "#voxels_atlas" },
				"east": { "uv": [ 11.25, 12, 11, 12.5 ], "texture": "#voxels_atlas" }
			}
		}
	],
	"display": {
		"thirdperson_righthand": {
			"rotation":  [ -16, 90, 0 ],
			"translation":  [ -0.693, 11.155, -2.086 ],
			"scale":  [ 0.9304, 0.9304, 0.6954 ]
		},
		"thirdperson_lefthand": {
			"rotation":  [ -16, -90, -175 ],
			"translation":  [ 0.0013, -14.59, 6.2608 ],
			"scale":  [ 0.9304, 0.9304, 0.6608 ]
		},
		"firstperson_righthand": {
			"rotation":  [ -55, -89, 2 ],
			"translation":  [ 0.0009, 6.2608, -2.086 ],
			"scale":  [ 1, 1, 0.3739 ]
		},
		"firstperson_lefthand": {
			"rotation":  [ 125, -89, 2 ],
			"translation":  [ 2.0878, -0.695, 9.0444 ],
			"scale":  [ 1, 1, 0.3739 ]
		},
		"gui": {
			"rotation":  [ 0, 0, 136 ],
			"translation":  [ -2.086, -2.085, 2.7832 ],
			"scale":  [ 0.8695, 0.7303, 0.8695 ]
		},
		"head": {
			"rotation":  [ -180, 90, -62 ],
			"translation":  [ -9.043, -30.6, 0 ],
			"scale":  [ 1, 1, 0.6173 ]
		},
		"ground": {
			"rotation":  [ 90, 0, 0 ],
			"translation":  [ 0, 0, 6.2608 ],
			"scale":  [ 1, 1, 0.4172 ]
		},
		"fixed": {
			"rotation":  [ 0, 0, -136 ],
			"translation":  [ 2.7826, -2.086, -1.391 ],
			"scale":  [ 0.8607, 0.8607, 0.8607 ]
		}
	}
}
