{
	"credit": "Made with Blockbench",
	"parent": "item/generated",
	"textures": {
		"layer0": "siamitem:bows/25/molten fury2"
	},
	"gui_light": "front",
	"display": {
		"thirdperson_righthand": {
			"rotation": [-80, 260, -40],
			"translation": [-1, -2, 2.5],
			"scale": [2.6, 2.6, 1]
		},
		"thirdperson_lefthand": {
			"rotation": [-80, 260, -40],
			"translation": [-1, -2, 2.5],
			"scale": [2.6, 2.6, 1]
		},
		"firstperson_righthand": {
			"rotation": [-80, 260, -40],
			"translation": [1.13, 3.2, 1.13],
			"scale": [2.72, 2.72, 1]
		},
		"firstperson_lefthand": {
			"rotation": [-80, 260, -40],
			"translation": [1.13, 3.2, 1.13],
			"scale": [2.72, 2.72, 1]
		},
		"ground": {
			"scale": [2, 2, 1]
		},
		"gui": {
			"scale": [4, 4, 1.5]
		},
		"fixed": {
			"scale": [6, 6, 1.5]
		}
	}
}