{
	"__comment": "Designed by MrZoom31 with Cubik Studio - https://cubik.studio",
	"textures": {
		"bow_pulling_1": "items/bow_pulling_1"
	},
	"elements": [ 	 
		{
			"__comment": "Voxels",
			"from": [ -13, 9, 13 ],
			"to": [ -4, 10, 15 ],
			"faces": {
				"down": { "uv": [ 0, 13.5, 2.25, 14 ], "texture": "#bow_pulling_1" },
				"up": { "uv": [ 2.25, 14, 4.5, 13.5 ], "texture": "#bow_pulling_1" },
				"north": { "uv": [ 5.75, 9.75, 3.5, 10 ], "texture": "#bow_pulling_1" },
				"south": { "uv": [ 3.5, 8.75, 5.75, 9 ], "texture": "#bow_pulling_1" },
				"west": { "uv": [ 6.25, 11.25, 6.75, 11.5 ], "texture": "#bow_pulling_1" },
				"east": { "uv": [ 16, 15.75, 15.5, 16 ], "texture": "#bow_pulling_1" }
			}
		},
		{
			"__comment": "Voxels",
			"from": [ -12, 8, 12 ],
			"to": [ -10, 11, 13 ],
			"faces": {
				"down": { "uv": [ 6.75, 9.25, 7.25, 9.5 ], "texture": "#bow_pulling_1" },
				"up": { "uv": [ 6.75, 9.25, 7.25, 9 ], "texture": "#bow_pulling_1" },
				"north": { "uv": [ 7.25, 14.75, 6.75, 15.5 ], "texture": "#bow_pulling_1" },
				"south": { "uv": [ 6.75, 14, 7.25, 14.75 ], "texture": "#bow_pulling_1" },
				"west": { "uv": [ 3.25, 8, 3.5, 8.75 ], "texture": "#bow_pulling_1" },
				"east": { "uv": [ 6.75, 8.25, 6.5, 9 ], "texture": "#bow_pulling_1" }
			}
		},
		{
			"__comment": "Voxels",
			"from": [ -12, 9, 15 ],
			"to": [ -5, 10, 16 ],
			"faces": {
				"down": { "uv": [ 6.75, 15.5, 8.5, 15.75 ], "texture": "#bow_pulling_1" },
				"up": { "uv": [ 8.5, 15.75, 10.25, 15.5 ], "texture": "#bow_pulling_1" },
				"north": { "uv": [ 8.5, 15.75, 6.75, 16 ], "texture": "#bow_pulling_1" },
				"south": { "uv": [ 10.25, 15.5, 12, 15.75 ], "texture": "#bow_pulling_1" },
				"west": { "uv": [ 10.5, 8.5, 10.75, 8.75 ], "texture": "#bow_pulling_1" },
				"east": { "uv": [ 10.75, 8.25, 10.5, 8.5 ], "texture": "#bow_pulling_1" }
			}
		},
		{
			"__comment": "Voxels",
			"from": [ -11, 8, 13 ],
			"to": [ -7, 9, 14 ],
			"faces": {
				"down": { "uv": [ 8, 12.5, 9, 12.75 ], "texture": "#bow_pulling_1" },
				"up": { "uv": [ 8, 14, 9, 13.75 ], "texture": "#bow_pulling_1" },
				"north": { "uv": [ 9, 11.25, 8, 11.5 ], "texture": "#bow_pulling_1" },
				"south": { "uv": [ 8, 11.75, 9, 12 ], "texture": "#bow_pulling_1" },
				"west": { "uv": [ 11.5, 13, 11.75, 13.25 ], "texture": "#bow_pulling_1" },
				"east": { "uv": [ 12, 13, 11.75, 13.25 ], "texture": "#bow_pulling_1" }
			}
		},
		{
			"__comment": "Voxels",
			"from": [ -11, 9, 11 ],
			"to": [ -10, 10, 12 ],
			"faces": {
				"down": { "uv": [ 10.75, 12.25, 11, 12.5 ], "texture": "#bow_pulling_1" },
				"up": { "uv": [ 10.75, 12.25, 11, 12 ], "texture": "#bow_pulling_1" },
				"north": { "uv": [ 11, 10.75, 10.75, 11 ], "texture": "#bow_pulling_1" },
				"south": { "uv": [ 10.75, 10.5, 11, 10.75 ], "texture": "#bow_pulling_1" },
				"west": { "uv": [ 10.75, 8.25, 11, 8.5 ], "texture": "#bow_pulling_1" },
				"east": { "uv": [ 11, 8, 10.75, 8.25 ], "texture": "#bow_pulling_1" }
			}
		},
		{
			"__comment": "Voxels",
			"from": [ -11, 9, 16 ],
			"to": [ -7, 10, 17 ],
			"faces": {
				"down": { "uv": [ 8, 12.75, 9, 13 ], "texture": "#bow_pulling_1" },
				"up": { "uv": [ 8, 11.75, 9, 11.5 ], "texture": "#bow_pulling_1" },
				"north": { "uv": [ 9, 13.5, 8, 13.75 ], "texture": "#bow_pulling_1" },
				"south": { "uv": [ 8, 13.25, 9, 13.5 ], "texture": "#bow_pulling_1" },
				"west": { "uv": [ 11, 12.75, 11.25, 13 ], "texture": "#bow_pulling_1" },
				"east": { "uv": [ 11.5, 12.75, 11.25, 13 ], "texture": "#bow_pulling_1" }
			}
		},
		{
			"__comment": "Voxels",
			"from": [ -11, 10, 13 ],
			"to": [ -7, 11, 14 ],
			"faces": {
				"down": { "uv": [ 8, 13, 9, 13.25 ], "texture": "#bow_pulling_1" },
				"up": { "uv": [ 8, 14.25, 9, 14 ], "texture": "#bow_pulling_1" },
				"north": { "uv": [ 9, 14.25, 8, 14.5 ], "texture": "#bow_pulling_1" },
				"south": { "uv": [ 5.75, 9, 6.75, 9.25 ], "texture": "#bow_pulling_1" },
				"west": { "uv": [ 13.5, 12.75, 13.75, 13 ], "texture": "#bow_pulling_1" },
				"east": { "uv": [ 14, 12.75, 13.75, 13 ], "texture": "#bow_pulling_1" }
			}
		},
		{
			"__comment": "Voxels",
			"from": [ -10, 9, 12 ],
			"to": [ -1, 10, 13 ],
			"faces": {
				"down": { "uv": [ 3.5, 9, 5.75, 9.25 ], "texture": "#bow_pulling_1" },
				"up": { "uv": [ 3.5, 8.25, 5.75, 8 ], "texture": "#bow_pulling_1" },
				"north": { "uv": [ 5.75, 9.25, 3.5, 9.5 ], "texture": "#bow_pulling_1" },
				"south": { "uv": [ 3.5, 8.25, 5.75, 8.5 ], "texture": "#bow_pulling_1" },
				"west": { "uv": [ 14, 12.75, 14.25, 13 ], "texture": "#bow_pulling_1" },
				"east": { "uv": [ 14.5, 12.75, 14.25, 13 ], "texture": "#bow_pulling_1" }
			}
		},
		{
			"__comment": "Voxels",
			"from": [ -9, 8, 14 ],
			"to": [ -6, 9, 15 ],
			"faces": {
				"down": { "uv": [ 7.25, 11.25, 8, 11.5 ], "texture": "#bow_pulling_1" },
				"up": { "uv": [ 7.25, 11.25, 8, 11 ], "texture": "#bow_pulling_1" },
				"north": { "uv": [ 8, 10.75, 7.25, 11 ], "texture": "#bow_pulling_1" },
				"south": { "uv": [ 7.25, 10.5, 8, 10.75 ], "texture": "#bow_pulling_1" },
				"west": { "uv": [ 6.5, 13.25, 6.75, 13.5 ], "texture": "#bow_pulling_1" },
				"east": { "uv": [ 6.75, 13, 6.5, 13.25 ], "texture": "#bow_pulling_1" }
			}
		},
		{
			"__comment": "Voxels",
			"from": [ -9, 9, 17 ],
			"to": [ -6, 10, 18 ],
			"faces": {
				"down": { "uv": [ 7.25, 10.25, 8, 10.5 ], "texture": "#bow_pulling_1" },
				"up": { "uv": [ 7.25, 10.25, 8, 10 ], "texture": "#bow_pulling_1" },
				"north": { "uv": [ 8, 9.75, 7.25, 10 ], "texture": "#bow_pulling_1" },
				"south": { "uv": [ 7.25, 9.5, 8, 9.75 ], "texture": "#bow_pulling_1" },
				"west": { "uv": [ 8.75, 8, 9, 8.25 ], "texture": "#bow_pulling_1" },
				"east": { "uv": [ 6.75, 12.75, 6.5, 13 ], "texture": "#bow_pulling_1" }
			}
		},
		{
			"__comment": "Voxels",
			"from": [ -9, 10, 14 ],
			"to": [ -6, 11, 15 ],
			"faces": {
				"down": { "uv": [ 7.25, 9, 8, 9.25 ], "texture": "#bow_pulling_1" },
				"up": { "uv": [ 7.25, 9, 8, 8.75 ], "texture": "#bow_pulling_1" },
				"north": { "uv": [ 8, 8.5, 7.25, 8.75 ], "texture": "#bow_pulling_1" },
				"south": { "uv": [ 7.25, 8.25, 8, 8.5 ], "texture": "#bow_pulling_1" },
				"west": { "uv": [ 6.5, 12.5, 6.75, 12.75 ], "texture": "#bow_pulling_1" },
				"east": { "uv": [ 6.75, 12.25, 6.5, 12.5 ], "texture": "#bow_pulling_1" }
			}
		},
		{
			"__comment": "Voxels",
			"from": [ -8, 8, 12 ],
			"to": [ -5, 9, 13 ],
			"faces": {
				"down": { "uv": [ 15.25, 14.75, 16, 15 ], "texture": "#bow_pulling_1" },
				"up": { "uv": [ 8, 11.25, 8.75, 11 ], "texture": "#bow_pulling_1" },
				"north": { "uv": [ 8.75, 10.75, 8, 11 ], "texture": "#bow_pulling_1" },
				"south": { "uv": [ 8, 10.5, 8.75, 10.75 ], "texture": "#bow_pulling_1" },
				"west": { "uv": [ 6.5, 12, 6.75, 12.25 ], "texture": "#bow_pulling_1" },
				"east": { "uv": [ 6.75, 11.75, 6.5, 12 ], "texture": "#bow_pulling_1" }
			}
		},
		{
			"__comment": "Voxels",
			"from": [ -8, 9, 11 ],
			"to": [ 3, 10, 12 ],
			"faces": {
				"down": { "uv": [ 0, 9.25, 2.75, 9.5 ], "texture": "#bow_pulling_1" },
				"up": { "uv": [ 0, 9, 2.75, 8.75 ], "texture": "#bow_pulling_1" },
				"north": { "uv": [ 2.75, 9, 0, 9.25 ], "texture": "#bow_pulling_1" },
				"south": { "uv": [ 0, 10.25, 2.75, 10.5 ], "texture": "#bow_pulling_1" },
				"west": { "uv": [ 6.5, 11.5, 6.75, 11.75 ], "texture": "#bow_pulling_1" },
				"east": { "uv": [ 16, 15.5, 15.75, 15.75 ], "texture": "#bow_pulling_1" }
			}
		},
		{
			"__comment": "Voxels",
			"from": [ -8, 10, 12 ],
			"to": [ -5, 11, 13 ],
			"faces": {
				"down": { "uv": [ 8, 9.5, 8.75, 9.75 ], "texture": "#bow_pulling_1" },
				"up": { "uv": [ 8, 9.5, 8.75, 9.25 ], "texture": "#bow_pulling_1" },
				"north": { "uv": [ 8.75, 9, 8, 9.25 ], "texture": "#bow_pulling_1" },
				"south": { "uv": [ 8, 8.75, 8.75, 9 ], "texture": "#bow_pulling_1" },
				"west": { "uv": [ 8.75, 11, 9, 11.25 ], "texture": "#bow_pulling_1" },
				"east": { "uv": [ 9, 10.75, 8.75, 11 ], "texture": "#bow_pulling_1" }
			}
		},
		{
			"__comment": "Voxels",
			"from": [ -6, 8, 11 ],
			"to": [ -3, 9, 12 ],
			"faces": {
				"down": { "uv": [ 8, 8, 8.75, 8.25 ], "texture": "#bow_pulling_1" },
				"up": { "uv": [ 9, 14.75, 9.75, 14.5 ], "texture": "#bow_pulling_1" },
				"north": { "uv": [ 10.5, 14.5, 9.75, 14.75 ], "texture": "#bow_pulling_1" },
				"south": { "uv": [ 10.5, 14.5, 11.25, 14.75 ], "texture": "#bow_pulling_1" },
				"west": { "uv": [ 8.75, 10.5, 9, 10.75 ], "texture": "#bow_pulling_1" },
				"east": { "uv": [ 9, 10.25, 8.75, 10.5 ], "texture": "#bow_pulling_1" }
			}
		},
		{
			"__comment": "Voxels",
			"from": [ -6, 9, 10 ],
			"to": [ 21, 10, 11 ],
			"faces": {
				"down": { "uv": [ 0, 15.25, 6.75, 15.5 ], "texture": "#bow_pulling_1" },
				"up": { "uv": [ 0, 15.25, 6.75, 15 ], "texture": "#bow_pulling_1" },
				"north": { "uv": [ 6.75, 15.75, 0, 16 ], "texture": "#bow_pulling_1" },
				"south": { "uv": [ 0, 15.5, 6.75, 15.75 ], "texture": "#bow_pulling_1" },
				"west": { "uv": [ 8.75, 10, 9, 10.25 ], "texture": "#bow_pulling_1" },
				"east": { "uv": [ 9, 9.75, 8.75, 10 ], "texture": "#bow_pulling_1" }
			}
		},
		{
			"__comment": "Voxels",
			"from": [ -6, 10, 11 ],
			"to": [ -3, 11, 12 ],
			"faces": {
				"down": { "uv": [ 14.25, 14.5, 15, 14.75 ], "texture": "#bow_pulling_1" },
				"up": { "uv": [ 15, 14.75, 15.75, 14.5 ], "texture": "#bow_pulling_1" },
				"north": { "uv": [ 9.75, 14.25, 9, 14.5 ], "texture": "#bow_pulling_1" },
				"south": { "uv": [ 9.75, 14.25, 10.5, 14.5 ], "texture": "#bow_pulling_1" },
				"west": { "uv": [ 8.75, 9.5, 9, 9.75 ], "texture": "#bow_pulling_1" },
				"east": { "uv": [ 9, 9.25, 8.75, 9.5 ], "texture": "#bow_pulling_1" }
			}
		},
		{
			"__comment": "Voxels",
			"from": [ -5, 9, 8 ],
			"to": [ -4, 10, 10 ],
			"faces": {
				"down": { "uv": [ 9.75, 13.75, 10, 14.25 ], "texture": "#bow_pulling_1" },
				"up": { "uv": [ 9.75, 13.75, 10, 13.25 ], "texture": "#bow_pulling_1" },
				"north": { "uv": [ 9, 9, 8.75, 9.25 ], "texture": "#bow_pulling_1" },
				"south": { "uv": [ 8.75, 8.75, 9, 9 ], "texture": "#bow_pulling_1" },
				"west": { "uv": [ 11, 14, 11.5, 14.25 ], "texture": "#bow_pulling_1" },
				"east": { "uv": [ 12, 14, 11.5, 14.25 ], "texture": "#bow_pulling_1" }
			}
		},
		{
			"__comment": "Voxels",
			"from": [ -4, 8, 9 ],
			"to": [ -3, 11, 10 ],
			"faces": {
				"down": { "uv": [ 8.75, 8.5, 9, 8.75 ], "texture": "#bow_pulling_1" },
				"up": { "uv": [ 8.75, 8.5, 9, 8.25 ], "texture": "#bow_pulling_1" },
				"north": { "uv": [ 7, 11.75, 6.75, 12.5 ], "texture": "#bow_pulling_1" },
				"south": { "uv": [ 7, 11.75, 7.25, 12.5 ], "texture": "#bow_pulling_1" },
				"west": { "uv": [ 6.75, 11, 7, 11.75 ], "texture": "#bow_pulling_1" },
				"east": { "uv": [ 7.25, 11, 7, 11.75 ], "texture": "#bow_pulling_1" }
			}
		},
		{
			"__comment": "Voxels",
			"from": [ -4, 8, 10 ],
			"to": [ 1, 9, 11 ],
			"faces": {
				"down": { "uv": [ 13, 15, 14.25, 15.25 ], "texture": "#bow_pulling_1" },
				"up": { "uv": [ 14.25, 15.25, 15.5, 15 ], "texture": "#bow_pulling_1" },
				"north": { "uv": [ 13, 15.25, 11.75, 15.5 ], "texture": "#bow_pulling_1" },
				"south": { "uv": [ 10.5, 15, 11.75, 15.25 ], "texture": "#bow_pulling_1" },
				"west": { "uv": [ 15.75, 14.5, 16, 14.75 ], "texture": "#bow_pulling_1" },
				"east": { "uv": [ 16, 14.25, 15.75, 14.5 ], "texture": "#bow_pulling_1" }
			}
		},
		{
			"__comment": "Voxels",
			"from": [ -4, 9, 14 ],
			"to": [ -2, 10, 15 ],
			"faces": {
				"down": { "uv": [ 12.5, 14, 13, 14.25 ], "texture": "#bow_pulling_1" },
				"up": { "uv": [ 13, 14.25, 13.5, 14 ], "texture": "#bow_pulling_1" },
				"north": { "uv": [ 14, 14, 13.5, 14.25 ], "texture": "#bow_pulling_1" },
				"south": { "uv": [ 14, 14, 14.5, 14.25 ], "texture": "#bow_pulling_1" },
				"west": { "uv": [ 9.5, 8.5, 9.75, 8.75 ], "texture": "#bow_pulling_1" },
				"east": { "uv": [ 9.75, 8.25, 9.5, 8.5 ], "texture": "#bow_pulling_1" }
			}
		},
		{
			"__comment": "Voxels",
			"from": [ -4, 10, 10 ],
			"to": [ 1, 11, 11 ],
			"faces": {
				"down": { "uv": [ 8, 14.75, 9.25, 15 ], "texture": "#bow_pulling_1" },
				"up": { "uv": [ 11.75, 15, 13, 14.75 ], "texture": "#bow_pulling_1" },
				"north": { "uv": [ 11.75, 14.75, 10.5, 15 ], "texture": "#bow_pulling_1" },
				"south": { "uv": [ 9.25, 14.75, 10.5, 15 ], "texture": "#bow_pulling_1" },
				"west": { "uv": [ 9.5, 8, 9.75, 8.25 ], "texture": "#bow_pulling_1" },
				"east": { "uv": [ 10, 9, 9.75, 9.25 ], "texture": "#bow_pulling_1" }
			}
		},
		{
			"__comment": "Voxels",
			"from": [ -3, 9, 9 ],
			"to": [ 20, 10, 10 ],
			"faces": {
				"down": { "uv": [ 0, 14.25, 5.75, 14.5 ], "texture": "#bow_pulling_1" },
				"up": { "uv": [ 0, 14.75, 5.75, 14.5 ], "texture": "#bow_pulling_1" },
				"north": { "uv": [ 5.75, 14.75, 0, 15 ], "texture": "#bow_pulling_1" },
				"south": { "uv": [ 0, 14, 5.75, 14.25 ], "texture": "#bow_pulling_1" },
				"west": { "uv": [ 10.75, 9, 11, 9.25 ], "texture": "#bow_pulling_1" },
				"east": { "uv": [ 11, 9.25, 10.75, 9.5 ], "texture": "#bow_pulling_1" }
			}
		},
		{
			"__comment": "Voxels",
			"from": [ -3, 9, 15 ],
			"to": [ 7, 10, 16 ],
			"faces": {
				"down": { "uv": [ 0, 8.25, 2.5, 8.5 ], "texture": "#bow_pulling_1" },
				"up": { "uv": [ 0, 8.25, 2.5, 8 ], "texture": "#bow_pulling_1" },
				"north": { "uv": [ 6, 11, 3.5, 11.25 ], "texture": "#bow_pulling_1" },
				"south": { "uv": [ 3.5, 10.75, 6, 11 ], "texture": "#bow_pulling_1" },
				"west": { "uv": [ 10.75, 9.5, 11, 9.75 ], "texture": "#bow_pulling_1" },
				"east": { "uv": [ 11, 9.75, 10.75, 10 ], "texture": "#bow_pulling_1" }
			}
		},
		{
			"__comment": "Voxels",
			"from": [ -1, 9, 6 ],
			"to": [ 0, 10, 8 ],
			"faces": {
				"down": { "uv": [ 9.75, 9.25, 10, 9.75 ], "texture": "#bow_pulling_1" },
				"up": { "uv": [ 9.75, 10.25, 10, 9.75 ], "texture": "#bow_pulling_1" },
				"north": { "uv": [ 11, 11, 10.75, 11.25 ], "texture": "#bow_pulling_1" },
				"south": { "uv": [ 10.75, 11.25, 11, 11.5 ], "texture": "#bow_pulling_1" },
				"west": { "uv": [ 10, 13.75, 10.5, 14 ], "texture": "#bow_pulling_1" },
				"east": { "uv": [ 16, 14, 15.5, 14.25 ], "texture": "#bow_pulling_1" }
			}
		},
		{
			"__comment": "Voxels",
			"from": [ 0, 8, 8 ],
			"to": [ 1, 11, 9 ],
			"faces": {
				"down": { "uv": [ 10.75, 12.5, 11, 12.75 ], "texture": "#bow_pulling_1" },
				"up": { "uv": [ 10.75, 13, 11, 12.75 ], "texture": "#bow_pulling_1" },
				"north": { "uv": [ 7, 10.25, 6.75, 11 ], "texture": "#bow_pulling_1" },
				"south": { "uv": [ 7, 10.25, 7.25, 11 ], "texture": "#bow_pulling_1" },
				"west": { "uv": [ 6.75, 9.5, 7, 10.25 ], "texture": "#bow_pulling_1" },
				"east": { "uv": [ 7.25, 9.5, 7, 10.25 ], "texture": "#bow_pulling_1" }
			}
		},
		{
			"__comment": "Voxels",
			"from": [ 0, 8, 9 ],
			"to": [ 15, 9, 10 ],
			"faces": {
				"down": { "uv": [ 0, 11.5, 3.75, 11.75 ], "texture": "#bow_pulling_1" },
				"up": { "uv": [ 0, 12.75, 3.75, 12.5 ], "texture": "#bow_pulling_1" },
				"north": { "uv": [ 3.75, 11.75, 0, 12 ], "texture": "#bow_pulling_1" },
				"south": { "uv": [ 0, 12.25, 3.75, 12.5 ], "texture": "#bow_pulling_1" },
				"west": { "uv": [ 10.5, 9.25, 10.75, 9.5 ], "texture": "#bow_pulling_1" },
				"east": { "uv": [ 10.75, 9.5, 10.5, 9.75 ], "texture": "#bow_pulling_1" }
			}
		},
		{
			"__comment": "Voxels",
			"from": [ 0, 9, 7 ],
			"to": [ 1, 10, 8 ],
			"faces": {
				"down": { "uv": [ 10.5, 9.75, 10.75, 10 ], "texture": "#bow_pulling_1" },
				"up": { "uv": [ 10.5, 10.25, 10.75, 10 ], "texture": "#bow_pulling_1" },
				"north": { "uv": [ 10.75, 12.25, 10.5, 12.5 ], "texture": "#bow_pulling_1" },
				"south": { "uv": [ 10.5, 12.5, 10.75, 12.75 ], "texture": "#bow_pulling_1" },
				"west": { "uv": [ 10.5, 12.75, 10.75, 13 ], "texture": "#bow_pulling_1" },
				"east": { "uv": [ 10.75, 13, 10.5, 13.25 ], "texture": "#bow_pulling_1" }
			}
		},
		{
			"__comment": "Voxels",
			"from": [ 0, 10, 9 ],
			"to": [ 15, 11, 10 ],
			"faces": {
				"down": { "uv": [ 0, 13.25, 3.75, 13.5 ], "texture": "#bow_pulling_1" },
				"up": { "uv": [ 0, 13.25, 3.75, 13 ], "texture": "#bow_pulling_1" },
				"north": { "uv": [ 3.75, 12.75, 0, 13 ], "texture": "#bow_pulling_1" },
				"south": { "uv": [ 0, 12, 3.75, 12.25 ], "texture": "#bow_pulling_1" },
				"west": { "uv": [ 10.25, 10.5, 10.5, 10.75 ], "texture": "#bow_pulling_1" },
				"east": { "uv": [ 10.5, 10.75, 10.25, 11 ], "texture": "#bow_pulling_1" }
			}
		},
		{
			"__comment": "Voxels",
			"from": [ 1, 9, 8 ],
			"to": [ 15, 10, 9 ],
			"faces": {
				"down": { "uv": [ 0, 11.25, 3.5, 11.5 ], "texture": "#bow_pulling_1" },
				"up": { "uv": [ 0, 11, 3.5, 10.75 ], "texture": "#bow_pulling_1" },
				"north": { "uv": [ 3.5, 11, 0, 11.25 ], "texture": "#bow_pulling_1" },
				"south": { "uv": [ 0, 10.5, 3.5, 10.75 ], "texture": "#bow_pulling_1" },
				"west": { "uv": [ 10.25, 11, 10.5, 11.25 ], "texture": "#bow_pulling_1" },
				"east": { "uv": [ 10.5, 11.25, 10.25, 11.5 ], "texture": "#bow_pulling_1" }
			}
		},
		{
			"__comment": "Voxels",
			"from": [ 5, 11, 3 ],
			"to": [ 10, 12, 4 ],
			"faces": {
				"down": { "uv": [ 9.25, 15.25, 10.5, 15.5 ], "texture": "#bow_pulling_1" },
				"up": { "uv": [ 10.5, 15.5, 11.75, 15.25 ], "texture": "#bow_pulling_1" },
				"north": { "uv": [ 14.25, 15.25, 13, 15.5 ], "texture": "#bow_pulling_1" },
				"south": { "uv": [ 14.25, 15.25, 15.5, 15.5 ], "texture": "#bow_pulling_1" },
				"west": { "uv": [ 10.25, 12, 10.5, 12.25 ], "texture": "#bow_pulling_1" },
				"east": { "uv": [ 10.5, 12.25, 10.25, 12.5 ], "texture": "#bow_pulling_1" }
			}
		},
		{
			"__comment": "Voxels",
			"from": [ 6, 8, 15 ],
			"to": [ 9, 9, 16 ],
			"faces": {
				"down": { "uv": [ 9, 10.5, 9.75, 10.75 ], "texture": "#bow_pulling_1" },
				"up": { "uv": [ 9, 10.5, 9.75, 10.25 ], "texture": "#bow_pulling_1" },
				"north": { "uv": [ 9.75, 10, 9, 10.25 ], "texture": "#bow_pulling_1" },
				"south": { "uv": [ 9, 9.75, 9.75, 10 ], "texture": "#bow_pulling_1" },
				"west": { "uv": [ 10.25, 12.5, 10.5, 12.75 ], "texture": "#bow_pulling_1" },
				"east": { "uv": [ 10.5, 12.75, 10.25, 13 ], "texture": "#bow_pulling_1" }
			}
		},
		{
			"__comment": "Voxels",
			"from": [ 6, 9, 12 ],
			"to": [ 9, 10, 15 ],
			"faces": {
				"down": { "uv": [ 2.5, 8, 3.25, 8.75 ], "texture": "#bow_pulling_1" },
				"up": { "uv": [ 5.75, 9, 6.5, 8.25 ], "texture": "#bow_pulling_1" },
				"north": { "uv": [ 9.75, 9.5, 9, 9.75 ], "texture": "#bow_pulling_1" },
				"south": { "uv": [ 9, 9.25, 9.75, 9.5 ], "texture": "#bow_pulling_1" },
				"west": { "uv": [ 9, 9, 9.75, 9.25 ], "texture": "#bow_pulling_1" },
				"east": { "uv": [ 9.75, 8.75, 9, 9 ], "texture": "#bow_pulling_1" }
			}
		},
		{
			"__comment": "Voxels",
			"from": [ 6, 9, 16 ],
			"to": [ 7, 10, 18 ],
			"faces": {
				"down": { "uv": [ 9.75, 12.25, 10, 12.75 ], "texture": "#bow_pulling_1" },
				"up": { "uv": [ 9.75, 13.25, 10, 12.75 ], "texture": "#bow_pulling_1" },
				"north": { "uv": [ 14.5, 13.5, 14.25, 13.75 ], "texture": "#bow_pulling_1" },
				"south": { "uv": [ 14, 13.5, 14.25, 13.75 ], "texture": "#bow_pulling_1" },
				"west": { "uv": [ 10, 14, 10.5, 14.25 ], "texture": "#bow_pulling_1" },
				"east": { "uv": [ 9.5, 8, 9, 8.25 ], "texture": "#bow_pulling_1" }
			}
		},
		{
			"__comment": "Voxels",
			"from": [ 6, 10, 10 ],
			"to": [ 9, 11, 12 ],
			"faces": {
				"down": { "uv": [ 7.25, 15, 8, 15.5 ], "texture": "#bow_pulling_1" },
				"up": { "uv": [ 7.25, 15, 8, 14.5 ], "texture": "#bow_pulling_1" },
				"north": { "uv": [ 3.5, 10.25, 2.75, 10.5 ], "texture": "#bow_pulling_1" },
				"south": { "uv": [ 2.75, 10, 3.5, 10.25 ], "texture": "#bow_pulling_1" },
				"west": { "uv": [ 9, 8.25, 9.5, 8.5 ], "texture": "#bow_pulling_1" },
				"east": { "uv": [ 9.5, 8.5, 9, 8.75 ], "texture": "#bow_pulling_1" }
			}
		},
		{
			"__comment": "Voxels",
			"from": [ 6, 10, 15 ],
			"to": [ 9, 11, 16 ],
			"faces": {
				"down": { "uv": [ 2.75, 9.75, 3.5, 10 ], "texture": "#bow_pulling_1" },
				"up": { "uv": [ 2.75, 9.75, 3.5, 9.5 ], "texture": "#bow_pulling_1" },
				"north": { "uv": [ 3.5, 9.25, 2.75, 9.5 ], "texture": "#bow_pulling_1" },
				"south": { "uv": [ 2.75, 9, 3.5, 9.25 ], "texture": "#bow_pulling_1" },
				"west": { "uv": [ 10, 8.75, 10.25, 9 ], "texture": "#bow_pulling_1" },
				"east": { "uv": [ 10.25, 9, 10, 9.25 ], "texture": "#bow_pulling_1" }
			}
		},
		{
			"__comment": "Voxels",
			"from": [ 6, 11, 2 ],
			"to": [ 9, 12, 3 ],
			"faces": {
				"down": { "uv": [ 2.75, 8.75, 3.5, 9 ], "texture": "#bow_pulling_1" },
				"up": { "uv": [ 6, 11.25, 6.75, 11 ], "texture": "#bow_pulling_1" },
				"north": { "uv": [ 6.75, 10.75, 6, 11 ], "texture": "#bow_pulling_1" },
				"south": { "uv": [ 6, 10.5, 6.75, 10.75 ], "texture": "#bow_pulling_1" },
				"west": { "uv": [ 10, 9.25, 10.25, 9.5 ], "texture": "#bow_pulling_1" },
				"east": { "uv": [ 10.25, 9.5, 10, 9.75 ], "texture": "#bow_pulling_1" }
			}
		},
		{
			"__comment": "Voxels",
			"from": [ 6, 11, 4 ],
			"to": [ 9, 12, 6 ],
			"faces": {
				"down": { "uv": [ 7.25, 13.5, 8, 14 ], "texture": "#bow_pulling_1" },
				"up": { "uv": [ 7.25, 14.5, 8, 14 ], "texture": "#bow_pulling_1" },
				"north": { "uv": [ 6.75, 10.25, 6, 10.5 ], "texture": "#bow_pulling_1" },
				"south": { "uv": [ 6, 10, 6.75, 10.25 ], "texture": "#bow_pulling_1" },
				"west": { "uv": [ 12, 14, 12.5, 14.25 ], "texture": "#bow_pulling_1" },
				"east": { "uv": [ 11, 14, 10.5, 14.25 ], "texture": "#bow_pulling_1" }
			}
		},
		{
			"__comment": "Voxels",
			"from": [ 6, 11, 7 ],
			"to": [ 9, 12, 8 ],
			"faces": {
				"down": { "uv": [ 7.25, 13.25, 8, 13.5 ], "texture": "#bow_pulling_1" },
				"up": { "uv": [ 7.25, 13.25, 8, 13 ], "texture": "#bow_pulling_1" },
				"north": { "uv": [ 8, 12.75, 7.25, 13 ], "texture": "#bow_pulling_1" },
				"south": { "uv": [ 7.25, 12.5, 8, 12.75 ], "texture": "#bow_pulling_1" },
				"west": { "uv": [ 10, 10.75, 10.25, 11 ], "texture": "#bow_pulling_1" },
				"east": { "uv": [ 10.25, 11, 10, 11.25 ], "texture": "#bow_pulling_1" }
			}
		},
		{
			"__comment": "Voxels",
			"from": [ 6, 11, 9 ],
			"to": [ 9, 12, 10 ],
			"faces": {
				"down": { "uv": [ 7.25, 12.25, 8, 12.5 ], "texture": "#bow_pulling_1" },
				"up": { "uv": [ 7.25, 12.25, 8, 12 ], "texture": "#bow_pulling_1" },
				"north": { "uv": [ 8, 11.75, 7.25, 12 ], "texture": "#bow_pulling_1" },
				"south": { "uv": [ 7.25, 11.5, 8, 11.75 ], "texture": "#bow_pulling_1" },
				"west": { "uv": [ 13.5, 13, 13.75, 13.25 ], "texture": "#bow_pulling_1" },
				"east": { "uv": [ 14, 13, 13.75, 13.25 ], "texture": "#bow_pulling_1" }
			}
		},
		{
			"__comment": "Voxels",
			"from": [ 7, 8, 12 ],
			"to": [ 8, 9, 15 ],
			"faces": {
				"down": { "uv": [ 6.75, 13.25, 7, 14 ], "texture": "#bow_pulling_1" },
				"up": { "uv": [ 7, 14, 7.25, 13.25 ], "texture": "#bow_pulling_1" },
				"north": { "uv": [ 12.25, 13, 12, 13.25 ], "texture": "#bow_pulling_1" },
				"south": { "uv": [ 12.25, 13, 12.5, 13.25 ], "texture": "#bow_pulling_1" },
				"west": { "uv": [ 7.25, 9.25, 8, 9.5 ], "texture": "#bow_pulling_1" },
				"east": { "uv": [ 8, 8, 7.25, 8.25 ], "texture": "#bow_pulling_1" }
			}
		},
		{
			"__comment": "Voxels",
			"from": [ 7, 8, 16 ],
			"to": [ 8, 9, 17 ],
			"faces": {
				"down": { "uv": [ 10.25, 8.25, 10.5, 8.5 ], "texture": "#bow_pulling_1" },
				"up": { "uv": [ 10.25, 8.25, 10.5, 8 ], "texture": "#bow_pulling_1" },
				"north": { "uv": [ 10.75, 13.25, 10.5, 13.5 ], "texture": "#bow_pulling_1" },
				"south": { "uv": [ 10.75, 13.25, 11, 13.5 ], "texture": "#bow_pulling_1" },
				"west": { "uv": [ 13, 13.25, 13.25, 13.5 ], "texture": "#bow_pulling_1" },
				"east": { "uv": [ 13.5, 13.25, 13.25, 13.5 ], "texture": "#bow_pulling_1" }
			}
		},
		{
			"__comment": "Voxels",
			"from": [ 7, 9, 11 ],
			"to": [ 8, 10, 12 ],
			"faces": {
				"down": { "uv": [ 13.5, 13.25, 13.75, 13.5 ], "texture": "#bow_pulling_1" },
				"up": { "uv": [ 13.75, 13.5, 14, 13.25 ], "texture": "#bow_pulling_1" },
				"north": { "uv": [ 10.75, 11.5, 10.5, 11.75 ], "texture": "#bow_pulling_1" },
				"south": { "uv": [ 10.5, 11.25, 10.75, 11.5 ], "texture": "#bow_pulling_1" },
				"west": { "uv": [ 10.5, 11, 10.75, 11.25 ], "texture": "#bow_pulling_1" },
				"east": { "uv": [ 10.75, 10.75, 10.5, 11 ], "texture": "#bow_pulling_1" }
			}
		},
		{
			"__comment": "Voxels",
			"from": [ 7, 10, 7 ],
			"to": [ 8, 11, 9 ],
			"faces": {
				"down": { "uv": [ 9.75, 10.75, 10, 11.25 ], "texture": "#bow_pulling_1" },
				"up": { "uv": [ 9.75, 10.75, 10, 10.25 ], "texture": "#bow_pulling_1" },
				"north": { "uv": [ 10.75, 8, 10.5, 8.25 ], "texture": "#bow_pulling_1" },
				"south": { "uv": [ 10.75, 13, 11, 13.25 ], "texture": "#bow_pulling_1" },
				"west": { "uv": [ 14.5, 14, 15, 14.25 ], "texture": "#bow_pulling_1" },
				"east": { "uv": [ 15.5, 14, 15, 14.25 ], "texture": "#bow_pulling_1" }
			}
		},
		{
			"__comment": "Voxels",
			"from": [ 7, 10, 12 ],
			"to": [ 8, 11, 15 ],
			"faces": {
				"down": { "uv": [ 6.75, 12.5, 7, 13.25 ], "texture": "#bow_pulling_1" },
				"up": { "uv": [ 7, 13.25, 7.25, 12.5 ], "texture": "#bow_pulling_1" },
				"north": { "uv": [ 13.25, 13, 13, 13.25 ], "texture": "#bow_pulling_1" },
				"south": { "uv": [ 13.25, 13, 13.5, 13.25 ], "texture": "#bow_pulling_1" },
				"west": { "uv": [ 8, 10.25, 8.75, 10.5 ], "texture": "#bow_pulling_1" },
				"east": { "uv": [ 8.75, 10, 8, 10.25 ], "texture": "#bow_pulling_1" }
			}
		},
		{
			"__comment": "Voxels",
			"from": [ 7, 10, 16 ],
			"to": [ 8, 11, 17 ],
			"faces": {
				"down": { "uv": [ 14.5, 13, 14.75, 13.25 ], "texture": "#bow_pulling_1" },
				"up": { "uv": [ 14.75, 13.25, 15, 13 ], "texture": "#bow_pulling_1" },
				"north": { "uv": [ 15.25, 13, 15, 13.25 ], "texture": "#bow_pulling_1" },
				"south": { "uv": [ 15.25, 13, 15.5, 13.25 ], "texture": "#bow_pulling_1" },
				"west": { "uv": [ 9.75, 8.75, 10, 9 ], "texture": "#bow_pulling_1" },
				"east": { "uv": [ 10, 8.5, 9.75, 8.75 ], "texture": "#bow_pulling_1" }
			}
		},
		{
			"__comment": "Voxels",
			"from": [ 7, 11, 1 ],
			"to": [ 8, 12, 2 ],
			"faces": {
				"down": { "uv": [ 9.75, 8.25, 10, 8.5 ], "texture": "#bow_pulling_1" },
				"up": { "uv": [ 9.75, 8.25, 10, 8 ], "texture": "#bow_pulling_1" },
				"north": { "uv": [ 14.75, 13.75, 14.5, 14 ], "texture": "#bow_pulling_1" },
				"south": { "uv": [ 14.75, 13.75, 15, 14 ], "texture": "#bow_pulling_1" },
				"west": { "uv": [ 15, 13.75, 15.25, 14 ], "texture": "#bow_pulling_1" },
				"east": { "uv": [ 15.5, 13.75, 15.25, 14 ], "texture": "#bow_pulling_1" }
			}
		},
		{
			"__comment": "Voxels",
			"from": [ 7, 11, 6 ],
			"to": [ 8, 12, 7 ],
			"faces": {
				"down": { "uv": [ 15.5, 13.75, 15.75, 14 ], "texture": "#bow_pulling_1" },
				"up": { "uv": [ 15.75, 14, 16, 13.75 ], "texture": "#bow_pulling_1" },
				"north": { "uv": [ 10.25, 13.5, 10, 13.75 ], "texture": "#bow_pulling_1" },
				"south": { "uv": [ 10, 13.25, 10.25, 13.5 ], "texture": "#bow_pulling_1" },
				"west": { "uv": [ 10, 13, 10.25, 13.25 ], "texture": "#bow_pulling_1" },
				"east": { "uv": [ 10.25, 12.75, 10, 13 ], "texture": "#bow_pulling_1" }
			}
		},
		{
			"__comment": "Voxels",
			"from": [ 7, 11, 8 ],
			"to": [ 8, 12, 9 ],
			"faces": {
				"down": { "uv": [ 10, 12.5, 10.25, 12.75 ], "texture": "#bow_pulling_1" },
				"up": { "uv": [ 10, 12.5, 10.25, 12.25 ], "texture": "#bow_pulling_1" },
				"north": { "uv": [ 10.25, 12, 10, 12.25 ], "texture": "#bow_pulling_1" },
				"south": { "uv": [ 10, 11.75, 10.25, 12 ], "texture": "#bow_pulling_1" },
				"west": { "uv": [ 10, 11.5, 10.25, 11.75 ], "texture": "#bow_pulling_1" },
				"east": { "uv": [ 10.25, 11.25, 10, 11.5 ], "texture": "#bow_pulling_1" }
			}
		},
		{
			"__comment": "Voxels",
			"from": [ 8, 9, 15 ],
			"to": [ 18, 10, 16 ],
			"faces": {
				"down": { "uv": [ 3.5, 10, 6, 10.25 ], "texture": "#bow_pulling_1" },
				"up": { "uv": [ 0, 8.75, 2.5, 8.5 ], "texture": "#bow_pulling_1" },
				"north": { "uv": [ 6, 10.5, 3.5, 10.75 ], "texture": "#bow_pulling_1" },
				"south": { "uv": [ 3.5, 10.25, 6, 10.5 ], "texture": "#bow_pulling_1" },
				"west": { "uv": [ 10, 10.5, 10.25, 10.75 ], "texture": "#bow_pulling_1" },
				"east": { "uv": [ 10.25, 10.25, 10, 10.5 ], "texture": "#bow_pulling_1" }
			}
		},
		{
			"__comment": "Voxels",
			"from": [ 8, 9, 16 ],
			"to": [ 9, 10, 18 ],
			"faces": {
				"down": { "uv": [ 9.75, 11.75, 10, 12.25 ], "texture": "#bow_pulling_1" },
				"up": { "uv": [ 9.75, 11.75, 10, 11.25 ], "texture": "#bow_pulling_1" },
				"north": { "uv": [ 10.25, 10, 10, 10.25 ], "texture": "#bow_pulling_1" },
				"south": { "uv": [ 10, 9.75, 10.25, 10 ], "texture": "#bow_pulling_1" },
				"west": { "uv": [ 6.75, 8.25, 7.25, 8.5 ], "texture": "#bow_pulling_1" },
				"east": { "uv": [ 7.25, 8, 6.75, 8.25 ], "texture": "#bow_pulling_1" }
			}
		},
		{
			"__comment": "Voxels",
			"from": [ 12, 9, 11 ],
			"to": [ 23, 10, 12 ],
			"faces": {
				"down": { "uv": [ 0, 9.75, 2.75, 10 ], "texture": "#bow_pulling_1" },
				"up": { "uv": [ 0, 10.25, 2.75, 10 ], "texture": "#bow_pulling_1" },
				"north": { "uv": [ 6.5, 13.25, 3.75, 13.5 ], "texture": "#bow_pulling_1" },
				"south": { "uv": [ 0, 9.5, 2.75, 9.75 ], "texture": "#bow_pulling_1" },
				"west": { "uv": [ 10, 8.5, 10.25, 8.75 ], "texture": "#bow_pulling_1" },
				"east": { "uv": [ 10.25, 8.25, 10, 8.5 ], "texture": "#bow_pulling_1" }
			}
		},
		{
			"__comment": "Voxels",
			"from": [ 14, 8, 8 ],
			"to": [ 15, 9, 9 ],
			"faces": {
				"down": { "uv": [ 10, 8, 10.25, 8.25 ], "texture": "#bow_pulling_1" },
				"up": { "uv": [ 10.25, 13.75, 10.5, 13.5 ], "texture": "#bow_pulling_1" },
				"north": { "uv": [ 10.75, 13.5, 10.5, 13.75 ], "texture": "#bow_pulling_1" },
				"south": { "uv": [ 10.75, 13.5, 11, 13.75 ], "texture": "#bow_pulling_1" },
				"west": { "uv": [ 11, 13.5, 11.25, 13.75 ], "texture": "#bow_pulling_1" },
				"east": { "uv": [ 11.5, 13.5, 11.25, 13.75 ], "texture": "#bow_pulling_1" }
			}
		},
		{
			"__comment": "Voxels",
			"from": [ 14, 8, 10 ],
			"to": [ 19, 9, 11 ],
			"faces": {
				"down": { "uv": [ 12, 15.5, 13.25, 15.75 ], "texture": "#bow_pulling_1" },
				"up": { "uv": [ 11.75, 15.25, 13, 15 ], "texture": "#bow_pulling_1" },
				"north": { "uv": [ 14.5, 15.5, 13.25, 15.75 ], "texture": "#bow_pulling_1" },
				"south": { "uv": [ 14.5, 15.5, 15.75, 15.75 ], "texture": "#bow_pulling_1" },
				"west": { "uv": [ 11.5, 13.5, 11.75, 13.75 ], "texture": "#bow_pulling_1" },
				"east": { "uv": [ 12, 13.5, 11.75, 13.75 ], "texture": "#bow_pulling_1" }
			}
		},
		{
			"__comment": "Voxels",
			"from": [ 14, 9, 7 ],
			"to": [ 16, 10, 8 ],
			"faces": {
				"down": { "uv": [ 6.75, 8.75, 7.25, 9 ], "texture": "#bow_pulling_1" },
				"up": { "uv": [ 6.75, 8.75, 7.25, 8.5 ], "texture": "#bow_pulling_1" },
				"north": { "uv": [ 16, 15.25, 15.5, 15.5 ], "texture": "#bow_pulling_1" },
				"south": { "uv": [ 15.5, 15, 16, 15.25 ], "texture": "#bow_pulling_1" },
				"west": { "uv": [ 12, 13.5, 12.25, 13.75 ], "texture": "#bow_pulling_1" },
				"east": { "uv": [ 12.5, 13.5, 12.25, 13.75 ], "texture": "#bow_pulling_1" }
			}
		},
		{
			"__comment": "Voxels",
			"from": [ 14, 10, 8 ],
			"to": [ 15, 11, 9 ],
			"faces": {
				"down": { "uv": [ 12.5, 13.5, 12.75, 13.75 ], "texture": "#bow_pulling_1" },
				"up": { "uv": [ 12.75, 13.75, 13, 13.5 ], "texture": "#bow_pulling_1" },
				"north": { "uv": [ 13.25, 13.5, 13, 13.75 ], "texture": "#bow_pulling_1" },
				"south": { "uv": [ 13.25, 13.5, 13.5, 13.75 ], "texture": "#bow_pulling_1" },
				"west": { "uv": [ 13.5, 13.5, 13.75, 13.75 ], "texture": "#bow_pulling_1" },
				"east": { "uv": [ 14, 13.5, 13.75, 13.75 ], "texture": "#bow_pulling_1" }
			}
		},
		{
			"__comment": "Voxels",
			"from": [ 14, 10, 10 ],
			"to": [ 19, 11, 11 ],
			"faces": {
				"down": { "uv": [ 8, 15.25, 9.25, 15.5 ], "texture": "#bow_pulling_1" },
				"up": { "uv": [ 13, 15, 14.25, 14.75 ], "texture": "#bow_pulling_1" },
				"north": { "uv": [ 9.25, 15, 8, 15.25 ], "texture": "#bow_pulling_1" },
				"south": { "uv": [ 9.25, 15, 10.5, 15.25 ], "texture": "#bow_pulling_1" },
				"west": { "uv": [ 14.5, 13.5, 14.75, 13.75 ], "texture": "#bow_pulling_1" },
				"east": { "uv": [ 15, 13.5, 14.75, 13.75 ], "texture": "#bow_pulling_1" }
			}
		},
		{
			"__comment": "Voxels",
			"from": [ 15, 9, 6 ],
			"to": [ 16, 10, 7 ],
			"faces": {
				"down": { "uv": [ 15, 13.5, 15.25, 13.75 ], "texture": "#bow_pulling_1" },
				"up": { "uv": [ 15.25, 13.75, 15.5, 13.5 ], "texture": "#bow_pulling_1" },
				"north": { "uv": [ 15.75, 13.5, 15.5, 13.75 ], "texture": "#bow_pulling_1" },
				"south": { "uv": [ 15.75, 13.5, 16, 13.75 ], "texture": "#bow_pulling_1" },
				"west": { "uv": [ 10.25, 13.25, 10.5, 13.5 ], "texture": "#bow_pulling_1" },
				"east": { "uv": [ 10.5, 13, 10.25, 13.25 ], "texture": "#bow_pulling_1" }
			}
		},
		{
			"__comment": "Voxels",
			"from": [ 16, 9, 12 ],
			"to": [ 27, 10, 13 ],
			"faces": {
				"down": { "uv": [ 3.75, 13, 6.5, 13.25 ], "texture": "#bow_pulling_1" },
				"up": { "uv": [ 3.75, 13, 6.5, 12.75 ], "texture": "#bow_pulling_1" },
				"north": { "uv": [ 6.25, 11.25, 3.5, 11.5 ], "texture": "#bow_pulling_1" },
				"south": { "uv": [ 3.75, 12, 6.5, 12.25 ], "texture": "#bow_pulling_1" },
				"west": { "uv": [ 10.25, 11.75, 10.5, 12 ], "texture": "#bow_pulling_1" },
				"east": { "uv": [ 10.5, 11.5, 10.25, 11.75 ], "texture": "#bow_pulling_1" }
			}
		},
		{
			"__comment": "Voxels",
			"from": [ 17, 9, 14 ],
			"to": [ 28, 10, 15 ],
			"faces": {
				"down": { "uv": [ 3.75, 12.25, 6.5, 12.5 ], "texture": "#bow_pulling_1" },
				"up": { "uv": [ 3.75, 12.75, 6.5, 12.5 ], "texture": "#bow_pulling_1" },
				"north": { "uv": [ 6.5, 11.5, 3.75, 11.75 ], "texture": "#bow_pulling_1" },
				"south": { "uv": [ 3.75, 11.75, 6.5, 12 ], "texture": "#bow_pulling_1" },
				"west": { "uv": [ 10.25, 10.25, 10.5, 10.5 ], "texture": "#bow_pulling_1" },
				"east": { "uv": [ 10.5, 10, 10.25, 10.25 ], "texture": "#bow_pulling_1" }
			}
		},
		{
			"__comment": "Voxels",
			"from": [ 18, 8, 9 ],
			"to": [ 19, 9, 10 ],
			"faces": {
				"down": { "uv": [ 10.25, 9.75, 10.5, 10 ], "texture": "#bow_pulling_1" },
				"up": { "uv": [ 10.25, 9.75, 10.5, 9.5 ], "texture": "#bow_pulling_1" },
				"north": { "uv": [ 10.5, 9.25, 10.25, 9.5 ], "texture": "#bow_pulling_1" },
				"south": { "uv": [ 10.25, 9, 10.5, 9.25 ], "texture": "#bow_pulling_1" },
				"west": { "uv": [ 10.25, 8.75, 10.5, 9 ], "texture": "#bow_pulling_1" },
				"east": { "uv": [ 10.5, 8.5, 10.25, 8.75 ], "texture": "#bow_pulling_1" }
			}
		},
		{
			"__comment": "Voxels",
			"from": [ 18, 8, 11 ],
			"to": [ 21, 9, 12 ],
			"faces": {
				"down": { "uv": [ 8, 9.75, 8.75, 10 ], "texture": "#bow_pulling_1" },
				"up": { "uv": [ 8, 8.75, 8.75, 8.5 ], "texture": "#bow_pulling_1" },
				"north": { "uv": [ 8.75, 8.25, 8, 8.5 ], "texture": "#bow_pulling_1" },
				"south": { "uv": [ 11.25, 14.5, 12, 14.75 ], "texture": "#bow_pulling_1" },
				"west": { "uv": [ 11, 13.25, 11.25, 13.5 ], "texture": "#bow_pulling_1" },
				"east": { "uv": [ 11.5, 13.25, 11.25, 13.5 ], "texture": "#bow_pulling_1" }
			}
		},
		{
			"__comment": "Voxels",
			"from": [ 18, 10, 9 ],
			"to": [ 19, 11, 10 ],
			"faces": {
				"down": { "uv": [ 11.5, 13.25, 11.75, 13.5 ], "texture": "#bow_pulling_1" },
				"up": { "uv": [ 11.75, 13.5, 12, 13.25 ], "texture": "#bow_pulling_1" },
				"north": { "uv": [ 12.25, 13.25, 12, 13.5 ], "texture": "#bow_pulling_1" },
				"south": { "uv": [ 12.25, 13.25, 12.5, 13.5 ], "texture": "#bow_pulling_1" },
				"west": { "uv": [ 12.5, 13.25, 12.75, 13.5 ], "texture": "#bow_pulling_1" },
				"east": { "uv": [ 13, 13.25, 12.75, 13.5 ], "texture": "#bow_pulling_1" }
			}
		},
		{
			"__comment": "Voxels",
			"from": [ 18, 10, 11 ],
			"to": [ 21, 11, 12 ],
			"faces": {
				"down": { "uv": [ 12, 14.5, 12.75, 14.75 ], "texture": "#bow_pulling_1" },
				"up": { "uv": [ 12.75, 14.75, 13.5, 14.5 ], "texture": "#bow_pulling_1" },
				"north": { "uv": [ 14.25, 14.5, 13.5, 14.75 ], "texture": "#bow_pulling_1" },
				"south": { "uv": [ 10.5, 14.25, 11.25, 14.5 ], "texture": "#bow_pulling_1" },
				"west": { "uv": [ 14, 13.25, 14.25, 13.5 ], "texture": "#bow_pulling_1" },
				"east": { "uv": [ 14.5, 13.25, 14.25, 13.5 ], "texture": "#bow_pulling_1" }
			}
		},
		{
			"__comment": "Voxels",
			"from": [ 19, 9, 8 ],
			"to": [ 20, 10, 9 ],
			"faces": {
				"down": { "uv": [ 14.5, 13.25, 14.75, 13.5 ], "texture": "#bow_pulling_1" },
				"up": { "uv": [ 14.75, 13.5, 15, 13.25 ], "texture": "#bow_pulling_1" },
				"north": { "uv": [ 15.25, 13.25, 15, 13.5 ], "texture": "#bow_pulling_1" },
				"south": { "uv": [ 15.25, 13.25, 15.5, 13.5 ], "texture": "#bow_pulling_1" },
				"west": { "uv": [ 15.5, 13.25, 15.75, 13.5 ], "texture": "#bow_pulling_1" },
				"east": { "uv": [ 16, 13.25, 15.75, 13.5 ], "texture": "#bow_pulling_1" }
			}
		},
		{
			"__comment": "Voxels",
			"from": [ 19, 9, 13 ],
			"to": [ 28, 10, 14 ],
			"faces": {
				"down": { "uv": [ 3.5, 9.5, 5.75, 9.75 ], "texture": "#bow_pulling_1" },
				"up": { "uv": [ 3.5, 8.75, 5.75, 8.5 ], "texture": "#bow_pulling_1" },
				"north": { "uv": [ 6.75, 13.75, 4.5, 14 ], "texture": "#bow_pulling_1" },
				"south": { "uv": [ 4.5, 13.5, 6.75, 13.75 ], "texture": "#bow_pulling_1" },
				"west": { "uv": [ 10.5, 12, 10.75, 12.25 ], "texture": "#bow_pulling_1" },
				"east": { "uv": [ 10.75, 11.75, 10.5, 12 ], "texture": "#bow_pulling_1" }
			}
		},
		{
			"__comment": "Voxels",
			"from": [ 20, 8, 12 ],
			"to": [ 23, 9, 13 ],
			"faces": {
				"down": { "uv": [ 11.25, 14.25, 12, 14.5 ], "texture": "#bow_pulling_1" },
				"up": { "uv": [ 12, 14.5, 12.75, 14.25 ], "texture": "#bow_pulling_1" },
				"north": { "uv": [ 13.5, 14.25, 12.75, 14.5 ], "texture": "#bow_pulling_1" },
				"south": { "uv": [ 13.5, 14.25, 14.25, 14.5 ], "texture": "#bow_pulling_1" },
				"west": { "uv": [ 10.5, 10.5, 10.75, 10.75 ], "texture": "#bow_pulling_1" },
				"east": { "uv": [ 10.75, 10.25, 10.5, 10.5 ], "texture": "#bow_pulling_1" }
			}
		},
		{
			"__comment": "Voxels",
			"from": [ 20, 9, 15 ],
			"to": [ 27, 10, 16 ],
			"faces": {
				"down": { "uv": [ 13.75, 15.75, 15.5, 16 ], "texture": "#bow_pulling_1" },
				"up": { "uv": [ 12, 16, 13.75, 15.75 ], "texture": "#bow_pulling_1" },
				"north": { "uv": [ 12, 15.75, 10.25, 16 ], "texture": "#bow_pulling_1" },
				"south": { "uv": [ 8.5, 15.75, 10.25, 16 ], "texture": "#bow_pulling_1" },
				"west": { "uv": [ 10.5, 9, 10.75, 9.25 ], "texture": "#bow_pulling_1" },
				"east": { "uv": [ 10.75, 8.75, 10.5, 9 ], "texture": "#bow_pulling_1" }
			}
		},
		{
			"__comment": "Voxels",
			"from": [ 20, 10, 12 ],
			"to": [ 23, 11, 13 ],
			"faces": {
				"down": { "uv": [ 14.25, 14.25, 15, 14.5 ], "texture": "#bow_pulling_1" },
				"up": { "uv": [ 15, 14.5, 15.75, 14.25 ], "texture": "#bow_pulling_1" },
				"north": { "uv": [ 9.75, 14, 9, 14.25 ], "texture": "#bow_pulling_1" },
				"south": { "uv": [ 9, 13.75, 9.75, 14 ], "texture": "#bow_pulling_1" },
				"west": { "uv": [ 11, 13, 11.25, 13.25 ], "texture": "#bow_pulling_1" },
				"east": { "uv": [ 11.5, 13, 11.25, 13.25 ], "texture": "#bow_pulling_1" }
			}
		},
		{
			"__comment": "Voxels",
			"from": [ 21, 8, 14 ],
			"to": [ 24, 9, 15 ],
			"faces": {
				"down": { "uv": [ 9, 13.5, 9.75, 13.75 ], "texture": "#bow_pulling_1" },
				"up": { "uv": [ 9, 13.5, 9.75, 13.25 ], "texture": "#bow_pulling_1" },
				"north": { "uv": [ 9.75, 13, 9, 13.25 ], "texture": "#bow_pulling_1" },
				"south": { "uv": [ 9, 12.75, 9.75, 13 ], "texture": "#bow_pulling_1" },
				"west": { "uv": [ 12.5, 13, 12.75, 13.25 ], "texture": "#bow_pulling_1" },
				"east": { "uv": [ 13, 13, 12.75, 13.25 ], "texture": "#bow_pulling_1" }
			}
		},
		{
			"__comment": "Voxels",
			"from": [ 21, 9, 17 ],
			"to": [ 24, 10, 18 ],
			"faces": {
				"down": { "uv": [ 9, 12.5, 9.75, 12.75 ], "texture": "#bow_pulling_1" },
				"up": { "uv": [ 9, 12.5, 9.75, 12.25 ], "texture": "#bow_pulling_1" },
				"north": { "uv": [ 9.75, 12, 9, 12.25 ], "texture": "#bow_pulling_1" },
				"south": { "uv": [ 9, 11.75, 9.75, 12 ], "texture": "#bow_pulling_1" },
				"west": { "uv": [ 14, 13, 14.25, 13.25 ], "texture": "#bow_pulling_1" },
				"east": { "uv": [ 14.5, 13, 14.25, 13.25 ], "texture": "#bow_pulling_1" }
			}
		},
		{
			"__comment": "Voxels",
			"from": [ 21, 10, 14 ],
			"to": [ 24, 11, 15 ],
			"faces": {
				"down": { "uv": [ 9, 11.5, 9.75, 11.75 ], "texture": "#bow_pulling_1" },
				"up": { "uv": [ 9, 11.5, 9.75, 11.25 ], "texture": "#bow_pulling_1" },
				"north": { "uv": [ 9.75, 11, 9, 11.25 ], "texture": "#bow_pulling_1" },
				"south": { "uv": [ 9, 10.75, 9.75, 11 ], "texture": "#bow_pulling_1" },
				"west": { "uv": [ 15.5, 13, 15.75, 13.25 ], "texture": "#bow_pulling_1" },
				"east": { "uv": [ 16, 13, 15.75, 13.25 ], "texture": "#bow_pulling_1" }
			}
		},
		{
			"__comment": "Voxels",
			"from": [ 22, 8, 13 ],
			"to": [ 26, 9, 14 ],
			"faces": {
				"down": { "uv": [ 8, 14.5, 9, 14.75 ], "texture": "#bow_pulling_1" },
				"up": { "uv": [ 14.25, 15, 15.25, 14.75 ], "texture": "#bow_pulling_1" },
				"north": { "uv": [ 6.75, 8, 5.75, 8.25 ], "texture": "#bow_pulling_1" },
				"south": { "uv": [ 5.75, 9.75, 6.75, 10 ], "texture": "#bow_pulling_1" },
				"west": { "uv": [ 10.75, 11.75, 11, 12 ], "texture": "#bow_pulling_1" },
				"east": { "uv": [ 11, 11.5, 10.75, 11.75 ], "texture": "#bow_pulling_1" }
			}
		},
		{
			"__comment": "Voxels",
			"from": [ 22, 9, 16 ],
			"to": [ 26, 10, 17 ],
			"faces": {
				"down": { "uv": [ 8, 12.25, 9, 12.5 ], "texture": "#bow_pulling_1" },
				"up": { "uv": [ 8, 12.25, 9, 12 ], "texture": "#bow_pulling_1" },
				"north": { "uv": [ 6.75, 14.75, 5.75, 15 ], "texture": "#bow_pulling_1" },
				"south": { "uv": [ 5.75, 14.5, 6.75, 14.75 ], "texture": "#bow_pulling_1" },
				"west": { "uv": [ 10.75, 10.25, 11, 10.5 ], "texture": "#bow_pulling_1" },
				"east": { "uv": [ 11, 10, 10.75, 10.25 ], "texture": "#bow_pulling_1" }
			}
		},
		{
			"__comment": "Voxels",
			"from": [ 22, 10, 13 ],
			"to": [ 26, 11, 14 ],
			"faces": {
				"down": { "uv": [ 5.75, 14.25, 6.75, 14.5 ], "texture": "#bow_pulling_1" },
				"up": { "uv": [ 5.75, 14.25, 6.75, 14 ], "texture": "#bow_pulling_1" },
				"north": { "uv": [ 6.75, 9.5, 5.75, 9.75 ], "texture": "#bow_pulling_1" },
				"south": { "uv": [ 5.75, 9.25, 6.75, 9.5 ], "texture": "#bow_pulling_1" },
				"west": { "uv": [ 10.75, 8.75, 11, 9 ], "texture": "#bow_pulling_1" },
				"east": { "uv": [ 11, 8.5, 10.75, 8.75 ], "texture": "#bow_pulling_1" }
			}
		},
		{
			"__comment": "Voxels",
			"from": [ 25, 8, 12 ],
			"to": [ 27, 9, 13 ],
			"faces": {
				"down": { "uv": [ 10.5, 13.75, 11, 14 ], "texture": "#bow_pulling_1" },
				"up": { "uv": [ 11, 14, 11.5, 13.75 ], "texture": "#bow_pulling_1" },
				"north": { "uv": [ 12, 13.75, 11.5, 14 ], "texture": "#bow_pulling_1" },
				"south": { "uv": [ 12, 13.75, 12.5, 14 ], "texture": "#bow_pulling_1" },
				"west": { "uv": [ 11.5, 12.75, 11.75, 13 ], "texture": "#bow_pulling_1" },
				"east": { "uv": [ 12, 12.75, 11.75, 13 ], "texture": "#bow_pulling_1" }
			}
		},
		{
			"__comment": "Voxels",
			"from": [ 25, 9, 11 ],
			"to": [ 26, 10, 12 ],
			"faces": {
				"down": { "uv": [ 12, 12.75, 12.25, 13 ], "texture": "#bow_pulling_1" },
				"up": { "uv": [ 12.25, 13, 12.5, 12.75 ], "texture": "#bow_pulling_1" },
				"north": { "uv": [ 12.75, 12.75, 12.5, 13 ], "texture": "#bow_pulling_1" },
				"south": { "uv": [ 12.75, 12.75, 13, 13 ], "texture": "#bow_pulling_1" },
				"west": { "uv": [ 13, 12.75, 13.25, 13 ], "texture": "#bow_pulling_1" },
				"east": { "uv": [ 13.5, 12.75, 13.25, 13 ], "texture": "#bow_pulling_1" }
			}
		},
		{
			"__comment": "Voxels",
			"from": [ 25, 10, 12 ],
			"to": [ 27, 11, 13 ],
			"faces": {
				"down": { "uv": [ 12.5, 13.75, 13, 14 ], "texture": "#bow_pulling_1" },
				"up": { "uv": [ 13, 14, 13.5, 13.75 ], "texture": "#bow_pulling_1" },
				"north": { "uv": [ 14, 13.75, 13.5, 14 ], "texture": "#bow_pulling_1" },
				"south": { "uv": [ 14, 13.75, 14.5, 14 ], "texture": "#bow_pulling_1" },
				"west": { "uv": [ 14.5, 12.75, 14.75, 13 ], "texture": "#bow_pulling_1" },
				"east": { "uv": [ 15, 12.75, 14.75, 13 ], "texture": "#bow_pulling_1" }
			}
		}
	],
	"display": {
		"thirdperson_righthand": {
			"rotation":  [ -14, -6, 90 ],
			"translation":  [ 1.2, -1.2, 0.82 ],
			"scale":  [ 0.83, 0.8, 0.8 ]
		},
		"thirdperson_lefthand": {
			"rotation":  [ -14, -6, 90 ],
			"translation":  [ 1.2, -2, 0.7 ],
			"scale":  [ 0.83, 0.8, 0.8 ]
		},
		"firstperson_righthand": {
			"rotation":  [ 0, 0, 90 ],
			"translation":  [ 10, 2, -15 ],
			"scale":  [ 1.2, 1.1, 1.1 ]
		},
		"firstperson_lefthand": {
			"rotation":  [ 0, 0, 90 ],
			"translation":  [ 10, 2, -15 ],
			"scale":  [ 1.2, 1.1, 1.1 ]
		},
		"gui": {
			"rotation":  [ 90, -45, 0 ],
			"translation":  [ 2.4, 2, 0 ],
			"scale":  [ 0.47, 0.4, 0.51 ]
		},
		"ground": {
			"scale":  [ 1.1, 1.1, 1 ]
		},
		"fixed": {
			"rotation":  [ 90, 90, 0 ],
			"translation":  [ -4, 2, -8 ],
			"scale":  [ 3, 2.5, 2.7 ]
		}
	}
}