{
	"credit": "Made with Blockbench",
	"textures": {
		"0": "bow/grimuar_0",
		"1": "bow/grimuar_1",
		"2": "bow/grimuar_2"
	},
	"elements": [
		{
			"from": [8.50476, 3.23954, 4.70568],
			"to": [8.60476, 12.23954, 10.50568],
			"rotation": {"angle": 0, "axis": "z", "origin": [7.00813, 12.25106, 10.84082]},
			"faces": {
				"north": {"uv": [6, 0, 6.5, 4.5], "texture": "#0"},
				"east": {"uv": [0, 0, 3, 4.5], "texture": "#0"},
				"south": {"uv": [6.5, 0, 7, 4.5], "texture": "#0"},
				"west": {"uv": [3, 3, 6, 7.5], "texture": "#0"},
				"up": {"uv": [3.5, 3, 3, 0], "texture": "#0"},
				"down": {"uv": [4, 0, 3.5, 3], "texture": "#0"}
			}
		},
		{
			"from": [7.40479, 3.23777, 4.70495],
			"to": [7.50479, 12.23777, 10.50495],
			"rotation": {"angle": 0, "axis": "z", "origin": [7.00813, 12.25106, 10.84082]},
			"faces": {
				"north": {"uv": [7, 0, 7.5, 4.5], "texture": "#0"},
				"east": {"uv": [0, 4.5, 3, 9], "texture": "#0"},
				"south": {"uv": [3, 7.5, 3.5, 12], "texture": "#0"},
				"west": {"uv": [6, 6, 9, 10.5], "texture": "#0"},
				"up": {"uv": [4.5, 3, 4, 0], "texture": "#0"},
				"down": {"uv": [5, 0, 4.5, 3], "texture": "#0"}
			}
		},
		{
			"from": [7.40478, 3.23953, 4.50567],
			"to": [7.50478, 12.23953, 4.70567],
			"rotation": {"angle": 0, "axis": "z", "origin": [7.00813, 12.25106, 10.84082]},
			"faces": {
				"north": {"uv": [3.5, 7.5, 4, 12], "texture": "#0"},
				"east": {"uv": [4, 7.5, 4.5, 12], "texture": "#0"},
				"south": {"uv": [4.5, 7.5, 5, 12], "texture": "#0"},
				"west": {"uv": [5, 7.5, 5.5, 12], "texture": "#0"},
				"up": {"uv": [5.5, 0.5, 5, 0], "texture": "#0"},
				"down": {"uv": [5.5, 0.5, 5, 1], "texture": "#0"}
			}
		},
		{
			"from": [7.50477, 3.23952, 4.40569],
			"to": [8.50477, 12.23952, 4.50569],
			"rotation": {"angle": 0, "axis": "z", "origin": [7.00813, 12.25106, 10.84082]},
			"faces": {
				"north": {"uv": [5.5, 7.5, 6, 12], "texture": "#0"},
				"east": {"uv": [7.5, 0, 8, 4.5], "texture": "#0"},
				"south": {"uv": [8, 0, 8.5, 4.5], "texture": "#0"},
				"west": {"uv": [8.5, 0, 9, 4.5], "texture": "#0"},
				"up": {"uv": [5.5, 1.5, 5, 1], "texture": "#0"},
				"down": {"uv": [5.5, 1.5, 5, 2], "texture": "#0"}
			}
		},
		{
			"from": [8.50478, 3.23954, 4.50567],
			"to": [8.60478, 12.23954, 4.70567],
			"rotation": {"angle": 0, "axis": "z", "origin": [7.00813, 12.25106, 10.84082]},
			"faces": {
				"north": {"uv": [0, 9, 0.5, 13.5], "texture": "#0"},
				"east": {"uv": [0.5, 9, 1, 13.5], "texture": "#0"},
				"south": {"uv": [1, 9, 1.5, 13.5], "texture": "#0"},
				"west": {"uv": [1.5, 9, 2, 13.5], "texture": "#0"},
				"up": {"uv": [5.5, 2.5, 5, 2], "texture": "#0"},
				"down": {"uv": [5.5, 2.5, 5, 3], "texture": "#0"}
			}
		},
		{
			"from": [8.00348, 3.48955, 4.50696],
			"to": [8.25348, 11.98955, 10.25696],
			"rotation": {"angle": 0, "axis": "y", "origin": [7.00813, 12.25106, 10.84082]},
			"faces": {
				"north": {"uv": [9, 0, 9.5, 4.5], "texture": "#1"},
				"east": {"uv": [0, 0, 3, 4.5], "texture": "#1"},
				"south": {"uv": [9, 4.5, 9.5, 9], "texture": "#1"},
				"west": {"uv": [3, 3, 6, 7.5], "texture": "#1"},
				"up": {"uv": [3.5, 3, 3, 0], "texture": "#1"},
				"down": {"uv": [4, 0, 3.5, 3], "texture": "#1"}
			}
		},
		{
			"from": [8.25391, 3.48953, 4.50654],
			"to": [8.50391, 11.98953, 10.25654],
			"rotation": {"angle": 0, "axis": "y", "origin": [7.00813, 12.25106, 10.84082]},
			"faces": {
				"north": {"uv": [9.5, 0, 10, 4.5], "texture": "#1"},
				"east": {"uv": [0, 4.5, 3, 9], "texture": "#1"},
				"south": {"uv": [9.5, 4.5, 10, 9], "texture": "#1"},
				"west": {"uv": [6, 6, 9, 10.5], "texture": "#1"},
				"up": {"uv": [4.5, 3, 4, 0], "texture": "#1"},
				"down": {"uv": [5, 0, 4.5, 3], "texture": "#1"}
			}
		},
		{
			"from": [7.75305, 3.48956, 4.50737],
			"to": [8.00305, 11.98956, 10.25737],
			"rotation": {"angle": 0, "axis": "y", "origin": [7.00813, 12.25106, 10.84082]},
			"faces": {
				"north": {"uv": [10, 0, 10.5, 4.5], "texture": "#1"},
				"east": {"uv": [6, 0, 9, 4.5], "texture": "#1"},
				"south": {"uv": [10, 4.5, 10.5, 9], "texture": "#1"},
				"west": {"uv": [3, 7.5, 6, 12], "texture": "#1"},
				"up": {"uv": [5.5, 3, 5, 0], "texture": "#1"},
				"down": {"uv": [6, 0, 5.5, 3], "texture": "#1"}
			}
		},
		{
			"from": [7.50262, 3.48957, 4.50779],
			"to": [7.75262, 11.98957, 10.25779],
			"rotation": {"angle": 0, "axis": "y", "origin": [7.00813, 12.25106, 10.84082]},
			"faces": {
				"north": {"uv": [6, 10.5, 6.5, 15], "texture": "#1"},
				"east": {"uv": [0, 9, 3, 13.5], "texture": "#1"},
				"south": {"uv": [6.5, 10.5, 7, 15], "texture": "#1"},
				"west": {"uv": [9, 9, 12, 13.5], "texture": "#1"},
				"up": {"uv": [7.5, 13.5, 7, 10.5], "texture": "#1"},
				"down": {"uv": [8, 10.5, 7.5, 13.5], "texture": "#1"}
			}
		},
		{
			"from": [7.97456, 11.99392, 5.75651],
			"to": [8.49956, 12.01892, 6.75651],
			"rotation": {"angle": 0, "axis": "y", "origin": [7.00813, 12.25106, 10.84082]},
			"faces": {
				"north": {"uv": [1, 0, 2, 1], "texture": "#2"},
				"east": {"uv": [2, 0, 3, 1], "texture": "#2"},
				"south": {"uv": [2, 1, 3, 2], "texture": "#2"},
				"west": {"uv": [3, 0, 4, 1], "texture": "#2"},
				"up": {"uv": [4, 2, 3, 1], "texture": "#2"},
				"down": {"uv": [4, 2, 3, 3], "texture": "#2"}
			}
		},
		{
			"from": [7.97457, 2.99393, 5.75649],
			"to": [7.99957, 11.99393, 6.75649],
			"rotation": {"angle": 0, "axis": "y", "origin": [7.00813, 12.25106, 10.84082]},
			"faces": {
				"north": {"uv": [0, 0, 1, 9], "texture": "#2"},
				"east": {"uv": [1, 1, 2, 10], "texture": "#2"},
				"south": {"uv": [2, 2, 3, 11], "texture": "#2"},
				"west": {"uv": [3, 3, 4, 12], "texture": "#2"},
				"up": {"uv": [5, 5, 4, 4], "texture": "#2"},
				"down": {"uv": [5, 0, 4, 1], "texture": "#2"}
			}
		}
	],
	"display": {
		"thirdperson_righthand": {
			"rotation": [-10, 0, 0],
			"translation": [-0.5, 2.25, 1.5],
			"scale": [0.99023, 0.99023, 0.99023]
		},
		"thirdperson_lefthand": {
			"rotation": [-10, 0, 0],
			"translation": [-0.5, 2.25, 1.5],
			"scale": [0.99023, 0.99023, 0.99023]
		},
		"firstperson_righthand": {
			"rotation": [-14.25, 0, 0],
			"translation": [1, 5.5, 0],
			"scale": [0.75, 0.75, 0.75]
		},
		"firstperson_lefthand": {
			"rotation": [-14, 0, 0],
			"translation": [1, 5.5, 0],
			"scale": [0.75, 0.75, 0.75]
		},
		"ground": {
			"rotation": [0, 0, -90],
			"translation": [0, -3, 0]
		},
		"gui": {
			"rotation": [0, 90, 0],
			"scale": [1.2, 1.2, 1.2]
		},
		"head": {
			"rotation": [0, -90, -90],
			"translation": [-0.5, 7.25, 0]
		},
		"fixed": {
			"rotation": [0, -90, 0],
			"translation": [0, 0, -1],
			"scale": [1.64, 1.64, 1.64]
		}
	},
	"groups": [
		{
			"name": "cover",
			"origin": [8.98722, 23.77519, 8.23758],
			"children": [0, 1, 2, 3, 4]
		},
		{
			"name": "pages",
			"origin": [8, 8, 8],
			"children": [5, 6, 7, 8]
		},
		{
			"name": "mark",
			"origin": [8, 8, 8],
			"children": [9, 10]
		}
	]
}