{
	"credit": "Made with Blockbench",
	"textures": {
		"0": "crossbow/crossbowmodel",
		"particle": "crossbow/crossbowmodel"
	},
	"elements": [
		{
			"from": [7.5, 5, 0],
			"to": [8.5, 5.5, 9],
			"faces": {
				"north": {"uv": [1.5, 15.25, 2.5, 15.75], "texture": "#0"},
				"east": {"uv": [2.5, 5, 3, 14], "rotation": 90, "texture": "#0"},
				"south": {"uv": [1.5, 8.5, 1.75, 8.75], "rotation": 90, "texture": "#0"},
				"west": {"uv": [1, 5, 1.5, 14], "rotation": 270, "texture": "#0"},
				"up": {"uv": [1.5, 5, 2.5, 14], "texture": "#0"},
				"down": {"uv": [1.5, 5, 2.5, 14], "rotation": 180, "texture": "#0"}
			}
		},
		{
			"from": [7.875, 5.5, -0.35],
			"to": [8.125, 5.75, 7],
			"rotation": {"angle": 0, "axis": "y", "origin": [7.625, 8, 8]},
			"faces": {
				"north": {"uv": [13, 5.25, 13.5, 5.75], "texture": "#0"},
				"east": {"uv": [13, 5.25, 13.5, 5.75], "texture": "#0"},
				"south": {"uv": [13, 5.25, 13.5, 5.75], "texture": "#0"},
				"west": {"uv": [13, 5.25, 13.5, 5.75], "texture": "#0"},
				"up": {"uv": [13, 5.25, 13.5, 5.75], "texture": "#0"},
				"down": {"uv": [13, 5.25, 13.5, 5.75], "texture": "#0"}
			}
		},
		{
			"from": [7.5, 4, 5],
			"to": [8.5, 5, 7],
			"faces": {
				"north": {"uv": [4, 10, 5, 11], "texture": "#0"},
				"east": {"uv": [3, 10, 4, 12], "rotation": 90, "texture": "#0"},
				"south": {"uv": [4, 10, 5, 11], "texture": "#0"},
				"west": {"uv": [0, 10, 1, 12], "rotation": 270, "texture": "#0"},
				"down": {"uv": [4, 10, 5, 12], "rotation": 180, "texture": "#0"}
			}
		},
		{
			"from": [7.5, 2.6, 4.05],
			"to": [8.5, 3.1, 6.3],
			"rotation": {"angle": 22.5, "axis": "x", "origin": [8, 8, 8]},
			"faces": {
				"north": {"uv": [2.25, 0, 3.25, 0.5], "texture": "#0"},
				"east": {"uv": [3.25, 0, 3.75, 2.25], "rotation": 90, "texture": "#0"},
				"south": {"uv": [2.25, 0, 3.25, 0.5], "texture": "#0"},
				"west": {"uv": [3.25, 0, 3.75, 2.25], "rotation": 270, "texture": "#0"},
				"up": {"uv": [3.75, 0, 4.75, 2.25], "texture": "#0"},
				"down": {"uv": [2.25, 0, 3.25, 2.25], "rotation": 180, "texture": "#0"}
			}
		},
		{
			"from": [7.5, 3.5, 11.15],
			"to": [8.5, 5.75, 11.65],
			"faces": {
				"north": {"uv": [3.75, 0, 4.75, 2.25], "rotation": 180, "texture": "#0"},
				"east": {"uv": [3.25, 0, 3.75, 2.25], "rotation": 180, "texture": "#0"},
				"south": {"uv": [2.25, 0, 3.25, 2.25], "rotation": 180, "texture": "#0"},
				"west": {"uv": [3.25, 0, 3.75, 2.25], "rotation": 180, "texture": "#0"},
				"up": {"uv": [2.25, 0, 3.25, 0.5], "texture": "#0"},
				"down": {"uv": [2.25, 0, 3.25, 0.5], "rotation": 180, "texture": "#0"}
			}
		},
		{
			"from": [7.75, 4.25, 3.5],
			"to": [8.25, 5, 4],
			"faces": {
				"north": {"uv": [13.75, 0.5, 14.25, 1.25], "texture": "#0"},
				"east": {"uv": [13.75, 0.5, 14.25, 1.25], "texture": "#0"},
				"south": {"uv": [13.75, 0.5, 14.25, 1.25], "texture": "#0"},
				"west": {"uv": [13.75, 0.5, 14.25, 1.25], "texture": "#0"},
				"up": {"uv": [13.75, 0.5, 14.25, 1.25], "texture": "#0"},
				"down": {"uv": [13.75, 0.5, 14.25, 1.25], "texture": "#0"}
			}
		},
		{
			"from": [7.75, 5, 9],
			"to": [8.25, 5.5, 11.75],
			"faces": {
				"north": {"uv": [1.75, 5.25, 2.25, 8], "texture": "#0"},
				"east": {"uv": [5.75, 5.75, 6.25, 8.5], "rotation": 90, "texture": "#0"},
				"south": {"uv": [2.25, 10.25, 2.75, 10.75], "texture": "#0"},
				"west": {"uv": [4, 5.75, 4.5, 8.5], "rotation": 90, "texture": "#0"},
				"up": {"uv": [4.5, 5.75, 5, 8.5], "texture": "#0"},
				"down": {"uv": [6.75, 6, 7.25, 8.75], "texture": "#0"}
			}
		},
		{
			"from": [7.75, 2, 5.75],
			"to": [8.25, 4, 6],
			"faces": {
				"north": {"uv": [2.5, 11, 3, 13], "texture": "#0"},
				"east": {"uv": [3, 11, 5, 11.25], "rotation": 270, "texture": "#0"},
				"south": {"uv": [2.5, 11.75, 3, 13.75], "texture": "#0"},
				"west": {"uv": [3, 11, 5, 11.25], "rotation": 270, "texture": "#0"},
				"up": {"uv": [0, 0, 1, 2], "texture": "#missing"},
				"down": {"uv": [4, 10, 4.5, 10.25], "rotation": 180, "texture": "#0"}
			}
		},
		{
			"from": [7.5, -0.25, 9],
			"to": [8.5, 0, 10],
			"rotation": {"angle": 22.5, "axis": "x", "origin": [8, 7.17462, 10.35355]},
			"faces": {
				"north": {"uv": [13.5, 0.25, 14.5, 0.5], "texture": "#0"},
				"east": {"uv": [13, 1, 14, 1.25], "rotation": 180, "texture": "#0"},
				"south": {"uv": [0, 0, 0.5, 0.125], "texture": "#missing"},
				"west": {"uv": [13, 1, 14, 1.25], "texture": "#0"},
				"up": {"uv": [13, 0, 14, 1], "rotation": 90, "texture": "#0"},
				"down": {"uv": [13, 0, 14, 1], "rotation": 270, "texture": "#0"}
			}
		},
		{
			"from": [7.5, 2.17462, 4.85355],
			"to": [8.5, 2.42462, 6.85355],
			"rotation": {"angle": -22.5, "axis": "x", "origin": [8, 7.17462, 10.35355]},
			"faces": {
				"north": {"uv": [0, 0, 0.5, 0.125], "texture": "#missing"},
				"east": {"uv": [14, 1, 16, 1.25], "rotation": 180, "texture": "#0"},
				"south": {"uv": [13.5, 0.5, 14.5, 0.75], "texture": "#0"},
				"west": {"uv": [14, 1, 16, 1.25], "texture": "#0"},
				"up": {"uv": [14, 0, 16, 1], "rotation": 90, "texture": "#0"},
				"down": {"uv": [14, 0, 16, 1], "rotation": 270, "texture": "#0"}
			}
		},
		{
			"from": [7.75, 2.42462, 5.35355],
			"to": [8.25, 6.67462, 6.60355],
			"rotation": {"angle": -22.5, "axis": "x", "origin": [8, 7.17462, 10.35355]},
			"faces": {
				"north": {"uv": [1.25, 0, 1.75, 4.25], "texture": "#0"},
				"east": {"uv": [0, 0, 1.25, 4.25], "texture": "#0"},
				"south": {"uv": [1, 0, 1.5, 4.25], "texture": "#0"},
				"west": {"uv": [0, 0, 1.25, 4.25], "texture": "#0"}
			}
		},
		{
			"from": [6.5, 4.5, 0.5],
			"to": [7, 6.25, 1],
			"rotation": {"angle": 0, "axis": "y", "origin": [15.5, 15.5, 15.5]},
			"faces": {
				"north": {"uv": [8, 9.75, 8.5, 11.5], "texture": "#0"},
				"east": {"uv": [1, 13, 1.5, 14.75], "texture": "#0"},
				"south": {"uv": [5.5, 9.75, 6, 11.5], "texture": "#0"},
				"west": {"uv": [2.5, 6.5, 3, 8.25], "texture": "#0"},
				"up": {"uv": [5.5, 10.5, 6, 11], "texture": "#0"},
				"down": {"uv": [5.5, 10.5, 6, 11], "texture": "#0"}
			}
		},
		{
			"from": [9, 4.5, 0.5],
			"to": [9.5, 6.25, 1],
			"rotation": {"angle": 0, "axis": "y", "origin": [15.5, 15.5, 15.5]},
			"faces": {
				"north": {"uv": [5.5, 9.75, 6, 11.5], "texture": "#0"},
				"east": {"uv": [1, 13.25, 1.5, 15], "texture": "#0"},
				"south": {"uv": [8, 9.75, 8.5, 11.5], "texture": "#0"},
				"west": {"uv": [2.5, 12.25, 3, 14], "texture": "#0"},
				"up": {"uv": [1.25, 12.25, 1.75, 12.75], "texture": "#0"},
				"down": {"uv": [8, 10.25, 8.5, 10.75], "texture": "#0"}
			}
		},
		{
			"from": [2.06583, 5.25, 0.56006],
			"to": [6.56583, 6, 0.81006],
			"rotation": {"angle": 45, "axis": "y", "origin": [6.55478, 5.63008, 0.74875]},
			"faces": {
				"north": {"uv": [5.5, 11.5, 6.25, 16], "rotation": 270, "texture": "#0"},
				"east": {"uv": [5.5, 11.5, 6.25, 16], "rotation": 270, "texture": "#0"},
				"south": {"uv": [5.5, 11.5, 6.25, 16], "rotation": 90, "texture": "#0"},
				"west": {"uv": [5.5, 15.75, 6.25, 16], "rotation": 90, "texture": "#0"},
				"up": {"uv": [5.5, 11.5, 5.75, 16], "rotation": 90, "texture": "#0"},
				"down": {"uv": [5.5, 11.5, 5.75, 16], "rotation": 90, "texture": "#0"}
			}
		},
		{
			"from": [9.43417, 5.25, 0.56006],
			"to": [13.93417, 6, 0.81006],
			"rotation": {"angle": -45, "axis": "y", "origin": [9.44522, 5.63008, 0.74875]},
			"faces": {
				"north": {"uv": [5.5, 16, 6.25, 11.5], "rotation": 270, "texture": "#0"},
				"east": {"uv": [5.5, 16, 6.25, 15.75], "rotation": 90, "texture": "#0"},
				"south": {"uv": [5.5, 16, 6.25, 11.5], "rotation": 90, "texture": "#0"},
				"west": {"uv": [5.5, 16, 6.25, 11.5], "rotation": 270, "texture": "#0"},
				"up": {"uv": [5.5, 16, 5.75, 11.5], "rotation": 90, "texture": "#0"},
				"down": {"uv": [5.5, 16, 5.75, 11.5], "rotation": 90, "texture": "#0"}
			}
		},
		{
			"from": [7, 4.5, 0.5],
			"to": [9, 5, 1],
			"rotation": {"angle": 0, "axis": "y", "origin": [15.5, 15.5, 15.5]},
			"faces": {
				"north": {"uv": [6, 11, 8, 11.5], "texture": "#0"},
				"east": {"uv": [0, 0, 0.5, 0.5], "texture": "#missing"},
				"south": {"uv": [6, 11, 8, 11.5], "rotation": 180, "texture": "#0"},
				"west": {"uv": [0, 0, 0.5, 0.5], "texture": "#missing"},
				"up": {"uv": [6, 10.5, 8, 11], "texture": "#0"},
				"down": {"uv": [6, 10.5, 8, 11], "texture": "#0"}
			}
		},
		{
			"from": [8.75, 4.5, -1.5],
			"to": [9, 5, 0.5],
			"rotation": {"angle": 0, "axis": "y", "origin": [15.5, 15.5, 15.5]},
			"faces": {
				"north": {"uv": [8, 10.5, 8.25, 11], "texture": "#0"},
				"east": {"uv": [2.75, 10.25, 4.75, 10.75], "texture": "#0"},
				"south": {"uv": [6, 11, 8, 11.5], "rotation": 180, "texture": "#0"},
				"west": {"uv": [2.75, 10.25, 4.75, 10.75], "rotation": 180, "texture": "#0"},
				"up": {"uv": [6, 10.75, 6.25, 12.75], "texture": "#0"},
				"down": {"uv": [6, 11.25, 6.25, 13.25], "texture": "#0"}
			}
		},
		{
			"from": [7, 4.5, -1.5],
			"to": [7.25, 5, 0.5],
			"rotation": {"angle": 0, "axis": "y", "origin": [15.5, 15.5, 15.5]},
			"faces": {
				"north": {"uv": [8, 10.5, 8.25, 11], "texture": "#0"},
				"east": {"uv": [2.75, 10.25, 4.75, 10.75], "texture": "#0"},
				"south": {"uv": [6, 11, 8, 11.5], "rotation": 180, "texture": "#0"},
				"west": {"uv": [2.75, 10.25, 4.75, 10.75], "rotation": 180, "texture": "#0"},
				"up": {"uv": [6, 10.75, 6.25, 12.75], "texture": "#0"},
				"down": {"uv": [6, 11.25, 6.25, 13.25], "texture": "#0"}
			}
		},
		{
			"from": [7.25, 4.5, -1.5],
			"to": [8.75, 5, -1.25],
			"rotation": {"angle": 0, "axis": "y", "origin": [15.5, 15.5, 15.5]},
			"faces": {
				"north": {"uv": [2.5, 10.5, 4, 11], "texture": "#0"},
				"east": {"uv": [3.75, 10.25, 4.75, 10.75], "texture": "#0"},
				"south": {"uv": [2.5, 10, 4, 10.5], "rotation": 180, "texture": "#0"},
				"west": {"uv": [4, 10.5, 5, 11], "texture": "#0"},
				"up": {"uv": [2.5, 10.25, 4, 10.5], "texture": "#0"},
				"down": {"uv": [2.5, 10.75, 4, 11], "texture": "#0"}
			}
		},
		{
			"from": [6.7, 5.59527, -1.21254],
			"to": [7.95, 5.59527, 0.03746],
			"rotation": {"angle": 45, "axis": "y", "origin": [8.11256, 5.89137, -1.2539]},
			"faces": {
				"up": {"uv": [9.5, 5.25, 11, 6.75], "rotation": 90, "texture": "#0"},
				"down": {"uv": [9.5, 5.25, 11, 6.75], "rotation": 180, "texture": "#0"}
			}
		},
		{
			"from": [6.7, 5.59527, 5.78746],
			"to": [7.95, 5.59527, 7.03746],
			"rotation": {"angle": 45, "axis": "y", "origin": [8.11256, 5.89137, 5.7461]},
			"faces": {
				"up": {"uv": [11, 5.25, 12.5, 6.75], "rotation": 90, "texture": "#0"},
				"down": {"uv": [11, 5.25, 12.5, 6.75], "rotation": 180, "texture": "#0"}
			}
		},
		{
			"from": [8.02753, 5.67351, -1.21357],
			"to": [8.02753, 6.92351, 0.03643],
			"rotation": {"angle": 45, "axis": "x", "origin": [8.32363, 5.51095, -1.25494]},
			"faces": {
				"east": {"uv": [9.5, 5.25, 11, 6.75], "rotation": 180, "texture": "#0"},
				"west": {"uv": [9.5, 5.25, 11, 6.75], "rotation": 270, "texture": "#0"}
			}
		},
		{
			"from": [8.02753, 5.67351, 5.78643],
			"to": [8.02753, 6.92351, 7.03643],
			"rotation": {"angle": 45, "axis": "x", "origin": [8.32363, 5.51095, 5.74506]},
			"faces": {
				"east": {"uv": [11, 5.25, 12.5, 6.75], "rotation": 180, "texture": "#0"},
				"west": {"uv": [11, 5.25, 12.5, 6.75], "rotation": 270, "texture": "#0"}
			}
		},
		{
			"from": [7, 5.25, 7],
			"to": [9, 6.25, 7.5],
			"rotation": {"angle": 0, "axis": "y", "origin": [15.5, 15.5, 20]},
			"faces": {
				"north": {"uv": [6, 10.5, 8, 11.5], "rotation": 180, "texture": "#0"},
				"east": {"uv": [5.5, 9.75, 6, 10.75], "texture": "#0"},
				"south": {"uv": [2.25, 10, 4.25, 11], "texture": "#0"},
				"west": {"uv": [8, 9.75, 8.5, 10.75], "texture": "#0"},
				"up": {"uv": [13.5, 0.75, 15.5, 1.25], "texture": "#0"},
				"down": {"uv": [2.25, 10, 4.25, 10.5], "texture": "#0"}
			}
		},
		{
			"from": [7.75, 5.5, 7.5],
			"to": [8.25, 6, 8.5],
			"rotation": {"angle": 0, "axis": "y", "origin": [15.5, 15.5, 20]},
			"faces": {
				"north": {"uv": [6.75, 10.75, 7.25, 11.25], "texture": "#0"},
				"east": {"uv": [6.75, 10.75, 7.75, 11.25], "texture": "#0"},
				"south": {"uv": [6.75, 10.75, 7.25, 11.25], "texture": "#0"},
				"west": {"uv": [6.75, 10.75, 7.75, 11.25], "texture": "#0"},
				"up": {"uv": [6.75, 10.5, 7.25, 11.5], "texture": "#0"},
				"down": {"uv": [6.75, 10.75, 7.25, 11.25], "texture": "#0"}
			}
		},
		{
			"from": [7.5, 5.5, 7.75],
			"to": [7.75, 6, 8],
			"rotation": {"angle": 0, "axis": "y", "origin": [15.5, 15.5, 12.5]},
			"faces": {
				"north": {"uv": [6.75, 10.75, 7, 11.25], "texture": "#0"},
				"east": {"uv": [6.75, 10.75, 7, 11.25], "texture": "#0"},
				"south": {"uv": [6.75, 10.75, 7, 11.25], "texture": "#0"},
				"west": {"uv": [6.75, 10.75, 7, 11.25], "texture": "#0"},
				"up": {"uv": [6.75, 10.5, 7, 10.75], "texture": "#0"},
				"down": {"uv": [6.75, 10.75, 7.25, 11.25], "texture": "#0"}
			}
		},
		{
			"from": [7.5, 6, 7.75],
			"to": [8.5, 6.25, 8],
			"rotation": {"angle": 0, "axis": "y", "origin": [15.5, 15.5, 12.5]},
			"faces": {
				"north": {"uv": [6.5, 11.25, 7.5, 11.5], "texture": "#0"},
				"east": {"uv": [6.5, 11.25, 6.75, 11.5], "texture": "#0"},
				"south": {"uv": [6.5, 11.25, 7.5, 11.5], "texture": "#0"},
				"west": {"uv": [6.5, 11.25, 6.75, 11.5], "texture": "#0"},
				"up": {"uv": [6.5, 11.25, 7.5, 11.5], "texture": "#0"},
				"down": {"uv": [6.5, 11.25, 7.5, 11.5], "texture": "#0"}
			}
		},
		{
			"from": [8.25, 5.5, 7.75],
			"to": [8.5, 6, 8],
			"rotation": {"angle": 0, "axis": "y", "origin": [15.5, 15.5, 12.5]},
			"faces": {
				"north": {"uv": [6.75, 10.75, 7, 11.25], "texture": "#0"},
				"east": {"uv": [6.75, 10.75, 7, 11.25], "texture": "#0"},
				"south": {"uv": [6.75, 10.75, 7, 11.25], "texture": "#0"},
				"west": {"uv": [6.75, 10.75, 7, 11.25], "texture": "#0"},
				"up": {"uv": [6.75, 10.5, 7, 10.75], "texture": "#0"},
				"down": {"uv": [6.75, 10.75, 7.25, 11.25], "texture": "#0"}
			}
		},
		{
			"from": [4.2, 5.5, 2.85],
			"to": [9.2, 5.75, 2.85],
			"rotation": {"angle": -45, "axis": "y", "origin": [2.54456, 5.62892, 2.50153]},
			"faces": {
				"north": {"uv": [15, 14.75, 15.5, 15.25], "texture": "#0"},
				"east": {"uv": [15, 14.75, 15.5, 15.25], "texture": "#0"},
				"south": {"uv": [15, 14.75, 15.5, 15.25], "texture": "#0"},
				"west": {"uv": [15, 14.75, 15.5, 15.25], "texture": "#0"},
				"up": {"uv": [15, 14.75, 15.5, 15.25], "texture": "#0"},
				"down": {"uv": [15, 14.75, 15.5, 15.25], "texture": "#0"}
			}
		},
		{
			"from": [6.8, 5.5, 2.85],
			"to": [11.8, 5.75, 2.85],
			"rotation": {"angle": 45, "axis": "y", "origin": [13.45544, 5.62892, 2.50153]},
			"faces": {
				"north": {"uv": [15.5, 14.75, 15, 15.25], "texture": "#0"},
				"east": {"uv": [15.5, 14.75, 15, 15.25], "texture": "#0"},
				"south": {"uv": [15.5, 14.75, 15, 15.25], "texture": "#0"},
				"west": {"uv": [15.5, 14.75, 15, 15.25], "texture": "#0"},
				"up": {"uv": [15.5, 14.75, 15, 15.25], "texture": "#0"},
				"down": {"uv": [15.5, 14.75, 15, 15.25], "texture": "#0"}
			}
		}
	],
	"display": {
		"thirdperson_righthand": {
			"rotation": [0, -11, 0],
			"translation": [0, 6.75, 2.75],
			"scale": [1.64, 1.64, 1.64]
		},
		"thirdperson_lefthand": {
			"rotation": [0, -11, 0],
			"translation": [0, 6.75, 2.75],
			"scale": [1.64, 1.64, 1.64]
		},
		"firstperson_righthand": {
			"rotation": [4, -10, 4],
			"translation": [7.75, 6.5, -4.25],
			"scale": [1.94, 1.94, 1.94]
		},
		"firstperson_lefthand": {
			"rotation": [4, -10, 4],
			"translation": [7.75, 6.5, -4.25],
			"scale": [1.94, 1.94, 1.94]
		},
		"ground": {
			"rotation": [-33, 0, 0],
			"translation": [0, 3.25, 0]
		},
		"gui": {
			"rotation": [30, 225, 0],
			"translation": [-4, 5.5, 0],
			"scale": [1.41, 1.41, 1.41]
		},
		"fixed": {
			"rotation": [-90, 0, 0],
			"translation": [0, 4.75, -5],
			"scale": [1.56, 1.56, 1.56]
		}
	}
}