{
	"__comment": "Designed by Maiiwakizashi with Cubik Studio - https://cubik.studio",
	"textures": {
		"texture": "car10"
	},
	"elements": [ 	 
		{
			"__comment": "Box2",
			"from": [ 3, 5.5, 0 ],
			"to": [ 13, 9, 11.5 ],
			"faces": {
				"down": { "uv": [ 0, 0, 1, 3 ], "texture": "#texture", "rotation": 270 },
				"up": { "uv": [ 0, 0, 1, 3 ], "texture": "#texture", "rotation": 180 },
				"north": { "uv": [ 1, 0, 0, 3 ], "texture": "#texture", "rotation": 270 },
				"south": { "uv": [ 1, 0, 0, 3 ], "texture": "#texture", "rotation": 270 },
				"west": { "uv": [ 0, 3, 1, 0 ], "texture": "#texture", "rotation": 270 },
				"east": { "uv": [ 1, 0, 0, 3 ], "texture": "#texture", "rotation": 270 }
			}
		},
		{
			"__comment": "Box3",
			"from": [ 5.5, -8.5, 11 ],
			"to": [ 10.5, 2.5, 21 ],
			"faces": {
				"down": { "uv": [ 0, 3, 1, 9 ], "texture": "#texture" },
				"up": { "uv": [ 0, 3, 1, 9 ], "texture": "#texture" },
				"north": { "uv": [ 0, 3, 1, 9 ], "texture": "#texture" },
				"south": { "uv": [ 0, 3, 1, 9 ], "texture": "#texture" },
				"west": { "uv": [ 0, 3, 6, 9 ], "texture": "#texture" },
				"east": { "uv": [ 0, 3, 6, 9 ], "texture": "#texture" }
			}
		},
		{
			"__comment": "Box3",
			"from": [ 5.5, -8.5, -11.5 ],
			"to": [ 10.5, 2.5, -1.5 ],
			"faces": {
				"down": { "uv": [ 0, 3, 1, 9 ], "texture": "#texture" },
				"up": { "uv": [ 0, 3, 1, 9 ], "texture": "#texture" },
				"north": { "uv": [ 0, 3, 1, 9 ], "texture": "#texture" },
				"south": { "uv": [ 0, 3, 1, 9 ], "texture": "#texture" },
				"west": { "uv": [ 0, 3, 6, 9 ], "texture": "#texture" },
				"east": { "uv": [ 0, 3, 6, 9 ], "texture": "#texture" }
			}
		},
		{
			"__comment": "Box14",
			"from": [ 4.5, -5, -1.5 ],
			"to": [ 11.5, 5.5, 11 ],
			"faces": {
				"down": { "uv": [ 2, 0, 3, 3 ], "texture": "#texture" },
				"up": { "uv": [ 2, 0, 3, 3 ], "texture": "#texture" },
				"north": { "uv": [ 6, 0, 7, 5 ], "texture": "#texture" },
				"south": { "uv": [ 6, 0, 7, 5 ], "texture": "#texture" },
				"west": { "uv": [ 6, 0, 12, 5 ], "texture": "#texture" },
				"east": { "uv": [ 12, 0, 6, 5 ], "texture": "#texture" }
			}
		},
		{
			"__comment": "Box15",
			"from": [ 4, -4.5, 11 ],
			"to": [ 12, -1, 18 ],
			"faces": {
				"down": { "uv": [ 2, 0, 3, 3 ], "texture": "#texture" },
				"up": { "uv": [ 2, 0, 3, 3 ], "texture": "#texture" },
				"north": { "uv": [ 2, 0, 3, 3 ], "texture": "#texture" },
				"south": { "uv": [ 2, 0, 3, 3 ], "texture": "#texture" },
				"west": { "uv": [ 2, 0, 3, 3 ], "texture": "#texture" },
				"east": { "uv": [ 2, 0, 3, 3 ], "texture": "#texture" }
			}
		},
		{
			"__comment": "Box15",
			"from": [ 4, -5, -6.5 ],
			"to": [ 12, -1.5, 7 ],
			"rotation": { "origin": [ 4, -5, -6.5 ], "axis": "x", "angle": -45 },
			"faces": {
				"down": { "uv": [ 2, 0, 3, 3 ], "texture": "#texture" },
				"up": { "uv": [ 2, 3, 3, 0 ], "texture": "#texture" },
				"north": { "uv": [ 2, 0, 3, 3 ], "texture": "#texture" },
				"south": { "uv": [ 2, 0, 3, 3 ], "texture": "#texture" },
				"west": { "uv": [ 3, 3, 2, 0 ], "texture": "#texture", "rotation": 270 },
				"east": { "uv": [ 2, 0, 3, 3 ], "texture": "#texture", "rotation": 270 }
			}
		},
		{
			"__comment": "Box15",
			"from": [ 4, 2.3536, -6.6464 ],
			"to": [ 12, 15.8536, -4.1464 ],
			"rotation": { "origin": [ 4, 2, -4 ], "axis": "x", "angle": 22.5 },
			"faces": {
				"down": { "uv": [ 3, 3, 2, 0 ], "texture": "#texture" },
				"up": { "uv": [ 2, 0, 3, 3 ], "texture": "#texture" },
				"north": { "uv": [ 3, 0, 2, 3 ], "texture": "#texture" },
				"south": { "uv": [ 2, 0, 3, 3 ], "texture": "#texture" },
				"west": { "uv": [ 2, 3, 3, 0 ], "texture": "#texture", "rotation": 180 },
				"east": { "uv": [ 2, 0, 3, 3 ], "texture": "#texture" }
			}
		},
		{
			"__comment": "Box8",
			"from": [ 1, 12, -0.5 ],
			"to": [ 15, 14, 1.5 ],
			"faces": {
				"down": { "uv": [ 6, 5, 15, 6 ], "texture": "#texture" },
				"up": { "uv": [ 6, 5, 15, 6 ], "texture": "#texture" },
				"north": { "uv": [ 6, 5, 15, 6 ], "texture": "#texture" },
				"south": { "uv": [ 6, 5, 15, 6 ], "texture": "#texture" },
				"west": { "uv": [ 6, 5, 6.5, 6 ], "texture": "#texture" },
				"east": { "uv": [ 6, 5, 7, 6 ], "texture": "#texture" }
			}
		},
		{
			"__comment": "Box9",
			"from": [ 5.5, 6.5, -5.5 ],
			"to": [ 10.5, 11.5, -3 ],
			"faces": {
				"down": { "uv": [ 2, 0, 3, 3 ], "texture": "#texture" },
				"up": { "uv": [ 2, 0, 3, 3 ], "texture": "#texture" },
				"north": { "uv": [ 3, 0, 6, 3 ], "texture": "#texture" },
				"south": { "uv": [ 3, 0, 6, 3 ], "texture": "#texture" },
				"west": { "uv": [ 2, 0, 3, 3 ], "texture": "#texture" },
				"east": { "uv": [ 2, 0, 3, 3 ], "texture": "#texture" }
			}
		}
	], 
    "display": {
		"thirdperson_righthand": {
			"rotation":  [ 53, 0, 0 ],
			"translation":  [ 1.4, 0, 0 ],
			"scale":  [ 0.4, 0.4, 0.4 ]
		},
		"thirdperson_lefthand": {
			"rotation":  [ 53, 0, 0 ],
			"translation":  [ 1.4, 0, 0 ],
			"scale":  [ 0.4, 0.4, 0.4 ]
		},
		"firstperson_righthand": {
			"scale":  [ 0.3, 0.3, 0.3 ]
		},
		"firstperson_lefthand": {
			"scale":  [ 0.3, 0.3, 0.3 ]
		},
		"gui": {
			"rotation":  [ 25, -145, 0 ],
			"translation":  [ -1.5, 1.5, 5 ],
			"scale":  [ 0.6, 0.6, 0.6 ]
		},
		"ground": {
			"translation":  [ 0, 4, 0 ],
			"scale":  [ 0.5, 0.5, 0.5 ]
		},
		"fixed": {
			"rotation":  [ -90, 0, 0 ],
			"translation":  [ 0, 0, -16 ],
			"scale":  [ 1.1, 1.1, 1.1 ]
		}
	}
}