{
	"__comment": "Designed by Maiiwakizashi with Cubik Studio - https://cubik.studio",
	"textures": {
		"texture": "maii:pet/carv05"
	},
	"elements": [ 	 
		{
			"__comment": "Box1",
			"from": [ 0, -5.5, 2 ],
			"to": [ 16, 2.5, 22.5 ],
			"faces": {
				"down": { "uv": [ 0, 3, 1, 4 ], "texture": "#texture" },
				"up": { "uv": [ 0, 3, 1, 4 ], "texture": "#texture" },
				"north": { "uv": [ 7, 6, 8, 8 ], "texture": "#texture" },
				"south": { "uv": [ 7, 6, 8, 8 ], "texture": "#texture" },
				"west": { "uv": [ 7, 6, 8, 8 ], "texture": "#texture" },
				"east": { "uv": [ 8, 6, 7, 8 ], "texture": "#texture" }
			}
		},
		{
			"__comment": "Box2",
			"from": [ 3, 6.5, 11 ],
			"to": [ 13, 8.5, 22.5 ],
			"faces": {
				"down": { "uv": [ 11, 0, 12, 3 ], "texture": "#texture" },
				"up": { "uv": [ 11, 0, 12, 3 ], "texture": "#texture", "rotation": 270 },
				"north": { "uv": [ 11, 0, 12, 3 ], "texture": "#texture" },
				"south": { "uv": [ 11, 0, 12, 3 ], "texture": "#texture" },
				"west": { "uv": [ 12, 0, 11, 3 ], "texture": "#texture" },
				"east": { "uv": [ 11, 0, 12, 3 ], "texture": "#texture" }
			}
		},
		{
			"__comment": "Box3",
			"from": [ -4, -9, 1 ],
			"to": [ 0, -2, 8 ],
			"faces": {
				"down": { "uv": [ 0, 3, 0.5, 9 ], "texture": "#texture" },
				"up": { "uv": [ 0, 3, 0.5, 9 ], "texture": "#texture" },
				"north": { "uv": [ 0, 3, 0.5, 9 ], "texture": "#texture" },
				"south": { "uv": [ 0, 3, 0.5, 9 ], "texture": "#texture" },
				"west": { "uv": [ 0, 3, 6, 9 ], "texture": "#texture" },
				"east": { "uv": [ 0, 3, 6, 9 ], "texture": "#texture" }
			}
		},
		{
			"__comment": "Box3",
			"from": [ -4, -9, 16 ],
			"to": [ 0, 1, 25.5 ],
			"faces": {
				"down": { "uv": [ 0, 3, 0.5, 9 ], "texture": "#texture" },
				"up": { "uv": [ 0, 3, 0.5, 9 ], "texture": "#texture" },
				"north": { "uv": [ 0, 3, 0.5, 9 ], "texture": "#texture" },
				"south": { "uv": [ 0, 3, 0.5, 9 ], "texture": "#texture" },
				"west": { "uv": [ 0, 3, 6, 9 ], "texture": "#texture" },
				"east": { "uv": [ 0, 3, 6, 9 ], "texture": "#texture" }
			}
		},
		{
			"__comment": "Box1",
			"from": [ -2, 2.5, 3.5 ],
			"to": [ 18, 6.5, 26 ],
			"faces": {
				"down": { "uv": [ 0, 0, 5.5, 0.5 ], "texture": "#texture" },
				"up": { "uv": [ 0, 0, 5.5, 0.5 ], "texture": "#texture" },
				"north": { "uv": [ 0, 0, 6, 3 ], "texture": "#texture" },
				"south": { "uv": [ 0, 0, 6, 3 ], "texture": "#texture" },
				"west": { "uv": [ 0, 0, 6, 3 ], "texture": "#texture" },
				"east": { "uv": [ 6, 0, 0, 3 ], "texture": "#texture" }
			}
		},
		{
			"__comment": "Box9",
			"from": [ 3, 6.5, 4 ],
			"to": [ 13, 15.5, 11 ],
			"faces": {
				"down": { "uv": [ 6, 0, 10, 1 ], "texture": "#texture" },
				"up": { "uv": [ 6, 0, 10, 1 ], "texture": "#texture" },
				"north": { "uv": [ 6, 0, 10, 5 ], "texture": "#texture" },
				"south": { "uv": [ 6, 0, 7, 5 ], "texture": "#texture" },
				"west": { "uv": [ 6, 0, 10, 5 ], "texture": "#texture" },
				"east": { "uv": [ 6, 0, 10, 5 ], "texture": "#texture" }
			}
		},
		{
			"__comment": "Box10",
			"from": [ 4, -5.5, -4 ],
			"to": [ 6.5, 16, 0 ],
			"rotation": { "origin": [ 4, -5.5, -4 ], "axis": "x", "angle": 0 },
			"faces": {
				"down": { "uv": [ 10, 0, 11, 4 ], "texture": "#texture" },
				"up": { "uv": [ 10, 0, 11, 4 ], "texture": "#texture" },
				"north": { "uv": [ 10, 0, 11, 4 ], "texture": "#texture" },
				"south": { "uv": [ 10, 0, 11, 4 ], "texture": "#texture" },
				"west": { "uv": [ 10, 0, 11, 4 ], "texture": "#texture" },
				"east": { "uv": [ 10, 0, 11, 4 ], "texture": "#texture" }
			}
		},
		{
			"__comment": "Box13",
			"from": [ -1.5, -5, -1.5 ],
			"to": [ 17.5, 7, 1.5 ],
			"rotation": { "origin": [ -1.5, -5, -1.5 ], "axis": "x", "angle": 22.5 },
			"faces": {
				"down": { "uv": [ 6, 7, 7, 8 ], "texture": "#texture" },
				"up": { "uv": [ 6, 5, 7, 6 ], "texture": "#texture" },
				"north": { "uv": [ 6, 5, 13, 8 ], "texture": "#texture" },
				"south": { "uv": [ 6, 5, 13, 8 ], "texture": "#texture" },
				"west": { "uv": [ 6, 5, 7, 8 ], "texture": "#texture" },
				"east": { "uv": [ 6, 5, 7, 8 ], "texture": "#texture" }
			}
		},
		{
			"__comment": "Box3",
			"from": [ 16, -9, 1 ],
			"to": [ 20, -2, 8 ],
			"faces": {
				"down": { "uv": [ 0, 3, 0.5, 9 ], "texture": "#texture" },
				"up": { "uv": [ 0, 3, 0.5, 9 ], "texture": "#texture" },
				"north": { "uv": [ 0, 3, 0.5, 9 ], "texture": "#texture" },
				"south": { "uv": [ 0, 3, 0.5, 9 ], "texture": "#texture" },
				"west": { "uv": [ 0, 3, 6, 9 ], "texture": "#texture" },
				"east": { "uv": [ 0, 3, 6, 9 ], "texture": "#texture" }
			}
		},
		{
			"__comment": "Box3",
			"from": [ 16, -9, 16 ],
			"to": [ 20, 1, 25.5 ],
			"faces": {
				"down": { "uv": [ 0, 3, 0.5, 9 ], "texture": "#texture" },
				"up": { "uv": [ 0, 3, 0.5, 9 ], "texture": "#texture" },
				"north": { "uv": [ 0, 3, 0.5, 9 ], "texture": "#texture" },
				"south": { "uv": [ 0, 3, 0.5, 9 ], "texture": "#texture" },
				"west": { "uv": [ 0, 3, 6, 9 ], "texture": "#texture" },
				"east": { "uv": [ 0, 3, 6, 9 ], "texture": "#texture" }
			}
		},
		{
			"__comment": "Box15",
			"from": [ 0, -7, -6.5 ],
			"to": [ 16, 3, -4 ],
			"faces": {
				"down": { "uv": [ 0, 11, 6, 12 ], "texture": "#texture" },
				"up": { "uv": [ 0, 9, 6, 10 ], "texture": "#texture" },
				"north": { "uv": [ 0, 9, 6, 12 ], "texture": "#texture" },
				"south": { "uv": [ 0, 9, 6, 12 ], "texture": "#texture" },
				"west": { "uv": [ 0, 9, 1, 12 ], "texture": "#texture" },
				"east": { "uv": [ 0, 9, 1, 12 ], "texture": "#texture" }
			}
		},
		{
			"__comment": "Box10",
			"from": [ 9.5, -5.5, -4 ],
			"to": [ 12, 16, 0 ],
			"faces": {
				"down": { "uv": [ 10, 0, 11, 4 ], "texture": "#texture" },
				"up": { "uv": [ 10, 0, 11, 4 ], "texture": "#texture" },
				"north": { "uv": [ 10, 0, 11, 4 ], "texture": "#texture" },
				"south": { "uv": [ 10, 0, 11, 4 ], "texture": "#texture" },
				"west": { "uv": [ 10, 0, 11, 4 ], "texture": "#texture" },
				"east": { "uv": [ 10, 0, 11, 4 ], "texture": "#texture" }
			}
		},
		{
			"__comment": "Box10",
			"from": [ 2, -8.5, -13.5 ],
			"to": [ 4.5, -5.5, -4 ],
			"faces": {
				"down": { "uv": [ 11, 4, 10, 0 ], "texture": "#texture" },
				"up": { "uv": [ 10, 0, 11, 4 ], "texture": "#texture" },
				"north": { "uv": [ 11, 4, 10, 0 ], "texture": "#texture" },
				"south": { "uv": [ 10, 0, 11, 4 ], "texture": "#texture" },
				"west": { "uv": [ 10, 0, 11, 4 ], "texture": "#texture", "rotation": 270 },
				"east": { "uv": [ 10, 0, 11, 4 ], "texture": "#texture", "rotation": 90 }
			}
		},
		{
			"__comment": "Box10",
			"from": [ 11.5, -8.5, -13.5 ],
			"to": [ 14, -5.5, -4 ],
			"faces": {
				"down": { "uv": [ 11, 4, 10, 0 ], "texture": "#texture" },
				"up": { "uv": [ 10, 0, 11, 4 ], "texture": "#texture" },
				"north": { "uv": [ 11, 4, 10, 0 ], "texture": "#texture" },
				"south": { "uv": [ 10, 0, 11, 4 ], "texture": "#texture" },
				"west": { "uv": [ 10, 0, 11, 4 ], "texture": "#texture", "rotation": 270 },
				"east": { "uv": [ 10, 0, 11, 4 ], "texture": "#texture", "rotation": 90 }
			}
		},
		{
			"__comment": "Box20",
			"from": [ 6.5, 14, -4 ],
			"to": [ 9.5, 16, 0 ],
			"faces": {
				"down": { "uv": [ 10, 1, 11, 2 ], "texture": "#texture" },
				"up": { "uv": [ 10, 0, 11, 1 ], "texture": "#texture" },
				"north": { "uv": [ 10, 0, 11, 2 ], "texture": "#texture" },
				"south": { "uv": [ 10, 0, 11, 2 ], "texture": "#texture" },
				"west": { "uv": [ 10, 0, 11, 2 ], "texture": "#texture" },
				"east": { "uv": [ 10, 0, 11, 2 ], "texture": "#texture" }
			}
		},
		{
			"__comment": "Box3",
			"from": [ 3.5, 1, 24.5 ],
			"to": [ 13, 11, 28.5 ],
			"faces": {
				"down": { "uv": [ 0, 3, 0.5, 9 ], "texture": "#texture", "rotation": 90 },
				"up": { "uv": [ 0, 3, 0.5, 9 ], "texture": "#texture", "rotation": 270 },
				"north": { "uv": [ 0, 3, 6, 9 ], "texture": "#texture" },
				"south": { "uv": [ 0, 3, 6, 9 ], "texture": "#texture" },
				"west": { "uv": [ 0, 3, 0.5, 9 ], "texture": "#texture" },
				"east": { "uv": [ 0, 3, 0.5, 9 ], "texture": "#texture" }
			}
		}
	], 
    "display": {
		"thirdperson_righthand": {
			"rotation":  [ 53, 0, 0 ],
			"translation":  [ 1.4, 0, 0 ],
			"scale":  [ 0.4, 0.4, 0.4 ]
		},
		"thirdperson_lefthand": {
			"rotation":  [ 53, 0, 0 ],
			"translation":  [ 1.4, 0, 0 ],
			"scale":  [ 0.4, 0.4, 0.4 ]
		},
		"firstperson_righthand": {
			"scale":  [ 0.3, 0.3, 0.3 ]
		},
		"firstperson_lefthand": {
			"scale":  [ 0.3, 0.3, 0.3 ]
		},
		"gui": {
			"rotation":  [ 25, -145, 0 ],
			"translation":  [ -1.5, 1.5, 5 ],
			"scale":  [ 0.6, 0.6, 0.6 ]
		},
		"ground": {
			"translation":  [ 0, 4, 0 ],
			"scale":  [ 0.5, 0.5, 0.5 ]
		},
		"head": {
			"translation": [0, 10, -15],
			"scale": [1.5, 1.5, 1.5]
		},
		"fixed": {
			"rotation":  [ -90, 0, 0 ],
			"translation":  [ 0, 0, -16 ],
			"scale":  [ 1.1, 1.1, 1.1 ]
		}
	}
}