{
	"__comment": "Designed by Maiiwakizashi with Cubik Studio - https://cubik.studio",
	"textures": {
		"texture": "maii:pet/pet09"
	},
	"elements": [ 	 
		{
			"__comment": "Box6",
			"from": [ 4.5, -6, 6.5 ],
			"to": [ 6.5, -3.5, 9 ],
			"faces": {
				"down": { "uv": [ 4, 3, 5, 6 ], "texture": "#texture" },
				"up": { "uv": [ 4, 0, 5, 3 ], "texture": "#texture" },
				"north": { "uv": [ 4, 0, 5, 6 ], "texture": "#texture" },
				"south": { "uv": [ 4, 0, 5, 6 ], "texture": "#texture" },
				"west": { "uv": [ 4, 0, 5, 6 ], "texture": "#texture" },
				"east": { "uv": [ 4, 0, 5, 6 ], "texture": "#texture" }
			}
		},
		{
			"__comment": "Box11",
			"from": [ 3.5, -3.5, 4 ],
			"to": [ 12.5, 3, 11.5 ],
			"faces": {
				"down": { "uv": [ 5, 0, 2, 7 ], "texture": "#texture" },
				"up": { "uv": [ 2.5, 0, 5, 7 ], "texture": "#texture", "rotation": 180 },
				"north": { "uv": [ 2.5, 0, 5, 7 ], "texture": "#texture" },
				"south": { "uv": [ 2.5, 0, 4.5, 7 ], "texture": "#texture" },
				"west": { "uv": [ 2, 0, 5, 7 ], "texture": "#texture" },
				"east": { "uv": [ 5, 0, 2, 7 ], "texture": "#texture" }
			}
		},
		{
			"__comment": "Box6",
			"from": [ 9.5, -6, 6.5 ],
			"to": [ 11.5, -3.5, 9 ],
			"faces": {
				"down": { "uv": [ 4, 3, 5, 6 ], "texture": "#texture" },
				"up": { "uv": [ 4, 0, 5, 3 ], "texture": "#texture" },
				"north": { "uv": [ 4, 0, 5, 6 ], "texture": "#texture" },
				"south": { "uv": [ 4, 0, 5, 6 ], "texture": "#texture" },
				"west": { "uv": [ 4, 0, 5, 6 ], "texture": "#texture" },
				"east": { "uv": [ 4, 0, 5, 6 ], "texture": "#texture" }
			}
		},
		{
			"__comment": "Box9",
			"from": [ 2, -7, 2 ],
			"to": [ 7, -6, 9 ],
			"faces": {
				"down": { "uv": [ 0, 7, 1, 9 ], "texture": "#texture" },
				"up": { "uv": [ 0, 7, 1, 9 ], "texture": "#texture" },
				"north": { "uv": [ 0, 7, 1, 9 ], "texture": "#texture" },
				"south": { "uv": [ 0, 7, 1, 9 ], "texture": "#texture" },
				"west": { "uv": [ 0, 7, 1, 9 ], "texture": "#texture" },
				"east": { "uv": [ 0, 7, 1, 9 ], "texture": "#texture" }
			}
		},
		{
			"__comment": "Box10",
			"from": [ 6.5, 2, 11.5 ],
			"to": [ 9.5, 3, 15.5 ],
			"rotation": { "origin": [ 6.5, 2, 11.5 ], "axis": "x", "angle": -45 },
			"faces": {
				"down": { "uv": [ 2, 0, 5, 4 ], "texture": "#texture" },
				"up": { "uv": [ 2, 0, 5, 4 ], "texture": "#texture" },
				"north": { "uv": [ 2, 4, 5, 5 ], "texture": "#texture" },
				"south": { "uv": [ 2, 4, 5, 5 ], "texture": "#texture" },
				"west": { "uv": [ 1.5, 4.5, 5.5, 5.5 ], "texture": "#texture" },
				"east": { "uv": [ 1.5, 4.5, 5.5, 5.5 ], "texture": "#texture" }
			}
		},
		{
			"__comment": "Box11",
			"from": [ 2, 3, -5.5 ],
			"to": [ 14, 15, 6.5 ],
			"faces": {
				"down": { "uv": [ 0, 6, 7, 7 ], "texture": "#texture" },
				"up": { "uv": [ 0, 0, 7, 1 ], "texture": "#texture" },
				"north": { "uv": [ 0, 0, 7, 7 ], "texture": "#texture" },
				"south": { "uv": [ 2, 0, 5, 7 ], "texture": "#texture" },
				"west": { "uv": [ 2, 0, 5, 7 ], "texture": "#texture" },
				"east": { "uv": [ 2, 0, 5, 7 ], "texture": "#texture" }
			}
		},
		{
			"__comment": "Box12",
			"from": [ 5, 4, -10.5 ],
			"to": [ 11, 6, -5.5 ],
			"faces": {
				"down": { "uv": [ 0, 8, 1, 9 ], "texture": "#texture" },
				"up": { "uv": [ 0, 7, 1, 8 ], "texture": "#texture" },
				"north": { "uv": [ 0, 7, 1, 9 ], "texture": "#texture" },
				"south": { "uv": [ 0, 7, 1, 9 ], "texture": "#texture" },
				"west": { "uv": [ 0, 7, 1, 9 ], "texture": "#texture" },
				"east": { "uv": [ 0, 7, 1, 9 ], "texture": "#texture" }
			}
		},
		{
			"__comment": "Box13",
			"from": [ -1, 0, 5 ],
			"to": [ 3.5, 1, 9 ],
			"faces": {
				"down": { "uv": [ 2, 3, 5, 7 ], "texture": "#texture" },
				"up": { "uv": [ 2, 3, 5, 7 ], "texture": "#texture" },
				"north": { "uv": [ 0, 6, 3.5, 7 ], "texture": "#texture" },
				"south": { "uv": [ 0, 6, 3.5, 7 ], "texture": "#texture" },
				"west": { "uv": [ 0, 6, 4, 7 ], "texture": "#texture" },
				"east": { "uv": [ 0, 6, 4, 7 ], "texture": "#texture" }
			}
		},
		{
			"__comment": "Box13",
			"from": [ 12.5, 0, 5 ],
			"to": [ 17, 1, 9 ],
			"faces": {
				"down": { "uv": [ 2, 3, 5, 7 ], "texture": "#texture" },
				"up": { "uv": [ 2, 3, 5, 7 ], "texture": "#texture" },
				"north": { "uv": [ 0, 6, 3.5, 7 ], "texture": "#texture" },
				"south": { "uv": [ 0, 6, 3.5, 7 ], "texture": "#texture" },
				"west": { "uv": [ 0, 6, 4, 7 ], "texture": "#texture" },
				"east": { "uv": [ 0, 6, 4, 7 ], "texture": "#texture" }
			}
		},
		{
			"__comment": "Box9",
			"from": [ 9, -7, 2 ],
			"to": [ 14, -6, 9 ],
			"faces": {
				"down": { "uv": [ 0, 7, 1, 9 ], "texture": "#texture" },
				"up": { "uv": [ 0, 7, 1, 9 ], "texture": "#texture" },
				"north": { "uv": [ 0, 7, 1, 9 ], "texture": "#texture" },
				"south": { "uv": [ 0, 7, 1, 9 ], "texture": "#texture" },
				"west": { "uv": [ 0, 7, 1, 9 ], "texture": "#texture" },
				"east": { "uv": [ 0, 7, 1, 9 ], "texture": "#texture" }
			}
		}
	],
	"display": {
		"thirdperson_righthand": {
			"rotation":  [ 53, 0, 0 ],
			"translation":  [ 1.4, 0, 0 ],
			"scale":  [ 0.4, 0.4, 0.4 ]
		},
		"thirdperson_lefthand": {
			"rotation":  [ 53, 0, 0 ],
			"translation":  [ 1.4, 0, 0 ],
			"scale":  [ 0.4, 0.4, 0.4 ]
		},
		"firstperson_righthand": {
			"scale":  [ 0.3, 0.3, 0.3 ]
		},
		"firstperson_lefthand": {
			"scale":  [ 0.3, 0.3, 0.3 ]
		},
		"gui": {
			"rotation":  [ 25, -145, 0 ],
			"translation":  [ -1.5, 1.5, 5 ],
			"scale":  [ 0.6, 0.6, 0.6 ]
		},
		"ground": {
			"translation":  [ 0, 4, 0 ],
			"scale":  [ 0.5, 0.5, 0.5 ]
		},
		"fixed": {
			"rotation":  [ -90, 0, 0 ],
			"translation":  [ 0, 0, -16 ],
			"scale":  [ 1.1, 1.1, 1.1 ]
		}
	}
}