{
    "__comment": "maii cute story", 
    "textures": {
        "main": "maii:pet/pet01"
    }, 
    "elements": [
        {
            "__comment": "Box1", 
            "from": [ -0.1511, 3.1044, -7.0344 ], 
            "to":   [ 16.35994, 17.96434, 7.825536 ], 
            "faces": {
                "down":  { "uv": [ 0, 0, 2.5, 2.5 ], "texture": "#main" }, 
                "up":    { "uv": [ 0, 0, 2.5, 2.5 ], "texture": "#main" }, 
                "north": { "uv": [ 2.5, 0, 5, 2.5 ], "texture": "#main" }, 
                "south": { "uv": [ 0, 0, 2.5, 2.5 ], "texture": "#main" }, 
                "west":  { "uv": [ 2.5, 0, 0, 2.5 ], "texture": "#main" }, 
                "east":  { "uv": [ 0, 0, 2.5, 2.5 ], "texture": "#main" }
            }
        }, 
        {
            "__comment": "Box2", 
            "from": [ 4.8022, -5.1511, 4.5233 ], 
            "to":   [ 11.40662, 3.10442, 14.42992 ], 
            "faces": {
                "down":  { "uv": [ 4, 5, 6, 8 ], "texture": "#main" }, 
                "up":    { "uv": [ 4, 5, 6, 8 ], "texture": "#main" }, 
                "north": { "uv": [ 4, 5.5, 6, 8 ], "texture": "#main" }, 
                "south": { "uv": [ 4, 5.5, 6, 8 ], "texture": "#main" }, 
                "west":  { "uv": [ 1, 5.5, 4, 8 ], "texture": "#main" }, 
                "east":  { "uv": [ 4, 5.5, 1, 8 ], "texture": "#main" }
            }
        }, 
        {
            "__comment": "Box3", 
            "from": [ 8.0137, 1.29, 12.4704 ], 
            "to":   [ 12.5497, 5.826, 17.0064 ], 
            "rotation": { "origin": [8.013697, 1.290016, 12.47042], "axis": "y", "angle": -45 }, 
            "faces": {
                "down":  { "uv": [ 5.5, 2.5, 7, 4 ], "texture": "#main" }, 
                "up":    { "uv": [ 5.5, 2.5, 7, 4 ], "texture": "#main" }, 
                "north": { "uv": [ 5.5, 1, 7, 2.5 ], "texture": "#main" }, 
                "south": { "uv": [ 5.5, 1, 7, 2.5 ], "texture": "#main" }, 
                "west":  { "uv": [ 5.5, 1, 7, 2.5 ], "texture": "#main" }, 
                "east":  { "uv": [ 5.5, 1, 7, 2.5 ], "texture": "#main" }
            }
        }, 
        {
            "__comment": "Box4", 
            "from": [ 1.5, -3.5, 7 ], 
            "to":   [ 4.802208, 3.104416, 15.25552 ], 
            "rotation": { "origin": [1.5, -3.5, 7], "axis": "x", "angle": 22.5 }, 
            "faces": {
                "down":  { "uv": [ 0.75, 2.5, 1.75, 5 ], "texture": "#main" }, 
                "up":    { "uv": [ 0.75, 2.5, 1.75, 5 ], "texture": "#main" }, 
                "north": { "uv": [ 1.75, 2.5, 2.75, 4.5 ], "texture": "#main" }, 
                "south": { "uv": [ 1.75, 2.5, 2.75, 4.5 ], "texture": "#main" }, 
                "west":  { "uv": [ 2.75, 2.5, 5.25, 4.5 ], "texture": "#main" }, 
                "east":  { "uv": [ 2.75, 2.5, 5.25, 4.5 ], "texture": "#main" }
            }
        }, 
        {
            "__comment": "Box6", 
            "from": [ 3.1511, -6.8022, 1.2211 ], 
            "to":   [ 6.453308, 3.104423, 4.523308 ], 
            "faces": {
                "down":  { "uv": [ 0, 5.25, 1, 8 ], "texture": "#main" }, 
                "up":    { "uv": [ 0, 5.25, 1, 8 ], "texture": "#main" }, 
                "north": { "uv": [ 0, 5.25, 1, 8 ], "texture": "#main" }, 
                "south": { "uv": [ 0, 5.25, 1, 8 ], "texture": "#main" }, 
                "west":  { "uv": [ 0, 5.25, 1, 8 ], "texture": "#main" }, 
                "east":  { "uv": [ 0, 5.25, 1, 8 ], "texture": "#main" }
            }
        }, 
        {
            "__comment": "Box8", 
            "from": [ -0.1511, -6.8022, 9.4767 ], 
            "to":   [ 3.151108, -3.499992, 14.43001 ], 
            "faces": {
                "down":  { "uv": [ 7, 0, 8, 1.5 ], "texture": "#main" }, 
                "up":    { "uv": [ 7, 0, 8, 1.5 ], "texture": "#main" }, 
                "north": { "uv": [ 7, 1.5, 8, 2.5 ], "texture": "#main" }, 
                "south": { "uv": [ 7, 1.5, 8, 2.5 ], "texture": "#main" }, 
                "west":  { "uv": [ 5.5, 0, 7, 1 ], "texture": "#main" }, 
                "east":  { "uv": [ 5.5, 0, 7, 1 ], "texture": "#main" }
            }
        }, 
        {
            "__comment": "Box10", 
            "from": [ 1.6489, 17.9544, 0.1656 ], 
            "to":   [ 6.602211, 29.51213, 2.642256 ], 
            "faces": {
                "down":  { "uv": [ 0.5, 2.5, 0.75, 2.75 ], "texture": "#main" }, 
                "up":    { "uv": [ 0.5, 2.5, 0.75, 2.75 ], "texture": "#main" }, 
                "north": { "uv": [ 0, 2.5, 0.75, 4.25 ], "texture": "#main" }, 
                "south": { "uv": [ 0.5, 2.5, 0.75, 4.25 ], "texture": "#main" }, 
                "west":  { "uv": [ 0.5, 2.5, 0.75, 4.25 ], "texture": "#main" }, 
                "east":  { "uv": [ 0.5, 2.5, 0.75, 4.25 ], "texture": "#main" }
            }
        }, 
        {
            "__comment": "Box10", 
            "from": [ 9.748899, 17.9544, 0.1656 ], 
            "to":   [ 14.70221, 29.51213, 2.642256 ], 
            "rotation": { "origin": [9.748896, 17.95441, 0.165617], "axis": "x", "angle": 0 }, 
            "faces": {
                "down":  { "uv": [ 0.5, 2.5, 0.75, 2.75 ], "texture": "#main" }, 
                "up":    { "uv": [ 0.5, 2.5, 0.75, 2.75 ], "texture": "#main" }, 
                "north": { "uv": [ 0, 2.5, 0.75, 4.25 ], "texture": "#main" }, 
                "south": { "uv": [ 0.5, 2.5, 0.75, 4.25 ], "texture": "#main" }, 
                "west":  { "uv": [ 0.5, 2.5, 0.75, 4.25 ], "texture": "#main" }, 
                "east":  { "uv": [ 0.5, 2.5, 0.75, 4.25 ], "texture": "#main" }
            }
        }, 
        {
            "__comment": "Box6", 
            "from": [ 9.7555, -6.8022, 1.2211 ], 
            "to":   [ 13.05771, 3.104423, 4.523308 ], 
            "faces": {
                "down":  { "uv": [ 0, 5.25, 1, 8 ], "texture": "#main" }, 
                "up":    { "uv": [ 0, 5.25, 1, 8 ], "texture": "#main" }, 
                "north": { "uv": [ 0, 5.25, 1, 8 ], "texture": "#main" }, 
                "south": { "uv": [ 0, 5.25, 1, 8 ], "texture": "#main" }, 
                "west":  { "uv": [ 0, 5.25, 1, 8 ], "texture": "#main" }, 
                "east":  { "uv": [ 0, 5.25, 1, 8 ], "texture": "#main" }
            }
        }, 
        {
            "__comment": "Box8", 
            "from": [ 13.0577, -6.8022, 9.4767 ], 
            "to":   [ 16.35991, -3.499992, 14.43001 ], 
            "faces": {
                "down":  { "uv": [ 7, 0, 8, 1.5 ], "texture": "#main" }, 
                "up":    { "uv": [ 7, 0, 8, 1.5 ], "texture": "#main" }, 
                "north": { "uv": [ 7, 1.5, 8, 2.5 ], "texture": "#main" }, 
                "south": { "uv": [ 7, 1.5, 8, 2.5 ], "texture": "#main" }, 
                "west":  { "uv": [ 5.5, 0, 7, 1 ], "texture": "#main" }, 
                "east":  { "uv": [ 5.5, 0, 7, 1 ], "texture": "#main" }
            }
        }, 
        {
            "__comment": "Box4", 
            "from": [ 11.4066, -3.5, 7 ], 
            "to":   [ 14.70881, 3.104416, 15.25552 ], 
            "rotation": { "origin": [11.40662, -3.5, 7], "axis": "x", "angle": 22.5 }, 
            "faces": {
                "down":  { "uv": [ 0.75, 2.5, 1.75, 5 ], "texture": "#main" }, 
                "up":    { "uv": [ 0.75, 2.5, 1.75, 5 ], "texture": "#main" }, 
                "north": { "uv": [ 1.75, 2.5, 2.75, 4.5 ], "texture": "#main" }, 
                "south": { "uv": [ 1.75, 2.5, 2.75, 4.5 ], "texture": "#main" }, 
                "west":  { "uv": [ 2.75, 2.5, 5.25, 4.5 ], "texture": "#main" }, 
                "east":  { "uv": [ 2.75, 2.5, 5.25, 4.5 ], "texture": "#main" }
            }
        }, 
        {
            "__comment": "Box1", 
            "from": [ -0.1511, 3.1044, -7.0344 ], 
            "to":   [ 16.35994, 17.96434, 7.825536 ], 
            "faces": {
                "down":  { "uv": [ 8, 0, 10.5, 2.5 ], "texture": "#main" }, 
                "up":    { "uv": [ 8, 0, 10.5, 2.5 ], "texture": "#main" }, 
                "north": { "uv": [ 10.5, 0, 13, 2.5 ], "texture": "#main" }, 
                "south": { "uv": [ 8, 0, 10.5, 2.5 ], "texture": "#main" }, 
                "west":  { "uv": [ 10.5, 0, 8, 2.5 ], "texture": "#main" }, 
                "east":  { "uv": [ 8, 0, 10.5, 2.5 ], "texture": "#main" }
            }
        }, 
        {
            "__comment": "Box2", 
            "from": [ 4.8022, -5.1511, 4.5233 ], 
            "to":   [ 11.40662, 3.10442, 14.42992 ], 
            "faces": {
                "down":  { "uv": [ 12, 5, 14, 8 ], "texture": "#main" }, 
                "up":    { "uv": [ 12, 5, 14, 8 ], "texture": "#main" }, 
                "north": { "uv": [ 12, 5.5, 14, 8 ], "texture": "#main" }, 
                "south": { "uv": [ 12, 5.5, 14, 8 ], "texture": "#main" }, 
                "west":  { "uv": [ 9, 5.5, 12, 8 ], "texture": "#main" }, 
                "east":  { "uv": [ 12, 5.5, 9, 8 ], "texture": "#main" }
            }
        }, 
        {
            "__comment": "Box3", 
            "from": [ 8.0137, 1.29, 12.4704 ], 
            "to":   [ 12.5497, 5.826, 17.0064 ], 
            "rotation": { "origin": [8.013697, 1.290016, 12.47042], "axis": "y", "angle": -22.5 }, 
            "faces": {
                "down":  { "uv": [ 13.5, 2.5, 15, 4 ], "texture": "#main" }, 
                "up":    { "uv": [ 13.5, 2.5, 15, 4 ], "texture": "#main" }, 
                "north": { "uv": [ 13.5, 1, 15, 2.5 ], "texture": "#main" }, 
                "south": { "uv": [ 13.5, 1, 15, 2.5 ], "texture": "#main" }, 
                "west":  { "uv": [ 13.5, 1, 15, 2.5 ], "texture": "#main" }, 
                "east":  { "uv": [ 13.5, 1, 15, 2.5 ], "texture": "#main" }
            }
        }, 
        {
            "__comment": "Box4", 
            "from": [ 1.5, -3.5, 7 ], 
            "to":   [ 4.802208, 3.104416, 15.25552 ], 
            "rotation": { "origin": [1.5, -3.5, 7], "axis": "x", "angle": 22.5 }, 
            "faces": {
                "down":  { "uv": [ 8.75, 2.5, 9.75, 5 ], "texture": "#main" }, 
                "up":    { "uv": [ 8.75, 2.5, 9.75, 5 ], "texture": "#main" }, 
                "north": { "uv": [ 9.75, 2.5, 10.75, 4.5 ], "texture": "#main" }, 
                "south": { "uv": [ 9.75, 2.5, 10.75, 4.5 ], "texture": "#main" }, 
                "west":  { "uv": [ 10.75, 2.5, 13.25, 4.5 ], "texture": "#main" }, 
                "east":  { "uv": [ 10.75, 2.5, 13.25, 4.5 ], "texture": "#main" }
            }
        }, 
        {
            "__comment": "Box6", 
            "from": [ 3.1511, -6.8022, 1.2211 ], 
            "to":   [ 6.453308, 3.104423, 4.523308 ], 
            "faces": {
                "down":  { "uv": [ 8, 5.25, 9, 8 ], "texture": "#main" }, 
                "up":    { "uv": [ 8, 5.25, 9, 8 ], "texture": "#main" }, 
                "north": { "uv": [ 8, 5.25, 9, 8 ], "texture": "#main" }, 
                "south": { "uv": [ 8, 5.25, 9, 8 ], "texture": "#main" }, 
                "west":  { "uv": [ 8, 5.25, 9, 8 ], "texture": "#main" }, 
                "east":  { "uv": [ 8, 5.25, 9, 8 ], "texture": "#main" }
            }
        }, 
        {
            "__comment": "Box8", 
            "from": [ -0.1511, -6.8022, 9.4767 ], 
            "to":   [ 3.151108, -3.499992, 14.43001 ], 
            "faces": {
                "down":  { "uv": [ 15, 0, 16, 1.5 ], "texture": "#main" }, 
                "up":    { "uv": [ 15, 0, 16, 1.5 ], "texture": "#main" }, 
                "north": { "uv": [ 15, 1.5, 16, 2.5 ], "texture": "#main" }, 
                "south": { "uv": [ 15, 1.5, 16, 2.5 ], "texture": "#main" }, 
                "west":  { "uv": [ 13.5, 0, 15, 1 ], "texture": "#main" }, 
                "east":  { "uv": [ 13.5, 0, 15, 1 ], "texture": "#main" }
            }
        }, 
        {
            "__comment": "Box10", 
            "from": [ 1.6489, 17.9544, 0.1656 ], 
            "to":   [ 6.602211, 29.51213, 2.642256 ], 
            "rotation": { "origin": [1.648896, 17.95441, 0.165617], "axis": "x", "angle": -22.5 }, 
            "faces": {
                "down":  { "uv": [ 8.5, 2.5, 8.75, 2.75 ], "texture": "#main" }, 
                "up":    { "uv": [ 8.5, 2.5, 8.75, 2.75 ], "texture": "#main" }, 
                "north": { "uv": [ 8, 2.5, 8.75, 4.25 ], "texture": "#main" }, 
                "south": { "uv": [ 8.5, 2.5, 8.75, 4.25 ], "texture": "#main" }, 
                "west":  { "uv": [ 8.5, 2.5, 8.75, 4.25 ], "texture": "#main" }, 
                "east":  { "uv": [ 8.5, 2.5, 8.75, 4.25 ], "texture": "#main" }
            }
        }, 
        {
            "__comment": "Box10", 
            "from": [ 9.748899, 17.9544, 0.1656 ], 
            "to":   [ 14.70221, 29.51213, 2.642256 ], 
            "rotation": { "origin": [9.748896, 17.95441, 0.165617], "axis": "x", "angle": 22.5 }, 
            "faces": {
                "down":  { "uv": [ 8.5, 2.5, 8.75, 2.75 ], "texture": "#main" }, 
                "up":    { "uv": [ 8.5, 2.5, 8.75, 2.75 ], "texture": "#main" }, 
                "north": { "uv": [ 8, 2.5, 8.75, 4.25 ], "texture": "#main" }, 
                "south": { "uv": [ 8.5, 2.5, 8.75, 4.25 ], "texture": "#main" }, 
                "west":  { "uv": [ 8.5, 2.5, 8.75, 4.25 ], "texture": "#main" }, 
                "east":  { "uv": [ 8.5, 2.5, 8.75, 4.25 ], "texture": "#main" }
            }
        }, 
        {
            "__comment": "Box6", 
            "from": [ 9.7555, -6.8022, 1.2211 ], 
            "to":   [ 13.05771, 3.104423, 4.523308 ], 
            "faces": {
                "down":  { "uv": [ 8, 5.25, 9, 8 ], "texture": "#main" }, 
                "up":    { "uv": [ 8, 5.25, 9, 8 ], "texture": "#main" }, 
                "north": { "uv": [ 8, 5.25, 9, 8 ], "texture": "#main" }, 
                "south": { "uv": [ 8, 5.25, 9, 8 ], "texture": "#main" }, 
                "west":  { "uv": [ 8, 5.25, 9, 8 ], "texture": "#main" }, 
                "east":  { "uv": [ 8, 5.25, 9, 8 ], "texture": "#main" }
            }
        }, 
        {
            "__comment": "Box8", 
            "from": [ 13.0577, -6.8022, 9.4767 ], 
            "to":   [ 16.35991, -3.499992, 14.43001 ], 
            "faces": {
                "down":  { "uv": [ 15, 0, 16, 1.5 ], "texture": "#main" }, 
                "up":    { "uv": [ 15, 0, 16, 1.5 ], "texture": "#main" }, 
                "north": { "uv": [ 15, 1.5, 16, 2.5 ], "texture": "#main" }, 
                "south": { "uv": [ 15, 1.5, 16, 2.5 ], "texture": "#main" }, 
                "west":  { "uv": [ 13.5, 0, 15, 1 ], "texture": "#main" }, 
                "east":  { "uv": [ 13.5, 0, 15, 1 ], "texture": "#main" }
            }
        }, 
        {
            "__comment": "Box4", 
            "from": [ 11.4066, -3.5, 7 ], 
            "to":   [ 14.70881, 3.104416, 15.25552 ], 
            "rotation": { "origin": [11.40662, -3.5, 7], "axis": "x", "angle": 22.5 }, 
            "faces": {
                "down":  { "uv": [ 8.75, 2.5, 9.75, 5 ], "texture": "#main" }, 
                "up":    { "uv": [ 8.75, 2.5, 9.75, 5 ], "texture": "#main" }, 
                "north": { "uv": [ 9.75, 2.5, 10.75, 4.5 ], "texture": "#main" }, 
                "south": { "uv": [ 9.75, 2.5, 10.75, 4.5 ], "texture": "#main" }, 
                "west":  { "uv": [ 10.75, 2.5, 13.25, 4.5 ], "texture": "#main" }, 
                "east":  { "uv": [ 10.75, 2.5, 13.25, 4.5 ], "texture": "#main" }
            }
        }, 
        {
            "__comment": "Box1", 
            "from": [ -0.1511, 3.1044, -7.0344 ], 
            "to":   [ 16.35994, 17.96434, 7.825536 ], 
            "faces": {
                "down":  { "uv": [ 0, 8, 2.5, 10.5 ], "texture": "#main" }, 
                "up":    { "uv": [ 0, 8, 2.5, 10.5 ], "texture": "#main" }, 
                "north": { "uv": [ 2.5, 8, 5, 10.5 ], "texture": "#main" }, 
                "south": { "uv": [ 0, 8, 2.5, 10.5 ], "texture": "#main" }, 
                "west":  { "uv": [ 2.5, 8, 0, 10.5 ], "texture": "#main" }, 
                "east":  { "uv": [ 0, 8, 2.5, 10.5 ], "texture": "#main" }
            }
        }, 
        {
            "__comment": "Box2", 
            "from": [ 4.8022, -5.1511, 4.5233 ], 
            "to":   [ 11.40662, 3.10442, 14.42992 ], 
            "faces": {
                "down":  { "uv": [ 4, 13, 6, 16 ], "texture": "#main" }, 
                "up":    { "uv": [ 4, 13, 6, 16 ], "texture": "#main" }, 
                "north": { "uv": [ 4, 13.5, 6, 16 ], "texture": "#main" }, 
                "south": { "uv": [ 4, 13.5, 6, 16 ], "texture": "#main" }, 
                "west":  { "uv": [ 1, 13.5, 4, 16 ], "texture": "#main" }, 
                "east":  { "uv": [ 4, 13.5, 1, 16 ], "texture": "#main" }
            }
        }, 
        {
            "__comment": "Box3", 
            "from": [ 3.4777, 1.29, 12.4704 ], 
            "to":   [ 8.0137, 5.826, 17.0064 ], 
            "rotation": { "origin": [8.013697, 1.290016, 12.47042], "axis": "y", "angle": 22.5 }, 
            "faces": {
                "down":  { "uv": [ 5.5, 10.5, 7, 12 ], "texture": "#main", "rotation":270 }, 
                "up":    { "uv": [ 5.5, 10.5, 7, 12 ], "texture": "#main", "rotation":90 }, 
                "north": { "uv": [ 5.5, 9, 7, 10.5 ], "texture": "#main" }, 
                "south": { "uv": [ 5.5, 9, 7, 10.5 ], "texture": "#main" }, 
                "west":  { "uv": [ 5.5, 9, 7, 10.5 ], "texture": "#main" }, 
                "east":  { "uv": [ 5.5, 9, 7, 10.5 ], "texture": "#main" }
            }
        }, 
        {
            "__comment": "Box4", 
            "from": [ 1.5, -3.5, 7 ], 
            "to":   [ 4.802208, 3.104416, 15.25552 ], 
            "rotation": { "origin": [1.5, -3.5, 7], "axis": "x", "angle": 22.5 }, 
            "faces": {
                "down":  { "uv": [ 0.75, 10.5, 1.75, 13 ], "texture": "#main" }, 
                "up":    { "uv": [ 0.75, 10.5, 1.75, 13 ], "texture": "#main" }, 
                "north": { "uv": [ 1.75, 10.5, 2.75, 12.5 ], "texture": "#main" }, 
                "south": { "uv": [ 1.75, 10.5, 2.75, 12.5 ], "texture": "#main" }, 
                "west":  { "uv": [ 2.75, 10.5, 5.25, 12.5 ], "texture": "#main" }, 
                "east":  { "uv": [ 2.75, 10.5, 5.25, 12.5 ], "texture": "#main" }
            }
        }, 
        {
            "__comment": "Box6", 
            "from": [ 3.1511, -6.8022, 1.2211 ], 
            "to":   [ 6.453308, 3.104423, 4.523308 ], 
            "faces": {
                "down":  { "uv": [ 0, 13.25, 1, 16 ], "texture": "#main" }, 
                "up":    { "uv": [ 0, 13.25, 1, 16 ], "texture": "#main" }, 
                "north": { "uv": [ 0, 13.25, 1, 16 ], "texture": "#main" }, 
                "south": { "uv": [ 0, 13.25, 1, 16 ], "texture": "#main" }, 
                "west":  { "uv": [ 0, 13.25, 1, 16 ], "texture": "#main" }, 
                "east":  { "uv": [ 0, 13.25, 1, 16 ], "texture": "#main" }
            }
        }, 
        {
            "__comment": "Box8", 
            "from": [ -0.1511, -6.8022, 9.4767 ], 
            "to":   [ 3.151108, -3.499992, 14.43001 ], 
            "faces": {
                "down":  { "uv": [ 7, 8, 8, 9.5 ], "texture": "#main" }, 
                "up":    { "uv": [ 7, 8, 8, 9.5 ], "texture": "#main" }, 
                "north": { "uv": [ 7, 9.5, 8, 10.5 ], "texture": "#main" }, 
                "south": { "uv": [ 7, 9.5, 8, 10.5 ], "texture": "#main" }, 
                "west":  { "uv": [ 5.5, 8, 7, 9 ], "texture": "#main" }, 
                "east":  { "uv": [ 5.5, 8, 7, 9 ], "texture": "#main" }
            }
        }, 
        {
            "__comment": "Box10", 
            "from": [ 1.6489, 17.9544, 0.1656 ], 
            "to":   [ 6.602211, 29.51213, 2.642256 ], 
            "rotation": { "origin": [1.6489, 17.9544, 0.1656], "axis": "x", "angle": 22.5 }, 
            "faces": {
                "down":  { "uv": [ 0.5, 10.5, 0.75, 10.75 ], "texture": "#main" }, 
                "up":    { "uv": [ 0.5, 10.5, 0.75, 10.75 ], "texture": "#main" }, 
                "north": { "uv": [ 0, 10.5, 0.75, 12.25 ], "texture": "#main" }, 
                "south": { "uv": [ 0.5, 10.5, 0.75, 12.25 ], "texture": "#main" }, 
                "west":  { "uv": [ 0.5, 10.5, 0.75, 12.25 ], "texture": "#main" }, 
                "east":  { "uv": [ 0.5, 10.5, 0.75, 12.25 ], "texture": "#main" }
            }
        }, 
        {
            "__comment": "Box10", 
            "from": [ 9.748899, 17.9544, 0.1656 ], 
            "to":   [ 14.70221, 29.51213, 2.642256 ], 
            "rotation": { "origin": [9.748896, 17.95441, 0.165617], "axis": "x", "angle": -22.5 }, 
            "faces": {
                "down":  { "uv": [ 0.5, 10.5, 0.75, 10.75 ], "texture": "#main" }, 
                "up":    { "uv": [ 0.5, 10.5, 0.75, 10.75 ], "texture": "#main" }, 
                "north": { "uv": [ 0, 10.5, 0.75, 12.25 ], "texture": "#main" }, 
                "south": { "uv": [ 0.5, 10.5, 0.75, 12.25 ], "texture": "#main" }, 
                "west":  { "uv": [ 0.5, 10.5, 0.75, 12.25 ], "texture": "#main" }, 
                "east":  { "uv": [ 0.5, 10.5, 0.75, 12.25 ], "texture": "#main" }
            }
        }, 
        {
            "__comment": "Box6", 
            "from": [ 9.7555, -6.8022, 1.2211 ], 
            "to":   [ 13.05771, 3.104423, 4.523308 ], 
            "faces": {
                "down":  { "uv": [ 0, 13.25, 1, 16 ], "texture": "#main" }, 
                "up":    { "uv": [ 0, 13.25, 1, 16 ], "texture": "#main" }, 
                "north": { "uv": [ 0, 13.25, 1, 16 ], "texture": "#main" }, 
                "south": { "uv": [ 0, 13.25, 1, 16 ], "texture": "#main" }, 
                "west":  { "uv": [ 0, 13.25, 1, 16 ], "texture": "#main" }, 
                "east":  { "uv": [ 0, 13.25, 1, 16 ], "texture": "#main" }
            }
        }, 
        {
            "__comment": "Box8", 
            "from": [ 13.0577, -6.8022, 9.4767 ], 
            "to":   [ 16.35991, -3.499992, 14.43001 ], 
            "faces": {
                "down":  { "uv": [ 7, 8, 8, 9.5 ], "texture": "#main" }, 
                "up":    { "uv": [ 7, 8, 8, 9.5 ], "texture": "#main" }, 
                "north": { "uv": [ 7, 9.5, 8, 10.5 ], "texture": "#main" }, 
                "south": { "uv": [ 7, 9.5, 8, 10.5 ], "texture": "#main" }, 
                "west":  { "uv": [ 5.5, 8, 7, 9 ], "texture": "#main" }, 
                "east":  { "uv": [ 5.5, 8, 7, 9 ], "texture": "#main" }
            }
        }, 
        {
            "__comment": "Box4", 
            "from": [ 11.4066, -3.5, 7 ], 
            "to":   [ 14.70881, 3.104416, 15.25552 ], 
            "rotation": { "origin": [11.40662, -3.5, 7], "axis": "x", "angle": 22.5 }, 
            "faces": {
                "down":  { "uv": [ 0.75, 10.5, 1.75, 13 ], "texture": "#main" }, 
                "up":    { "uv": [ 0.75, 10.5, 1.75, 13 ], "texture": "#main" }, 
                "north": { "uv": [ 1.75, 10.5, 2.75, 12.5 ], "texture": "#main" }, 
                "south": { "uv": [ 1.75, 10.5, 2.75, 12.5 ], "texture": "#main" }, 
                "west":  { "uv": [ 2.75, 10.5, 5.25, 12.5 ], "texture": "#main" }, 
                "east":  { "uv": [ 2.75, 10.5, 5.25, 12.5 ], "texture": "#main" }
            }
        }
    ], 
    "display": {
		"thirdperson_righthand": {
			"rotation":  [ 53, 0, 0 ],
			"translation":  [ 1.4, 0, 0 ],
			"scale":  [ 0.4, 0.4, 0.4 ]
		},
		"thirdperson_lefthand": {
			"rotation":  [ 53, 0, 0 ],
			"translation":  [ 1.4, 0, 0 ],
			"scale":  [ 0.4, 0.4, 0.4 ]
		},
		"firstperson_righthand": {
			"scale":  [ 0.3, 0.3, 0.3 ]
		},
		"firstperson_lefthand": {
			"scale":  [ 0.3, 0.3, 0.3 ]
		},
		"gui": {
			"rotation":  [ 25, -145, 0 ],
			"translation":  [ -1.5, 1.5, 5 ],
			"scale":  [ 0.6, 0.6, 0.6 ]
		},
		"ground": {
			"translation":  [ 0, 4, 0 ],
			"scale":  [ 0.5, 0.5, 0.5 ]
		},
		"fixed": {
			"rotation":  [ -90, 0, 0 ],
			"translation":  [ 0, 0, -16 ],
			"scale":  [ 1.1, 1.1, 1.1 ]
		}
	}
}