{
    "__comment": "Model animated using Fizzy's model animator - http://fizzy81.github.io/animated-models/", 
    "textures": {
        "main": "maii:pet/petv09"
    }, 
    "elements": [
        {
            "__comment": "Box1", 
            "from": [ 4, 5, 3 ], 
            "to":   [ 12, 11, 13 ], 
            "faces": {
                "down":  { "uv": [ 0, 4, 0.5, 5.5 ], "texture": "#main" }, 
                "up":    { "uv": [ 0, 4, 0.5, 5.5 ], "texture": "#main" }, 
                "north": { "uv": [ 0, 4, 0.5, 5.5 ], "texture": "#main" }, 
                "south": { "uv": [ 0, 4, 0.5, 5.5 ], "texture": "#main" }, 
                "west":  { "uv": [ 0, 4, 0.5, 5.5 ], "texture": "#main" }, 
                "east":  { "uv": [ 0, 4, 0.5, 5.5 ], "texture": "#main" }
            }
        }, 
        {
            "__comment": "Box2", 
            "from": [ 3.5, 0.5, 5 ], 
            "to":   [ 6.5, 5.5, 8 ], 
            "rotation": { "origin": [3.5, 0.5, 5], "axis": "x", "angle": -22.5 }, 
            "faces": {
                "down":  { "uv": [ 0, 4, 0.5, 5.5 ], "texture": "#main" }, 
                "up":    { "uv": [ 0, 4, 0.5, 5.5 ], "texture": "#main" }, 
                "north": { "uv": [ 0, 4, 0.5, 5.5 ], "texture": "#main" }, 
                "south": { "uv": [ 0, 4, 0.5, 5.5 ], "texture": "#main" }, 
                "west":  { "uv": [ 0, 4, 0.5, 5.5 ], "texture": "#main" }, 
                "east":  { "uv": [ 0, 4, 0.5, 5.5 ], "texture": "#main" }
            }
        }, 
        {
            "__comment": "Box1", 
            "from": [ 3, 11, -1.5 ], 
            "to":   [ 13, 20, 7.5 ], 
            "faces": {
                "down":  { "uv": [ 0, 4, 0.5, 5.5 ], "texture": "#main" }, 
                "up":    { "uv": [ 0, 4, 0.5, 5.5 ], "texture": "#main" }, 
                "north": { "uv": [ 0, 0, 4, 4 ], "texture": "#main" }, 
                "south": { "uv": [ 0, 4, 0.5, 5.5 ], "texture": "#main" }, 
                "west":  { "uv": [ 0, 4, 0.5, 5.5 ], "texture": "#main" }, 
                "east":  { "uv": [ 0, 4, 0.5, 5.5 ], "texture": "#main" }
            }
        }, 
        {
            "__comment": "Box4", 
            "from": [ 3, 20, 3 ], 
            "to":   [ 6, 23, 4 ], 
            "faces": {
                "down":  { "uv": [ 0, 5, 0.5, 5.5 ], "texture": "#main" }, 
                "up":    { "uv": [ 0, 4, 0.5, 4.5 ], "texture": "#main" }, 
                "north": { "uv": [ 0, 4, 0.5, 5.5 ], "texture": "#main" }, 
                "south": { "uv": [ 0, 4, 0.5, 5.5 ], "texture": "#main" }, 
                "west":  { "uv": [ 0, 4, 0.5, 5.5 ], "texture": "#main" }, 
                "east":  { "uv": [ 0, 4, 0.5, 5.5 ], "texture": "#main" }
            }
        }, 
        {
            "__comment": "Box2", 
            "from": [ 6.5, 3.5, 15.5 ], 
            "to":   [ 9.5, 15, 19 ], 
            "faces": {
                "down":  { "uv": [ 0.5, 4, 1, 7 ], "texture": "#main" }, 
                "up":    { "uv": [ 0.5, 4, 1, 7 ], "texture": "#main", "rotation":270 }, 
                "north": { "uv": [ 0.5, 4, 1, 7 ], "texture": "#main", "rotation":270 }, 
                "south": { "uv": [ 0.5, 4, 1, 7 ], "texture": "#main", "rotation":270 }, 
                "west":  { "uv": [ 0.5, 4, 1, 7 ], "texture": "#main", "rotation":270 }, 
                "east":  { "uv": [ 0.5, 4, 1, 7 ], "texture": "#main", "rotation":270 }
            }
        }, 
        {
            "__comment": "Box7", 
            "from": [ 3, 7.5, 9 ], 
            "to":   [ 4, 12, 15.5 ], 
            "rotation": { "origin": [3, 7.5, 9], "axis": "x", "angle": -22.5 }, 
            "faces": {
                "down":  { "uv": [ 4, 0, 6.5, 0.25 ], "texture": "#main" }, 
                "up":    { "uv": [ 4, 0, 7.5, 0.5 ], "texture": "#main" }, 
                "north": { "uv": [ 4.5, 0, 5, 3.5 ], "texture": "#main" }, 
                "south": { "uv": [ 4.5, 0, 5, 3.5 ], "texture": "#main" }, 
                "west":  { "uv": [ 4, 0, 7.5, 3.5 ], "texture": "#main" }, 
                "east":  { "uv": [ 4, 0, 7.5, 3.5 ], "texture": "#main" }
            }
        }, 
        {
            "__comment": "Box8", 
            "from": [ 2.5, 19, -2 ], 
            "to":   [ 7.5, 22, 2.5 ], 
            "faces": {
                "down":  { "uv": [ 0.5, 4, 1, 5.5 ], "texture": "#main" }, 
                "up":    { "uv": [ 0.5, 5.5, 1, 4 ], "texture": "#main", "rotation":270 }, 
                "north": { "uv": [ 0.5, 4, 1, 5.5 ], "texture": "#main", "rotation":270 }, 
                "south": { "uv": [ 0.5, 5.5, 1, 4 ], "texture": "#main", "rotation":270 }, 
                "west":  { "uv": [ 0.5, 4, 1, 5.5 ], "texture": "#main", "rotation":270 }, 
                "east":  { "uv": [ 0.5, 4, 1, 5.5 ], "texture": "#main", "rotation":270 }
            }
        }, 
        {
            "__comment": "Box4", 
            "from": [ 10, 20, 3 ], 
            "to":   [ 13, 23, 4 ], 
            "faces": {
                "down":  { "uv": [ 0, 5, 0.5, 5.5 ], "texture": "#main" }, 
                "up":    { "uv": [ 0, 4, 0.5, 4.5 ], "texture": "#main" }, 
                "north": { "uv": [ 0, 4, 0.5, 5.5 ], "texture": "#main" }, 
                "south": { "uv": [ 0, 4, 0.5, 5.5 ], "texture": "#main" }, 
                "west":  { "uv": [ 0, 4, 0.5, 5.5 ], "texture": "#main" }, 
                "east":  { "uv": [ 0, 4, 0.5, 5.5 ], "texture": "#main" }
            }
        }, 
        {
            "__comment": "Box8", 
            "from": [ 8.5, 19, -2 ], 
            "to":   [ 13.5, 22, 2.5 ], 
            "faces": {
                "down":  { "uv": [ 0.5, 5.5, 1, 7 ], "texture": "#main" }, 
                "up":    { "uv": [ 0.5, 7, 1, 5.5 ], "texture": "#main", "rotation":270 }, 
                "north": { "uv": [ 0.5, 5.5, 1, 7 ], "texture": "#main", "rotation":270 }, 
                "south": { "uv": [ 0.5, 7, 1, 5.5 ], "texture": "#main", "rotation":270 }, 
                "west":  { "uv": [ 0.5, 5.5, 1, 7 ], "texture": "#main", "rotation":270 }, 
                "east":  { "uv": [ 0.5, 5.5, 1, 7 ], "texture": "#main", "rotation":270 }
            }
        }, 
        {
            "__comment": "Box2", 
            "from": [ 7, 12, 12.5 ], 
            "to":   [ 9, 16, 14.5 ], 
            "rotation": { "origin": [7, 12, 12.5], "axis": "x", "angle": 45 }, 
            "faces": {
                "down":  { "uv": [ 0.5, 4, 1, 7 ], "texture": "#main" }, 
                "up":    { "uv": [ 0.5, 4, 1, 7 ], "texture": "#main", "rotation":270 }, 
                "north": { "uv": [ 0.5, 4, 1, 7 ], "texture": "#main", "rotation":270 }, 
                "south": { "uv": [ 0.5, 4, 1, 7 ], "texture": "#main", "rotation":270 }, 
                "west":  { "uv": [ 0.5, 4, 1, 7 ], "texture": "#main", "rotation":270 }, 
                "east":  { "uv": [ 0.5, 4, 1, 7 ], "texture": "#main", "rotation":270 }
            }
        }, 
        {
            "__comment": "Box7", 
            "from": [ 12, 7.5, 9 ], 
            "to":   [ 13, 12, 15.5 ], 
            "rotation": { "origin": [3, 7.5, 9], "axis": "x", "angle": -22.5 }, 
            "faces": {
                "down":  { "uv": [ 4, 0, 6.5, 0.25 ], "texture": "#main" }, 
                "up":    { "uv": [ 4, 0, 7.5, 0.5 ], "texture": "#main" }, 
                "north": { "uv": [ 4.5, 0, 5, 3.5 ], "texture": "#main" }, 
                "south": { "uv": [ 4.5, 0, 5, 3.5 ], "texture": "#main" }, 
                "west":  { "uv": [ 4, 0, 7.5, 3.5 ], "texture": "#main" }, 
                "east":  { "uv": [ 4, 0, 7.5, 3.5 ], "texture": "#main" }
            }
        }, 
        {
            "__comment": "Box2", 
            "from": [ 3.5, 1.5, 8 ], 
            "to":   [ 6.5, 6.5, 11 ], 
            "rotation": { "origin": [3.5, 1.5, 8], "axis": "x", "angle": 22.5 }, 
            "faces": {
                "down":  { "uv": [ 0, 4, 0.5, 5.5 ], "texture": "#main" }, 
                "up":    { "uv": [ 0, 4, 0.5, 5.5 ], "texture": "#main" }, 
                "north": { "uv": [ 0, 4, 0.5, 5.5 ], "texture": "#main" }, 
                "south": { "uv": [ 0, 4, 0.5, 5.5 ], "texture": "#main" }, 
                "west":  { "uv": [ 0, 4, 0.5, 5.5 ], "texture": "#main" }, 
                "east":  { "uv": [ 0, 4, 0.5, 5.5 ], "texture": "#main" }
            }
        }, 
        {
            "__comment": "Box2", 
            "from": [ 9.5, 0.5, 12 ], 
            "to":   [ 12.5, 5.5, 15 ], 
            "rotation": { "origin": [9.5, 0.5, 12], "axis": "x", "angle": -22.5 }, 
            "faces": {
                "down":  { "uv": [ 0, 4, 0.5, 5.5 ], "texture": "#main" }, 
                "up":    { "uv": [ 0, 4, 0.5, 5.5 ], "texture": "#main" }, 
                "north": { "uv": [ 0, 4, 0.5, 5.5 ], "texture": "#main" }, 
                "south": { "uv": [ 0, 4, 0.5, 5.5 ], "texture": "#main" }, 
                "west":  { "uv": [ 0, 4, 0.5, 5.5 ], "texture": "#main" }, 
                "east":  { "uv": [ 0, 4, 0.5, 5.5 ], "texture": "#main" }
            }
        }, 
        {
            "__comment": "Box2", 
            "from": [ 9.5, 1.5, 1 ], 
            "to":   [ 12.5, 6.5, 4 ], 
            "rotation": { "origin": [9.5, 1.5, 1], "axis": "x", "angle": 22.5 }, 
            "faces": {
                "down":  { "uv": [ 0, 4, 0.5, 5.5 ], "texture": "#main" }, 
                "up":    { "uv": [ 0, 4, 0.5, 5.5 ], "texture": "#main" }, 
                "north": { "uv": [ 0, 4, 0.5, 5.5 ], "texture": "#main" }, 
                "south": { "uv": [ 0, 4, 0.5, 5.5 ], "texture": "#main" }, 
                "west":  { "uv": [ 0, 4, 0.5, 5.5 ], "texture": "#main" }, 
                "east":  { "uv": [ 0, 4, 0.5, 5.5 ], "texture": "#main" }
            }
        }, 
        {
            "__comment": "Box2", 
            "from": [ 5, 12, 2.5 ], 
            "to":   [ 11, 21.5, 9 ], 
            "faces": {
                "down":  { "uv": [ 0.5, 4, 1, 7 ], "texture": "#main" }, 
                "up":    { "uv": [ 0.5, 4, 1, 7 ], "texture": "#main", "rotation":270 }, 
                "north": { "uv": [ 0.5, 4, 1, 7 ], "texture": "#main", "rotation":270 }, 
                "south": { "uv": [ 0.5, 4, 1, 7 ], "texture": "#main", "rotation":270 }, 
                "west":  { "uv": [ 0.5, 4, 1, 7 ], "texture": "#main", "rotation":270 }, 
                "east":  { "uv": [ 0.5, 4, 1, 7 ], "texture": "#main", "rotation":270 }
            }
        }, 
        {
            "__comment": "Box16", 
            "from": [ 5.5, 11.5, 9 ], 
            "to":   [ 10.5, 16, 13 ], 
            "faces": {
                "down":  { "uv": [ 5, 7.5, 7, 8 ], "texture": "#main" }, 
                "up":    { "uv": [ 5, 5, 6.75, 5.5 ], "texture": "#main" }, 
                "north": { "uv": [ 5, 5, 5.5, 8 ], "texture": "#main" }, 
                "south": { "uv": [ 5, 5, 5.5, 8 ], "texture": "#main" }, 
                "west":  { "uv": [ 5, 5, 8, 8 ], "texture": "#main" }, 
                "east":  { "uv": [ 5, 5, 8, 8 ], "texture": "#main" }
            }
        }, 
        {
            "__comment": "Box1", 
            "from": [ 4, 4, 3 ], 
            "to":   [ 12, 10, 13 ], 
            "faces": {
                "down":  { "uv": [ 8, 4, 8.5, 5.5 ], "texture": "#main" }, 
                "up":    { "uv": [ 8, 4, 8.5, 5.5 ], "texture": "#main" }, 
                "north": { "uv": [ 8, 4, 8.5, 5.5 ], "texture": "#main" }, 
                "south": { "uv": [ 8, 4, 8.5, 5.5 ], "texture": "#main" }, 
                "west":  { "uv": [ 8, 4, 8.5, 5.5 ], "texture": "#main" }, 
                "east":  { "uv": [ 8, 4, 8.5, 5.5 ], "texture": "#main" }
            }
        }, 
        {
            "__comment": "Box2", 
            "from": [ 9.5, -0.5, 5 ], 
            "to":   [ 12.5, 4.5, 8 ], 
            "rotation": { "origin": [9.5, -0.5, 5], "axis": "x", "angle": -22.5 }, 
            "faces": {
                "down":  { "uv": [ 8, 4, 8.5, 5.5 ], "texture": "#main" }, 
                "up":    { "uv": [ 8, 4, 8.5, 5.5 ], "texture": "#main" }, 
                "north": { "uv": [ 8, 4, 8.5, 5.5 ], "texture": "#main" }, 
                "south": { "uv": [ 8, 4, 8.5, 5.5 ], "texture": "#main" }, 
                "west":  { "uv": [ 8, 4, 8.5, 5.5 ], "texture": "#main" }, 
                "east":  { "uv": [ 8, 4, 8.5, 5.5 ], "texture": "#main" }
            }
        }, 
        {
            "__comment": "Box1", 
            "from": [ 3, 10, -1.5 ], 
            "to":   [ 13, 19, 7.5 ], 
            "faces": {
                "down":  { "uv": [ 8, 4, 8.5, 5.5 ], "texture": "#main" }, 
                "up":    { "uv": [ 8, 4, 8.5, 5.5 ], "texture": "#main" }, 
                "north": { "uv": [ 8, 0, 12, 4 ], "texture": "#main" }, 
                "south": { "uv": [ 8, 4, 8.5, 5.5 ], "texture": "#main" }, 
                "west":  { "uv": [ 8, 4, 8.5, 5.5 ], "texture": "#main" }, 
                "east":  { "uv": [ 8, 4, 8.5, 5.5 ], "texture": "#main" }
            }
        }, 
        {
            "__comment": "Box4", 
            "from": [ 3, 19, 3 ], 
            "to":   [ 6, 22, 4 ], 
            "faces": {
                "down":  { "uv": [ 8, 5, 8.5, 5.5 ], "texture": "#main" }, 
                "up":    { "uv": [ 8, 4, 8.5, 4.5 ], "texture": "#main" }, 
                "north": { "uv": [ 8, 4, 8.5, 5.5 ], "texture": "#main" }, 
                "south": { "uv": [ 8, 4, 8.5, 5.5 ], "texture": "#main" }, 
                "west":  { "uv": [ 8, 4, 8.5, 5.5 ], "texture": "#main" }, 
                "east":  { "uv": [ 8, 4, 8.5, 5.5 ], "texture": "#main" }
            }
        }, 
        {
            "__comment": "Box2", 
            "from": [ 6.5, 3, 19.5 ], 
            "to":   [ 9.5, 14.5, 23 ], 
            "rotation": { "origin": [6.5, 3, 19.5], "axis": "x", "angle": -22.5 }, 
            "faces": {
                "down":  { "uv": [ 8.5, 4, 9, 7 ], "texture": "#main" }, 
                "up":    { "uv": [ 8.5, 4, 9, 7 ], "texture": "#main", "rotation":270 }, 
                "north": { "uv": [ 8.5, 4, 9, 7 ], "texture": "#main", "rotation":270 }, 
                "south": { "uv": [ 8.5, 4, 9, 7 ], "texture": "#main", "rotation":270 }, 
                "west":  { "uv": [ 8.5, 4, 9, 7 ], "texture": "#main", "rotation":270 }, 
                "east":  { "uv": [ 8.5, 4, 9, 7 ], "texture": "#main", "rotation":270 }
            }
        }, 
        {
            "__comment": "Box7", 
            "from": [ 3, 6.5, 9 ], 
            "to":   [ 4, 11, 15.5 ], 
            "rotation": { "origin": [3, 6.5, 9], "axis": "x", "angle": -45 }, 
            "faces": {
                "down":  { "uv": [ 12, 0, 14.5, 0.25 ], "texture": "#main" }, 
                "up":    { "uv": [ 12, 0, 15.5, 0.5 ], "texture": "#main" }, 
                "north": { "uv": [ 12.5, 0, 13, 3.5 ], "texture": "#main" }, 
                "south": { "uv": [ 12.5, 0, 13, 3.5 ], "texture": "#main" }, 
                "west":  { "uv": [ 12, 0, 15.5, 3.5 ], "texture": "#main" }, 
                "east":  { "uv": [ 12, 0, 15.5, 3.5 ], "texture": "#main" }
            }
        }, 
        {
            "__comment": "Box8", 
            "from": [ 2.5, 19.5, -2 ], 
            "to":   [ 7.5, 22.5, 2.5 ], 
            "rotation": { "origin": [2.5, 19.5, -2], "axis": "x", "angle": 22.5 }, 
            "faces": {
                "down":  { "uv": [ 8.5, 4, 9, 5.5 ], "texture": "#main" }, 
                "up":    { "uv": [ 8.5, 5.5, 9, 4 ], "texture": "#main", "rotation":270 }, 
                "north": { "uv": [ 8.5, 4, 9, 5.5 ], "texture": "#main", "rotation":270 }, 
                "south": { "uv": [ 8.5, 5.5, 9, 4 ], "texture": "#main", "rotation":270 }, 
                "west":  { "uv": [ 8.5, 4, 9, 5.5 ], "texture": "#main", "rotation":270 }, 
                "east":  { "uv": [ 8.5, 4, 9, 5.5 ], "texture": "#main", "rotation":270 }
            }
        }, 
        {
            "__comment": "Box4", 
            "from": [ 10, 19, 3 ], 
            "to":   [ 13, 22, 4 ], 
            "faces": {
                "down":  { "uv": [ 8, 5, 8.5, 5.5 ], "texture": "#main" }, 
                "up":    { "uv": [ 8, 4, 8.5, 4.5 ], "texture": "#main" }, 
                "north": { "uv": [ 8, 4, 8.5, 5.5 ], "texture": "#main" }, 
                "south": { "uv": [ 8, 4, 8.5, 5.5 ], "texture": "#main" }, 
                "west":  { "uv": [ 8, 4, 8.5, 5.5 ], "texture": "#main" }, 
                "east":  { "uv": [ 8, 4, 8.5, 5.5 ], "texture": "#main" }
            }
        }, 
        {
            "__comment": "Box8", 
            "from": [ 8.5, 19.5, -2 ], 
            "to":   [ 13.5, 22.5, 2.5 ], 
            "rotation": { "origin": [2.5, 19.5, -2], "axis": "x", "angle": 22.5 }, 
            "faces": {
                "down":  { "uv": [ 8.5, 5.5, 9, 7 ], "texture": "#main" }, 
                "up":    { "uv": [ 8.5, 7, 9, 5.5 ], "texture": "#main", "rotation":270 }, 
                "north": { "uv": [ 8.5, 5.5, 9, 7 ], "texture": "#main", "rotation":270 }, 
                "south": { "uv": [ 8.5, 7, 9, 5.5 ], "texture": "#main", "rotation":270 }, 
                "west":  { "uv": [ 8.5, 5.5, 9, 7 ], "texture": "#main", "rotation":270 }, 
                "east":  { "uv": [ 8.5, 5.5, 9, 7 ], "texture": "#main", "rotation":270 }
            }
        }, 
        {
            "__comment": "Box2", 
            "from": [ 7, 11, 12.5 ], 
            "to":   [ 9, 15, 14.5 ], 
            "rotation": { "origin": [7, 11, 12.5], "axis": "x", "angle": 45 }, 
            "faces": {
                "down":  { "uv": [ 8.5, 4, 9, 7 ], "texture": "#main" }, 
                "up":    { "uv": [ 8.5, 4, 9, 7 ], "texture": "#main", "rotation":270 }, 
                "north": { "uv": [ 8.5, 4, 9, 7 ], "texture": "#main", "rotation":270 }, 
                "south": { "uv": [ 8.5, 4, 9, 7 ], "texture": "#main", "rotation":270 }, 
                "west":  { "uv": [ 8.5, 4, 9, 7 ], "texture": "#main", "rotation":270 }, 
                "east":  { "uv": [ 8.5, 4, 9, 7 ], "texture": "#main", "rotation":270 }
            }
        }, 
        {
            "__comment": "Box7", 
            "from": [ 12, 6.5, 9 ], 
            "to":   [ 13, 11, 15.5 ], 
            "rotation": { "origin": [3, 6.5, 9], "axis": "x", "angle": -45 }, 
            "faces": {
                "down":  { "uv": [ 12, 0, 14.5, 0.25 ], "texture": "#main" }, 
                "up":    { "uv": [ 12, 0, 15.5, 0.5 ], "texture": "#main" }, 
                "north": { "uv": [ 12.5, 0, 13, 3.5 ], "texture": "#main" }, 
                "south": { "uv": [ 12.5, 0, 13, 3.5 ], "texture": "#main" }, 
                "west":  { "uv": [ 12, 0, 15.5, 3.5 ], "texture": "#main" }, 
                "east":  { "uv": [ 12, 0, 15.5, 3.5 ], "texture": "#main" }
            }
        }, 
        {
            "__comment": "Box2", 
            "from": [ 9.5, 0.5, 8 ], 
            "to":   [ 12.5, 5.5, 11 ], 
            "rotation": { "origin": [9.5, 0.5, 8], "axis": "x", "angle": 22.5 }, 
            "faces": {
                "down":  { "uv": [ 8, 4, 8.5, 5.5 ], "texture": "#main" }, 
                "up":    { "uv": [ 8, 4, 8.5, 5.5 ], "texture": "#main" }, 
                "north": { "uv": [ 8, 4, 8.5, 5.5 ], "texture": "#main" }, 
                "south": { "uv": [ 8, 4, 8.5, 5.5 ], "texture": "#main" }, 
                "west":  { "uv": [ 8, 4, 8.5, 5.5 ], "texture": "#main" }, 
                "east":  { "uv": [ 8, 4, 8.5, 5.5 ], "texture": "#main" }
            }
        }, 
        {
            "__comment": "Box2", 
            "from": [ 3.5, -0.5, 12 ], 
            "to":   [ 6.5, 4.5, 15 ], 
            "rotation": { "origin": [3.5, -0.5, 12], "axis": "x", "angle": -22.5 }, 
            "faces": {
                "down":  { "uv": [ 8, 4, 8.5, 5.5 ], "texture": "#main" }, 
                "up":    { "uv": [ 8, 4, 8.5, 5.5 ], "texture": "#main" }, 
                "north": { "uv": [ 8, 4, 8.5, 5.5 ], "texture": "#main" }, 
                "south": { "uv": [ 8, 4, 8.5, 5.5 ], "texture": "#main" }, 
                "west":  { "uv": [ 8, 4, 8.5, 5.5 ], "texture": "#main" }, 
                "east":  { "uv": [ 8, 4, 8.5, 5.5 ], "texture": "#main" }
            }
        }, 
        {
            "__comment": "Box2", 
            "from": [ 3.5, 0.5, 1 ], 
            "to":   [ 6.5, 5.5, 4 ], 
            "rotation": { "origin": [3.5, 0.5, 1], "axis": "x", "angle": 22.5 }, 
            "faces": {
                "down":  { "uv": [ 8, 4, 8.5, 5.5 ], "texture": "#main" }, 
                "up":    { "uv": [ 8, 4, 8.5, 5.5 ], "texture": "#main" }, 
                "north": { "uv": [ 8, 4, 8.5, 5.5 ], "texture": "#main" }, 
                "south": { "uv": [ 8, 4, 8.5, 5.5 ], "texture": "#main" }, 
                "west":  { "uv": [ 8, 4, 8.5, 5.5 ], "texture": "#main" }, 
                "east":  { "uv": [ 8, 4, 8.5, 5.5 ], "texture": "#main" }
            }
        }, 
        {
            "__comment": "Box2", 
            "from": [ 5, 11, 2.5 ], 
            "to":   [ 11, 20.5, 9 ], 
            "faces": {
                "down":  { "uv": [ 8.5, 4, 9, 7 ], "texture": "#main" }, 
                "up":    { "uv": [ 8.5, 4, 9, 7 ], "texture": "#main", "rotation":270 }, 
                "north": { "uv": [ 8.5, 4, 9, 7 ], "texture": "#main", "rotation":270 }, 
                "south": { "uv": [ 8.5, 4, 9, 7 ], "texture": "#main", "rotation":270 }, 
                "west":  { "uv": [ 8.5, 4, 9, 7 ], "texture": "#main", "rotation":270 }, 
                "east":  { "uv": [ 8.5, 4, 9, 7 ], "texture": "#main", "rotation":270 }
            }
        }, 
        {
            "__comment": "Box16", 
            "from": [ 5.5, 10.5, 9 ], 
            "to":   [ 10.5, 15, 13 ], 
            "faces": {
                "down":  { "uv": [ 13, 7.5, 15, 8 ], "texture": "#main" }, 
                "up":    { "uv": [ 13, 5, 14.75, 5.5 ], "texture": "#main" }, 
                "north": { "uv": [ 13, 5, 13.5, 8 ], "texture": "#main" }, 
                "south": { "uv": [ 13, 5, 13.5, 8 ], "texture": "#main" }, 
                "west":  { "uv": [ 13, 5, 16, 8 ], "texture": "#main" }, 
                "east":  { "uv": [ 13, 5, 16, 8 ], "texture": "#main" }
            }
        }
    ], 
    "display": {
        "gui": {
            "rotation": [ 25, 125, 0 ], 
            "translation": [ 0, -1.391, 0 ], 
            "scale": [ 0.8, 0.8, 0.8 ]
        }, 
        "head": {
            "translation": [ 0, -11, 0 ], 
            "scale": [ 0.8, 0.8, 0.8 ]
        }, 
        "fixed": {
            "rotation": [ -90, 0, 0 ], 
            "translation": [ 0, 0, -7 ]
        }
    }
}