{
    "parent": "item/generated",
    "textures": {
        "layer0": "item/diamond"
    },
	"overrides": [{
		"predicate": {
			"custom_model_data": 1
		},
		"model": "itemnew/gem1"
	},{
		"predicate": {
			"custom_model_data": 2
		},
		"model": "itemnew/gem2"
	},{
		"predicate": {
			"custom_model_data": 3
		},
		"model": "itemnew/gem3"
	},{
		"predicate": {
			"custom_model_data": 4
		},
		"model": "itemnew/gem4"
	},{
		"predicate": {
			"custom_model_data": 5
		},
		"model": "itemnew/gem5"
	},{
		"predicate": {
			"custom_model_data": 6
		},
		"model": "itemnew/ruby"
	},{
		"predicate": {
			"custom_model_data": 7
		},
		"model": "itemnew/ruby1"
	},{
		"predicate": {
			"custom_model_data": 8
		},
		"model": "itemnew/gemz"
	},{
		"predicate": {
			"custom_model_data": 9
		},
		"model": "itemnew/dark_diamond"
	}]
}
