{
    "parent": "builtin/entity",
    "gui_light": "front",
    "textures": {
        "particle": "block/dark_oak_planks"
    },
    "display": {
        "thirdperson_righthand": {
            "rotation": [ 0, 90, 0 ],
            "translation": [ 10, 6, -4 ],
            "scale": [ 1, 1, 1 ]
        },
        "thirdperson_lefthand": {
            "rotation": [ 0, 90, 0 ],
            "translation": [ 10, 6, 12 ],
            "scale": [ 1, 1, 1 ]
        },
        "firstperson_righthand": {
            "rotation": [ 0, 180, 5 ],
            "translation": [ -10, 2, -10 ],
            "scale": [ 1.25, 1.25, 1.25 ]
        },
        "firstperson_lefthand": {
            "rotation": [ 0, 180, 5 ],
            "translation": [ 10, 0, -10 ],
            "scale": [ 1.25, 1.25, 1.25 ]
        },
        "gui": {
            "rotation": [ 15, -25, -5 ],
            "translation": [ 2, 3, 0 ],
            "scale": [ 0.65, 0.65, 0.65 ]
        },
        "fixed": {
            "rotation": [ 0, 180, 0 ],
            "translation": [ -2, 4, -5],
            "scale":[ 0.5, 0.5, 0.5]
        },
        "ground": {
            "rotation": [ 0, 0, 0 ],
            "translation": [ 4, 4, 2],
            "scale":[ 0.25, 0.25, 0.25]
        }
    },
    "overrides": [{
            "predicate": {
                "blocking": 1
            },
            "model": "item/shield_blocking"
    },{
		"predicate": {
			"custom_model_data": 1
	    },
		"model": "back/back1"
	},{
		"predicate": {
			"custom_model_data": 2
	    },
		"model": "back/back2"
	},{
		"predicate": {
			"custom_model_data": 3
	    },
		"model": "back/back3"
	},{
		"predicate": {
			"custom_model_data": 4
	    },
		"model": "back/back4"
	},{
		"predicate": {
			"custom_model_data": 5
	    },
		"model": "shield/shield3d"
	},{
		"predicate": {
			"custom_model_data": 6
	    },
		"model": "shield/shield3d2"
	},{
		"predicate": {
			"custom_model_data": 7
	    },
		"model": "shield/shield_of_destiny"
	},{
		"predicate": {
			"custom_model_data": 8
	    },
		"model": "shield/adamant_shield"
	},{
		"predicate": {
			"custom_model_data": 9
	    },
		"model": "shield/rainbow_shield"
	},{
		"predicate": {
			"custom_model_data": 10
	    },
		"model": "back/winggem1"
	},{
		"predicate": {
			"custom_model_data": 11
	    },
		"model": "back/winggem2"
	},{
		"predicate": {
			"custom_model_data": 12
	    },
		"model": "back/winggem3"
	},{
		"predicate": {
			"custom_model_data": 13
	    },
		"model": "back/winggem4"
	},{
		"predicate": {
			"custom_model_data": 14
	    },
		"model": "back/winggemfull"
	},{
		"predicate": {
			"custom_model_data": 15
	    },
		"model": "back/wingnogem"
	},{
		"predicate": {
			"custom_model_data": 16
	    },
		"model": "back/wings1"
	},{
		"predicate": {
			"custom_model_data": 17
	    },
		"model": "back/wingsss"
	},{
		"predicate": {
			"custom_model_data": 18
	    },
		"model": "shield/sunward_shield"
	},{
		"predicate": {
			"custom_model_data": 19
	    },
		"model": "shield/fell_barrier"
	},{
		"predicate": {
			"custom_model_data": 20
	    },
		"model": "shield/shieldhero"
	},{
		"predicate": {
			"custom_model_data": 21
	    },
		"model": "back/awp"
	},{
		"predicate": {
			"custom_model_data": 22
	    },
		"model": "back/wings2"
	},{
		"predicate": {
			"custom_model_data": 23
	    },
		"model": "back/backmm"
	},{
		"predicate": {
			"custom_model_data": 24
	    },
		"model": "back/tle1"
	},{
		"predicate": {
			"custom_model_data": 25
	    },
		"model": "back/gas1"
	},{
		"predicate": {
			"custom_model_data": 26
		},
		"model": "sword/cap_shield"
	},{
		"predicate": {
			"custom_model_data": 27
		},
		"model": "back/case1"
	},{
		"predicate": {
			"custom_model_data": 28
		},
		"model": "back/case2"
	},{
		"predicate": {
			"custom_model_data": 29
		},
		"model": "back/drone"
	},{
		"predicate": {
			"custom_model_data": 30
		},
		"model": "back/wings3"
	},{
		"predicate": {
			"custom_model_data": 31
		},
		"model": "back/wings4"
	},{
		"predicate": {
			"custom_model_data": 32
		},
		"model": "back/wings5"
	},{
		"predicate": {
			"custom_model_data": 33
		},
		"model": "back/wings6"
	},{
		"predicate": {
			"custom_model_data": 34
		},
		"model": "back/wings7"
	},{
		"predicate": {
			"custom_model_data": 35
		},
		"model": "back/wings8"
	},{
		"predicate": {
			"custom_model_data": 36
		},
		"model": "back/wings9"
	},{
		"predicate": {
			"custom_model_data": 37
		},
		"model": "back/wings10"
	},{
		"predicate": {
			"custom_model_data": 38
		},
		"model": "back/wings11"
	},{
		"predicate": {
			"custom_model_data": 39
		},
		"model": "back/wings12"
	},{
		"predicate": {
			"custom_model_data": 40
		},
		"model": "back/ox"
	},{
		"predicate": {
			"custom_model_data": 41
		},
		"model": "back/wings13"
	},{
		"predicate": {
			"custom_model_data": 42
		},
		"model": "back/wings14"
	},{
		"predicate": {
			"custom_model_data": 43
		},
		"model": "back/wings15"
	},{
		"predicate": {
			"custom_model_data": 44
		},
		"model": "back/wings16"
	},{
		"predicate": {
			"custom_model_data": 45
		},
		"model": "back/ovt"
	},{
		"predicate": {
			"custom_model_data": 46
		},
		"model": "back/backpack_black"
	},{
		"predicate": {
			"custom_model_data": 47
		},
		"model": "back/backpack_blue"
	},{
		"predicate": {
			"custom_model_data": 48
		},
		"model": "back/backpack_brown"
	},{
		"predicate": {
			"custom_model_data": 49
		},
		"model": "back/backpack_cyan"
	},{
		"predicate": {
			"custom_model_data": 50
		},
		"model": "back/backpack_gray"
	},{
		"predicate": {
			"custom_model_data": 51
		},
		"model": "back/backpack_green"
	},{
		"predicate": {
			"custom_model_data": 52
		},
		"model": "back/backpack_lblue"
	},{
		"predicate": {
			"custom_model_data": 53
		},
		"model": "back/backpack_lgray"
	},{
		"predicate": {
			"custom_model_data": 54
		},
		"model": "back/backpack_lime"
	},{
		"predicate": {
			"custom_model_data": 55
		},
		"model": "back/backpack_magenta"
	},{
		"predicate": {
			"custom_model_data": 56
		},
		"model": "back/backpack_orange"
	},{
		"predicate": {
			"custom_model_data": 57
		},
		"model": "back/backpack_pink"
	},{
		"predicate": {
			"custom_model_data": 58
		},
		"model": "back/backpack_purple"
	},{
		"predicate": {
			"custom_model_data": 59
		},
		"model": "back/backpack_purple1"
	},{
		"predicate": {
			"custom_model_data": 60
		},
		"model": "back/backpack_red"
	},{
		"predicate": {
			"custom_model_data": 61
		},
		"model": "back/backpack_red1"
	},{
		"predicate": {
			"custom_model_data": 62
		},
		"model": "back/backpack_red2"
	},{
		"predicate": {
			"custom_model_data": 63
		},
		"model": "back/backpack_white"
	},{
		"predicate": {
			"custom_model_data": 64
		},
		"model": "back/backpack_yellow"
	},{
		"predicate": {
			"custom_model_data": 65
		},
		"model": "back/hanumantail"
	},
	{ "predicate": { "custom_model_data": 66 }, "model": "vishsirisc:shield/1"},
	{ "predicate": { "custom_model_data": 67 }, "model": "vishsirisc:shield/2"},
	{ "predicate": { "custom_model_data": 68 }, "model": "vishsirisc:shield/3"},
	{ "predicate": { "custom_model_data": 69 }, "model": "vishsirisc:shield/4"},
	{ "predicate": { "custom_model_data": 70 }, "model": "vishsirisc:shield/5"},
	{ "predicate": { "custom_model_data": 71 }, "model": "vishsirisc:shield/6"},
	{ "predicate": { "custom_model_data": 72 }, "model": "vishsirisc:shield/7"},
	{ "predicate": { "custom_model_data": 73 }, "model": "vishsirisc:shield/8"},
	{ "predicate": { "custom_model_data": 74 }, "model": "vishsirisc:shield/9"},
	{ "predicate": { "custom_model_data": 75 }, "model": "vishsirisc:shield/10"},
	{ "predicate": { "custom_model_data": 76 }, "model": "vishsirisc:shield/11"},
	{ "predicate": { "custom_model_data": 77 }, "model": "vishsirisc:shield/12"},
	{	"predicate": { "custom_model_data": 78 }, "model": "vishsirisc:cosmetic/maii/sh01" },
	{	"predicate": { "custom_model_data": 78, "blocking": 1 }, "model": "vishsirisc:cosmetic/maii/sh01_blocking"},
	{	"predicate": { "custom_model_data": 79 }, "model": "vishsirisc:cosmetic/maii/bag01" },
	{	"predicate": { "custom_model_data": 79, "blocking": 1 }, "model": "vishsirisc:cosmetic/maii/bag01_blocking"},
	{	"predicate": { "custom_model_data": 80 }, "model": "vishsirisc:cosmetic/maii/bag02" },
	{	"predicate": { "custom_model_data": 80, "blocking": 1 }, "model": "vishsirisc:cosmetic/maii/bag02_blocking"},
	{	"predicate": { "custom_model_data": 81 }, "model": "vishsirisc:cosmetic/maii/bag03" },
	{	"predicate": { "custom_model_data": 82, "blocking": 1 }, "model": "vishsirisc:cosmetic/maii/bag03_blocking"},
	{	"predicate": { "custom_model_data": 83 }, "model": "vishsirisc:cosmetic/maii/bag04" },
	{	"predicate": { "custom_model_data": 83, "blocking": 1 }, "model": "vishsirisc:cosmetic/maii/bag04_blocking"}	
]
}
