{
	"credit": "Made with Blockbench",
	"textures": {
		"lionfish0": "itemnew/fish"
	},
	"elements": [
		{
			"name": "body0",
			"from": [6, 0, 6],
			"to": [10, 2, 10],
			"rotation": {"angle": 0, "axis": "y", "origin": [8, 8, 13]},
			"faces": {
				"north": {"uv": [12.5, 4, 13, 6], "texture": "#lionfish0"},
				"east": {"uv": [11, 1, 15, 3], "texture": "#lionfish0"},
				"south": {"uv": [13.5, 3, 14, 5], "texture": "#lionfish0"},
				"west": {"uv": [11, 2.5, 15, 4.5], "texture": "#lionfish0"},
				"up": {"uv": [11, 2, 15, 6], "texture": "#lionfish0"},
				"down": {"uv": [13, 2, 14.5, 6], "texture": "#lionfish0", "cullface": "down"}
			}
		},
		{
			"name": "body1",
			"from": [6.5, -0.5, 5],
			"to": [9.5, 3.5, 11],
			"rotation": {"angle": 0, "axis": "y", "origin": [8, 8, 13]},
			"faces": {
				"north": {"uv": [0, 0, 3, 4], "texture": "#lionfish0"},
				"east": {"uv": [10, 0, 16, 4], "rotation": 180, "texture": "#lionfish0"},
				"south": {"uv": [0, 0, 3, 4.5], "texture": "#lionfish0"},
				"west": {"uv": [10, 0, 16, 4], "texture": "#lionfish0"},
				"up": {"uv": [10, 4, 16, 7], "rotation": 90, "texture": "#lionfish0"},
				"down": {"uv": [13, 0.5, 16, 6.5], "texture": "#lionfish0", "cullface": "down"}
			}
		},
		{
			"name": "body2",
			"from": [6.75, 0, 4],
			"to": [9.25, 2.5, 5],
			"faces": {
				"north": {"uv": [0, 4.5, 2.5, 7], "texture": "#lionfish0"},
				"east": {"uv": [2.5, 4.5, 3.5, 7], "texture": "#lionfish0"},
				"west": {"uv": [4, 2.5, 5, 5], "texture": "#lionfish0"},
				"up": {"uv": [5, 2.5, 6, 5], "rotation": 90, "texture": "#lionfish0"},
				"down": {"uv": [3.5, 4.5, 4.5, 7], "rotation": 270, "texture": "#lionfish0", "cullface": "down"}
			}
		},
		{
			"name": "body3",
			"from": [7.5, 0, 11],
			"to": [8.5, 2.5, 13],
			"faces": {
				"east": {"uv": [12, 2.155, 14, 4.905], "texture": "#lionfish0"},
				"south": {"uv": [10, 2.155, 11, 4.905], "texture": "#lionfish0"},
				"west": {"uv": [11.5, 2.155, 13.5, 4.905], "texture": "#lionfish0"},
				"up": {"uv": [10, 1, 11, 3], "texture": "#lionfish0"},
				"down": {"uv": [10, 2.5, 11, 4.5], "texture": "#lionfish0", "cullface": "down"}
			}
		},
		{
			"name": "leg0",
			"from": [6.25, 3, 3.31],
			"to": [9.75, 5, 3.31],
			"rotation": {"angle": -22.5, "axis": "x", "origin": [8, 4.5, 5]},
			"faces": {
				"north": {"uv": [6.5, 0, 10, 2], "texture": "#lionfish0"},
				"south": {"uv": [6.5, 0, 10, 2], "texture": "#lionfish0"}
			}
		},
		{
			"name": "leg1",
			"from": [7.5, 3.4, 5.5],
			"to": [7.5, 4.9, 10.5],
			"rotation": {"angle": 22.5, "axis": "z", "origin": [7.75, 4.5, 8]},
			"faces": {
				"east": {"uv": [11, 13.5, 16, 15], "texture": "#lionfish0"},
				"west": {"uv": [11, 12, 16, 13.5], "texture": "#lionfish0"}
			}
		},
		{
			"name": "leg2",
			"from": [8.5, 3.4, 5.5],
			"to": [8.5, 4.9, 10.5],
			"rotation": {"angle": -22.5, "axis": "z", "origin": [8.25, 4.5, 8]},
			"faces": {
				"east": {"uv": [11, 13.5, 16, 15], "texture": "#lionfish0"},
				"west": {"uv": [11, 12, 16, 13.5], "texture": "#lionfish0"}
			}
		},
		{
			"name": "leg3",
			"from": [8, 3.5, 5],
			"to": [8, 6, 11],
			"faces": {
				"east": {"uv": [10, 9.5, 16, 12], "texture": "#lionfish0"},
				"west": {"uv": [10, 7, 16, 9.5], "texture": "#lionfish0"}
			}
		},
		{
			"name": "leg4",
			"from": [3.63255, 1.31455, 5.5],
			"to": [6.13255, 1.31455, 10.5],
			"rotation": {"angle": 22.5, "axis": "z", "origin": [5.13255, 2.56455, 8]},
			"faces": {
				"up": {"uv": [0, 9.5, 5, 12], "rotation": 270, "texture": "#lionfish0"},
				"down": {"uv": [0, 7, 5, 9.5], "rotation": 270, "texture": "#lionfish0"}
			}
		},
		{
			"name": "leg5",
			"from": [9.88461, 1.32441, 5.5],
			"to": [12.38461, 1.32441, 10.5],
			"rotation": {"angle": -22.5, "axis": "z", "origin": [10.88461, 2.57441, 8]},
			"faces": {
				"up": {"uv": [0, 7, 5, 9.5], "rotation": 90, "texture": "#lionfish0"},
				"down": {"uv": [0, 9.5, 5, 12], "rotation": 90, "texture": "#lionfish0"}
			}
		},
		{
			"name": "leg6",
			"from": [6.5, -2.25, 6.5],
			"to": [6.5, -0.25, 10.5],
			"rotation": {"angle": -22.5, "axis": "z", "origin": [6.5, -1, 9]},
			"faces": {
				"east": {"uv": [0, 14, 4, 16], "texture": "#lionfish0", "cullface": "down"},
				"west": {"uv": [0, 12, 4, 14], "texture": "#lionfish0", "cullface": "down"}
			}
		},
		{
			"name": "leg7",
			"from": [9.5, -2.25, 6.5],
			"to": [9.5, -0.25, 10.5],
			"rotation": {"angle": 22.5, "axis": "z", "origin": [9.5, -1, 9]},
			"faces": {
				"east": {"uv": [0, 14, 4, 16], "texture": "#lionfish0", "cullface": "down"},
				"west": {"uv": [0, 12, 4, 14], "texture": "#lionfish0", "cullface": "down"}
			}
		},
		{
			"name": "leg8",
			"from": [8, -0.775, 12.5],
			"to": [8, 3.225, 15.5],
			"faces": {
				"east": {"uv": [6, 2.5, 9, 6.5], "rotation": 180, "texture": "#lionfish0"},
				"west": {"uv": [6, 2.5, 9, 6.5], "texture": "#lionfish0"}
			}
		}
	],
	"groups": [
		{
			"name": "Lionfish",
			"origin": [8, 8, 8],
			"children": [
				{
					"name": "body",
					"origin": [8, 8, 8],
					"children": [0, 1, 2, 3]
				},
				{
					"name": "legs",
					"origin": [8, 8, 8],
					"children": [4, 5, 6, 7, 8, 9, 10, 11, 12]
				}
			]
		}
	]
}