{
	"credit": "Made with Blockbench",
	"textures": {
		"0": "itemnew/fr1",
		"1": "itemnew/fr2",
		"2": "itemnew/m3",
		"3": "itemnew/fr3",
		"5": "itemnew/fr4",
		"6": "itemnew/fr5",
		"particle": "head/23",
		"1_0": "head/23"
	},
	"elements": [
		{
			"name": "hexadecagon",
			"from": [6.90054, 16.25, 13],
			"to": [7.59946, 17, 16.75],
			"rotation": {"angle": 0, "axis": "y", "origin": [7.5, 16.5, 16.5]},
			"faces": {
				"north": {"uv": [0, 0, 1, 1], "rotation": 180, "texture": "#0"},
				"east": {"uv": [0, 0, 1, 1], "rotation": 270, "texture": "#0"},
				"south": {"uv": [0, 0, 1, 1], "texture": "#0"},
				"west": {"uv": [0, 0, 1, 1], "rotation": 90, "texture": "#0"},
				"up": {"uv": [0, 0, 1, 1], "rotation": 180, "texture": "#0"},
				"down": {"uv": [0, 0, 1, 1], "texture": "#0"}
			}
		},
		{
			"name": "hexadecagon",
			"from": [6.50109, 16.1, 15.7],
			"to": [7.89891, 17.2, 16.8],
			"rotation": {"angle": 0, "axis": "y", "origin": [6.7, 16.4, 16.5]},
			"faces": {
				"north": {"uv": [0, 0, 1, 1], "rotation": 180, "texture": "#2"},
				"east": {"uv": [0, 0, 1, 1], "rotation": 270, "texture": "#2"},
				"south": {"uv": [0, 0, 1, 1], "texture": "#2"},
				"west": {"uv": [0, 0, 1, 1], "rotation": 90, "texture": "#2"},
				"up": {"uv": [0, 0, 1, 1], "rotation": 180, "texture": "#2"},
				"down": {"uv": [0, 0, 1, 1], "texture": "#2"}
			}
		},
		{
			"name": "hexadecagon",
			"from": [7.22609, 17.1, 16.8],
			"to": [7.27391, 17.15, 31.8],
			"rotation": {"angle": 0, "axis": "y", "origin": [6.925, 17.4, 17.6]},
			"faces": {
				"north": {"uv": [0, 0, 1, 1], "rotation": 180, "texture": "#1"},
				"east": {"uv": [0, 0, 1, 1], "rotation": 270, "texture": "#1"},
				"south": {"uv": [0, 0, 1, 1], "texture": "#1"},
				"west": {"uv": [0, 0, 1, 1], "rotation": 90, "texture": "#1"},
				"up": {"uv": [0, 0, 1, 1], "rotation": 180, "texture": "#1"},
				"down": {"uv": [0, 0, 1, 1], "texture": "#1"}
			}
		},
		{
			"name": "hexadecagon",
			"from": [7.22609, 17.66796, 17.05],
			"to": [7.27391, 17.71796, 31.8],
			"rotation": {"angle": 0, "axis": "y", "origin": [6.925, 17.96796, 17.6]},
			"faces": {
				"north": {"uv": [0, 0, 1, 1], "rotation": 180, "texture": "#1"},
				"east": {"uv": [0, 0, 1, 1], "rotation": 270, "texture": "#1"},
				"south": {"uv": [0, 0, 1, 1], "texture": "#1"},
				"west": {"uv": [0, 0, 1, 1], "rotation": 90, "texture": "#1"},
				"up": {"uv": [0, 0, 1, 1], "rotation": 180, "texture": "#1"},
				"down": {"uv": [0, 0, 1, 1], "texture": "#1"}
			}
		},
		{
			"name": "hexadecagon",
			"from": [7.22609, 17.80687, 16.28536],
			"to": [7.27391, 17.85687, 16.78536],
			"rotation": {"angle": -45, "axis": "x", "origin": [6.925, 18.10687, 17.08536]},
			"faces": {
				"north": {"uv": [0, 0, 1, 1], "rotation": 180, "texture": "#1"},
				"east": {"uv": [0, 0, 1, 1], "rotation": 270, "texture": "#1"},
				"south": {"uv": [0, 0, 1, 1], "texture": "#1"},
				"west": {"uv": [0, 0, 1, 1], "rotation": 90, "texture": "#1"},
				"up": {"uv": [0, 0, 1, 1], "rotation": 180, "texture": "#1"},
				"down": {"uv": [0, 0, 1, 1], "texture": "#1"}
			}
		},
		{
			"name": "hexadecagon",
			"from": [7.22609, 17.18724, 16.83028],
			"to": [7.27391, 17.43724, 16.88028],
			"rotation": {"angle": 22.5, "axis": "x", "origin": [6.925, 17.73724, 16.58028]},
			"faces": {
				"north": {"uv": [0, 0, 1, 1], "texture": "#1"},
				"east": {"uv": [0, 0, 1, 1], "texture": "#1"},
				"south": {"uv": [0, 0, 1, 1], "texture": "#1"},
				"west": {"uv": [0, 0, 1, 1], "texture": "#1"},
				"up": {"uv": [0, 0, 1, 1], "texture": "#1"},
				"down": {"uv": [0, 0, 1, 1], "texture": "#1"}
			}
		},
		{
			"name": "hexadecagon",
			"from": [7.22609, 17.11723, 31.78663],
			"to": [7.27391, 17.16723, 31.88663],
			"rotation": {"angle": -22.5, "axis": "x", "origin": [7.25, 17.14223, 31.83663]},
			"faces": {
				"north": {"uv": [0, 0, 1, 1], "rotation": 180, "texture": "#1"},
				"east": {"uv": [0, 0, 1, 1], "rotation": 270, "texture": "#1"},
				"south": {"uv": [0, 0, 1, 1], "texture": "#1"},
				"west": {"uv": [0, 0, 1, 1], "rotation": 90, "texture": "#1"},
				"up": {"uv": [0, 0, 1, 1], "rotation": 180, "texture": "#1"},
				"down": {"uv": [0, 0, 1, 1], "texture": "#1"}
			}
		},
		{
			"name": "hexadecagon",
			"from": [7.22609, 17.65073, 31.78663],
			"to": [7.27391, 17.70073, 31.88663],
			"rotation": {"angle": 22.5, "axis": "x", "origin": [7.25, 17.67573, 31.83663]},
			"faces": {
				"north": {"uv": [0, 1, 1, 0], "rotation": 180, "texture": "#1"},
				"east": {"uv": [1, 0, 0, 1], "rotation": 270, "texture": "#1"},
				"south": {"uv": [0, 1, 1, 0], "texture": "#1"},
				"west": {"uv": [1, 0, 0, 1], "rotation": 90, "texture": "#1"},
				"up": {"uv": [1, 0, 0, 1], "rotation": 180, "texture": "#1"},
				"down": {"uv": [1, 0, 0, 1], "texture": "#1"}
			}
		},
		{
			"name": "hexadecagon",
			"from": [7.22609, 17.1663, 31.86007],
			"to": [7.27391, 17.2163, 31.96007],
			"rotation": {"angle": -45, "axis": "x", "origin": [7.25, 17.1913, 31.91007]},
			"faces": {
				"north": {"uv": [0, 0, 1, 1], "rotation": 180, "texture": "#1"},
				"east": {"uv": [0, 0, 1, 1], "rotation": 270, "texture": "#1"},
				"south": {"uv": [0, 0, 1, 1], "texture": "#1"},
				"west": {"uv": [0, 0, 1, 1], "rotation": 90, "texture": "#1"},
				"up": {"uv": [0, 0, 1, 1], "rotation": 180, "texture": "#1"},
				"down": {"uv": [0, 0, 1, 1], "texture": "#1"}
			}
		},
		{
			"name": "hexadecagon",
			"from": [7.22609, 17.60166, 31.86007],
			"to": [7.27391, 17.65166, 31.96007],
			"rotation": {"angle": 45, "axis": "x", "origin": [7.25, 17.62666, 31.91007]},
			"faces": {
				"north": {"uv": [0, 1, 1, 0], "rotation": 180, "texture": "#1"},
				"east": {"uv": [1, 0, 0, 1], "rotation": 270, "texture": "#1"},
				"south": {"uv": [0, 1, 1, 0], "texture": "#1"},
				"west": {"uv": [1, 0, 0, 1], "rotation": 90, "texture": "#1"},
				"up": {"uv": [1, 0, 0, 1], "rotation": 180, "texture": "#1"},
				"down": {"uv": [1, 0, 0, 1], "texture": "#1"}
			}
		},
		{
			"name": "hexadecagon",
			"from": [7.22609, 17.20898, 31.9131],
			"to": [7.27391, 17.60898, 31.9631],
			"rotation": {"angle": 0, "axis": "x", "origin": [7.25, 17.25898, 31.9381]},
			"faces": {
				"north": {"uv": [0, 0, 1, 1], "texture": "#1"},
				"east": {"uv": [0, 0, 1, 1], "texture": "#1"},
				"south": {"uv": [0, 0, 1, 1], "texture": "#1"},
				"west": {"uv": [0, 0, 1, 1], "texture": "#1"},
				"up": {"uv": [0, 0, 1, 1], "texture": "#1"},
				"down": {"uv": [0, 0, 1, 1], "texture": "#1"}
			}
		},
		{
			"name": "hexadecagon",
			"from": [6.30109, 16.3, 15.9],
			"to": [6.49891, 17, 16.6],
			"rotation": {"angle": 0, "axis": "y", "origin": [6.3, 16.4, 16.5]},
			"faces": {
				"north": {"uv": [0, 0, 1, 1], "rotation": 180, "texture": "#2"},
				"east": {"uv": [0, 0, 1, 1], "rotation": 270, "texture": "#2"},
				"south": {"uv": [0, 0, 1, 1], "texture": "#2"},
				"west": {"uv": [0, 0, 1, 1], "rotation": 90, "texture": "#2"},
				"up": {"uv": [0, 0, 1, 1], "rotation": 180, "texture": "#2"},
				"down": {"uv": [0, 0, 1, 1], "texture": "#2"}
			}
		},
		{
			"name": "hexadecagon",
			"from": [6.10109, 16.4, 16],
			"to": [6.29891, 16.9, 16.5],
			"rotation": {"angle": 0, "axis": "y", "origin": [6.1, 16.4, 16.5]},
			"faces": {
				"north": {"uv": [0, 0, 1, 1], "rotation": 180, "texture": "#2"},
				"east": {"uv": [0, 0, 1, 1], "rotation": 270, "texture": "#2"},
				"south": {"uv": [0, 0, 1, 1], "texture": "#2"},
				"west": {"uv": [0, 0, 1, 1], "rotation": 90, "texture": "#2"},
				"up": {"uv": [0, 0, 1, 1], "rotation": 180, "texture": "#2"},
				"down": {"uv": [0, 0, 1, 1], "texture": "#2"}
			}
		},
		{
			"name": "hexadecagon",
			"from": [5.90109, 16.6, 16.2],
			"to": [6.09891, 16.7, 16.3],
			"rotation": {"angle": 0, "axis": "y", "origin": [5.9, 16.4, 16.5]},
			"faces": {
				"north": {"uv": [0, 0, 1, 1], "rotation": 180, "texture": "#3"},
				"east": {"uv": [0, 0, 1, 1], "rotation": 270, "texture": "#3"},
				"south": {"uv": [0, 0, 1, 1], "texture": "#3"},
				"west": {"uv": [0, 0, 1, 1], "rotation": 90, "texture": "#3"},
				"up": {"uv": [0, 0, 1, 1], "rotation": 180, "texture": "#3"},
				"down": {"uv": [0, 0, 1, 1], "texture": "#3"}
			}
		},
		{
			"name": "hexadecagon",
			"from": [5.60326, 16.6, 15.70218],
			"to": [5.80109, 16.7, 15.80218],
			"rotation": {"angle": 0, "axis": "y", "origin": [5.60218, 16.4, 16.00218]},
			"faces": {
				"north": {"uv": [0, 0, 1, 1], "rotation": 180, "texture": "#3"},
				"east": {"uv": [0, 0, 1, 1], "rotation": 270, "texture": "#3"},
				"south": {"uv": [0, 0, 1, 1], "texture": "#3"},
				"west": {"uv": [0, 0, 1, 1], "rotation": 90, "texture": "#3"},
				"up": {"uv": [0, 0, 1, 1], "rotation": 180, "texture": "#3"},
				"down": {"uv": [0, 0, 1, 1], "texture": "#3"}
			}
		},
		{
			"name": "hexadecagon",
			"from": [5.55544, 16.55, 15.65218],
			"to": [5.61544, 16.75, 15.85218],
			"rotation": {"angle": 0, "axis": "y", "origin": [5.45435, 16.4, 16.00218]},
			"faces": {
				"north": {"uv": [0, 0, 1, 1], "rotation": 180, "texture": "#2"},
				"east": {"uv": [0, 0, 1, 1], "rotation": 270, "texture": "#2"},
				"south": {"uv": [0, 0, 1, 1], "texture": "#2"},
				"west": {"uv": [0, 0, 1, 1], "rotation": 90, "texture": "#2"},
				"up": {"uv": [0, 0, 1, 1], "rotation": 180, "texture": "#2"},
				"down": {"uv": [0, 0, 1, 1], "texture": "#2"}
			}
		},
		{
			"name": "hexadecagon",
			"from": [5.80109, 16.6, 15.70218],
			"to": [5.90109, 16.7, 16.3],
			"rotation": {"angle": 0, "axis": "z", "origin": [5.60109, 16.4, 16.10109]},
			"faces": {
				"north": {"uv": [0, 0, 1, 1], "rotation": 90, "texture": "#3"},
				"east": {"uv": [0, 0, 1, 1], "rotation": 180, "texture": "#3"},
				"south": {"uv": [0, 0, 1, 1], "rotation": 270, "texture": "#3"},
				"west": {"uv": [0, 0, 1, 1], "texture": "#3"},
				"up": {"uv": [0, 0, 1, 1], "rotation": 270, "texture": "#3"},
				"down": {"uv": [0, 0, 1, 1], "rotation": 270, "texture": "#3"}
			}
		},
		{
			"name": "hexadecagon",
			"from": [6.90054, 16.25, 16.75],
			"to": [7.59946, 17, 20.5],
			"rotation": {"angle": 0, "axis": "y", "origin": [7.5, 16.5, 20.25]},
			"faces": {
				"north": {"uv": [0, 0, 1, 1], "rotation": 180, "texture": "#0"},
				"east": {"uv": [0, 0, 1, 1], "rotation": 270, "texture": "#0"},
				"south": {"uv": [0, 0, 1, 1], "texture": "#0"},
				"west": {"uv": [0, 0, 1, 1], "rotation": 90, "texture": "#0"},
				"up": {"uv": [0, 0, 1, 1], "rotation": 180, "texture": "#0"},
				"down": {"uv": [0, 0, 1, 1], "texture": "#0"}
			}
		},
		{
			"name": "hexadecagon",
			"from": [6.90054, 16.25, 20.5],
			"to": [7.59946, 17, 24.25],
			"rotation": {"angle": 0, "axis": "y", "origin": [7.5, 16.5, 24]},
			"faces": {
				"north": {"uv": [0, 0, 1, 1], "rotation": 180, "texture": "#0"},
				"east": {"uv": [0, 0, 1, 1], "rotation": 270, "texture": "#0"},
				"south": {"uv": [0, 0, 1, 1], "texture": "#0"},
				"west": {"uv": [0, 0, 1, 1], "rotation": 90, "texture": "#0"},
				"up": {"uv": [0, 0, 1, 1], "rotation": 180, "texture": "#0"},
				"down": {"uv": [0, 0, 1, 1], "texture": "#0"}
			}
		},
		{
			"name": "hexadecagon",
			"from": [6.90054, 16.25, 24.25],
			"to": [7.59946, 17, 28],
			"rotation": {"angle": 0, "axis": "y", "origin": [7.5, 16.5, 27.75]},
			"faces": {
				"north": {"uv": [0, 0, 1, 1], "rotation": 180, "texture": "#0"},
				"east": {"uv": [0, 0, 1, 1], "rotation": 270, "texture": "#0"},
				"south": {"uv": [0, 0, 1, 1], "texture": "#0"},
				"west": {"uv": [0, 0, 1, 1], "rotation": 90, "texture": "#0"},
				"up": {"uv": [0, 0, 1, 1], "rotation": 180, "texture": "#0"},
				"down": {"uv": [0, 0, 1, 1], "texture": "#0"}
			}
		},
		{
			"name": "hexadecagon",
			"from": [6.90054, 16.25, 28],
			"to": [7.59946, 17, 31.75],
			"rotation": {"angle": 0, "axis": "y", "origin": [7.5, 16.5, 31.5]},
			"faces": {
				"north": {"uv": [0, 0, 1, 1], "rotation": 180, "texture": "#0"},
				"east": {"uv": [0, 0, 1, 1], "rotation": 270, "texture": "#0"},
				"south": {"uv": [0, 0, 1, 1], "texture": "#0"},
				"west": {"uv": [0, 0, 1, 1], "rotation": 90, "texture": "#0"},
				"up": {"uv": [0, 0, 1, 1], "rotation": 180, "texture": "#0"},
				"down": {"uv": [0, 0, 1, 1], "texture": "#0"}
			}
		},
		{
			"name": "hexadecagon",
			"from": [7.21938, 17.51539, 31.562],
			"to": [7.34651, 17.60139, 31.605],
			"rotation": {"angle": 22.5, "axis": "z", "origin": [7.17545, 17.17139, 31.175]},
			"faces": {
				"north": {"uv": [1, 0, 0, 1], "texture": "#2"},
				"east": {"uv": [1, 0, 0, 1], "rotation": 270, "texture": "#2"},
				"south": {"uv": [1, 0, 0, 1], "rotation": 180, "texture": "#2"},
				"west": {"uv": [1, 0, 0, 1], "rotation": 90, "texture": "#2"},
				"up": {"uv": [1, 0, 0, 1], "rotation": 180, "texture": "#2"},
				"down": {"uv": [1, 0, 0, 1], "texture": "#2"}
			}
		},
		{
			"name": "hexadecagon",
			"from": [7.11849, 17.51539, 31.562],
			"to": [7.24562, 17.60139, 31.605],
			"rotation": {"angle": -22.5, "axis": "z", "origin": [7.28955, 17.17139, 31.175]},
			"faces": {
				"north": {"uv": [0, 0, 1, 1], "texture": "#2"},
				"east": {"uv": [0, 0, 1, 1], "rotation": 270, "texture": "#2"},
				"south": {"uv": [0, 0, 1, 1], "rotation": 180, "texture": "#2"},
				"west": {"uv": [0, 0, 1, 1], "rotation": 90, "texture": "#2"},
				"up": {"uv": [0, 0, 1, 1], "rotation": 180, "texture": "#2"},
				"down": {"uv": [0, 0, 1, 1], "texture": "#2"}
			}
		},
		{
			"name": "hexadecagon",
			"from": [6.80458, 17.20439, 31.562],
			"to": [6.89058, 17.33152, 31.605],
			"rotation": {"angle": -45, "axis": "z", "origin": [7.23458, 17.16045, 31.175]},
			"faces": {
				"north": {"uv": [0, 1, 1, 0], "rotation": 270, "texture": "#2"},
				"east": {"uv": [1, 0, 0, 1], "rotation": 270, "texture": "#2"},
				"south": {"uv": [0, 1, 1, 0], "rotation": 270, "texture": "#2"},
				"west": {"uv": [1, 0, 0, 1], "rotation": 90, "texture": "#2"},
				"up": {"uv": [1, 0, 0, 1], "rotation": 180, "texture": "#2"},
				"down": {"uv": [1, 0, 0, 1], "texture": "#2"}
			}
		},
		{
			"name": "hexadecagon",
			"from": [7.57442, 17.20439, 31.562],
			"to": [7.66042, 17.33152, 31.605],
			"rotation": {"angle": 45, "axis": "z", "origin": [7.23042, 17.16045, 31.175]},
			"faces": {
				"north": {"uv": [0, 0, 1, 1], "rotation": 270, "texture": "#2"},
				"east": {"uv": [0, 0, 1, 1], "rotation": 270, "texture": "#2"},
				"south": {"uv": [0, 0, 1, 1], "rotation": 270, "texture": "#2"},
				"west": {"uv": [0, 0, 1, 1], "rotation": 90, "texture": "#2"},
				"up": {"uv": [0, 0, 1, 1], "rotation": 180, "texture": "#2"},
				"down": {"uv": [0, 0, 1, 1], "texture": "#2"}
			}
		},
		{
			"name": "hexadecagon",
			"from": [6.86339, 17.21692, 31.562],
			"to": [6.94939, 17.34405, 31.605],
			"rotation": {"angle": -22.5, "axis": "z", "origin": [7.29339, 17.17298, 31.175]},
			"faces": {
				"north": {"uv": [0, 1, 1, 0], "rotation": 270, "texture": "#2"},
				"east": {"uv": [1, 0, 0, 1], "rotation": 270, "texture": "#2"},
				"south": {"uv": [0, 1, 1, 0], "rotation": 270, "texture": "#2"},
				"west": {"uv": [1, 0, 0, 1], "rotation": 90, "texture": "#2"},
				"up": {"uv": [1, 0, 0, 1], "rotation": 180, "texture": "#2"},
				"down": {"uv": [1, 0, 0, 1], "texture": "#2"}
			}
		},
		{
			"name": "hexadecagon",
			"from": [7.51561, 17.21692, 31.562],
			"to": [7.60161, 17.34405, 31.605],
			"rotation": {"angle": 22.5, "axis": "z", "origin": [7.17161, 17.17298, 31.175]},
			"faces": {
				"north": {"uv": [0, 0, 1, 1], "rotation": 270, "texture": "#2"},
				"east": {"uv": [0, 0, 1, 1], "rotation": 270, "texture": "#2"},
				"south": {"uv": [0, 0, 1, 1], "rotation": 270, "texture": "#2"},
				"west": {"uv": [0, 0, 1, 1], "rotation": 90, "texture": "#2"},
				"up": {"uv": [0, 0, 1, 1], "rotation": 180, "texture": "#2"},
				"down": {"uv": [0, 0, 1, 1], "texture": "#2"}
			}
		},
		{
			"name": "hexadecagon",
			"from": [6.91294, 17.251, 31.562],
			"to": [6.99894, 17.37813, 31.605],
			"rotation": {"angle": 0, "axis": "y", "origin": [7.34294, 17.20706, 31.175]},
			"faces": {
				"north": {"uv": [0, 1, 1, 0], "rotation": 270, "texture": "#2"},
				"east": {"uv": [1, 0, 0, 1], "rotation": 270, "texture": "#2"},
				"south": {"uv": [0, 1, 1, 0], "rotation": 270, "texture": "#2"},
				"west": {"uv": [1, 0, 0, 1], "rotation": 90, "texture": "#2"},
				"up": {"uv": [1, 0, 0, 1], "rotation": 180, "texture": "#2"},
				"down": {"uv": [1, 0, 0, 1], "texture": "#2"}
			}
		},
		{
			"name": "hexadecagon",
			"from": [7.46606, 17.251, 31.562],
			"to": [7.55206, 17.37813, 31.605],
			"rotation": {"angle": 0, "axis": "y", "origin": [7.12206, 17.20706, 31.175]},
			"faces": {
				"north": {"uv": [0, 0, 1, 1], "rotation": 270, "texture": "#2"},
				"east": {"uv": [0, 0, 1, 1], "rotation": 270, "texture": "#2"},
				"south": {"uv": [0, 0, 1, 1], "rotation": 270, "texture": "#2"},
				"west": {"uv": [0, 0, 1, 1], "rotation": 90, "texture": "#2"},
				"up": {"uv": [0, 0, 1, 1], "rotation": 180, "texture": "#2"},
				"down": {"uv": [0, 0, 1, 1], "texture": "#2"}
			}
		},
		{
			"name": "hexadecagon",
			"from": [6.94567, 17.30144, 31.562],
			"to": [7.03167, 17.42857, 31.605],
			"rotation": {"angle": 22.5, "axis": "z", "origin": [7.37567, 17.25751, 31.175]},
			"faces": {
				"north": {"uv": [0, 1, 1, 0], "rotation": 270, "texture": "#2"},
				"east": {"uv": [1, 0, 0, 1], "rotation": 270, "texture": "#2"},
				"south": {"uv": [0, 1, 1, 0], "rotation": 270, "texture": "#2"},
				"west": {"uv": [1, 0, 0, 1], "rotation": 90, "texture": "#2"},
				"up": {"uv": [1, 0, 0, 1], "rotation": 180, "texture": "#2"},
				"down": {"uv": [1, 0, 0, 1], "texture": "#2"}
			}
		},
		{
			"name": "hexadecagon",
			"from": [7.43333, 17.30144, 31.562],
			"to": [7.51933, 17.42857, 31.605],
			"rotation": {"angle": -22.5, "axis": "z", "origin": [7.08933, 17.25751, 31.175]},
			"faces": {
				"north": {"uv": [0, 0, 1, 1], "rotation": 270, "texture": "#2"},
				"east": {"uv": [0, 0, 1, 1], "rotation": 270, "texture": "#2"},
				"south": {"uv": [0, 0, 1, 1], "rotation": 270, "texture": "#2"},
				"west": {"uv": [0, 0, 1, 1], "rotation": 90, "texture": "#2"},
				"up": {"uv": [0, 0, 1, 1], "rotation": 180, "texture": "#2"},
				"down": {"uv": [0, 0, 1, 1], "texture": "#2"}
			}
		},
		{
			"name": "hexadecagon",
			"from": [7.21554, 16.88664, 31.562],
			"to": [7.34267, 16.97264, 31.605],
			"rotation": {"angle": -45, "axis": "z", "origin": [7.38661, 17.31664, 31.175]},
			"faces": {
				"north": {"uv": [1, 0, 0, 1], "rotation": 180, "texture": "#2"},
				"east": {"uv": [1, 0, 0, 1], "rotation": 270, "texture": "#2"},
				"south": {"uv": [1, 0, 0, 1], "texture": "#2"},
				"west": {"uv": [1, 0, 0, 1], "rotation": 90, "texture": "#2"},
				"up": {"uv": [1, 0, 0, 1], "rotation": 180, "texture": "#2"},
				"down": {"uv": [1, 0, 0, 1], "texture": "#2"}
			}
		},
		{
			"name": "hexadecagon",
			"from": [7.12233, 16.88664, 31.562],
			"to": [7.24946, 16.97264, 31.605],
			"rotation": {"angle": 45, "axis": "z", "origin": [7.07839, 17.31664, 31.175]},
			"faces": {
				"north": {"uv": [0, 0, 1, 1], "rotation": 180, "texture": "#2"},
				"east": {"uv": [0, 0, 1, 1], "rotation": 270, "texture": "#2"},
				"south": {"uv": [0, 0, 1, 1], "texture": "#2"},
				"west": {"uv": [0, 0, 1, 1], "rotation": 90, "texture": "#2"},
				"up": {"uv": [0, 0, 1, 1], "rotation": 180, "texture": "#2"},
				"down": {"uv": [0, 0, 1, 1], "texture": "#2"}
			}
		},
		{
			"name": "hexadecagon",
			"from": [7.20302, 16.94545, 31.562],
			"to": [7.33014, 17.03145, 31.605],
			"rotation": {"angle": -22.5, "axis": "z", "origin": [7.37408, 17.37545, 31.175]},
			"faces": {
				"north": {"uv": [1, 0, 0, 1], "rotation": 180, "texture": "#2"},
				"east": {"uv": [1, 0, 0, 1], "rotation": 270, "texture": "#2"},
				"south": {"uv": [1, 0, 0, 1], "texture": "#2"},
				"west": {"uv": [1, 0, 0, 1], "rotation": 90, "texture": "#2"},
				"up": {"uv": [1, 0, 0, 1], "rotation": 180, "texture": "#2"},
				"down": {"uv": [1, 0, 0, 1], "texture": "#2"}
			}
		},
		{
			"name": "hexadecagon",
			"from": [7.13486, 16.94545, 31.562],
			"to": [7.26198, 17.03145, 31.605],
			"rotation": {"angle": 22.5, "axis": "z", "origin": [7.09092, 17.37545, 31.175]},
			"faces": {
				"north": {"uv": [0, 0, 1, 1], "rotation": 180, "texture": "#2"},
				"east": {"uv": [0, 0, 1, 1], "rotation": 270, "texture": "#2"},
				"south": {"uv": [0, 0, 1, 1], "texture": "#2"},
				"west": {"uv": [0, 0, 1, 1], "rotation": 90, "texture": "#2"},
				"up": {"uv": [0, 0, 1, 1], "rotation": 180, "texture": "#2"},
				"down": {"uv": [0, 0, 1, 1], "texture": "#2"}
			}
		},
		{
			"name": "hexadecagon",
			"from": [7.16894, 17.54812, 31.562],
			"to": [7.29606, 17.63412, 31.605],
			"rotation": {"angle": 0, "axis": "y", "origin": [7.125, 17.97812, 31.175]},
			"faces": {
				"north": {"uv": [0, 0, 1, 1], "rotation": 180, "texture": "#2"},
				"east": {"uv": [0, 0, 1, 1], "rotation": 270, "texture": "#2"},
				"south": {"uv": [0, 0, 1, 1], "texture": "#2"},
				"west": {"uv": [0, 0, 1, 1], "rotation": 90, "texture": "#2"},
				"up": {"uv": [0, 0, 1, 1], "rotation": 180, "texture": "#2"},
				"down": {"uv": [0, 0, 1, 1], "texture": "#2"}
			}
		},
		{
			"name": "hexadecagon",
			"from": [7.16894, 16.995, 31.562],
			"to": [7.29606, 17.081, 31.605],
			"rotation": {"angle": 0, "axis": "y", "origin": [7.125, 17.425, 31.175]},
			"faces": {
				"north": {"uv": [0, 0, 1, 1], "rotation": 180, "texture": "#2"},
				"east": {"uv": [0, 0, 1, 1], "rotation": 270, "texture": "#2"},
				"south": {"uv": [0, 0, 1, 1], "texture": "#2"},
				"west": {"uv": [0, 0, 1, 1], "rotation": 90, "texture": "#2"},
				"up": {"uv": [0, 0, 1, 1], "rotation": 180, "texture": "#2"},
				"down": {"uv": [0, 0, 1, 1], "texture": "#2"}
			}
		},
		{
			"name": "hexadecagon",
			"from": [7.11849, 17.51539, 27.937],
			"to": [7.24562, 17.60139, 27.98],
			"rotation": {"angle": -22.5, "axis": "z", "origin": [7.28955, 17.17139, 27.55]},
			"faces": {
				"north": {"uv": [0, 0, 1, 1], "texture": "#2"},
				"east": {"uv": [0, 0, 1, 1], "rotation": 270, "texture": "#2"},
				"south": {"uv": [0, 0, 1, 1], "rotation": 180, "texture": "#2"},
				"west": {"uv": [0, 0, 1, 1], "rotation": 90, "texture": "#2"},
				"up": {"uv": [0, 0, 1, 1], "rotation": 180, "texture": "#2"},
				"down": {"uv": [0, 0, 1, 1], "texture": "#2"}
			}
		},
		{
			"name": "hexadecagon",
			"from": [6.80458, 17.20439, 27.937],
			"to": [6.89058, 17.33152, 27.98],
			"rotation": {"angle": -45, "axis": "z", "origin": [7.23458, 17.16045, 27.55]},
			"faces": {
				"north": {"uv": [0, 1, 1, 0], "rotation": 270, "texture": "#2"},
				"east": {"uv": [1, 0, 0, 1], "rotation": 270, "texture": "#2"},
				"south": {"uv": [0, 1, 1, 0], "rotation": 270, "texture": "#2"},
				"west": {"uv": [1, 0, 0, 1], "rotation": 90, "texture": "#2"},
				"up": {"uv": [1, 0, 0, 1], "rotation": 180, "texture": "#2"},
				"down": {"uv": [1, 0, 0, 1], "texture": "#2"}
			}
		},
		{
			"name": "hexadecagon",
			"from": [7.57442, 17.20439, 27.937],
			"to": [7.66042, 17.33152, 27.98],
			"rotation": {"angle": 45, "axis": "z", "origin": [7.23042, 17.16045, 27.55]},
			"faces": {
				"north": {"uv": [0, 0, 1, 1], "rotation": 270, "texture": "#2"},
				"east": {"uv": [0, 0, 1, 1], "rotation": 270, "texture": "#2"},
				"south": {"uv": [0, 0, 1, 1], "rotation": 270, "texture": "#2"},
				"west": {"uv": [0, 0, 1, 1], "rotation": 90, "texture": "#2"},
				"up": {"uv": [0, 0, 1, 1], "rotation": 180, "texture": "#2"},
				"down": {"uv": [0, 0, 1, 1], "texture": "#2"}
			}
		},
		{
			"name": "hexadecagon",
			"from": [6.86339, 17.21692, 27.937],
			"to": [6.94939, 17.34405, 27.98],
			"rotation": {"angle": -22.5, "axis": "z", "origin": [7.29339, 17.17298, 27.55]},
			"faces": {
				"north": {"uv": [0, 1, 1, 0], "rotation": 270, "texture": "#2"},
				"east": {"uv": [1, 0, 0, 1], "rotation": 270, "texture": "#2"},
				"south": {"uv": [0, 1, 1, 0], "rotation": 270, "texture": "#2"},
				"west": {"uv": [1, 0, 0, 1], "rotation": 90, "texture": "#2"},
				"up": {"uv": [1, 0, 0, 1], "rotation": 180, "texture": "#2"},
				"down": {"uv": [1, 0, 0, 1], "texture": "#2"}
			}
		},
		{
			"name": "hexadecagon",
			"from": [7.51561, 17.21692, 27.937],
			"to": [7.60161, 17.34405, 27.98],
			"rotation": {"angle": 22.5, "axis": "z", "origin": [7.17161, 17.17298, 27.55]},
			"faces": {
				"north": {"uv": [0, 0, 1, 1], "rotation": 270, "texture": "#2"},
				"east": {"uv": [0, 0, 1, 1], "rotation": 270, "texture": "#2"},
				"south": {"uv": [0, 0, 1, 1], "rotation": 270, "texture": "#2"},
				"west": {"uv": [0, 0, 1, 1], "rotation": 90, "texture": "#2"},
				"up": {"uv": [0, 0, 1, 1], "rotation": 180, "texture": "#2"},
				"down": {"uv": [0, 0, 1, 1], "texture": "#2"}
			}
		},
		{
			"name": "hexadecagon",
			"from": [6.91294, 17.251, 27.937],
			"to": [6.99894, 17.37813, 27.98],
			"rotation": {"angle": 0, "axis": "y", "origin": [7.34294, 17.20706, 27.55]},
			"faces": {
				"north": {"uv": [0, 1, 1, 0], "rotation": 270, "texture": "#2"},
				"east": {"uv": [1, 0, 0, 1], "rotation": 270, "texture": "#2"},
				"south": {"uv": [0, 1, 1, 0], "rotation": 270, "texture": "#2"},
				"west": {"uv": [1, 0, 0, 1], "rotation": 90, "texture": "#2"},
				"up": {"uv": [1, 0, 0, 1], "rotation": 180, "texture": "#2"},
				"down": {"uv": [1, 0, 0, 1], "texture": "#2"}
			}
		},
		{
			"name": "hexadecagon",
			"from": [7.46606, 17.251, 27.937],
			"to": [7.55206, 17.37813, 27.98],
			"rotation": {"angle": 0, "axis": "y", "origin": [7.12206, 17.20706, 27.55]},
			"faces": {
				"north": {"uv": [0, 0, 1, 1], "rotation": 270, "texture": "#2"},
				"east": {"uv": [0, 0, 1, 1], "rotation": 270, "texture": "#2"},
				"south": {"uv": [0, 0, 1, 1], "rotation": 270, "texture": "#2"},
				"west": {"uv": [0, 0, 1, 1], "rotation": 90, "texture": "#2"},
				"up": {"uv": [0, 0, 1, 1], "rotation": 180, "texture": "#2"},
				"down": {"uv": [0, 0, 1, 1], "texture": "#2"}
			}
		},
		{
			"name": "hexadecagon",
			"from": [6.94567, 17.30144, 27.937],
			"to": [7.03167, 17.42857, 27.98],
			"rotation": {"angle": 22.5, "axis": "z", "origin": [7.37567, 17.25751, 27.55]},
			"faces": {
				"north": {"uv": [0, 1, 1, 0], "rotation": 270, "texture": "#2"},
				"east": {"uv": [1, 0, 0, 1], "rotation": 270, "texture": "#2"},
				"south": {"uv": [0, 1, 1, 0], "rotation": 270, "texture": "#2"},
				"west": {"uv": [1, 0, 0, 1], "rotation": 90, "texture": "#2"},
				"up": {"uv": [1, 0, 0, 1], "rotation": 180, "texture": "#2"},
				"down": {"uv": [1, 0, 0, 1], "texture": "#2"}
			}
		},
		{
			"name": "hexadecagon",
			"from": [7.43333, 17.30144, 27.937],
			"to": [7.51933, 17.42857, 27.98],
			"rotation": {"angle": -22.5, "axis": "z", "origin": [7.08933, 17.25751, 27.55]},
			"faces": {
				"north": {"uv": [0, 0, 1, 1], "rotation": 270, "texture": "#2"},
				"east": {"uv": [0, 0, 1, 1], "rotation": 270, "texture": "#2"},
				"south": {"uv": [0, 0, 1, 1], "rotation": 270, "texture": "#2"},
				"west": {"uv": [0, 0, 1, 1], "rotation": 90, "texture": "#2"},
				"up": {"uv": [0, 0, 1, 1], "rotation": 180, "texture": "#2"},
				"down": {"uv": [0, 0, 1, 1], "texture": "#2"}
			}
		},
		{
			"name": "hexadecagon",
			"from": [7.21554, 16.88664, 27.937],
			"to": [7.34267, 16.97264, 27.98],
			"rotation": {"angle": -45, "axis": "z", "origin": [7.38661, 17.31664, 27.55]},
			"faces": {
				"north": {"uv": [1, 0, 0, 1], "rotation": 180, "texture": "#2"},
				"east": {"uv": [1, 0, 0, 1], "rotation": 270, "texture": "#2"},
				"south": {"uv": [1, 0, 0, 1], "texture": "#2"},
				"west": {"uv": [1, 0, 0, 1], "rotation": 90, "texture": "#2"},
				"up": {"uv": [1, 0, 0, 1], "rotation": 180, "texture": "#2"},
				"down": {"uv": [1, 0, 0, 1], "texture": "#2"}
			}
		},
		{
			"name": "hexadecagon",
			"from": [7.12233, 16.88664, 27.937],
			"to": [7.24946, 16.97264, 27.98],
			"rotation": {"angle": 45, "axis": "z", "origin": [7.07839, 17.31664, 27.55]},
			"faces": {
				"north": {"uv": [0, 0, 1, 1], "rotation": 180, "texture": "#2"},
				"east": {"uv": [0, 0, 1, 1], "rotation": 270, "texture": "#2"},
				"south": {"uv": [0, 0, 1, 1], "texture": "#2"},
				"west": {"uv": [0, 0, 1, 1], "rotation": 90, "texture": "#2"},
				"up": {"uv": [0, 0, 1, 1], "rotation": 180, "texture": "#2"},
				"down": {"uv": [0, 0, 1, 1], "texture": "#2"}
			}
		},
		{
			"name": "hexadecagon",
			"from": [7.20302, 16.94545, 27.937],
			"to": [7.33014, 17.03145, 27.98],
			"rotation": {"angle": -22.5, "axis": "z", "origin": [7.37408, 17.37545, 27.55]},
			"faces": {
				"north": {"uv": [1, 0, 0, 1], "rotation": 180, "texture": "#2"},
				"east": {"uv": [1, 0, 0, 1], "rotation": 270, "texture": "#2"},
				"south": {"uv": [1, 0, 0, 1], "texture": "#2"},
				"west": {"uv": [1, 0, 0, 1], "rotation": 90, "texture": "#2"},
				"up": {"uv": [1, 0, 0, 1], "rotation": 180, "texture": "#2"},
				"down": {"uv": [1, 0, 0, 1], "texture": "#2"}
			}
		},
		{
			"name": "hexadecagon",
			"from": [7.13486, 16.94545, 27.937],
			"to": [7.26198, 17.03145, 27.98],
			"rotation": {"angle": 22.5, "axis": "z", "origin": [7.09092, 17.37545, 27.55]},
			"faces": {
				"north": {"uv": [0, 0, 1, 1], "rotation": 180, "texture": "#2"},
				"east": {"uv": [0, 0, 1, 1], "rotation": 270, "texture": "#2"},
				"south": {"uv": [0, 0, 1, 1], "texture": "#2"},
				"west": {"uv": [0, 0, 1, 1], "rotation": 90, "texture": "#2"},
				"up": {"uv": [0, 0, 1, 1], "rotation": 180, "texture": "#2"},
				"down": {"uv": [0, 0, 1, 1], "texture": "#2"}
			}
		},
		{
			"name": "hexadecagon",
			"from": [7.16894, 17.54812, 27.937],
			"to": [7.29606, 17.63412, 27.98],
			"rotation": {"angle": 0, "axis": "y", "origin": [7.125, 17.97812, 27.55]},
			"faces": {
				"north": {"uv": [0, 0, 1, 1], "rotation": 180, "texture": "#2"},
				"east": {"uv": [0, 0, 1, 1], "rotation": 270, "texture": "#2"},
				"south": {"uv": [0, 0, 1, 1], "texture": "#2"},
				"west": {"uv": [0, 0, 1, 1], "rotation": 90, "texture": "#2"},
				"up": {"uv": [0, 0, 1, 1], "rotation": 180, "texture": "#2"},
				"down": {"uv": [0, 0, 1, 1], "texture": "#2"}
			}
		},
		{
			"name": "hexadecagon",
			"from": [7.21938, 17.51539, 27.937],
			"to": [7.34651, 17.60139, 27.98],
			"rotation": {"angle": 22.5, "axis": "z", "origin": [7.17545, 17.17139, 27.55]},
			"faces": {
				"north": {"uv": [1, 0, 0, 1], "texture": "#2"},
				"east": {"uv": [1, 0, 0, 1], "rotation": 270, "texture": "#2"},
				"south": {"uv": [1, 0, 0, 1], "rotation": 180, "texture": "#2"},
				"west": {"uv": [1, 0, 0, 1], "rotation": 90, "texture": "#2"},
				"up": {"uv": [1, 0, 0, 1], "rotation": 180, "texture": "#2"},
				"down": {"uv": [1, 0, 0, 1], "texture": "#2"}
			}
		},
		{
			"name": "hexadecagon",
			"from": [7.16894, 16.995, 27.937],
			"to": [7.29606, 17.081, 27.98],
			"rotation": {"angle": 0, "axis": "y", "origin": [7.125, 17.425, 27.55]},
			"faces": {
				"north": {"uv": [0, 0, 1, 1], "rotation": 180, "texture": "#2"},
				"east": {"uv": [0, 0, 1, 1], "rotation": 270, "texture": "#2"},
				"south": {"uv": [0, 0, 1, 1], "texture": "#2"},
				"west": {"uv": [0, 0, 1, 1], "rotation": 90, "texture": "#2"},
				"up": {"uv": [0, 0, 1, 1], "rotation": 180, "texture": "#2"},
				"down": {"uv": [0, 0, 1, 1], "texture": "#2"}
			}
		},
		{
			"name": "hexadecagon",
			"from": [7.21938, 17.51539, 24.212],
			"to": [7.34651, 17.60139, 24.255],
			"rotation": {"angle": 22.5, "axis": "z", "origin": [7.17545, 17.17139, 23.825]},
			"faces": {
				"north": {"uv": [1, 0, 0, 1], "texture": "#2"},
				"east": {"uv": [1, 0, 0, 1], "rotation": 270, "texture": "#2"},
				"south": {"uv": [1, 0, 0, 1], "rotation": 180, "texture": "#2"},
				"west": {"uv": [1, 0, 0, 1], "rotation": 90, "texture": "#2"},
				"up": {"uv": [1, 0, 0, 1], "rotation": 180, "texture": "#2"},
				"down": {"uv": [1, 0, 0, 1], "texture": "#2"}
			}
		},
		{
			"name": "hexadecagon",
			"from": [7.11849, 17.51539, 24.212],
			"to": [7.24562, 17.60139, 24.255],
			"rotation": {"angle": -22.5, "axis": "z", "origin": [7.28955, 17.17139, 23.825]},
			"faces": {
				"north": {"uv": [0, 0, 1, 1], "texture": "#2"},
				"east": {"uv": [0, 0, 1, 1], "rotation": 270, "texture": "#2"},
				"south": {"uv": [0, 0, 1, 1], "rotation": 180, "texture": "#2"},
				"west": {"uv": [0, 0, 1, 1], "rotation": 90, "texture": "#2"},
				"up": {"uv": [0, 0, 1, 1], "rotation": 180, "texture": "#2"},
				"down": {"uv": [0, 0, 1, 1], "texture": "#2"}
			}
		},
		{
			"name": "hexadecagon",
			"from": [6.80458, 17.20439, 24.212],
			"to": [6.89058, 17.33152, 24.255],
			"rotation": {"angle": -45, "axis": "z", "origin": [7.23458, 17.16045, 23.825]},
			"faces": {
				"north": {"uv": [0, 1, 1, 0], "rotation": 270, "texture": "#2"},
				"east": {"uv": [1, 0, 0, 1], "rotation": 270, "texture": "#2"},
				"south": {"uv": [0, 1, 1, 0], "rotation": 270, "texture": "#2"},
				"west": {"uv": [1, 0, 0, 1], "rotation": 90, "texture": "#2"},
				"up": {"uv": [1, 0, 0, 1], "rotation": 180, "texture": "#2"},
				"down": {"uv": [1, 0, 0, 1], "texture": "#2"}
			}
		},
		{
			"name": "hexadecagon",
			"from": [7.57442, 17.20439, 24.212],
			"to": [7.66042, 17.33152, 24.255],
			"rotation": {"angle": 45, "axis": "z", "origin": [7.23042, 17.16045, 23.825]},
			"faces": {
				"north": {"uv": [0, 0, 1, 1], "rotation": 270, "texture": "#2"},
				"east": {"uv": [0, 0, 1, 1], "rotation": 270, "texture": "#2"},
				"south": {"uv": [0, 0, 1, 1], "rotation": 270, "texture": "#2"},
				"west": {"uv": [0, 0, 1, 1], "rotation": 90, "texture": "#2"},
				"up": {"uv": [0, 0, 1, 1], "rotation": 180, "texture": "#2"},
				"down": {"uv": [0, 0, 1, 1], "texture": "#2"}
			}
		},
		{
			"name": "hexadecagon",
			"from": [6.86339, 17.21692, 24.212],
			"to": [6.94939, 17.34405, 24.255],
			"rotation": {"angle": -22.5, "axis": "z", "origin": [7.29339, 17.17298, 23.825]},
			"faces": {
				"north": {"uv": [0, 1, 1, 0], "rotation": 270, "texture": "#2"},
				"east": {"uv": [1, 0, 0, 1], "rotation": 270, "texture": "#2"},
				"south": {"uv": [0, 1, 1, 0], "rotation": 270, "texture": "#2"},
				"west": {"uv": [1, 0, 0, 1], "rotation": 90, "texture": "#2"},
				"up": {"uv": [1, 0, 0, 1], "rotation": 180, "texture": "#2"},
				"down": {"uv": [1, 0, 0, 1], "texture": "#2"}
			}
		},
		{
			"name": "hexadecagon",
			"from": [7.51561, 17.21692, 24.212],
			"to": [7.60161, 17.34405, 24.255],
			"rotation": {"angle": 22.5, "axis": "z", "origin": [7.17161, 17.17298, 23.825]},
			"faces": {
				"north": {"uv": [0, 0, 1, 1], "rotation": 270, "texture": "#2"},
				"east": {"uv": [0, 0, 1, 1], "rotation": 270, "texture": "#2"},
				"south": {"uv": [0, 0, 1, 1], "rotation": 270, "texture": "#2"},
				"west": {"uv": [0, 0, 1, 1], "rotation": 90, "texture": "#2"},
				"up": {"uv": [0, 0, 1, 1], "rotation": 180, "texture": "#2"},
				"down": {"uv": [0, 0, 1, 1], "texture": "#2"}
			}
		},
		{
			"name": "hexadecagon",
			"from": [6.91294, 17.251, 24.212],
			"to": [6.99894, 17.37813, 24.255],
			"rotation": {"angle": 0, "axis": "y", "origin": [7.34294, 17.20706, 23.825]},
			"faces": {
				"north": {"uv": [0, 1, 1, 0], "rotation": 270, "texture": "#2"},
				"east": {"uv": [1, 0, 0, 1], "rotation": 270, "texture": "#2"},
				"south": {"uv": [0, 1, 1, 0], "rotation": 270, "texture": "#2"},
				"west": {"uv": [1, 0, 0, 1], "rotation": 90, "texture": "#2"},
				"up": {"uv": [1, 0, 0, 1], "rotation": 180, "texture": "#2"},
				"down": {"uv": [1, 0, 0, 1], "texture": "#2"}
			}
		},
		{
			"name": "hexadecagon",
			"from": [7.46606, 17.251, 24.212],
			"to": [7.55206, 17.37813, 24.255],
			"rotation": {"angle": 0, "axis": "y", "origin": [7.12206, 17.20706, 23.825]},
			"faces": {
				"north": {"uv": [0, 0, 1, 1], "rotation": 270, "texture": "#2"},
				"east": {"uv": [0, 0, 1, 1], "rotation": 270, "texture": "#2"},
				"south": {"uv": [0, 0, 1, 1], "rotation": 270, "texture": "#2"},
				"west": {"uv": [0, 0, 1, 1], "rotation": 90, "texture": "#2"},
				"up": {"uv": [0, 0, 1, 1], "rotation": 180, "texture": "#2"},
				"down": {"uv": [0, 0, 1, 1], "texture": "#2"}
			}
		},
		{
			"name": "hexadecagon",
			"from": [6.94567, 17.30144, 24.212],
			"to": [7.03167, 17.42857, 24.255],
			"rotation": {"angle": 22.5, "axis": "z", "origin": [7.37567, 17.25751, 23.825]},
			"faces": {
				"north": {"uv": [0, 1, 1, 0], "rotation": 270, "texture": "#2"},
				"east": {"uv": [1, 0, 0, 1], "rotation": 270, "texture": "#2"},
				"south": {"uv": [0, 1, 1, 0], "rotation": 270, "texture": "#2"},
				"west": {"uv": [1, 0, 0, 1], "rotation": 90, "texture": "#2"},
				"up": {"uv": [1, 0, 0, 1], "rotation": 180, "texture": "#2"},
				"down": {"uv": [1, 0, 0, 1], "texture": "#2"}
			}
		},
		{
			"name": "hexadecagon",
			"from": [7.43333, 17.30144, 24.212],
			"to": [7.51933, 17.42857, 24.255],
			"rotation": {"angle": -22.5, "axis": "z", "origin": [7.08933, 17.25751, 23.825]},
			"faces": {
				"north": {"uv": [0, 0, 1, 1], "rotation": 270, "texture": "#2"},
				"east": {"uv": [0, 0, 1, 1], "rotation": 270, "texture": "#2"},
				"south": {"uv": [0, 0, 1, 1], "rotation": 270, "texture": "#2"},
				"west": {"uv": [0, 0, 1, 1], "rotation": 90, "texture": "#2"},
				"up": {"uv": [0, 0, 1, 1], "rotation": 180, "texture": "#2"},
				"down": {"uv": [0, 0, 1, 1], "texture": "#2"}
			}
		},
		{
			"name": "hexadecagon",
			"from": [7.21554, 16.88664, 24.212],
			"to": [7.34267, 16.97264, 24.255],
			"rotation": {"angle": -45, "axis": "z", "origin": [7.38661, 17.31664, 23.825]},
			"faces": {
				"north": {"uv": [1, 0, 0, 1], "rotation": 180, "texture": "#2"},
				"east": {"uv": [1, 0, 0, 1], "rotation": 270, "texture": "#2"},
				"south": {"uv": [1, 0, 0, 1], "texture": "#2"},
				"west": {"uv": [1, 0, 0, 1], "rotation": 90, "texture": "#2"},
				"up": {"uv": [1, 0, 0, 1], "rotation": 180, "texture": "#2"},
				"down": {"uv": [1, 0, 0, 1], "texture": "#2"}
			}
		},
		{
			"name": "hexadecagon",
			"from": [7.12233, 16.88664, 24.212],
			"to": [7.24946, 16.97264, 24.255],
			"rotation": {"angle": 45, "axis": "z", "origin": [7.07839, 17.31664, 23.825]},
			"faces": {
				"north": {"uv": [0, 0, 1, 1], "rotation": 180, "texture": "#2"},
				"east": {"uv": [0, 0, 1, 1], "rotation": 270, "texture": "#2"},
				"south": {"uv": [0, 0, 1, 1], "texture": "#2"},
				"west": {"uv": [0, 0, 1, 1], "rotation": 90, "texture": "#2"},
				"up": {"uv": [0, 0, 1, 1], "rotation": 180, "texture": "#2"},
				"down": {"uv": [0, 0, 1, 1], "texture": "#2"}
			}
		},
		{
			"name": "hexadecagon",
			"from": [7.20302, 16.94545, 24.212],
			"to": [7.33014, 17.03145, 24.255],
			"rotation": {"angle": -22.5, "axis": "z", "origin": [7.37408, 17.37545, 23.825]},
			"faces": {
				"north": {"uv": [1, 0, 0, 1], "rotation": 180, "texture": "#2"},
				"east": {"uv": [1, 0, 0, 1], "rotation": 270, "texture": "#2"},
				"south": {"uv": [1, 0, 0, 1], "texture": "#2"},
				"west": {"uv": [1, 0, 0, 1], "rotation": 90, "texture": "#2"},
				"up": {"uv": [1, 0, 0, 1], "rotation": 180, "texture": "#2"},
				"down": {"uv": [1, 0, 0, 1], "texture": "#2"}
			}
		},
		{
			"name": "hexadecagon",
			"from": [7.13486, 16.94545, 24.212],
			"to": [7.26198, 17.03145, 24.255],
			"rotation": {"angle": 22.5, "axis": "z", "origin": [7.09092, 17.37545, 23.825]},
			"faces": {
				"north": {"uv": [0, 0, 1, 1], "rotation": 180, "texture": "#2"},
				"east": {"uv": [0, 0, 1, 1], "rotation": 270, "texture": "#2"},
				"south": {"uv": [0, 0, 1, 1], "texture": "#2"},
				"west": {"uv": [0, 0, 1, 1], "rotation": 90, "texture": "#2"},
				"up": {"uv": [0, 0, 1, 1], "rotation": 180, "texture": "#2"},
				"down": {"uv": [0, 0, 1, 1], "texture": "#2"}
			}
		},
		{
			"name": "hexadecagon",
			"from": [7.16894, 17.54812, 24.212],
			"to": [7.29606, 17.63412, 24.255],
			"rotation": {"angle": 0, "axis": "y", "origin": [7.125, 17.97812, 23.825]},
			"faces": {
				"north": {"uv": [0, 0, 1, 1], "rotation": 180, "texture": "#2"},
				"east": {"uv": [0, 0, 1, 1], "rotation": 270, "texture": "#2"},
				"south": {"uv": [0, 0, 1, 1], "texture": "#2"},
				"west": {"uv": [0, 0, 1, 1], "rotation": 90, "texture": "#2"},
				"up": {"uv": [0, 0, 1, 1], "rotation": 180, "texture": "#2"},
				"down": {"uv": [0, 0, 1, 1], "texture": "#2"}
			}
		},
		{
			"name": "hexadecagon",
			"from": [7.16894, 16.995, 24.212],
			"to": [7.29606, 17.081, 24.255],
			"rotation": {"angle": 0, "axis": "y", "origin": [7.125, 17.425, 23.825]},
			"faces": {
				"north": {"uv": [0, 0, 1, 1], "rotation": 180, "texture": "#2"},
				"east": {"uv": [0, 0, 1, 1], "rotation": 270, "texture": "#2"},
				"south": {"uv": [0, 0, 1, 1], "texture": "#2"},
				"west": {"uv": [0, 0, 1, 1], "rotation": 90, "texture": "#2"},
				"up": {"uv": [0, 0, 1, 1], "rotation": 180, "texture": "#2"},
				"down": {"uv": [0, 0, 1, 1], "texture": "#2"}
			}
		},
		{
			"name": "hexadecagon",
			"from": [7.11849, 17.51539, 20.462],
			"to": [7.24562, 17.60139, 20.505],
			"rotation": {"angle": -22.5, "axis": "z", "origin": [7.28955, 17.17139, 20.075]},
			"faces": {
				"north": {"uv": [0, 0, 1, 1], "texture": "#2"},
				"east": {"uv": [0, 0, 1, 1], "rotation": 270, "texture": "#2"},
				"south": {"uv": [0, 0, 1, 1], "rotation": 180, "texture": "#2"},
				"west": {"uv": [0, 0, 1, 1], "rotation": 90, "texture": "#2"},
				"up": {"uv": [0, 0, 1, 1], "rotation": 180, "texture": "#2"},
				"down": {"uv": [0, 0, 1, 1], "texture": "#2"}
			}
		},
		{
			"name": "hexadecagon",
			"from": [6.80458, 17.20439, 20.462],
			"to": [6.89058, 17.33152, 20.505],
			"rotation": {"angle": -45, "axis": "z", "origin": [7.23458, 17.16045, 20.075]},
			"faces": {
				"north": {"uv": [0, 1, 1, 0], "rotation": 270, "texture": "#2"},
				"east": {"uv": [1, 0, 0, 1], "rotation": 270, "texture": "#2"},
				"south": {"uv": [0, 1, 1, 0], "rotation": 270, "texture": "#2"},
				"west": {"uv": [1, 0, 0, 1], "rotation": 90, "texture": "#2"},
				"up": {"uv": [1, 0, 0, 1], "rotation": 180, "texture": "#2"},
				"down": {"uv": [1, 0, 0, 1], "texture": "#2"}
			}
		},
		{
			"name": "hexadecagon",
			"from": [7.57442, 17.20439, 20.462],
			"to": [7.66042, 17.33152, 20.505],
			"rotation": {"angle": 45, "axis": "z", "origin": [7.23042, 17.16045, 20.075]},
			"faces": {
				"north": {"uv": [0, 0, 1, 1], "rotation": 270, "texture": "#2"},
				"east": {"uv": [0, 0, 1, 1], "rotation": 270, "texture": "#2"},
				"south": {"uv": [0, 0, 1, 1], "rotation": 270, "texture": "#2"},
				"west": {"uv": [0, 0, 1, 1], "rotation": 90, "texture": "#2"},
				"up": {"uv": [0, 0, 1, 1], "rotation": 180, "texture": "#2"},
				"down": {"uv": [0, 0, 1, 1], "texture": "#2"}
			}
		},
		{
			"name": "hexadecagon",
			"from": [6.86339, 17.21692, 20.462],
			"to": [6.94939, 17.34405, 20.505],
			"rotation": {"angle": -22.5, "axis": "z", "origin": [7.29339, 17.17298, 20.075]},
			"faces": {
				"north": {"uv": [0, 1, 1, 0], "rotation": 270, "texture": "#2"},
				"east": {"uv": [1, 0, 0, 1], "rotation": 270, "texture": "#2"},
				"south": {"uv": [0, 1, 1, 0], "rotation": 270, "texture": "#2"},
				"west": {"uv": [1, 0, 0, 1], "rotation": 90, "texture": "#2"},
				"up": {"uv": [1, 0, 0, 1], "rotation": 180, "texture": "#2"},
				"down": {"uv": [1, 0, 0, 1], "texture": "#2"}
			}
		},
		{
			"name": "hexadecagon",
			"from": [7.51561, 17.21692, 20.462],
			"to": [7.60161, 17.34405, 20.505],
			"rotation": {"angle": 22.5, "axis": "z", "origin": [7.17161, 17.17298, 20.075]},
			"faces": {
				"north": {"uv": [0, 0, 1, 1], "rotation": 270, "texture": "#2"},
				"east": {"uv": [0, 0, 1, 1], "rotation": 270, "texture": "#2"},
				"south": {"uv": [0, 0, 1, 1], "rotation": 270, "texture": "#2"},
				"west": {"uv": [0, 0, 1, 1], "rotation": 90, "texture": "#2"},
				"up": {"uv": [0, 0, 1, 1], "rotation": 180, "texture": "#2"},
				"down": {"uv": [0, 0, 1, 1], "texture": "#2"}
			}
		},
		{
			"name": "hexadecagon",
			"from": [6.91294, 17.251, 20.462],
			"to": [6.99894, 17.37813, 20.505],
			"rotation": {"angle": 0, "axis": "y", "origin": [7.34294, 17.20706, 20.075]},
			"faces": {
				"north": {"uv": [0, 1, 1, 0], "rotation": 270, "texture": "#2"},
				"east": {"uv": [1, 0, 0, 1], "rotation": 270, "texture": "#2"},
				"south": {"uv": [0, 1, 1, 0], "rotation": 270, "texture": "#2"},
				"west": {"uv": [1, 0, 0, 1], "rotation": 90, "texture": "#2"},
				"up": {"uv": [1, 0, 0, 1], "rotation": 180, "texture": "#2"},
				"down": {"uv": [1, 0, 0, 1], "texture": "#2"}
			}
		},
		{
			"name": "hexadecagon",
			"from": [7.46606, 17.251, 20.462],
			"to": [7.55206, 17.37813, 20.505],
			"rotation": {"angle": 0, "axis": "y", "origin": [7.12206, 17.20706, 20.075]},
			"faces": {
				"north": {"uv": [0, 0, 1, 1], "rotation": 270, "texture": "#2"},
				"east": {"uv": [0, 0, 1, 1], "rotation": 270, "texture": "#2"},
				"south": {"uv": [0, 0, 1, 1], "rotation": 270, "texture": "#2"},
				"west": {"uv": [0, 0, 1, 1], "rotation": 90, "texture": "#2"},
				"up": {"uv": [0, 0, 1, 1], "rotation": 180, "texture": "#2"},
				"down": {"uv": [0, 0, 1, 1], "texture": "#2"}
			}
		},
		{
			"name": "hexadecagon",
			"from": [6.94567, 17.30144, 20.462],
			"to": [7.03167, 17.42857, 20.505],
			"rotation": {"angle": 22.5, "axis": "z", "origin": [7.37567, 17.25751, 20.075]},
			"faces": {
				"north": {"uv": [0, 1, 1, 0], "rotation": 270, "texture": "#2"},
				"east": {"uv": [1, 0, 0, 1], "rotation": 270, "texture": "#2"},
				"south": {"uv": [0, 1, 1, 0], "rotation": 270, "texture": "#2"},
				"west": {"uv": [1, 0, 0, 1], "rotation": 90, "texture": "#2"},
				"up": {"uv": [1, 0, 0, 1], "rotation": 180, "texture": "#2"},
				"down": {"uv": [1, 0, 0, 1], "texture": "#2"}
			}
		},
		{
			"name": "hexadecagon",
			"from": [7.43333, 17.30144, 20.462],
			"to": [7.51933, 17.42857, 20.505],
			"rotation": {"angle": -22.5, "axis": "z", "origin": [7.08933, 17.25751, 20.075]},
			"faces": {
				"north": {"uv": [0, 0, 1, 1], "rotation": 270, "texture": "#2"},
				"east": {"uv": [0, 0, 1, 1], "rotation": 270, "texture": "#2"},
				"south": {"uv": [0, 0, 1, 1], "rotation": 270, "texture": "#2"},
				"west": {"uv": [0, 0, 1, 1], "rotation": 90, "texture": "#2"},
				"up": {"uv": [0, 0, 1, 1], "rotation": 180, "texture": "#2"},
				"down": {"uv": [0, 0, 1, 1], "texture": "#2"}
			}
		},
		{
			"name": "hexadecagon",
			"from": [7.21554, 16.88664, 20.462],
			"to": [7.34267, 16.97264, 20.505],
			"rotation": {"angle": -45, "axis": "z", "origin": [7.38661, 17.31664, 20.075]},
			"faces": {
				"north": {"uv": [1, 0, 0, 1], "rotation": 180, "texture": "#2"},
				"east": {"uv": [1, 0, 0, 1], "rotation": 270, "texture": "#2"},
				"south": {"uv": [1, 0, 0, 1], "texture": "#2"},
				"west": {"uv": [1, 0, 0, 1], "rotation": 90, "texture": "#2"},
				"up": {"uv": [1, 0, 0, 1], "rotation": 180, "texture": "#2"},
				"down": {"uv": [1, 0, 0, 1], "texture": "#2"}
			}
		},
		{
			"name": "hexadecagon",
			"from": [7.12233, 16.88664, 20.462],
			"to": [7.24946, 16.97264, 20.505],
			"rotation": {"angle": 45, "axis": "z", "origin": [7.07839, 17.31664, 20.075]},
			"faces": {
				"north": {"uv": [0, 0, 1, 1], "rotation": 180, "texture": "#2"},
				"east": {"uv": [0, 0, 1, 1], "rotation": 270, "texture": "#2"},
				"south": {"uv": [0, 0, 1, 1], "texture": "#2"},
				"west": {"uv": [0, 0, 1, 1], "rotation": 90, "texture": "#2"},
				"up": {"uv": [0, 0, 1, 1], "rotation": 180, "texture": "#2"},
				"down": {"uv": [0, 0, 1, 1], "texture": "#2"}
			}
		},
		{
			"name": "hexadecagon",
			"from": [7.20302, 16.94545, 20.462],
			"to": [7.33014, 17.03145, 20.505],
			"rotation": {"angle": -22.5, "axis": "z", "origin": [7.37408, 17.37545, 20.075]},
			"faces": {
				"north": {"uv": [1, 0, 0, 1], "rotation": 180, "texture": "#2"},
				"east": {"uv": [1, 0, 0, 1], "rotation": 270, "texture": "#2"},
				"south": {"uv": [1, 0, 0, 1], "texture": "#2"},
				"west": {"uv": [1, 0, 0, 1], "rotation": 90, "texture": "#2"},
				"up": {"uv": [1, 0, 0, 1], "rotation": 180, "texture": "#2"},
				"down": {"uv": [1, 0, 0, 1], "texture": "#2"}
			}
		},
		{
			"name": "hexadecagon",
			"from": [7.13486, 16.94545, 20.462],
			"to": [7.26198, 17.03145, 20.505],
			"rotation": {"angle": 22.5, "axis": "z", "origin": [7.09092, 17.37545, 20.075]},
			"faces": {
				"north": {"uv": [0, 0, 1, 1], "rotation": 180, "texture": "#2"},
				"east": {"uv": [0, 0, 1, 1], "rotation": 270, "texture": "#2"},
				"south": {"uv": [0, 0, 1, 1], "texture": "#2"},
				"west": {"uv": [0, 0, 1, 1], "rotation": 90, "texture": "#2"},
				"up": {"uv": [0, 0, 1, 1], "rotation": 180, "texture": "#2"},
				"down": {"uv": [0, 0, 1, 1], "texture": "#2"}
			}
		},
		{
			"name": "hexadecagon",
			"from": [7.16894, 17.54812, 20.462],
			"to": [7.29606, 17.63412, 20.505],
			"rotation": {"angle": 0, "axis": "y", "origin": [7.125, 17.97812, 20.075]},
			"faces": {
				"north": {"uv": [0, 0, 1, 1], "rotation": 180, "texture": "#2"},
				"east": {"uv": [0, 0, 1, 1], "rotation": 270, "texture": "#2"},
				"south": {"uv": [0, 0, 1, 1], "texture": "#2"},
				"west": {"uv": [0, 0, 1, 1], "rotation": 90, "texture": "#2"},
				"up": {"uv": [0, 0, 1, 1], "rotation": 180, "texture": "#2"},
				"down": {"uv": [0, 0, 1, 1], "texture": "#2"}
			}
		},
		{
			"name": "hexadecagon",
			"from": [7.16894, 16.995, 20.462],
			"to": [7.29606, 17.081, 20.505],
			"rotation": {"angle": 0, "axis": "y", "origin": [7.125, 17.425, 20.075]},
			"faces": {
				"north": {"uv": [0, 0, 1, 1], "rotation": 180, "texture": "#2"},
				"east": {"uv": [0, 0, 1, 1], "rotation": 270, "texture": "#2"},
				"south": {"uv": [0, 0, 1, 1], "texture": "#2"},
				"west": {"uv": [0, 0, 1, 1], "rotation": 90, "texture": "#2"},
				"up": {"uv": [0, 0, 1, 1], "rotation": 180, "texture": "#2"},
				"down": {"uv": [0, 0, 1, 1], "texture": "#2"}
			}
		},
		{
			"name": "hexadecagon",
			"from": [7.21938, 17.51539, 20.462],
			"to": [7.34651, 17.60139, 20.505],
			"rotation": {"angle": 22.5, "axis": "z", "origin": [7.17545, 17.17139, 20.075]},
			"faces": {
				"north": {"uv": [1, 0, 0, 1], "texture": "#2"},
				"east": {"uv": [1, 0, 0, 1], "rotation": 270, "texture": "#2"},
				"south": {"uv": [1, 0, 0, 1], "rotation": 180, "texture": "#2"},
				"west": {"uv": [1, 0, 0, 1], "rotation": 90, "texture": "#2"},
				"up": {"uv": [1, 0, 0, 1], "rotation": 180, "texture": "#2"},
				"down": {"uv": [1, 0, 0, 1], "texture": "#2"}
			}
		},
		{
			"name": "head",
			"from": [4.8, 9.3, 11.6],
			"to": [9.6, 14.1, 16.4],
			"rotation": {"angle": 0, "axis": "y", "origin": [7.2, 0, 14]},
			"faces": {
				"north": {"uv": [2, 2, 4, 4], "texture": "#1_0"},
				"east": {"uv": [0, 2, 2, 4], "texture": "#1_0"},
				"south": {"uv": [6, 2, 8, 4], "texture": "#1_0"},
				"west": {"uv": [4, 2, 6, 4], "texture": "#1_0"},
				"up": {"uv": [4, 2, 2, 0], "texture": "#1_0"},
				"down": {"uv": [6, 0, 4, 2], "texture": "#1_0"}
			}
		},
		{
			"name": "body",
			"from": [4.8, 2.3, 12.8],
			"to": [9.6, 9.5, 15.2],
			"rotation": {"angle": 0, "axis": "y", "origin": [7.2, 0.2, 14]},
			"faces": {
				"north": {"uv": [5, 5, 7, 7.98], "texture": "#1_0"},
				"east": {"uv": [4, 5, 5, 8], "texture": "#1_0"},
				"south": {"uv": [8, 5, 10, 8], "texture": "#1_0"},
				"west": {"uv": [7, 5, 8, 7.98], "texture": "#1_0"},
				"up": {"uv": [7, 5, 5, 4], "texture": "#1_0"},
				"down": {"uv": [9, 4, 7, 5], "texture": "#1_0"}
			}
		},
		{
			"name": "right_arm",
			"from": [10.58632, 8.74141, 12.8],
			"to": [12.98632, 15.94141, 15.2],
			"rotation": {"angle": 22.5, "axis": "z", "origin": [8.18632, 6.64141, 14]},
			"faces": {
				"north": {"uv": [11, 5, 12, 8], "texture": "#1_0"},
				"east": {"uv": [10, 5, 11, 8], "texture": "#1_0"},
				"south": {"uv": [13, 5, 14, 8], "texture": "#1_0"},
				"west": {"uv": [12, 5, 13, 8], "texture": "#1_0"},
				"up": {"uv": [12, 5, 11, 4], "texture": "#1_0"},
				"down": {"uv": [13, 4, 12, 5], "texture": "#1_0"}
			}
		},
		{
			"name": "left_arm",
			"from": [5.77627, 7.87364, 12.8],
			"to": [8.17627, 15.07364, 15.2],
			"rotation": {"angle": -22.5, "axis": "z", "origin": [10.57627, 17.17364, 14]},
			"faces": {
				"north": {"uv": [11, 13, 12, 16], "rotation": 180, "texture": "#1_0"},
				"east": {"uv": [8, 13, 9, 16], "rotation": 180, "texture": "#1_0"},
				"south": {"uv": [9, 13, 10, 16], "rotation": 180, "texture": "#1_0"},
				"west": {"uv": [10, 13, 11, 16], "rotation": 180, "texture": "#1_0"},
				"up": {"uv": [11, 12, 10, 13], "texture": "#1_0"},
				"down": {"uv": [10, 13, 9, 12], "texture": "#1_0"}
			}
		},
		{
			"name": "right_leg",
			"from": [8, -0.05, 6.9],
			"to": [10.4, 2.35, 14.1],
			"rotation": {"angle": -22.5, "axis": "y", "origin": [8, 1.15, 12]},
			"faces": {
				"north": {"uv": [3, 4, 2, 5], "rotation": 180, "texture": "#1_0"},
				"east": {"uv": [0, 5, 1, 8], "rotation": 270, "texture": "#1_0"},
				"south": {"uv": [2, 5, 1, 4], "texture": "#1_0"},
				"west": {"uv": [2, 5, 3, 8], "rotation": 90, "texture": "#1_0"},
				"up": {"uv": [1, 5, 2, 8], "rotation": 180, "texture": "#1_0"},
				"down": {"uv": [3, 5, 4, 8], "texture": "#1_0"}
			}
		},
		{
			"name": "left_leg",
			"from": [3.99273, -0.05, 6.9],
			"to": [6.39273, 2.35, 14.1],
			"rotation": {"angle": 22.5, "axis": "y", "origin": [6.39273, 1.15, 12]},
			"faces": {
				"north": {"uv": [7, 12, 6, 13], "rotation": 180, "texture": "#1_0"},
				"east": {"uv": [4, 13, 5, 16], "rotation": 270, "texture": "#1_0"},
				"south": {"uv": [6, 13, 5, 12], "texture": "#1_0"},
				"west": {"uv": [6, 13, 7, 16], "rotation": 90, "texture": "#1_0"},
				"up": {"uv": [5, 13, 6, 16], "rotation": 180, "texture": "#1_0"},
				"down": {"uv": [7, 13, 8, 16], "texture": "#1_0"}
			}
		},
		{
			"name": "head_2nd_layer",
			"from": [4.5, 9, 11.3],
			"to": [9.9, 14.4, 16.7],
			"rotation": {"angle": 0, "axis": "y", "origin": [7.2, 0, 14]},
			"faces": {
				"north": {"uv": [10, 2, 12, 4], "texture": "#1_0"},
				"east": {"uv": [8, 2, 10, 4], "texture": "#1_0"},
				"south": {"uv": [14, 2, 16, 4], "texture": "#1_0"},
				"west": {"uv": [12, 2, 14, 4], "texture": "#1_0"},
				"up": {"uv": [12, 2, 10, 0], "texture": "#1_0"},
				"down": {"uv": [14, 0, 12, 2], "texture": "#1_0"}
			}
		},
		{
			"name": "hexadecagon",
			"from": [5.82513, -0.76, -11.68],
			"to": [8.43487, 2.02, -10.696],
			"rotation": {"angle": -45, "axis": "y", "origin": [7.13, 0.88, -5.12]},
			"faces": {
				"north": {"uv": [0, 0, 1, 1], "texture": "#6"},
				"east": {"uv": [0, 0, 1, 1], "texture": "#6"},
				"south": {"uv": [0, 0, 1, 1], "texture": "#6"},
				"west": {"uv": [0, 0, 1, 1], "texture": "#6"},
				"up": {"uv": [0, 0, 1, 1], "texture": "#6"},
				"down": {"uv": [0, 0, 1, 1], "texture": "#6"}
			}
		},
		{
			"name": "hexadecagon",
			"from": [5.82513, -0.76, -11.68],
			"to": [8.43487, 2.02, -10.696],
			"rotation": {"angle": -22.5, "axis": "y", "origin": [7.13, 0.88, -5.12]},
			"faces": {
				"north": {"uv": [0, 0, 1, 1], "texture": "#6"},
				"east": {"uv": [0, 0, 1, 1], "texture": "#6"},
				"south": {"uv": [0, 0, 1, 1], "texture": "#6"},
				"west": {"uv": [0, 0, 1, 1], "texture": "#6"},
				"up": {"uv": [0, 0, 1, 1], "texture": "#6"},
				"down": {"uv": [0, 0, 1, 1], "texture": "#6"}
			}
		},
		{
			"name": "hexadecagon",
			"from": [5.82513, -0.76, -11.68],
			"to": [8.43487, 2.02, -10.696],
			"rotation": {"angle": 0, "axis": "y", "origin": [7.13, 0.88, -5.12]},
			"faces": {
				"north": {"uv": [0, 0, 1, 1], "texture": "#6"},
				"east": {"uv": [0, 0, 1, 1], "texture": "#6"},
				"south": {"uv": [0, 0, 1, 1], "texture": "#6"},
				"west": {"uv": [0, 0, 1, 1], "texture": "#6"},
				"up": {"uv": [0, 0, 1, 1], "texture": "#6"},
				"down": {"uv": [0, 0, 1, 1], "texture": "#6"}
			}
		},
		{
			"name": "hexadecagon",
			"from": [5.82513, -0.76, -11.68],
			"to": [8.43487, 2.02, -10.696],
			"rotation": {"angle": 22.5, "axis": "y", "origin": [7.13, 0.88, -5.12]},
			"faces": {
				"north": {"uv": [0, 0, 1, 1], "texture": "#6"},
				"east": {"uv": [0, 0, 1, 1], "texture": "#6"},
				"south": {"uv": [0, 0, 1, 1], "texture": "#6"},
				"west": {"uv": [0, 0, 1, 1], "texture": "#6"},
				"up": {"uv": [0, 0, 1, 1], "texture": "#6"},
				"down": {"uv": [0, 0, 1, 1], "texture": "#6"}
			}
		},
		{
			"name": "hexadecagon",
			"from": [5.82513, -0.76, -11.68],
			"to": [8.43487, 2.02, -10.696],
			"rotation": {"angle": 45, "axis": "y", "origin": [7.13, 0.88, -5.12]},
			"faces": {
				"north": {"uv": [0, 0, 1, 1], "texture": "#6"},
				"east": {"uv": [0, 0, 1, 1], "texture": "#6"},
				"south": {"uv": [0, 0, 1, 1], "texture": "#6"},
				"west": {"uv": [0, 0, 1, 1], "texture": "#6"},
				"up": {"uv": [0, 0, 1, 1], "texture": "#6"},
				"down": {"uv": [0, 0, 1, 1], "texture": "#6"}
			}
		},
		{
			"name": "hexadecagon",
			"from": [5.82513, -0.76, 0.456],
			"to": [8.43487, 2.02, 1.44],
			"rotation": {"angle": -45, "axis": "y", "origin": [7.13, 0.88, -5.12]},
			"faces": {
				"north": {"uv": [0, 0, 1, 1], "texture": "#6"},
				"east": {"uv": [0, 0, 1, 1], "texture": "#6"},
				"south": {"uv": [0, 0, 1, 1], "texture": "#6"},
				"west": {"uv": [0, 0, 1, 1], "texture": "#6"},
				"up": {"uv": [0, 0, 1, 1], "texture": "#6"},
				"down": {"uv": [0, 0, 1, 1], "texture": "#6"}
			}
		},
		{
			"name": "hexadecagon",
			"from": [5.82513, -0.76, 0.456],
			"to": [8.43487, 2.02, 1.44],
			"rotation": {"angle": -22.5, "axis": "y", "origin": [7.13, 0.88, -5.12]},
			"faces": {
				"north": {"uv": [0, 0, 1, 1], "texture": "#6"},
				"east": {"uv": [0, 0, 1, 1], "texture": "#6"},
				"south": {"uv": [0, 0, 1, 1], "texture": "#6"},
				"west": {"uv": [0, 0, 1, 1], "texture": "#6"},
				"up": {"uv": [0, 0, 1, 1], "texture": "#6"},
				"down": {"uv": [0, 0, 1, 1], "texture": "#6"}
			}
		},
		{
			"name": "hexadecagon",
			"from": [5.82513, -0.76, 0.456],
			"to": [8.43487, 2.02, 1.44],
			"rotation": {"angle": 0, "axis": "y", "origin": [7.13, 0.88, -5.12]},
			"faces": {
				"north": {"uv": [0, 0, 1, 1], "texture": "#6"},
				"east": {"uv": [0, 0, 1, 1], "texture": "#6"},
				"south": {"uv": [0, 0, 1, 1], "texture": "#6"},
				"west": {"uv": [0, 0, 1, 1], "texture": "#6"},
				"up": {"uv": [0, 0, 1, 1], "texture": "#6"},
				"down": {"uv": [0, 0, 1, 1], "texture": "#6"}
			}
		},
		{
			"name": "hexadecagon",
			"from": [3.02513, -0.66, -10.094],
			"to": [11.33487, -0.18, -0.01],
			"rotation": {"angle": 0, "axis": "y", "origin": [7.13, 0.98, -11.37]},
			"faces": {
				"north": {"uv": [0, 0, 1, 1], "texture": "#5"},
				"east": {"uv": [0, 0, 1, 1], "texture": "#5"},
				"south": {"uv": [0, 0, 1, 1], "texture": "#5"},
				"west": {"uv": [0, 0, 1, 1], "texture": "#5"},
				"up": {"uv": [0, 0, 1, 1], "texture": "#5"},
				"down": {"uv": [0, 0, 1, 1], "texture": "#5"}
			}
		},
		{
			"name": "hexadecagon",
			"from": [4.02513, -0.66, -10.844],
			"to": [10.33487, -0.18, -9.76],
			"rotation": {"angle": 0, "axis": "y", "origin": [7.13, 0.98, -12.12]},
			"faces": {
				"north": {"uv": [0, 0, 1, 1], "texture": "#5"},
				"east": {"uv": [0, 0, 1, 1], "texture": "#5"},
				"south": {"uv": [0, 0, 1, 1], "texture": "#5"},
				"west": {"uv": [0, 0, 1, 1], "texture": "#5"},
				"up": {"uv": [0, 0, 1, 1], "texture": "#5"},
				"down": {"uv": [0, 0, 1, 1], "texture": "#5"}
			}
		},
		{
			"name": "hexadecagon",
			"from": [4.02513, -0.66, -0.594],
			"to": [10.33487, -0.18, 0.49],
			"rotation": {"angle": 0, "axis": "y", "origin": [7.13, 0.98, -1.87]},
			"faces": {
				"north": {"uv": [0, 0, 1, 1], "texture": "#5"},
				"east": {"uv": [0, 0, 1, 1], "texture": "#5"},
				"south": {"uv": [0, 0, 1, 1], "texture": "#5"},
				"west": {"uv": [0, 0, 1, 1], "texture": "#5"},
				"up": {"uv": [0, 0, 1, 1], "texture": "#5"},
				"down": {"uv": [0, 0, 1, 1], "texture": "#5"}
			}
		},
		{
			"name": "hexadecagon",
			"from": [10.906, -0.66, -8.82487],
			"to": [12.69, -0.18, -1.44013],
			"rotation": {"angle": 0, "axis": "y", "origin": [9.63, 0.98, -5.62]},
			"faces": {
				"north": {"uv": [0, 0, 1, 1], "texture": "#5"},
				"east": {"uv": [0, 0, 1, 1], "texture": "#5"},
				"south": {"uv": [0, 0, 1, 1], "texture": "#5"},
				"west": {"uv": [0, 0, 1, 1], "texture": "#5"},
				"up": {"uv": [0, 0, 1, 1], "rotation": 270, "texture": "#5"},
				"down": {"uv": [0, 0, 1, 1], "rotation": 90, "texture": "#5"}
			}
		},
		{
			"name": "hexadecagon",
			"from": [1.806, -0.66, -8.92487],
			"to": [3.59, -0.18, -1.31513],
			"rotation": {"angle": 0, "axis": "y", "origin": [0.53, 0.98, -5.62]},
			"faces": {
				"north": {"uv": [0, 0, 1, 1], "texture": "#5"},
				"east": {"uv": [0, 0, 1, 1], "texture": "#5"},
				"south": {"uv": [0, 0, 1, 1], "texture": "#5"},
				"west": {"uv": [0, 0, 1, 1], "texture": "#5"},
				"up": {"uv": [0, 0, 1, 1], "rotation": 270, "texture": "#5"},
				"down": {"uv": [0, 0, 1, 1], "rotation": 90, "texture": "#5"}
			}
		},
		{
			"name": "hexadecagon",
			"from": [1.506, -0.66, -8.59987],
			"to": [3.29, -0.18, -1.66513],
			"rotation": {"angle": 0, "axis": "y", "origin": [0.23, 0.98, -5.62]},
			"faces": {
				"north": {"uv": [0, 0, 1, 1], "texture": "#5"},
				"east": {"uv": [0, 0, 1, 1], "texture": "#5"},
				"south": {"uv": [0, 0, 1, 1], "texture": "#5"},
				"west": {"uv": [0, 0, 1, 1], "texture": "#5"},
				"up": {"uv": [0, 0, 1, 1], "rotation": 270, "texture": "#5"},
				"down": {"uv": [0, 0, 1, 1], "rotation": 90, "texture": "#5"}
			}
		},
		{
			"name": "hexadecagon",
			"from": [5.82513, -0.76, 0.456],
			"to": [8.43487, 2.02, 1.44],
			"rotation": {"angle": 22.5, "axis": "y", "origin": [7.13, 0.88, -5.12]},
			"faces": {
				"north": {"uv": [0, 0, 1, 1], "texture": "#6"},
				"east": {"uv": [0, 0, 1, 1], "texture": "#6"},
				"south": {"uv": [0, 0, 1, 1], "texture": "#6"},
				"west": {"uv": [0, 0, 1, 1], "texture": "#6"},
				"up": {"uv": [0, 0, 1, 1], "texture": "#6"},
				"down": {"uv": [0, 0, 1, 1], "texture": "#6"}
			}
		},
		{
			"name": "hexadecagon",
			"from": [5.82513, -0.76, 0.456],
			"to": [8.43487, 2.02, 1.44],
			"rotation": {"angle": 45, "axis": "y", "origin": [7.13, 0.88, -5.12]},
			"faces": {
				"north": {"uv": [0, 0, 1, 1], "texture": "#6"},
				"east": {"uv": [0, 0, 1, 1], "texture": "#6"},
				"south": {"uv": [0, 0, 1, 1], "texture": "#6"},
				"west": {"uv": [0, 0, 1, 1], "texture": "#6"},
				"up": {"uv": [0, 0, 1, 1], "texture": "#6"},
				"down": {"uv": [0, 0, 1, 1], "texture": "#6"}
			}
		},
		{
			"name": "hexadecagon",
			"from": [0.57, -0.76, -6.42487],
			"to": [1.554, 2.02, -3.81513],
			"rotation": {"angle": -22.5, "axis": "y", "origin": [7.13, 0.88, -5.12]},
			"faces": {
				"north": {"uv": [0, 0, 1, 1], "texture": "#6"},
				"east": {"uv": [0, 0, 1, 1], "texture": "#6"},
				"south": {"uv": [0, 0, 1, 1], "texture": "#6"},
				"west": {"uv": [0, 0, 1, 1], "texture": "#6"},
				"up": {"uv": [0, 0, 1, 1], "texture": "#6"},
				"down": {"uv": [0, 0, 1, 1], "texture": "#6"}
			}
		},
		{
			"name": "hexadecagon",
			"from": [0.57, -0.76, -6.42487],
			"to": [1.554, 2.02, -3.81513],
			"rotation": {"angle": 0, "axis": "y", "origin": [7.13, 0.88, -5.12]},
			"faces": {
				"north": {"uv": [0, 0, 1, 1], "texture": "#6"},
				"east": {"uv": [0, 0, 1, 1], "texture": "#6"},
				"south": {"uv": [0, 0, 1, 1], "texture": "#6"},
				"west": {"uv": [0, 0, 1, 1], "texture": "#6"},
				"up": {"uv": [0, 0, 1, 1], "texture": "#6"},
				"down": {"uv": [0, 0, 1, 1], "texture": "#6"}
			}
		},
		{
			"name": "hexadecagon",
			"from": [0.57, -0.76, -6.42487],
			"to": [1.554, 2.02, -3.81513],
			"rotation": {"angle": 22.5, "axis": "y", "origin": [7.13, 0.88, -5.12]},
			"faces": {
				"north": {"uv": [0, 0, 1, 1], "texture": "#6"},
				"east": {"uv": [0, 0, 1, 1], "texture": "#6"},
				"south": {"uv": [0, 0, 1, 1], "texture": "#6"},
				"west": {"uv": [0, 0, 1, 1], "texture": "#6"},
				"up": {"uv": [0, 0, 1, 1], "texture": "#6"},
				"down": {"uv": [0, 0, 1, 1], "texture": "#6"}
			}
		},
		{
			"name": "hexadecagon",
			"from": [12.706, -0.76, -6.42487],
			"to": [13.69, 2.02, -3.81513],
			"rotation": {"angle": -22.5, "axis": "y", "origin": [7.13, 0.88, -5.12]},
			"faces": {
				"north": {"uv": [0, 0, 1, 1], "texture": "#6"},
				"east": {"uv": [0, 0, 1, 1], "texture": "#6"},
				"south": {"uv": [0, 0, 1, 1], "texture": "#6"},
				"west": {"uv": [0, 0, 1, 1], "texture": "#6"},
				"up": {"uv": [0, 0, 1, 1], "texture": "#6"},
				"down": {"uv": [0, 0, 1, 1], "texture": "#6"}
			}
		},
		{
			"name": "hexadecagon",
			"from": [12.706, -0.76, -6.42487],
			"to": [13.69, 2.02, -3.81513],
			"rotation": {"angle": 0, "axis": "y", "origin": [7.13, 0.88, -5.12]},
			"faces": {
				"north": {"uv": [0, 0, 1, 1], "texture": "#6"},
				"east": {"uv": [0, 0, 1, 1], "texture": "#6"},
				"south": {"uv": [0, 0, 1, 1], "texture": "#6"},
				"west": {"uv": [0, 0, 1, 1], "texture": "#6"},
				"up": {"uv": [0, 0, 1, 1], "texture": "#6"},
				"down": {"uv": [0, 0, 1, 1], "texture": "#6"}
			}
		},
		{
			"name": "hexadecagon",
			"from": [12.706, -0.76, -6.42487],
			"to": [13.69, 2.02, -3.81513],
			"rotation": {"angle": 22.5, "axis": "y", "origin": [7.13, 0.88, -5.12]},
			"faces": {
				"north": {"uv": [0, 0, 1, 1], "texture": "#6"},
				"east": {"uv": [0, 0, 1, 1], "texture": "#6"},
				"south": {"uv": [0, 0, 1, 1], "texture": "#6"},
				"west": {"uv": [0, 0, 1, 1], "texture": "#6"},
				"up": {"uv": [0, 0, 1, 1], "texture": "#6"},
				"down": {"uv": [0, 0, 1, 1], "texture": "#6"}
			}
		}
	],
	"display": {
		"thirdperson_righthand": {
			"translation": [-0.5, 5, 1.5]
		},
		"head": {
			"translation": [0, -29, 0],
			"scale": [1.6, 1.6, 1.6]
		}
	},
	"groups": [
		{
			"name": "hexadecagon",
			"origin": [8, 8, 8],
			"children": [0, 1, 2, 3, 4, 5, 6, 7, 8, 9, 10, 11, 12, 13, 14, 15, 16, 17, 18, 19, 20, 21, 22, 23, 24, 25, 26, 27, 28, 29, 30, 31, 32, 33, 34, 35, 36, 37, 38, 39, 40, 41, 42, 43, 44, 45, 46, 47, 48, 49, 50, 51, 52, 53, 54, 55, 56, 57, 58, 59, 60, 61, 62, 63, 64, 65, 66, 67, 68, 69, 70, 71, 72, 73, 74, 75, 76, 77, 78, 79, 80, 81, 82, 83, 84]
		},
		{
			"name": "nex1",
			"origin": [8, 8, 8],
			"children": [
				{
					"name": "steve",
					"origin": [8, 8, 8],
					"children": [85, 86, 87, 88, 89, 90, 91]
				}
			]
		},
		{
			"name": "hexadecagon",
			"origin": [8, 8, 8],
			"children": [92, 93, 94, 95, 96, 97, 98, 99, 100, 101, 102, 103, 104, 105, 106, 107, 108, 109, 110, 111, 112, 113]
		}
	]
}