{
	"credit": "Made with Blockbench",
	"parent": "item/handheld",
	"textures": {
		"layer0": "itemnew/item1"
	},
	"display": {
		"thirdperson_righthand": {
			"translation": [0, 1.25, 1.75],
			"scale": [0.31757, 0.31757, 0.31757]
		},
		"thirdperson_lefthand": {
			"translation": [0, 1.25, 1.75],
			"scale": [0.31757, 0.31757, 0.31757]
		},
		"firstperson_righthand": {
			"translation": [-0.5, 2, 1.75],
			"scale": [0.31757, 0.31757, 0.31757]
		},
		"firstperson_lefthand": {
			"translation": [-0.5, 2, 1.75],
			"scale": [0.31757, 0.31757, 0.31757]
		},
		"ground": {
			"translation": [0, 0.75, 0],
			"scale": [0.32031, 0.32031, 0.32031]
		},
		"gui": {
			"translation": [0.5, -0.25, 0],
			"scale": [0.79297, 0.79297, 0.79297]
		},
		"fixed": {
			"rotation": [0, -180, 0],
			"translation": [0, 0, -0.5],
			"scale": [0.55469, 0.55469, 0.55469]
		}
	}
}