{
	"credit": "Made with Blockbench",
	"parent": "item/handheld",
	"textures": {
		"layer0": "itemnew/silvercoin"
	},
	"display": {
		"thirdperson_righthand": {
			"rotation": [16.25, 0.75, 4.75],
			"translation": [0, 1.25, 1.75],
			"scale": [0.22773, 0.22773, 0.22773]
		},
		"thirdperson_lefthand": {
			"rotation": [16.25, 0.75, -4.75],
			"translation": [0, 1.25, 1.75],
			"scale": [0.22773, 0.22773, 0.22773]
		},
		"firstperson_righthand": {
			"rotation": [16.25, -0.75, 4.75],
			"translation": [-0.5, 2, 1.75],
			"scale": [0.34883, 0.34883, 0.34883]
		},
		"firstperson_lefthand": {
			"rotation": [16.25, -0.75, -4.75],
			"translation": [-0.5, 2, 1.75],
			"scale": [0.34883, 0.34883, 0.34883]
		},
		"ground": {
			"translation": [0, 0.75, 0],
			"scale": [0.32031, 0.32031, 0.32031]
		},
		"gui": {
			"translation": [0.5, -0.25, 0],
			"scale": [0.44922, 0.44922, 0.44922]
		},
		"fixed": {
			"rotation": [0, -180, 0],
			"translation": [-1, -0.25, -0.5],
			"scale": [0.44922, 0.44922, 0.44922]
		}
	}
}